<?xml version="1.0" encoding="utf-8"?>
<!-- Generator: Adobe Illustrator 20.1.0, SVG Export Plug-In . SVG Version: 6.00 Build 0)  -->
<svg version="1.1" id="Layer_1" xmlns="http://www.w3.org/2000/svg" xmlns:xlink="http://www.w3.org/1999/xlink" x="0px" y="0px"
	 viewBox="0 0 129.4 127.3" style="enable-background:new 0 0 129.4 127.3;" xml:space="preserve">
<style type="text/css">
	.st0{fill:#747474;}
	.st1{fill:#868686;}
	.st2{fill:#999999;}
	.st3{fill:#CACACA;}
	.st4{fill:#5A5A5A;}
	.st5{fill:#AEAEAE;}
</style>
<g transform="matrix( 1, 0, 0, 1, 0,0) ">
	<g>
		<g id="Layer0_0_FILL">
			<path class="st0" d="M14.4,43.4L14.4,49l-4.5,0.4l-2.2,0.2l-1.4,0.3l-0.2,2c0.7,0.9,1.8,1.7,3.3,2.5c1.4,0.7,2.6,1,3.6,1
				c0.3,0,0.8-0.2,1.4-0.6c0.6-0.4,1.1-0.5,1.5-0.4l1.5,0.8c0.6,0.5,1.1,0.7,1.3,0.7c1.4,0.1,2.1-0.2,2-0.7c-0.2-1,0-1.7,0.6-2.2
				c0.7-0.6,1.9-0.8,3.7-0.6l4,0.2l2.2-1.2l5.8-5.4c0.7-1.1,1.1-3,1.1-5.7h-2.4c0.5,1.1,0.7,2,0.4,2.9c-1.4,0.1-3.2,0.5-5.5,1.2
				l-5.5,1.6C20.9,46.8,17.3,46,14.4,43.4 M36.7,87.8c-0.3,1.1-0.3,1.9-0.1,2.3l4,4.3c0.8,0.9,1.6,1.4,2.3,1.5l0.6-2.6
				c0,1.1,1.8,0.2,5.4-2.6c0.9-1.2,1.5-2.7,2-4.4c0.6-2.1,0.5-3.6-0.2-4.5c-1.8-2.1-4.5-2.2-8.1-0.2C39.3,83.3,37.3,85.4,36.7,87.8
				 M47.1,81.9l1.1,0.1c0.2,2.2,0.1,3.8-0.3,4.8c-0.6,1.4-2,1.9-4,1.5c-2.4-0.5-3.2-1.6-2.5-3.4c0.8-1.7,2.3-2.7,4.4-2.9L47.1,81.9
				 M51.4,48.8c-1.1-0.6-2-0.8-2.5-0.6c-1,0.3-1.6,1.3-1.9,3l0,8.1c0,1.7-0.4,3-1.1,3.9c-0.5,0.7-1.7,1.4-3.5,2.2
				c0.9,0.2,2,0,3.4-0.7c1.3-0.6,2.2-1.3,2.7-2l2.4-6c0.8-2.3,2.2-4.1,4.2-5.2l-0.5,2c0.6,1.5,0.3,3.5-1.1,6
				c-1.7,2.7-2.9,4.6-3.4,5.6c-0.9,1.9-1.6,3-2.1,3.4c-0.9,0.9-2.3,1-4,0.3c-1.6-0.6-2.5-1.5-2.8-2.8l-1,0.5
				c0.8,2.7,1.1,4.8,0.8,6.2c-0.3,1.8-1.6,3.4-3.8,4.9c3.8,0.3,6.6,0.1,8.5-0.7c2.1-0.8,4.1-2.7,6-5.6c1.5-2.3,3.2-4.2,5-5.6
				l2.8-2.5c1.2-1.2,2.2-2,2.9-2.4c1.9-1.3,5.2-2.3,10-2.9c3.5-1,4.3-3.8,2.5-8.3l-1.2-2c-0.3-0.6-0.6-1.3-0.7-2.3
				c-0.1-0.5-0.1-1.3-0.1-2.4l-0.1-2.3c-1-0.5-1.8-0.7-2.3-0.5c0.2,1.6,0.1,3.5-0.4,5.7c-0.6,2.5-1.4,4-2.4,4.5l-3.6,0.2
				c-1.5-0.2-2.8-0.7-3.8-1.3c-1.1,0.8-2,1.3-2.8,1.5l-3.9-0.3L51.4,48.8 M70.5,95.1l-5.3,0.1c-0.4,1.9,0.5,2.9,2.8,2.9
				C70.3,98.1,71.1,97.1,70.5,95.1 M70.2,69.2c-1.7,0.2-2.4,1.2-2.1,3c0.1,0.5,0.5,1.3,1.4,2.3c0.9,1.1,1.4,1.9,1.6,2.5
				c0.2,0.8,0.2,2.3-0.1,4.3l1,1.4c1.8,0.4,2.7-0.3,2.8-1.9l-0.4-4.5l0.5-5.1c0.2-2.1,0-3.7-0.5-4.8C73.8,68.1,72.4,68.9,70.2,69.2
				 M14.4,67.9c-0.3-0.7-1-1-1.9-0.9L11.6,66c-1.6,1.3-1.9,2.5-1.1,3.4c0.8,0.9,2.1,1.2,3.9,0.9C14.7,69.3,14.7,68.5,14.4,67.9
				 M17.9,60.2c-1.6-0.1-2.8,0.2-3.4,0.9c-0.6,0.7-0.8,1.8-0.4,3.3l3.9-0.2c1.2-0.5,1.7-1.5,1.4-3.1L17.9,60.2 M26.6,67.1
				c-1.1,1.8-3,2.9-5.6,3.2c-3.1,0.3-5.1,0.9-6,1.8c-1.5,1.5-2.5,3.3-2.9,5.5c-0.4,2.2-0.1,4.3,0.9,6.2c1.5-3.2,3.6-5.4,6.3-6.6
				c2.3-1,5.3-1.5,9.1-1.2l0.4-4.1c0-1.3-0.3-2.9-0.8-4.7H26.6 M30,58.3c-1.4-0.9-2.7-1.3-3.9-1c-1.4,0.3-2.1,1.4-2,3.4
				c0.1,1.5,1.1,2.3,3.1,2.5h1.3c2.3-0.2,3.5-0.9,3.5-2C32.1,60.1,31.4,59.2,30,58.3 M77.8,32.1c-1,1.6-1.6,3.1-1.7,4.5
				C76,38.5,77,39,79.2,38.3c0.4-1.3,0.6-2.7,0.6-4.2L77.8,32.1 M68.9,23.1L67.6,22l-2.4,1c-1.8,1.6-2.8,2.8-2.8,3.5
				c-0.1,1,0.7,2.2,2.4,3.7c1.4,1.2,2.8,2.1,4.2,2.7c2.1,0.9,3.8,1,5.1,0.2c2.1-1.3,2.5-3,1-4.9c-0.7-0.9-2.5-2.4-5.3-4.5l0.8,1.1
				c1.2,0.7,1.8,1.6,1.7,2.8c-0.1,1.2-0.9,1.9-2.2,2c-1.8,0.2-2.8-0.7-2.8-2.5C67.2,25.5,67.7,24.1,68.9,23.1 M83.2,57
				c0.2,1.1,0.6,2.5,1.2,4.2c0.4,1.5,0.6,4.1,0.6,7.6l1.9-3.4c0.6-3.6,0.9-6.4,1-8.5c0.2-4.1-0.8-5.4-3.1-4.1
				C83.5,53.7,82.9,55.1,83.2,57z"/>
			<path class="st1" d="M0.9,31.4l0.4-2.4c-0.6,2.4-0.8,5.1-0.6,8.3c0.1,1.7,0.2,3.3,0.4,4.8C1,41.4,1,40.7,0.9,40
				C0.6,36.9,0.6,34.1,0.9,31.4 M94.3,52.1L94.1,51c-0.3-1.2-0.5-1.9-0.8-1.9c0.2,0,0.5,0.7,0.8,2L94.3,52.1 M105.2,12.3l0.6,0.1
				l-0.1-0.1l-0.5-0.1l-3.2-0.4c-1.2-0.1-2-0.3-2.5-0.7l-6.1,0.1l-0.5-0.1l-9.6-0.1l7,1.3c3.4,0.6,5.4,0.5,5.9-0.4l-2.4-0.7
				L105.2,12.3 M108,11.1h0.2c-4.5-1.3-8-2.1-10.6-2.4l-12-0.4l0.8,0.1l11.2,0.5L108,11.1 M119.8,10.8l-0.2,0.2l-1.1,0.4l-10.3-0.2
				l3.3,1.1l3.4,0.6c-0.8,1.1-1.8,2-2.8,2.5c-0.9-1.1-3-2.1-6.3-2.8c0.2,0.8,0.2,1.5-0.1,2.2l-19.3-0.3c-2.4-0.2-5-0.1-8,0.1l-8,0.8
				c-3.5,0.4-9.1-0.1-16.6-1.3c-7.1-1.2-12.6-1.4-16.6-0.8l-2,0.8l-2.8,0.4l-4.9-1l-4.7,0.3l-4.6,0.8L15,14.1l-6.9,5
				c-1.4,1.1-2.2,2.5-2.2,4.2c-0.1,2.7-0.3,4.5-0.7,5.5l-2.7,5.4c-0.7,1.8-0.8,4-0.1,6.5c0.6,2.1,1.9,3.5,4.1,4.2l6.8,0.9
				c0.6,1.9-0.5,3.1-3.4,3.6l4.5-0.4l0.1-5.6c2.9,2.6,6.5,3.5,10.8,2.5l5.5-1.6c2.2-0.7,4-1.1,5.5-1.2c0.3-0.9,0.1-1.8-0.4-2.9h2.4
				c0,2.7-0.4,4.6-1.1,5.7l-5.8,5.4L29,52.5l-4-0.2c-1.8-0.2-3,0-3.7,0.6c-0.7,0.5-0.9,1.3-0.6,2.2c0.1,0.5-0.5,0.8-2,0.7
				c-0.2,0-0.7-0.2-1.3-0.7l-1.5-0.8c-0.4-0.1-0.9,0.1-1.5,0.4c-0.6,0.4-1.1,0.6-1.4,0.6c-0.9,0-2.1-0.4-3.6-1
				c-1.5-0.7-2.6-1.5-3.3-2.5L6,57.7C5.9,60,5.7,62,5.3,63.6L4,67.1c-0.6,1.4-0.9,2.6-1.1,3.7c-0.4,2.1-0.9,3.5-1.7,4.1
				C1.1,77.3,1.4,80,2,83l-0.3,2.8c-0.1,1.5,0,2.9,0.4,4.2l1.2,3.4l-0.1,1.9l-1.4,4.6c-0.6,2.1-0.6,3.8,0,5
				c-0.9,2.2-1.5,3.8-1.7,5.1c-0.1,0.7-0.1,1.5,0,2.2l0.3,0.3l0.6-1.1l3.4-3.8c0.2-0.4,0.2-1.2,0.1-2.2l-0.2-2.2
				c0.1-1.8,0.3-3.2,0.5-4.2c0.4-1.6,1-2.7,1.8-3.5L8.1,98l1.9-2.1l0.4,6.8c0.3,3.3,0.9,5.3,1.7,6c1.1,0.9,2.5,1.3,4.3,1.1
				c1.7-0.2,3-0.8,3.8-1.8c1.2-1.4,2-4.3,2.5-8.7c0.2-1.5,0-2.9-0.5-4l-1.4-3.1l1.9-0.2l-0.9-1.3c3-0.2,5-0.6,6.2-1.2
				c1.8-1,2.5-2.9,2-5.6l0.5,0.4v-0.4l0.5,0.7l0.5,0.3c0.6,1,1.1,2.1,1.3,3.5c0.3,1.6,0.2,2.9-0.3,4l0,2.9l-0.9,7.9
				c-0.4,3.8-0.1,6.4,0.8,7.8c1,1.6,4,2,8.9,1.2l10-1.8c0.6-1.9,0.8-3.5,0.5-4.7c-1.4,0.2-3-0.2-4.7-1.2c-1.5-0.8-2.8-1.8-3.9-3.2
				c0.5,0,1,0.1,1.6,0.4l2.3-0.1l-0.5-1.2l5.5,2l5.5,1.1c0.8-0.2,1.8-0.6,2.9-1.2c2.3-0.9,3.8-1.5,4.5-1.7l5.2,0.2
				c1.1,0.5,2,1.6,2.7,3.2l1.3,4.7c1,3.9,2.9,5.8,5.5,5.6c0.6,0,1.7-0.8,3.5-2.4l3.4-3.3c0.4-0.6,0.7-1.7,0.8-3.2l0.3-3.5
				c0.3-1.8,0.7-3.1,1-4c0.5-1.5,1.2-2.6,2-3.5L88.9,95c-0.6,0.3-1,0.8-1.4,1.4c-0.3,0.5-0.7,1.6-1.2,3.2c-0.4,1.7-0.9,2.8-1.2,3.5
				c-1.4,2.5-2.5,4.9-3.3,7.2l-3.2-1.3c-1.2-0.6-2.3-0.9-3.1-1c-0.4,0-0.6-1.3-0.4-3.7c0.2-2.4,0.5-3.9,0.9-4.3c1-1.2,2-1.6,3.2-1.4
				c1.2,0.3,1.8,1.3,1.8,2.9c1.3-0.7,2.2-2.2,2.7-4.4c0.6-2.6,1.2-4.3,1.8-5c0.4-0.5,1.9-1.7,4.4-3.3c1.6-1.1,2.6-2.8,2.9-5
				c0.3-1.9,0.3-6.1,0.1-12.6c-0.2-5.2,0.3-9.3,1.4-12.3l0.1,1.2l0.2-6.4v0c-0.3-2.2-0.8-3.7-1.7-4.5h0.5c-0.4-0.7-0.9-1.4-1.8-2
				c-0.8-0.7-1.4-1.2-1.7-1.7c-0.2-0.4-0.3-1-0.3-1.8l-0.2-1.9l-3.8-7.1l-2.5-3.6l-3.3-2.8l0.4,0.7l-1.8-1.7L75.3,25L74,24.8
				c0.3,0-2-1.6-6.8-4.7c-1-0.7-1.8-1.5-2.3-2.2c-0.8-1.2-0.8-2,0.2-2.4c0.9-0.4,2.7,0.6,5.4,3l2.1-0.9l-0.2-1l3.2,0.2l13.3-0.2
				c2-0.4,4.5-0.4,7.5,0.1l11.4-0.2l4.7-0.7l-0.1-0.1l1.8-1.5c0.3-0.6,0.6-1,1-1.2l0.2-0.1l1.1-0.9c0.5-0.3,1.1-0.5,1.7-0.8l1.3-0.5
				V10.8l0.2-0.4L119.8,10.8 M84.5,61.2c-0.7-1.8-1.1-3.2-1.2-4.2c-0.3-1.9,0.3-3.3,1.7-4.1c2.3-1.3,3.3,0,3.1,4.1
				c-0.1,2.1-0.4,5-1,8.5l-1.9,3.4C85.1,65.3,84.9,62.8,84.5,61.2 M81.8,73.7c1.4-1.5,2.7-2,3.8-1.3c0.9,0.5,1.4,2.4,1.4,5.5
				c0.4,1.2,0.3,2.4-0.2,3.5c-0.4,2.3-1,4-1.9,5.2c-1,1.4-2.3,1.9-3.9,1.4l-0.7-4.9c-0.5-3.4-0.8-5.3-0.7-5.7
				C79.8,76.2,80.6,75,81.8,73.7 M67.6,22l1.2,1.1l0.2-0.1l0.6,0.8c2.8,2.1,4.6,3.6,5.3,4.5c1.5,1.9,1.1,3.6-1,4.9
				c-1.3,0.8-3,0.7-5.1-0.2c-1.4-0.6-2.8-1.5-4.2-2.7c-1.7-1.5-2.5-2.7-2.4-3.7c0.1-0.8,1-1.9,2.8-3.5L67.6,22 M48.4,20.1
				c1.3,0.5,3,0.9,5.1,1.2c1.4,0.6,2.1,1.9,2.1,4.1c0,1.7-0.5,3.2-1.6,4.8c-1.2,1.7-2.3,1.6-3.2-0.2c-0.2-0.3-0.1-1.1,0-2.4
				c0.2-1.4,0.3-2.3,0.1-2.8L48.4,20.1 M55.5,44.7l0.5-1c1.4,0.3,2,1,1.9,2c-0.1,1.1-0.8,1.5-2.3,1.2C55.5,45.9,55.5,45.1,55.5,44.7
				 M76.1,36.7c0.1-1.4,0.7-2.9,1.7-4.5l2,1.9c0,1.6-0.2,3-0.6,4.2C77,39,76,38.5,76.1,36.7 M31.9,29.8c0.9,1,1.2,2.5,0.8,4.4
				c-0.2,1.7-0.8,3.1-1.6,4.3c-0.5,2.6-2.1,3.5-4.6,2.8l-0.1,0c-2.6,0.5-4.4-0.1-5.2-1.8c-0.9-1.8-0.4-3.5,1.5-5
				c1.7-1.3,3.4-2,5.2-1.8l-0.5-0.5c-1.5-0.6-3-1.1-4.6-1.4c1.1-1,2.6-1.6,4.5-2C29.5,28.4,31,28.7,31.9,29.8 M39.7,57.5
				c-0.5-2.1-0.5-3.8,0-5l0,0c1.4-0.2,2.5,0.4,3.2,2c0.8,1.5,0.7,2.8-0.2,3.9C41.2,60.1,40.2,59.8,39.7,57.5 M26.1,57.3
				c1.2-0.3,2.5,0.1,3.9,1c1.4,0.9,2.1,1.8,2,2.8c0,1.1-1.2,1.8-3.5,2h-1.3c-1.9-0.1-3-1-3.1-2.5C24,58.7,24.7,57.6,26.1,57.3
				 M20.9,70.3c2.7-0.3,4.6-1.4,5.6-3.2H28c0.5,1.8,0.8,3.4,0.8,4.7l-0.4,4.1c-3.8-0.2-6.8,0.2-9.1,1.2c-2.7,1.2-4.8,3.4-6.3,6.6
				c-1-1.9-1.3-3.9-0.9-6.2c0.4-2.2,1.3-4.1,2.9-5.5C15.8,71.3,17.8,70.7,20.9,70.3 M14.5,61.1c0.6-0.7,1.7-1,3.4-0.9l1.5,1
				c0.3,1.6-0.2,2.7-1.4,3.1l-3.9,0.2C13.7,62.9,13.9,61.8,14.5,61.1 M12.5,66.9c1-0.1,1.6,0.2,1.9,0.9c0.3,0.6,0.2,1.4-0.1,2.4
				c-1.8,0.3-3.1,0-3.9-0.9c-0.9-0.9-0.6-2.1,1.1-3.4L12.5,66.9 M14.9,95.1h3.4c0.7,2.4,0.7,4.4,0,6l-2.6,5.1
				c-3.2-0.4-4.6-1.9-4.2-4.4C11.8,100.1,12.9,97.8,14.9,95.1 M18.9,88.1l1-2.3c0.9-1.3,2.3-1.5,4.2-0.5c2,1.1,2.5,1.9,1.6,2.5
				c-0.8,0.5-2.3,0.6-4.4,0.5L18.9,88.1 M68.1,72.2c-0.3-1.8,0.4-2.8,2.1-3c2.2-0.3,3.6-1.2,4.2-2.7c0.5,1.2,0.7,2.8,0.5,4.8
				l-0.5,5.1l0.4,4.5c-0.1,1.6-1.1,2.3-2.8,1.9l-1-1.4c0.2-2.1,0.2-3.5,0.1-4.3c-0.1-0.6-0.7-1.4-1.6-2.5
				C68.7,73.5,68.2,72.8,68.1,72.2 M68.9,68.8c-1.2,0.6-2.1,2.1-2.8,4.4c-0.7,2.4-1.5,4-2.4,4.7c-0.5,0.3-1.3,0.6-2.5,0.9
				c-1.1,0.2-2,0.6-2.7,1.2c-0.4,0.4-0.9,1.3-1.5,2.7c-0.5,1.3-0.8,2.3-0.8,2.9c-1.6-1.1-2-3-1.2-5.6c0.6-2,1.6-3.8,3-5.4
				c1.4-1.7,2.9-3.1,4.4-4.3c0.9-0.7,2.1-1,3.5-1L68.9,68.8 M65.2,95.2l5.3-0.1c0.6,2-0.3,3-2.5,3C65.8,98.1,64.8,97.1,65.2,95.2
				 M69.6,83.9l3.8,1.9c1,4.1-1,6.4-5.8,6.8c-4.6,0.4-8.1-0.6-10.4-2.9c0.7-1.4,3.2-2.3,7.6-2.8C68.5,86.6,70.1,85.6,69.6,83.9
				 M60.4,49c-0.7-0.4-1.2-0.9-1.3-1.5l-0.4,0l0.3-0.8l0-0.1l0.7-2.8c0.2-1.2,0.4-2.1,0.7-2.8l0.8-1.7l1.4-1.1
				c0.3-0.3,1.1-0.6,2.2-0.9c0.8-0.3,1.5-0.8,1.9-1.5l1.9,0.5l-1,4c-0.4,1.5-1.1,2.6-1.9,3.3c-1,0.9-2.5,1.8-4.5,2.8
				c2.1-0.1,3.6-0.3,4.6-0.8c1.5-0.7,2.1-1.9,1.8-3.6l2.9-2.4c0.5-0.1,1.3,0.1,2.3,0.5l0.1,2.3c0,1,0,1.8,0.1,2.4
				c0.1,1,0.4,1.8,0.7,2.3l1.2,2c1.8,4.5,1,7.3-2.5,8.3c-4.8,0.6-8.2,1.5-10,2.9c-0.7,0.5-1.6,1.3-2.9,2.4l-2.8,2.5
				c-1.8,1.4-3.4,3.3-5,5.6c-2,2.9-4,4.8-6,5.6c-1.8,0.8-4.7,1-8.5,0.7c2.2-1.5,3.4-3.1,3.8-4.9c0.3-1.4,0-3.5-0.8-6.2l1-0.5
				L41,64.2c0.2,0.7,0.7,1.1,1.4,1.2c1.9-0.8,3.1-1.6,3.5-2.2c0.7-0.9,1.1-2.2,1.1-3.9l0-8.1c0.3-1.7,0.9-2.7,1.9-3
				c0.5-0.2,1.3,0,2.5,0.6l2.3,1.3l3.9,0.3C58.3,50.3,59.2,49.8,60.4,49 M34.5,22.4c0.5-0.7,0.6-1.7,0.4-2.8c2.1-0.3,3,0.5,2.8,2.1
				c-0.2,1.6-1,2.8-2.4,3.6c0.7,1.4,1.2,3,1.5,4.6c0.3,1.7,0.3,3.4,0,5c-0.1,1.1-0.6,2.4-1.4,4.1c-0.9,1.8-1.4,3.2-1.6,4.1l-6.9,0.3
				c-3-0.4-4.9-1.4-5.6-3c1.1,0.9,2.7,1.4,4.6,1.4l5-0.7c2.3-4.1,3.4-7.5,3.1-10.4l-2.6-5.5c0.1-0.7,0.3-1.3,0.6-1.9
				C33.1,23.5,33.9,23.2,34.5,22.4 M36.6,90.1c-0.2-0.4-0.2-1.2,0.1-2.3c0.6-2.4,2.6-4.5,5.9-6.3c3.6-1.9,6.3-1.8,8.1,0.2
				c0.8,0.9,0.9,2.4,0.2,4.5c-0.5,1.8-1.1,3.2-2,4.4c-3.6,2.8-5.4,3.6-5.4,2.6l-0.6,2.6c-0.7-0.1-1.5-0.6-2.3-1.5L36.6,90.1
				 M120,10.3l0.2,0.1l0.2,0.1L120,10.3 M0,112.1c0.1,1,0.4,1.9,0.9,2.8l-0.8-2L0,112.1 M6.2,49.9l1.4-0.3l2.2-0.2l-3.6,0.2
				L6.2,49.9 M7.9,13.5l0.1-0.2c0.4-0.8,0.8-1.4,1.4-1.7C8.9,11.9,8.4,12.6,7.9,13.5 M95.5,67.4c0.2,0.3,0.4,0.6,0.7,0.9
				c0.4-0.3,0.6-0.6,0.8-1c-0.1,0.4-0.4,0.7-0.8,0.9C96,68,95.7,67.8,95.5,67.4 M94.2,65.2v2.2c0.1,0.9,0.3,2,0.6,3.1l0.8,2.8
				c0.7,3.9,0.5,8.5-0.4,14l-0.6,3.1c-0.3,1.1-0.8,2-1.6,2.7l2.1-0.5l0.9-0.4c0.5-0.3,0.9-0.8,1.1-1.4c0.4-1.2,0.6-3.2,0.4-6.1
				l-0.5-6c0-2.2-0.2-4.1-0.7-5.8l-1.8-5.1C94.5,67,94.3,66.2,94.2,65.2 M102,61L102,61c-2.4,0.9-4,2.1-4.8,3.5L97.1,65l0.2-0.5
				C98,63.2,99.6,62,102,61 M120,12.2L120,12.2L120,12.2L120,12.2 M120.3,10.8l0.3-0.1h-0.1L120.3,10.8z"/>
			<path class="st2" d="M21.7,11.8l-1.4-1.1l-0.6,0.1c-1.9,0.2-4.5,1-7.8,2.4c-1.9,0.8-3.1,1.5-3.8,2.1c-1.6,1.5-3,3.9-4.2,7.4
				l-3.1,8.7c-0.3,2.7-0.3,5.5,0,8.6C1,40.7,1,41.4,1.1,42.1l1.2,5.3l2.2,7.2l0.1,3.3l-0.1,1c-0.2,1.6-0.6,3.8-1.4,6.4
				c-0.9,3-1.5,5.2-1.7,6.5l-0.3,3c0.7-0.6,1.3-2,1.7-4.1c0.2-1,0.6-2.2,1.1-3.7l1.3-3.5C5.7,62,5.9,60,6,57.7l0.1-5.8l0.2-2l0-0.2
				l3.6-0.2c2.9-0.5,4-1.7,3.4-3.6l-6.8-0.9c-2.2-0.7-3.5-2.1-4.1-4.2c-0.7-2.5-0.6-4.6,0.1-6.5l2.7-5.4c0.4-1,0.6-2.8,0.7-5.5
				c0.1-1.8,0.8-3.2,2.2-4.2l6.9-5C17.4,12.6,19.7,11.8,21.7,11.8 M94.2,60.1l-0.1-1.2c-1.1,3-1.6,7.1-1.4,12.3
				c0.2,6.5,0.2,10.7-0.1,12.6c-0.3,2.2-1.3,3.9-2.9,5c-2.5,1.7-4,2.8-4.4,3.3c-0.6,0.7-1.2,2.4-1.8,5c-0.5,2.2-1.4,3.7-2.7,4.4
				c0-1.6-0.5-2.6-1.8-2.9C78,98.4,77,98.8,76,100c-0.4,0.4-0.7,1.9-0.9,4.3c-0.2,2.4-0.1,3.7,0.4,3.7c0.9,0.1,1.9,0.4,3.1,1
				l3.2,1.3c0.8-2.2,1.9-4.6,3.3-7.2c0.4-0.7,0.8-1.8,1.2-3.5c0.4-1.6,0.8-2.7,1.2-3.2c0.4-0.7,0.9-1.2,1.4-1.4l1.7-0.6l2.1-0.9
				l0.4-0.4c0.7-0.7,1.3-1.6,1.6-2.7l0.6-3.1c0.9-5.5,1.1-10.1,0.4-14l-0.8-2.8c-0.3-1.1-0.5-2.1-0.6-3.1v-2.2V60.1 M34.9,19.6
				c0.2,1.1,0.1,2.1-0.4,2.8c-0.5,0.8-1.4,1.1-2.5,1.1c-0.3,0.6-0.5,1.2-0.6,1.9l2.6,5.5c0.2,2.9-0.8,6.3-3.1,10.4l-5,0.7
				c-2,0-3.5-0.4-4.6-1.4c0.7,1.6,2.6,2.5,5.6,3l6.9-0.3c0.2-0.9,0.7-2.3,1.6-4.1c0.8-1.7,1.3-3,1.4-4.1c0.2-1.6,0.2-3.3,0-5
				c-0.3-1.7-0.8-3.2-1.5-4.6c1.4-0.8,2.2-2,2.4-3.6C37.8,20.1,36.9,19.3,34.9,19.6 M59.8,44L59,46.7l2.2,0c2-1,3.5-1.9,4.5-2.8
				c0.8-0.7,1.5-1.8,1.9-3.3l1-4L66.7,36c-0.5,0.8-1.1,1.3-1.9,1.5c-1.1,0.3-1.9,0.6-2.2,0.9l-1.4,1.1l-0.8,1.7
				C60.1,41.8,59.9,42.7,59.8,44 M59,47.5l0-0.7l-0.3,0.8L59,47.5 M66.1,73.2c0.7-2.3,1.6-3.8,2.8-4.4l-3.1,0.4
				c-1.4,0-2.6,0.3-3.5,1c-1.5,1.2-3,2.6-4.4,4.3c-1.4,1.7-2.4,3.5-3,5.4c-0.8,2.6-0.4,4.5,1.2,5.6c0.1-0.7,0.3-1.7,0.8-2.9
				c0.6-1.4,1.1-2.3,1.5-2.7c0.6-0.5,1.5-0.9,2.7-1.2c1.2-0.3,2-0.6,2.5-0.9C64.6,77.2,65.4,75.7,66.1,73.2 M19.9,85.8l-1,2.3
				l2.4,0.2c2.1,0.1,3.6,0,4.4-0.5c0.9-0.6,0.4-1.4-1.6-2.5C22.2,84.3,20.8,84.5,19.9,85.8 M18.4,95.1h-3.4c-2,2.7-3.2,4.9-3.4,6.7
				c-0.4,2.5,1.1,4,4.2,4.4l2.6-5.1C19.1,99.5,19.1,97.5,18.4,95.1 M53.5,21.2c-2.1-0.3-3.8-0.7-5.1-1.2l2.5,4.6
				c0.2,0.5,0.1,1.4-0.1,2.8c-0.2,1.3-0.2,2.1,0,2.4c0.9,1.8,2,1.9,3.2,0.2c1.1-1.5,1.6-3.1,1.6-4.8C55.6,23.2,54.9,21.8,53.5,21.2
				 M120.2,10.4l-0.2-0.1l-0.2,0.5L120.2,10.4 M65,17.9c0.5,0.7,1.3,1.5,2.3,2.2c4.8,3.1,7,4.7,6.8,4.7l1.2,0.1
				c0.6,0.2,1.1,0.5,1.7,1l1.5,1.4l1.8,1.7l-0.4-0.7l-3.8-4.5l-5.4-5.3c-2.7-2.4-4.5-3.4-5.4-3C64.2,15.9,64.2,16.7,65,17.9z"/>
			<path class="st3" d="M45.7,5l-4.2-0.3c-2.3-0.1-4.8,0.2-7.4,0.8l-7.1,2l-6.4,0.8c-2.5,0.3-4.5,1-6,2.1c-2.1,0-3.9,0.4-5.2,1.2
				c-0.6,0.3-1,0.9-1.4,1.7l-0.1,0.2l-0.7,1.3L7,15.3l-0.1,0.1l-0.2,0.2L3,17.8c-1,1.3-1.5,2.8-1.7,4.5c-0.1,1.5,0.1,3,0.7,4.5
				l-0.1,0.4l-0.6,2l-0.4,2.4L4,22.8c1.2-3.5,2.6-6,4.2-7.4c0.6-0.6,1.9-1.3,3.8-2.1c3.3-1.4,5.9-2.2,7.8-2.4l0.6-0.1
				c1.8-0.2,4.4,0.1,7.8,0.9l8,1.2c-2.5-1.8-5.5-2.8-9-3c0.1-1.2,1.4-1.9,3.8-2.1c1.3-0.1,3.1,0,5.3,0.1l0.1-1.7L44,5.5L45.7,5
				 M70.1,6.5l-2.9,0.9C66,7.6,65,7.9,64.3,8.3c1.8,0.1,3.7,0.1,5.8,0L70.1,6.5z"/>
			<path class="st4" d="M72,2.4L71.1,2H71l-0.6,0l-1.6,0.2l-0.3,0.1l-7.8,4c-2.1,0.9-4.1,1.5-5.9,1.7c3,0,6.5-0.5,10.5-1.3
				c4.5-1,7.8-1.5,10.1-1.7h0l-1-1L72,2.4 M90.6,94.4c-0.9,0.8-1.5,2-2,3.5c-0.3,0.9-0.7,2.3-1,4l-0.3,3.5c-0.1,1.5-0.4,2.5-0.8,3.2
				l-3.4,3.3c-1.8,1.5-2.9,2.3-3.5,2.4c-2.7,0.2-4.5-1.7-5.5-5.6l-1.3-4.7c-0.6-1.6-1.5-2.7-2.7-3.2l-5.2-0.2
				c-0.7,0.2-2.2,0.8-4.5,1.7c-1.1,0.6-2.1,1-2.9,1.2l2.5,0.1l0.5,0.5c-1.5,1.6-3.8,2-7,1.4c-3.1-0.6-5.3-1.9-6.5-3.9l-2.3,0.1
				c-0.5-0.3-1.1-0.4-1.6-0.4c1.1,1.3,2.4,2.3,3.9,3.2c1.7,1,3.3,1.4,4.7,1.2c0.3,1.2,0.1,2.8-0.5,4.7l-10,1.8
				c-4.9,0.8-7.9,0.4-8.9-1.2c-0.9-1.4-1.2-4-0.8-7.8l0.9-7.9l0-2.9c-0.3,0.7-0.8,1.3-1.5,1.7l-4.2,0.2c-1.7-0.4-3-1.2-4-2.2
				l-1.9,0.2l1.4,3.1c0.5,1.1,0.7,2.5,0.5,4c-0.5,4.4-1.3,7.3-2.5,8.7c-0.8,1-2.1,1.5-3.8,1.8c-1.8,0.2-3.2-0.1-4.3-1.1
				c-0.8-0.7-1.4-2.7-1.7-6L10,95.9L8.1,98l-1.5-2.5c-0.8,0.7-1.4,1.9-1.8,3.5c-0.2,1-0.4,2.4-0.5,4.2l0.2,2.2
				c0.1,1,0.1,1.7-0.1,2.2l-3.4,3.8l-0.6,1.1c3.1,3.5,5.5,5,7.3,4.8c-0.6-1.3-0.9-2.5-0.8-3.6c0.1-1.3,0.7-2.4,1.7-3.1
				c0.5,1.5,1.4,2.6,2.6,3.2c1,0.4,2.4,0.6,4.2,0.6h6c2.4-0.3,3.9-1.1,4.6-2.4l0.8-3.1c0.3-1.5,0.5-2.6,0.8-3.2l1.8-3.6
				c0.7-1.5,1-2.7,1.1-3.8L30,109.5c-0.1,1.6,0.2,3,0.8,4.3c0.9,1.8,1.5,3.1,1.7,3.8c2.2,0.2,4.4,0.2,6.6,0c0.2-1.1,1.2-1.5,3-1.2
				l4,0.9c1.7,0.2,4-0.1,6.8-0.8c3.1-0.7,5.3-1.1,6.6-1.1l0.1,1.8c2.3,0.2,3.7,0,4.2-0.8l0.6-4.4c0.2-1.7,0.7-3.1,1.5-4.2
				c1-1.5,2.3-2.2,3.8-2.2c2,0.1,3.6,2.3,5,6.5c1.4,4.5,3,7,4.7,7.6c1.6,0.5,3.4,0.1,5.2-1.2l4.3-3.3c1.2-0.7,2.4-0.9,3.7-0.5
				c1.5,0.4,2.7,0.4,3.6,0.1l1.3-1.5l1.2-1.7c0.3-1.2,0.2-1.9-0.3-2.3l-1.5-1.3c-1.2-2.1-2.3-3.3-3.3-3.6l-4.9-0.2
				c-0.3-2.3,0-4.4,1-6.2c0.9-1.6,2.3-3.1,4.3-4.5c0.4-0.3,0.8-0.6,1.4-0.9L93.1,93l-0.4,0.4L90.6,94.4 M89,19.1l-2-1.9l2.1-0.5
				l-13.3,0.2c0.6,0.3,1.3,0.8,2,1.5l2.1,2l3.5,2.4C85,24,86,25,86.4,26c0.3,0.6,0.6,1.9,0.8,3.8c0.3,1.7,0.7,3,1.3,3.9
				c1.3,1.9,3.1,3.6,5.6,5.1L94.1,39l7.4-0.5l-2.4,2.9c-0.4,2-1.6,3.2-3.6,3.7c-1.1,0.3-3,0.3-5.5,0.1l-0.2-3.2
				c0.1-0.8,0.5-1.5,1.3-2c-1.5-0.8-3.4-2.9-5.8-6.2l-3.8-5.8l-5-4.8c-2.1-2-3.4-3.9-3.8-5.5l-2.1,0.9l5.4,5.3l3.8,4.5l3.3,2.8
				l2.5,3.6l3.8,7.1l0.2,1.9c0,0.8,0.1,1.4,0.3,1.8c0.3,0.5,0.8,1,1.7,1.7c0.8,0.6,1.4,1.3,1.8,2h0.1h0.4l2.1,3
				c0.4,0.8,0.9,1.8,1.3,3.2l1.1,2.5l0.8,1l0.4,0.4L102,61l-0.1,0l0.1,0c-2.4,1-4,2.1-4.8,3.5L97.1,65L97,65.8l0,1l0,0.4l-0.1,0.2
				c-0.1,0.4-0.4,0.7-0.8,1c-0.2-0.3-0.5-0.6-0.7-0.9l-0.4-1l-0.8-4.5l0.2-7.4l-0.1-0.8l-0.2,6.4v5.1c0.1,0.9,0.2,1.7,0.4,2.5
				l1.8,5.1c0.5,1.6,0.7,3.6,0.7,5.8l0.5,6c0.2,2.9,0,4.9-0.4,6.1c-0.2,0.6-0.6,1.1-1.1,1.4c1-0.4,2.4-0.9,4.3-1.2l4.5-1.3
				c1.5-0.6,2.3-1.4,2.5-2.2c-0.1-1.2,0.1-2.3,0.4-3.3c0.4-1.2,1.2-2.2,2.4-2.9l2.9-2.4c1.5-2.1,1.8-4.7,0.8-7.8
				c-0.8-2.4-2.1-4.7-4-7.1l-4.3-3.5l-1.5-1.4l-0.6-2.2c-0.8-3.2-0.6-5.9,0.5-8c0.2-0.3,0.9-1.1,2.1-2.3c1-1,1.6-1.9,1.7-2.6
				c0.1-1.2-0.3-2.2-1.2-3.2l-2.7-2.6l-2.1-3.1c-0.8-1.2-1.7-2.2-2.6-3l-5.4-3.9c-2.1-1.8-3.5-3.1-4.2-3.9
				C88,21.9,87.8,20.3,89,19.1 M109.2,69.3l1,0.5c0,2.8-0.5,5.3-1.5,7.5c-1.4,3.1-3.3,3.6-5.7,1.5c-1.2-1-0.6-2.4,1.8-4.1
				C107.8,72.6,109.3,70.8,109.2,69.3 M103,63.5c1.8,1.9,2.3,4.4,1.6,7.6c-0.7,3.3-2.5,4.8-5.4,4.5c-0.5-3.1-0.7-5.4-0.7-6.8
				c0-2.6,1.3-3.8,3.9-3.4c0.2-1.8,0.2-2.9,0.1-3.3L103,63.5 M100.7,85.9c-0.6-0.1-1-0.5-1.1-1.2c-0.1-0.8,0.2-1.7,0.9-2.7l2,0.5
				c0.3,1.3,0.2,2.2-0.3,2.8C101.8,85.9,101.3,86.1,100.7,85.9 M108.2,11.1H108L97.6,8.9L86.4,8.4l-0.7-0.1l2,0.2l11.8,2.6
				c0.5,0.4,1.3,0.6,2.5,0.7l3.2,0.4l0.5,0.1l0.1,0.1c3.3,0.7,5.4,1.7,6.3,2.8c1-0.5,2-1.4,2.8-2.5l-3.4-0.6L108.2,11.1 M73.4,85.8
				l-3.8-1.9c0.5,1.7-1.1,2.7-4.8,3.1c-4.4,0.4-6.9,1.3-7.6,2.8c2.4,2.4,5.8,3.3,10.4,2.9C72.5,92.2,74.4,89.9,73.4,85.8 M63.8,89.2
				c0.7-0.4,2.1-0.8,4.4-1.1c1.9-0.5,2.7-1.6,2.3-3.3l2,0.5c0.9,1.2,0.9,2.5-0.1,3.8c-0.9,1.3-2.2,1.9-3.8,1.9
				c-0.9,0-1.8-0.2-2.7-0.6L63.8,89.2 M39.7,52.5c-0.5,1.2-0.5,2.9,0,5c0.6,2.3,1.6,2.5,3,0.8c0.9-1.1,1-2.4,0.2-3.9
				C42.2,52.9,41.1,52.3,39.7,52.5L39.7,52.5 M32.8,34.2c0.3-1.9,0-3.4-0.8-4.4c-0.9-1.1-2.4-1.4-4.6-1.1c-1.9,0.3-3.4,1-4.5,2
				c1.6,0.3,3.1,0.8,4.6,1.4l0.5,0.5c-1.8-0.1-3.6,0.5-5.2,1.8c-1.9,1.5-2.4,3.1-1.5,5c0.8,1.7,2.6,2.3,5.2,1.8
				c-2.4-0.8-2.7-2.2-1.1-4.2c0.9-1.1,2.2-2.6,4.1-4.4l2,0.9l-0.2,5C32,37.3,32.5,35.9,32.8,34.2 M56,43.8l-0.5,1
				c-0.1,0.4-0.1,1.2,0.1,2.3c1.5,0.3,2.2-0.1,2.3-1.2C58.1,44.7,57.4,44,56,43.8 M85.5,72.3c-1.1-0.6-2.3-0.2-3.8,1.3
				c-1.2,1.3-1.9,2.5-2.2,3.8c-0.1,0.4,0.1,2.3,0.7,5.7l0.7,4.9c1.6,0.5,2.9,0,3.9-1.4c0.9-1.2,1.5-2.9,1.9-5.2l-1.2,1.4
				c-1.7,1-2.8,0.4-3.3-1.7c-0.6-2.1-0.3-3.6,0.8-4.6c0.9-0.9,1.8-1.2,2.6-0.8c0.7,0.3,1.2,1,1.5,2.1C86.9,74.7,86.5,72.9,85.5,72.3
				 M39.2,7.9c-0.5,0.8-1.9,1.2-4.2,1.2L30,9c1.7,0.6,3.7,1,5.9,1.1c2.7,0.1,4.6-0.5,5.7-1.7L39.2,7.9 M72,10.3l-1-1.4
				c-0.5,0.6-1.4,0.9-2.7,1l-3,0.4l3.6,1.1C70.4,11.5,71.4,11.2,72,10.3 M124.2,24.4l0.2-3.2c0.1-1.4,0-2.4-0.2-3.1
				c-0.2-0.5-0.8-1.5-2-2.8c-1.2-1.4-1.9-2.4-2.2-3.1H120c-0.2,0.5-0.1,1.1,0.1,1.9l0.8,2.2c0.8,2.1,1.4,3.9,1.7,5.5
				c0.3,1.8,0.4,3.8,0.2,5.9c-0.9-0.9-1.8-2.1-2.6-3.6l-2.1-3.7c-0.4-0.5-1.3-1.3-2.8-2.2c-1.3-0.8-2.2-1.6-2.4-2.4l-4.7,0.7
				l-11.4,0.2c3.7,0.6,7.8,1.9,12.2,3.7l2.2,0.8c0.4,0.2,0.9,0.8,1.5,1.8l0.6,2.2c0.2,1,0.6,1.6,1.1,2l4.4-0.1
				c1.6-0.2,2.3,0.8,2.2,3c1.6-0.5,2.6-1.1,3-1.9C124.2,27.6,124.3,26.3,124.2,24.4 M30.5,83.9v0.4l0.5,0.3L30.5,83.9 M78.5,27.4
				L77,26c-0.6-0.5-1.1-0.8-1.7-1L78.5,27.4 M115.5,13.1c-0.4,0.2-0.7,0.6-1,1.2l1.2-1.3L115.5,13.1z"/>
			<path d="M93.3,49.2h-0.5c0.8,0.8,1.4,2.3,1.7,4.5v0l0.1,0.8l-0.2,7.4l0.8,4.5l0.4,1c0.2,0.3,0.4,0.6,0.7,0.8
				c0.4-0.3,0.6-0.6,0.8-0.9l0.1-0.2l0-0.4l0-1l0.1-0.7l0.2-0.5c0.8-1.4,2.4-2.6,4.7-3.5l0.1,0l-2.5-1.7l-0.4-0.4l-0.8-1l-1.1-2.5
				c-0.4-1.4-0.9-2.4-1.3-3.2l-2.1-3H93.3c0.3,0,0.6,0.7,0.8,1.9l0.2,1.1l-0.2-1C93.8,49.8,93.6,49.2,93.3,49.2L93.3,49.2
				 M81.6,27.9l3.8,5.8c2.4,3.4,4.3,5.4,5.8,6.2c-0.8,0.5-1.2,1.1-1.3,2l0.2,3.2c2.6,0.2,4.4,0.2,5.5-0.1c1.9-0.5,3.1-1.7,3.6-3.7
				l2.4-2.9L94.1,39l0.1-0.2c-2.5-1.5-4.3-3.2-5.6-5.1c-0.6-0.9-1-2.2-1.3-3.9c-0.3-1.9-0.6-3.1-0.8-3.8C86,25,85,24,83.4,22.9
				l-3.5-2.4l-2.1-2c-0.7-0.7-1.4-1.2-2-1.5l-3.2-0.2l0.2,1c0.4,1.6,1.7,3.4,3.8,5.5L81.6,27.9 M99.6,84.6c0.1,0.7,0.5,1.1,1.1,1.2
				c0.6,0.2,1.1,0,1.5-0.6c0.5-0.6,0.6-1.6,0.3-2.8l-2-0.5C99.8,82.9,99.5,83.8,99.6,84.6 M104.6,71.1c0.7-3.2,0.1-5.7-1.6-7.6
				l-0.5-1.4c0.1,0.4,0.1,1.5-0.1,3.3c-2.6-0.4-3.9,0.7-3.9,3.4c0,1.5,0.2,3.7,0.7,6.8C102.1,76,103.9,74.5,104.6,71.1 M110.2,69.8
				l-1-0.5c0,1.5-1.4,3.3-4.4,5.4c-2.4,1.7-3,3.1-1.8,4.1c2.4,2.1,4.3,1.6,5.7-1.5C109.7,75.2,110.2,72.7,110.2,69.8 M48.2,82
				l-1.1-0.1l-1.2,0.1c-2.1,0.2-3.6,1.2-4.4,2.9c-0.8,1.7,0,2.9,2.5,3.4c2,0.4,3.3-0.1,4-1.5C48.4,85.8,48.5,84.2,48.2,82
				 M53.5,59.4c1.3-2.4,1.7-4.4,1.1-6l0.5-2c-2,1.1-3.5,2.9-4.2,5.2l-2.4,6c-0.5,0.8-1.4,1.5-2.7,2c-1.4,0.7-2.5,0.9-3.4,0.7
				c-0.7-0.2-1.2-0.6-1.4-1.2l0.2,1.8c0.3,1.3,1.3,2.3,2.8,2.8c1.7,0.6,3.1,0.5,4-0.3c0.5-0.4,1.2-1.6,2.1-3.4
				C50.7,63.9,51.8,62.1,53.5,59.4 M59,47.5c0.1,0.6,0.6,1.1,1.3,1.5c1,0.6,2.3,1.1,3.8,1.3l3.6-0.2c1-0.5,1.8-2,2.4-4.5
				c0.5-2.2,0.6-4.1,0.4-5.7l-2.9,2.4c0.3,1.6-0.3,2.8-1.8,3.6c-1,0.5-2.6,0.7-4.6,0.8l-2.2,0l0,0.1L59,47.5 M68.2,88.1
				c-2.3,0.3-3.8,0.6-4.4,1.1l2.2,1.3c0.9,0.5,1.8,0.7,2.7,0.6c1.6,0,2.8-0.7,3.8-1.9c0.9-1.3,1-2.6,0.1-3.8l-2-0.5
				C70.9,86.6,70.1,87.7,68.2,88.1 M26.4,41.2l0.1,0c2.5,0.8,4.1-0.1,4.6-2.8l0.2-5l-2-0.9c-1.9,1.8-3.3,3.3-4.1,4.4
				C23.7,39.1,24,40.5,26.4,41.2 M69.1,23l-0.2,0.1c-1.2,1-1.7,2.4-1.7,4.1c0,1.8,1,2.7,2.8,2.5c1.3-0.1,2.1-0.8,2.2-2
				c0.1-1.2-0.4-2.1-1.7-2.8l-0.8-1.1L69.1,23 M86.7,81.4c0.6-1.1,0.7-2.3,0.2-3.5c-0.3-1.1-0.8-1.8-1.5-2.1
				c-0.8-0.4-1.7-0.2-2.6,0.8c-1.1,1-1.4,2.6-0.8,4.6c0.6,2.1,1.7,2.7,3.3,1.7L86.7,81.4 M122.4,11.8l-1.1-0.8l-0.7-0.4l-0.3,0.1
				l0.3-0.1h0.1l-0.2-0.1l-0.2-0.1l-0.3,0.4v0.1l-1.3,0.5c-0.6,0.2-1.2,0.5-1.7,0.8l-1.1,0.9l-1.2,1.3l-1.8,1.5l0.1,0.1
				c0.3,0.8,1.1,1.6,2.4,2.4c1.5,0.9,2.4,1.7,2.8,2.2l2.1,3.7c0.8,1.5,1.7,2.7,2.6,3.6c0.2-2.1,0.1-4.1-0.2-5.9
				c-0.3-1.6-0.8-3.4-1.7-5.5l-0.8-2.2c-0.2-0.8-0.2-1.4-0.1-1.9v-0.1l0.1,0.1c0.3,0.7,1,1.7,2.2,3.1c1.1,1.3,1.8,2.2,2,2.8
				c0.2,0.7,0.3,1.7,0.2,3.1l-0.2,3.2c0,1.9-0.1,3.2-0.4,3.8c-0.4,0.8-1.4,1.4-3,1.9c0.1-2.2-0.7-3.2-2.2-3l-4.4,0.1
				c-0.5-0.3-0.8-1-1.1-2l-0.6-2.2c-0.7-1-1.2-1.6-1.5-1.8l-2.2-0.8c-4.4-1.8-8.4-3-12.2-3.7c-3-0.5-5.5-0.5-7.5-0.1L87,17.2l2,1.9
				c-1.2,1.2-1,2.8,0.6,4.9c0.7,0.8,2.1,2.1,4.2,3.9l5.4,3.9c0.9,0.8,1.8,1.8,2.6,3l2.1,3.1l2.7,2.6c0.9,1,1.3,2,1.2,3.2
				c-0.1,0.7-0.7,1.6-1.7,2.6c-1.2,1.2-1.9,2-2.1,2.3c-1.1,2.1-1.3,4.7-0.5,8l0.6,2.2l1.5,1.4l4.3,3.5c1.9,2.4,3.3,4.7,4,7.1
				c1,3.2,0.8,5.8-0.8,7.8l-2.9,2.4c-1.2,0.8-2,1.8-2.4,2.9c-0.4,1-0.5,2.2-0.4,3.3c-0.1,0.9-1,1.6-2.5,2.2l-4.5,1.3
				c-1.9,0.4-3.3,0.8-4.3,1.2l-0.9,0.4c-0.6,0.3-1,0.6-1.4,0.9c-2,1.4-3.4,2.9-4.3,4.5c-1,1.8-1.3,3.9-1,6.2l4.9,0.2
				c1,0.3,2.1,1.5,3.3,3.6l1.5,1.3c0.5,0.4,0.6,1.2,0.3,2.3l-1.2,1.7l-1.3,1.5c-0.9,0.4-2.1,0.3-3.6-0.1c-1.3-0.4-2.5-0.2-3.7,0.5
				l-4.3,3.3c-1.9,1.3-3.6,1.7-5.2,1.2c-1.7-0.5-3.2-3.1-4.7-7.6c-1.4-4.3-3-6.4-5-6.5c-1.5-0.1-2.8,0.7-3.8,2.2
				c-0.8,1.2-1.3,2.6-1.5,4.2l-0.6,4.4c-0.4,0.8-1.8,1-4.2,0.8l-0.1-1.8c-1.2,0-3.4,0.4-6.6,1.1c-2.8,0.7-5,0.9-6.8,0.8l-4-0.9
				c-1.7-0.3-2.7,0.2-3,1.2c-2.2,0.2-4.4,0.2-6.6,0c-0.2-0.7-0.7-2-1.7-3.8c-0.6-1.3-0.9-2.8-0.8-4.3l0.5-11.2
				c-0.1,1-0.4,2.3-1.1,3.8l-1.8,3.6c-0.3,0.6-0.5,1.7-0.8,3.2l-0.8,3.1c-0.7,1.4-2.2,2.2-4.6,2.4h-6c-1.8,0-3.2-0.2-4.2-0.6
				c-1.2-0.6-2.1-1.7-2.6-3.2c-1,0.7-1.6,1.8-1.7,3.1c-0.1,1.1,0.2,2.3,0.8,3.6c-1.8,0.3-4.3-1.3-7.3-4.8L0,112.1l0.1,0.8l0.8,2
				c1.2,2,3.6,4,7.1,5.9s6.4,2.8,8.8,2.6c1.6-0.1,4.6-0.7,8.9-1.8l5.8,0.5c2.9,0.8,7.2,1.2,12.9,1.1c6.2,0,11.5-0.6,16.1-1.6
				l9.2,3.3c3.7,1.2,6.8,2,9.6,2.2c1.9,0.2,4.3,0.2,7.1,0c2.9-0.3,5.5-0.7,7.7-1.4c5.3,1.1,9.5-0.3,12.8-4.3c3-0.7,6-2.5,8.9-5.6
				c0.4-0.5,2.3-1.9,5.6-4.4c2.6-2,4.1-3.5,4.5-4.5c0.4-1,0.4-2.5,0.1-4.6l-1-5.5l1.5-1.6c0.4-0.6,0.5-1.4,0.5-2.6l-0.3-3.3
				c1-1.7,1.6-2.9,1.8-3.8c0.4-1.5,0.1-3.1-0.7-4.7l-0.2-0.5l1-5.2c0.2-1.9-0.1-3.7-0.7-5.3v-0.9L128,66l-0.2-3.4
				c0-1.6,0.3-4.2,1-7.7c0.6-3.2,0.8-5.7,0.6-7.6l-1.1-3.1c-0.7-1.3-1-2.4-1.1-3.3c-0.1-0.9,0-2.2,0.2-3.9l0.5-4.1l0.7-5.2
				c0.2-2,0-3.7-0.4-5.2l-1.2-2.4l-1.3-2.1l-0.5-2.5v-0.1h-0.1C124.4,14,123.6,12.8,122.4,11.8 M57.5,103.6l-5.5-1.1l-5.5-2l0.5,1.2
				c1.2,2,3.3,3.3,6.5,3.9c3.2,0.6,5.5,0.2,7-1.4l-0.5-0.5L57.5,103.6 M31.4,84.8L31,84.5l-0.5-0.3L30,83.9c0.4,2.7-0.2,4.6-2,5.6
				c-1.1,0.6-3.2,1-6.2,1.2l0.9,1.3c1,1,2.4,1.7,4,2.2L31,94c0.7-0.4,1.1-0.9,1.5-1.7c0.5-1.1,0.6-2.4,0.3-4
				C32.5,87,32,85.8,31.4,84.8z"/>
			<path class="st5" d="M113.6,8.8l-0.3-0.6l-3.6,0.2c-1.2-1.4-3-2.3-5.4-2.5h-6.1c-3.3,0.1-7.7-0.5-13.2-1.6
				C79,3.2,74.7,2.5,72,2.4L74.3,4l1,1h0c-2.3,0.1-5.6,0.7-10.1,1.7c-4,0.9-7.5,1.3-10.5,1.3c1.8-0.2,3.8-0.7,5.9-1.7l7.8-4l0.3-0.1
				L70.4,2L71,2h0.1l-6-1.8L63.7,0h-0.2c-1.1,0-2.2,0.2-3.3,0.8l-4.5,2.9l-0.3,0.1c-1.5,0.6-3.7,1.1-6.6,1.5L45.7,5L44,5.5l-7.7,0.6
				l-0.1,1.7c-2.2-0.1-4-0.2-5.3-0.1c-2.4,0.1-3.6,0.8-3.8,2.1c3.5,0.2,6.5,1.2,9,3l-8-1.2c-3.4-0.8-6-1.1-7.8-0.9l1.4,1.1
				c-2,0-4.3,0.8-6.7,2.2l3.2,0.3l4.6-0.8l4.7-0.3l4.9,1l2.8-0.4l2-0.8c4-0.7,9.5-0.4,16.6,0.8c7.6,1.2,13.1,1.7,16.6,1.3l8-0.8
				c3-0.2,5.6-0.2,8-0.1l19.3,0.3c0.2-0.7,0.2-1.4,0.1-2.2l-0.6-0.1l-11.5-0.9l2.4,0.7c-0.6,0.9-2.5,1-5.9,0.4l-7-1.3l9.6,0.1
				l0.5,0.1l6.1-0.1L87.8,8.6l-2-0.2l0.7,0.1l-0.8-0.1l12,0.4c2.6,0.3,6.1,1.1,10.6,2.4l10.3,0.2l1.1-0.4l0.2-0.2l0.2-0.4l-0.5-0.2
				C117.8,9.4,115.8,9,113.6,8.8 M71,8.9l1,1.4c-0.6,0.9-1.6,1.2-3.1,1l-3.6-1.1l3-0.4C69.6,9.8,70.5,9.5,71,8.9 M67.2,7.4l2.9-0.9
				L70,8.3c-2,0.1-3.9,0.1-5.8,0C65,7.9,66,7.6,67.2,7.4 M35,9.1c2.2,0,3.6-0.4,4.2-1.2l2.4,0.4c-1.1,1.2-3,1.7-5.7,1.7
				C33.7,10,31.7,9.6,30,9L35,9.1z"/>
		</g>
	</g>
</g>
</svg>
