<?xml version="1.0" encoding="UTF-8" standalone="no"?>
<!-- Generator: Adobe Illustrator 20.1.0, SVG Export Plug-In . SVG Version: 6.00 Build 0)  -->

<svg
   xmlns:dc="http://purl.org/dc/elements/1.1/"
   xmlns:cc="http://creativecommons.org/ns#"
   xmlns:rdf="http://www.w3.org/1999/02/22-rdf-syntax-ns#"
   xmlns:svg="http://www.w3.org/2000/svg"
   xmlns="http://www.w3.org/2000/svg"
   xmlns:sodipodi="http://sodipodi.sourceforge.net/DTD/sodipodi-0.dtd"
   xmlns:inkscape="http://www.inkscape.org/namespaces/inkscape"
   version="1.1"
   id="Layer_1"
   x="0px"
   y="0px"
   viewBox="0 0 456.19998 638.29998"
   xml:space="preserve"
   inkscape:version="0.48.5 r10040"
   width="100%"
   height="100%"
   sodipodi:docname="boulder_01.svg"><metadata
     id="metadata476"><rdf:RDF><cc:Work
         rdf:about=""><dc:format>image/svg+xml</dc:format><dc:type
           rdf:resource="http://purl.org/dc/dcmitype/StillImage" /></cc:Work></rdf:RDF></metadata><defs
     id="defs474" /><sodipodi:namedview
     pagecolor="#ffffff"
     bordercolor="#666666"
     borderopacity="1"
     objecttolerance="10"
     gridtolerance="10"
     guidetolerance="10"
     inkscape:pageopacity="0"
     inkscape:pageshadow="2"
     inkscape:window-width="640"
     inkscape:window-height="480"
     id="namedview472"
     showgrid="false"
     inkscape:zoom="0.35035629"
     inkscape:cx="227.29999"
     inkscape:cy="315.39998"
     inkscape:window-x="0"
     inkscape:window-y="0"
     inkscape:window-maximized="0"
     inkscape:current-layer="Layer_1" /><style
     type="text/css"
     id="style3">
	.st0{fill:#839295;}
	.st1{fill:#515D5F;}
	.st2{fill:#ABB4B7;}
	.st3{fill:#97A4A7;}
	.st4{fill:#C8CFD1;}
	.st5{fill:url(#SVGID_1_);}
	.st6{fill:#6C7D80;}
	.st7{fill:#8D9497;}
	.st8{fill:#6C7274;}
	.st9{fill:#54585B;}
</style><g
     id="g5"
     transform="translate(-22.700009,-13.9)"><g
       id="g7"><g
         id="Layer0_0_MEMBER_0_FILL"><path
           class="st0"
           d="m 214.7,183.5 c 4.3,-0.2 10.6,-4.2 19.1,-12.1 4.3,-3.9 8.1,-7.8 11.4,-11.7 -3.1,-3 -6.7,-5.4 -10.9,-7.4 -8.3,-3.9 -15.2,-3.4 -20.6,1.5 -4.3,3.8 -5.3,9.9 -3.3,18.3 1,4.2 2.5,8 4.3,11.4 z"
           id="path10"
           inkscape:connector-curvature="0"
           style="fill:#839295" /></g></g></g><g
     id="g12"
     transform="translate(-22.700009,-13.9)"><g
       id="g14"><g
         id="Layer0_0_MEMBER_1_FILL"><path
           class="st1"
           d="m 220.2,173.3 c -2.8,-0.3 -4.9,-1.3 -6.1,-3 -1.8,-2.4 -2.9,-6.7 -3.2,-12.8 -2,4.3 -2,9.8 0.1,16.7 1,3.5 2.3,6.5 3.7,9.2 l 9.5,-10.2 c -1.2,0.3 -2.5,0.3 -4,0.1 z"
           id="path17"
           inkscape:connector-curvature="0"
           style="fill:#515d5f" /></g></g></g><g
     id="g19"
     transform="translate(-22.700009,-13.9)"><g
       id="g21"><g
         id="Layer0_0_MEMBER_2_FILL"><path
           class="st2"
           d="m 213.9,155.7 c 1.4,0.1 2.2,-0.2 2.5,-0.9 0.2,-0.3 0.2,-0.6 0.1,-1 l -39,-38.6 -2.3,2.1 38.7,38.4 z"
           id="path24"
           inkscape:connector-curvature="0"
           style="fill:#abb4b7" /></g></g></g><g
     id="g26"
     transform="translate(-22.700009,-13.9)"><g
       id="g28"><g
         id="Layer0_0_MEMBER_3_FILL"><path
           class="st0"
           d="m 174.1,105.9 c -2.3,-0.1 -4.2,0.7 -5.9,2.3 -3.2,3.2 -3.3,6.9 -0.3,11.2 3,4.3 6.6,4.4 10.8,0.4 4.3,-4.1 4.5,-8 0.7,-11.6 -1.4,-1.4 -3.2,-2.2 -5.3,-2.3 z"
           id="path31"
           inkscape:connector-curvature="0"
           style="fill:#839295" /></g></g></g><g
     id="g33"
     transform="translate(-22.700009,-13.9)"><g
       id="g35"><g
         id="Layer0_0_MEMBER_5_FILL"><path
           class="st3"
           d="m 227.9,153 c -4.6,-1 -7.3,-0.7 -8,0.9 l 2.6,0.6 c 1.9,0.5 3.3,1.1 4.2,1.6 1.4,1 2.4,1.7 2.9,2.2 l 5.1,-3.4 c -2.2,-0.7 -4.5,-1.3 -6.8,-1.9 z"
           id="path38"
           inkscape:connector-curvature="0"
           style="fill:#97a4a7" /></g></g></g><g
     id="g40"
     transform="translate(-22.700009,-13.9)"><g
       id="g42"><g
         id="Layer0_0_MEMBER_6_FILL"><path
           class="st4"
           d="m 175.8,108.9 c -1.7,-0.6 -2.8,-0.6 -3.5,0.1 -0.8,0.8 -0.4,1.7 1.3,2.7 1.6,1 2.8,0.9 3.6,-0.2 0.7,-1.1 0.2,-2 -1.4,-2.6 z"
           id="path45"
           inkscape:connector-curvature="0"
           style="fill:#c8cfd1" /></g></g></g><g
     id="g47"
     transform="translate(-22.700009,-13.9)"><g
       id="g49"><g
         id="Layer0_0_MEMBER_7_MEMBER_0_FILL"><path
           class="st1"
           d="m 178.6,114.9 c -1.4,1.1 -3.1,1.6 -5.1,1.6 -2,0.1 -3.5,-1 -4.6,-3.1 -0.7,-1.4 -1.1,-2.8 -1.3,-4.4 -2.5,3.4 -2.3,7 0.7,10.7 3,3.8 6.5,3.8 10.5,0 3.2,-3.1 4,-6.3 2.2,-9.5 -0.3,2 -1.1,3.5 -2.4,4.7 z"
           id="path52"
           inkscape:connector-curvature="0"
           style="fill:#515d5f" /></g></g></g><g
     id="g54"
     transform="translate(-22.700009,-13.9)"><g
       id="g56"><g
         id="Layer0_0_MEMBER_8_MEMBER_0_FILL"><path
           class="st1"
           d="m 213.9,155.7 1.1,-0.1 -36.2,-35.9 -1.1,0.2 36.2,35.8 z"
           id="path59"
           inkscape:connector-curvature="0"
           style="fill:#515d5f" /></g></g></g><g
     id="g61"
     transform="translate(-22.700009,-13.9)"><g
       id="g63"><g
         id="Layer0_0_MEMBER_9_FILL"><path
           class="st4"
           d="m 185,124.5 -5,-4.4 33.5,33.4 -18.9,-19.6 3.2,2.6 -17.2,-17.5 4.4,5.5 z"
           id="path66"
           inkscape:connector-curvature="0"
           style="fill:#c8cfd1" /></g></g></g><g
     id="g68"
     transform="translate(-22.700009,-13.9)"><g
       id="g70"><g
         id="Layer0_0_MEMBER_10_FILL"><linearGradient
           id="SVGID_1_"
           gradientUnits="userSpaceOnUse"
           x1="427.7247"
           y1="419.46619"
           x2="155.5728"
           y2="12.4468"
           gradientTransform="matrix(1,0,0,-1,0,668)"><stop
             offset="7.843137e-03"
             style="stop-color:#B5BDBF"
             id="stop74" /><stop
             offset="1"
             style="stop-color:#99A5A8"
             id="stop76" /></linearGradient><path
           class="st5"
           d="m 255.7,124.3 -21.3,43.5 -44.5,6.8 -2.9,59.9 -66.7,38.7 1.9,131.5 -37.7,17.4 -11.5,67.7 -20.3,19.3 -30,85.1 34.8,24.2 69.6,1.9 97.6,30 75.4,-17.4 101.5,19.3 77.3,-45.4 L 423.8,422.1 393,400.8 372.7,251.9 334,241.3 l -40.6,-116 -37.7,-1 z"
           id="path78"
           inkscape:connector-curvature="0"
           style="fill:url(#SVGID_1_)" /></g></g></g><g
     id="g80"
     transform="translate(-22.700009,-13.9)"><g
       id="g82"><g
         id="Layer0_0_MEMBER_11_MEMBER_0_FILL"><path
           class="st0"
           d="m 234.5,167.8 -44.5,6.8 -2.9,59.9 -66.7,38.7 1.9,131.5 -37.7,17.4 -11.6,67.7 -20.3,19.3 -30,85.1 34.8,24.2 69.6,1.9 97.6,30 75.4,-17.4 101.5,19.3 77.3,-45.4 -79.3,38.7 -96.7,-24.2 -39.6,-14.5 1,-78.3 -26.1,-23.2 14.5,-161.5 -27.1,-25.1 -5.8,-87 29,-29 19.3,-59.9 -12.6,-18.4 -21,43.4 z"
           id="path85"
           inkscape:connector-curvature="0"
           style="fill:#839295" /></g></g></g><g
     id="g87"
     transform="translate(-22.700009,-13.9)"><g
       id="g89"><g
         id="Layer0_0_MEMBER_11_MEMBER_1_MEMBER_0_FILL"><path
           class="st6"
           d="m 234.5,167.8 -44.5,6.8 -2.9,59.9 -66.7,38.7 1.9,131.5 -37.7,17.4 -11.6,67.7 -20.3,19.3 -30,85.1 34.8,24.2 69.6,1.9 97.6,30 75.4,-17.4 101.5,19.3 -104.4,-27.1 -61.9,12.6 -5.8,-17.4 -58,-13.5 1,-41.6 -38.7,1 -10.6,-40.6 37.7,-79.3 22.2,1.9 1,68.6 30.9,-5.8 2.9,-96.7 -19.3,-1.9 3.9,-47.4 -40.6,1.9 5.8,-71.5 30.9,-28 4.8,-74.4 33.8,-11.6 14.5,-33.8 16.4,-4.8 -12.6,-18.4 -21,43.4 z"
           id="path92"
           inkscape:connector-curvature="0"
           style="fill:#6c7d80" /></g></g></g><g
     id="g94"
     transform="translate(-22.700009,-13.9)"><g
       id="g96"><g
         id="Layer0_0_MEMBER_12_FILL"><path
           class="st6"
           d="m 248,544.9 -60,-15.5 -28,9.7 5.8,11.6 31.9,-5.8 1.9,52.2 17.4,4.8 1.9,-21.3 23.2,11.6 5.9,-47.3 z"
           id="path99"
           inkscape:connector-curvature="0"
           style="fill:#6c7d80" /></g></g></g><g
     id="g101"
     transform="translate(-22.700009,-13.9)"><g
       id="g103"><g
         id="Layer0_0_MEMBER_13_FILL"><path
           class="st0"
           d="m 282.8,527.5 18.4,-6.8 10.6,-36.7 54.1,-15.5 c 1.9,37.4 2.6,57 1.9,59 -0.7,2 8.1,0.6 26.1,-3.9 l -2.9,86 25.1,-15.5 -5.8,-96.7 21.3,-13.5 18.4,48.3 -27,-101.4 -31.9,27.1 -15.7,-11.4 -84.9,27.8 5.8,36.7 -13.5,16.5 z"
           id="path106"
           inkscape:connector-curvature="0"
           style="fill:#839295" /></g></g></g><g
     id="g108"
     transform="translate(-22.700009,-13.9)"><g
       id="g110"><g
         id="Layer0_0_MEMBER_14_FILL"><path
           class="st3"
           d="m 369.8,395 -4.8,-88.9 3.9,-42.5 -41.6,65.7 -25.1,10.6 -31.9,7.7 17.4,12.6 10.6,16.4 21.3,1.9 9.7,-23.2 26.1,10.6 1.9,39.6 12.5,-10.5 z"
           id="path113"
           inkscape:connector-curvature="0"
           style="fill:#97a4a7" /></g></g></g><g
     id="g115"
     transform="translate(-22.700009,-13.9)"><g
       id="g117"><g
         id="Layer0_0_MEMBER_15_FILL"><path
           class="st3"
           d="m 264.4,233.6 -4.8,30.9 11.6,1.9 9.7,-26.1 29,9.7 4.8,-11.6 -28,-9.7 -35.8,-19.3 -24.2,22.2 37.7,2 z"
           id="path120"
           inkscape:connector-curvature="0"
           style="fill:#97a4a7" /></g></g></g><g
     id="g122"
     transform="translate(-22.700009,-13.9)"><g
       id="g124"><g
         id="Layer0_0_MEMBER_16_FILL"><path
           class="st6"
           d="m 216.1,280 -25.1,20.3 -7.7,38.7 14.5,2.9 2.9,-35.8 10.6,-1 1,25.1 8.7,-1.9 -4.9,-48.3 z"
           id="path127"
           inkscape:connector-curvature="0"
           style="fill:#6c7d80" /></g></g></g><g
     id="g129"
     transform="translate(-22.700009,-13.9)"><g
       id="g131"><g
         id="Layer0_0_MEMBER_17_FILL"><path
           class="st1"
           d="m 63.3,552.6 15.5,31.9 24.2,4.8 -3.9,18.4 -33.8,4.8 61.9,2.9 32.9,11.6 2.9,-50.3 -43.5,-1 -12.6,-56.1 -44.5,-4.8 -29,70.6 11.6,3.9 18.3,-36.7 z"
           id="path134"
           inkscape:connector-curvature="0"
           style="fill:#515d5f" /></g></g></g><g
     id="g136"
     transform="translate(-22.700009,-13.9)"><g
       id="g138"><g
         id="Layer0_0_MEMBER_18_FILL"><path
           class="st1"
           d="m 160,380.5 7.6,6.4 c 5,5.3 7.3,10.6 6.9,15.9 -0.4,5.2 -2,11.2 -4.7,17.8 -1.4,3.3 -2.7,6.1 -4,8.3 l 30,4.8 10.6,55.1 1,-63.8 -22.2,-4.8 -5.8,-34.8 -19.4,-4.9 z"
           id="path141"
           inkscape:connector-curvature="0"
           style="fill:#515d5f" /></g></g></g><g
     id="g143"
     transform="translate(-22.700009,-13.9)"><g
       id="g145"><g
         id="Layer0_0_MEMBER_19_FILL"><path
           class="st1"
           d="m 141.6,315.8 2.9,65.7 10.6,-79.3 -25.1,-13.5 11.6,27.1 z"
           id="path148"
           inkscape:connector-curvature="0"
           style="fill:#515d5f" /></g></g></g><g
     id="g150"
     transform="translate(-22.700009,-13.9)"><g
       id="g152"><g
         id="Layer0_0_MEMBER_20_FILL"><path
           class="st4"
           d="m 264.4,128.2 8.7,13.5 17.4,6.8 -7.7,16.4 43.5,64.8 -30.9,-67.7 2.4,-16 -7.3,-16.9 -26.1,-0.9 z"
           id="path155"
           inkscape:connector-curvature="0"
           style="fill:#c8cfd1" /></g></g></g><g
     id="g157"
     transform="translate(-22.700009,-13.9)"><g
       id="g159"><g
         id="Layer0_0_MEMBER_21_FILL"><path
           class="st4"
           d="m 372.7,296.4 -1.9,56.1 8.7,48.3 -59.9,33.8 51.2,-4.8 15.5,20.3 29,-25.1 -26.1,-16.4 -16.5,-112.2 z"
           id="path162"
           inkscape:connector-curvature="0"
           style="fill:#c8cfd1" /></g></g></g><g
     id="g164"
     transform="translate(-22.700009,-13.9)"><g
       id="g166"><g
         id="Layer0_0_MEMBER_22_FILL"><path
           class="st4"
           d="m 238.3,317.7 17.4,21.3 72.5,-21.3 27.1,-52.2 -35.8,36.7 -44.5,14.5 -36.7,1 z"
           id="path169"
           inkscape:connector-curvature="0"
           style="fill:#c8cfd1" /></g></g></g><g
     id="g171"
     transform="translate(-22.700009,-13.9)"><g
       id="g173"><g
         id="Layer0_0_MEMBER_23_FILL"><path
           class="st3"
           d="m 284.7,586.5 16.4,-24.2 21.3,-8.7 2.9,30.9 30.9,-1.9 7.8,47.4 12.6,5.8 -2.9,-63.8 -24.2,-4.8 -9.7,-29 -44.5,7.7 -10.6,40.6 z"
           id="path176"
           inkscape:connector-curvature="0"
           style="fill:#97a4a7" /></g></g></g><g
     id="g178"
     transform="translate(-22.700009,-13.9)"><g
       id="g180"><g
         id="Layer0_0_MEMBER_24_FILL"><path
           class="st0"
           d="m 264.4,128.2 0.8,3.3 c 1.2,2.8 3.5,5.8 7,8.8 3.4,3 8.5,4.8 15.2,5.4 3.4,0.3 6.3,0.2 9,-0.1 3.1,-5.1 5.3,-10.5 6.8,-16.1 2.9,-11.5 0.3,-18.8 -7.7,-22 -8.2,-3.3 -15.9,-0.8 -22.9,7.4 -2.2,2.6 -4.2,5.6 -6,9 l -2.2,4.3 z"
           id="path183"
           inkscape:connector-curvature="0"
           style="fill:#839295" /></g></g></g><g
     id="g185"
     transform="translate(-22.700009,-13.9)"><g
       id="g187"><g
         id="Layer0_0_MEMBER_25_FILL"><path
           class="st2"
           d="m 315.7,60 c -1,1.3 -4.3,1.5 -9.7,0.8 -5.2,-0.8 -8.4,-0.1 -9.7,2.1 -1.1,2.1 0.3,5.8 4.1,11.2 3.8,5.3 5,9.2 3.7,11.5 l -12.6,23.2 c 0.6,1.8 1.5,2.8 2.7,3.1 0.6,0.1 1.2,0.1 1.6,-0.2 7.4,-13.2 11.8,-21.8 13.1,-25.6 0.7,-2.1 -0.6,-5.9 -3.9,-11.5 -3.2,-5.3 -4.4,-8.4 -3.9,-9.3 0.6,-0.8 3.1,-1.1 7.6,-0.7 4.9,0.5 8.3,-0.1 10.2,-1.7 2.2,-1.8 2.1,-8.5 -0.4,-20 -1.3,-5.7 -2.8,-11.3 -4.4,-16.7 h -4.4 c 1.5,4.9 2.9,10 4.2,15.3 2.6,10.5 3.2,16.7 1.8,18.5 z"
           id="path190"
           inkscape:connector-curvature="0"
           style="fill:#abb4b7" /></g></g></g><g
     id="g192"
     transform="translate(-22.700009,-13.9)"><g
       id="g194"><g
         id="Layer0_0_MEMBER_26_FILL"><path
           class="st0"
           d="m 321.9,21.7 c -0.3,-2.5 -1.5,-4.5 -3.5,-5.9 -2.3,-1.7 -5.1,-2.2 -8.5,-1.6 -4.3,0.7 -6.5,3.7 -6.5,8.9 0,5.3 3.1,8 9.4,8 3.2,0 5.6,-1 7.3,-3 1.5,-1.9 2.1,-4 1.8,-6.4 z"
           id="path197"
           inkscape:connector-curvature="0"
           style="fill:#839295" /></g></g></g><g
     id="g199"
     transform="translate(-22.700009,-13.9)"><g
       id="g201"><g
         id="Layer0_0_MEMBER_27_MEMBER_0_FILL"><path
           class="st1"
           d="m 287.6,106.2 -0.3,-0.1 c -6.1,0.5 -11.8,4.4 -16.9,11.5 l -6,10.6 0.8,3.3 c 1.2,2.8 3.5,5.8 7,8.8 3.4,3 8.5,4.8 15.2,5.4 3.4,0.3 6.3,0.2 9,-0.1 -5,-0.3 -9.4,-1.2 -13.2,-2.7 -3.9,-1.4 -6.8,-3.5 -8.8,-6.2 -2.7,-3.6 -3,-7.7 -0.9,-12.2 2,-4.3 5,-8.6 8.9,-13 1.9,-2.2 3.7,-4 5.2,-5.3 z"
           id="path204"
           inkscape:connector-curvature="0"
           style="fill:#515d5f" /></g></g></g><g
     id="g206"
     transform="translate(-22.700009,-13.9)"><g
       id="g208"><g
         id="Layer0_0_MEMBER_28_FILL"><path
           class="st3"
           d="m 300.4,129.3 c 1.3,-6.8 0.5,-11.4 -2.3,-13.9 -0.5,-0.5 -1,1.1 -1.5,4.6 -0.5,4.6 -1.3,7.7 -2.2,9.4 -1.1,2 -2.2,3.9 -3.3,5.6 l -1.3,1.9 2.5,1 c 1.9,0.6 3.2,1 4,1 1.4,-0.1 2.8,-3.3 4.1,-9.6 z"
           id="path211"
           inkscape:connector-curvature="0"
           style="fill:#97a4a7" /></g></g></g><g
     id="g213"
     transform="translate(-22.700009,-13.9)"><g
       id="g215"><g
         id="Layer0_0_MEMBER_29_MEMBER_0_FILL"><path
           class="st1"
           d="m 315.7,60 c -1,1.3 -4.3,1.5 -9.7,0.8 -5.2,-0.8 -8.4,-0.1 -9.7,2.1 -1.1,2.1 0.3,5.8 4.1,11.2 3.8,5.3 5,9.2 3.7,11.5 l -12.6,23.2 c 0.3,0.9 0.6,1.5 1,1.8 9,-16 13.6,-24.8 14,-26.3 0.6,-1.8 -0.6,-4.9 -3.5,-9.3 -3.2,-4.9 -4.8,-7.8 -4.9,-8.8 -0.2,-1.9 0.2,-3.2 1.1,-3.8 0.7,-0.4 2.1,-0.6 4.3,-0.6 1.2,0 4,0.3 8.2,0.8 3.7,0.2 5.7,-0.5 6,-2 0.4,-1.7 0.5,-3.3 0.5,-4.9 -0.1,-1.2 -0.3,-3.3 -0.7,-6.2 -0.3,-2.1 -1.3,-6.3 -2.8,-12.8 l -2.3,-9 -1.7,0.6 c 1.9,6.1 3.4,11.8 4.4,17.1 1.6,8.3 1.8,13.1 0.6,14.6 z"
           id="path218"
           inkscape:connector-curvature="0"
           style="fill:#515d5f" /></g></g></g><g
     id="g220"
     transform="translate(-22.700009,-13.9)"><g
       id="g222"><g
         id="Layer0_0_MEMBER_30_MEMBER_0_FILL"><path
           class="st1"
           d="m 312.9,27.2 c -3,-1.5 -4.5,-3.5 -4.6,-6.1 -0.1,-2.9 1.3,-5.3 4.4,-7.2 l -2.7,0.2 c -4.3,0.7 -6.5,3.7 -6.5,8.9 0,5.3 3.1,8 9.4,8 4.1,0 6.9,-1.6 8.4,-4.7 l -0.2,0.1 c -2.4,2.1 -5.1,2.3 -8.2,0.8 z"
           id="path225"
           inkscape:connector-curvature="0"
           style="fill:#515d5f" /></g></g></g><g
     id="g227"
     transform="translate(-22.700009,-13.9)"><g
       id="g229"><g
         id="Layer0_0_MEMBER_31_FILL"><path
           class="st4"
           d="m 318.2,19.9 c -0.7,-2.1 -1.6,-3 -2.7,-2.7 -0.9,0.2 -1.1,1.3 -0.7,3.4 0.5,2.1 1.3,3 2.6,2.7 1.3,-0.3 1.6,-1.4 0.8,-3.4 z"
           id="path232"
           inkscape:connector-curvature="0"
           style="fill:#c8cfd1" /></g></g></g><g
     id="g234"
     transform="translate(-22.700009,-13.9)"><g
       id="g236"><g
         id="Layer0_0_MEMBER_32_FILL"><path
           class="st4"
           d="m 299.5,127.9 c 0.6,-4.5 0.6,-6.8 0,-7 -0.8,-0.1 -1.6,2.1 -2.5,6.6 -0.8,4.5 -0.8,6.8 0.1,7 0.9,0 1.7,-2.1 2.4,-6.6 z"
           id="path239"
           inkscape:connector-curvature="0"
           style="fill:#c8cfd1" /></g></g></g><g
     id="g241"
     transform="translate(-22.700009,-13.9)"><g
       id="g243"><g
         id="Layer0_0_MEMBER_33_FILL"><path
           class="st4"
           d="m 294.9,108.8 1.5,0.1 c 3.7,-6.2 6.1,-10.3 7,-12.4 1.3,-2.5 2.3,-4.5 3,-6.1 1.4,-3 2,-5.3 2,-7.1 0,-1.7 -1.3,-4.6 -3.9,-8.7 l -3.9,-5.7 1.5,3.2 c 1.2,2.3 2,3.7 2.4,4.4 0.8,1 1.5,2.4 2.2,4.3 0.8,2.1 0.9,3.7 0.5,4.6 -0.6,1.4 -4.7,9.2 -12.3,23.4 z"
           id="path246"
           inkscape:connector-curvature="0"
           style="fill:#c8cfd1" /></g></g></g><g
     id="g248"
     transform="translate(-22.700009,-13.9)"><g
       id="g250"><g
         id="Layer0_0_MEMBER_34_FILL"><path
           class="st4"
           d="m 317.1,41.3 -2.2,-7.5 1.8,8 c 1.2,5.6 1.9,9 2,10.1 0.2,1.8 0.3,3.9 0.2,6.3 0.6,-2.3 0.8,-4.5 0.6,-6.8 -0.1,-1.5 -0.9,-4.8 -2.4,-10.1 z"
           id="path253"
           inkscape:connector-curvature="0"
           style="fill:#c8cfd1" /></g></g></g><g
     id="g255"
     transform="translate(-22.700009,-13.9)"><g
       id="g257"><g
         id="Layer0_0_MEMBER_35_MEMBER_0_MEMBER_0_FILL"><path
           class="st7"
           d="m 275.1,189.9 c -0.2,-1 -0.9,-1.3 -2,-1.1 -0.7,0.1 -1,0.6 -0.9,1.4 0.1,0.8 0.7,1.2 1.6,1.2 1,-0.1 1.5,-0.6 1.3,-1.5 z"
           id="path260"
           inkscape:connector-curvature="0"
           style="fill:#8d9497" /></g></g></g><g
     id="g262"
     transform="translate(-22.700009,-13.9)"><g
       id="g264"><g
         id="Layer0_0_MEMBER_36_MEMBER_0_MEMBER_0_FILL"><path
           class="st7"
           d="m 274.9,169.1 c -1.5,0.1 -2.7,0.9 -3.4,2.6 -0.4,2 0.3,3 1.9,2.9 0.3,0 1.3,-0.3 3,-0.9 0.5,-0.5 0.7,-1.6 0.6,-3.3 0,-0.9 -0.7,-1.3 -2.1,-1.3 z"
           id="path267"
           inkscape:connector-curvature="0"
           style="fill:#8d9497" /></g></g></g><g
     id="g269"
     transform="translate(-22.700009,-13.9)"><g
       id="g271"><g
         id="Layer0_0_MEMBER_37_MEMBER_0_MEMBER_0_FILL"><path
           class="st7"
           d="m 311.6,225.6 c -1.5,-1 -2.7,-1.2 -3.6,-0.4 -0.9,0.5 -1.3,1.4 -1.1,2.7 0.3,1.4 1.6,1.8 3.9,1.3 2,-1.3 2.3,-2.5 0.8,-3.6 z"
           id="path274"
           inkscape:connector-curvature="0"
           style="fill:#8d9497" /></g></g></g><g
     id="g276"
     transform="translate(-22.700009,-13.9)"><g
       id="g278"><g
         id="Layer0_0_MEMBER_38_MEMBER_0_MEMBER_0_FILL"><path
           class="st8"
           d="m 290.1,458.7 c -3.1,-1.2 -5.3,-0.9 -6.5,1.1 -1.6,1 -1.8,2.7 -0.6,5.3 1.2,2.6 3.7,2.7 7.5,0.4 2.8,-3.3 2.7,-5.6 -0.4,-6.8 z"
           id="path281"
           inkscape:connector-curvature="0"
           style="fill:#6c7274" /></g></g></g><g
     id="g283"
     transform="translate(-22.700009,-13.9)"><g
       id="g285"><g
         id="Layer0_0_MEMBER_39_MEMBER_0_MEMBER_0_FILL"><path
           class="st8"
           d="m 270.9,386.8 c -1.9,-2.8 -4.7,-2.4 -8.3,1.2 -1.6,2.3 -1.2,4.1 1.3,5.3 2.4,1.2 4.4,1.1 6,-0.4 1,-0.4 1.6,-1.3 1.8,-2.6 0.2,-1.2 -0.1,-2.4 -0.8,-3.5 z"
           id="path288"
           inkscape:connector-curvature="0"
           style="fill:#6c7274" /></g></g></g><g
     id="g290"
     transform="translate(-22.700009,-13.9)"><g
       id="g292"><g
         id="Layer0_0_MEMBER_40_MEMBER_0_MEMBER_0_FILL"><path
           class="st8"
           d="m 443.2,567.7 c -0.5,-2.6 -2.1,-3.7 -4.6,-3.4 -1.7,0.1 -2.7,1.2 -3,3.2 -0.3,2.1 1.1,3.4 4.1,4 2.9,0 4.1,-1.2 3.5,-3.8 z"
           id="path295"
           inkscape:connector-curvature="0"
           style="fill:#6c7274" /></g></g></g><g
     id="g297"
     transform="translate(-22.700009,-13.9)"><g
       id="g299"><g
         id="Layer0_0_MEMBER_41_MEMBER_0_MEMBER_0_FILL"><path
           class="st8"
           d="m 431.7,621.2 c -1,0.2 -1.5,0.2 -1.4,0 -0.5,0.2 -0.6,0.6 -0.5,1.2 0.1,0.6 0.7,0.9 1.6,0.8 1.1,-1.3 1.1,-2 0.3,-2 z"
           id="path302"
           inkscape:connector-curvature="0"
           style="fill:#6c7274" /></g></g></g><g
     id="g304"
     transform="translate(-22.700009,-13.9)"><g
       id="g306"><g
         id="Layer0_0_MEMBER_42_MEMBER_0_MEMBER_0_FILL"><path
           class="st8"
           d="m 319.6,603.7 c -0.3,-1.5 -0.8,-2.4 -1.7,-2.5 -0.9,-0.3 -1.7,0.1 -2.3,1 -0.6,1 -0.2,1.9 1.4,2.9 1.9,0.5 2.8,0 2.6,-1.4 z"
           id="path309"
           inkscape:connector-curvature="0"
           style="fill:#6c7274" /></g></g></g><g
     id="g311"
     transform="translate(-22.700009,-13.9)"><g
       id="g313"><g
         id="Layer0_0_MEMBER_43_MEMBER_0_MEMBER_0_FILL"><path
           class="st8"
           d="m 345.4,501.2 c -1.5,-1.7 -3.4,-1.6 -5.4,0.4 -1,1.2 -1,2.5 0,4 1.2,1.5 2.8,1.5 4.9,0.1 1.9,-1.3 2,-2.8 0.5,-4.5 z"
           id="path316"
           inkscape:connector-curvature="0"
           style="fill:#6c7274" /></g></g></g><g
     id="g318"
     transform="translate(-22.700009,-13.9)"><g
       id="g320"><g
         id="Layer0_0_MEMBER_44_MEMBER_0_MEMBER_0_FILL"><path
           class="st8"
           d="m 406.4,466.5 c -0.8,-0.5 -1.5,-0.3 -2,0.6 -0.4,0.6 -0.3,1.1 0.4,1.5 0.6,0.5 1.2,0.4 1.7,-0.3 0.8,-0.7 0.7,-1.3 -0.1,-1.8 z"
           id="path323"
           inkscape:connector-curvature="0"
           style="fill:#6c7274" /></g></g></g><g
     id="g325"
     transform="translate(-22.700009,-13.9)"><g
       id="g327"><g
         id="Layer0_0_MEMBER_45_MEMBER_0_MEMBER_0_FILL"><path
           class="st8"
           d="m 344.4,370.6 c -1.9,-2.3 -4.1,-2.4 -6.6,-0.3 -1.5,1.2 -1.7,2.8 -0.7,4.8 1.1,2 3.1,2.3 6.1,1 2.7,-1.5 3,-3.3 1.2,-5.5 z"
           id="path330"
           inkscape:connector-curvature="0"
           style="fill:#6c7274" /></g></g></g><g
     id="g332"
     transform="translate(-22.700009,-13.9)"><g
       id="g334"><g
         id="Layer0_0_MEMBER_47_MEMBER_0_MEMBER_0_FILL"><path
           class="st8"
           d="m 356.2,309.8 c -0.6,-1.3 -1.7,-1.4 -3.5,-0.2 -0.8,0.7 -0.8,1.5 -0.2,2.4 0.7,1 1.7,1.1 3,0.4 1,-0.4 1.2,-1.3 0.7,-2.6 z"
           id="path337"
           inkscape:connector-curvature="0"
           style="fill:#6c7274" /></g></g></g><g
     id="g339"
     transform="translate(-22.700009,-13.9)"><g
       id="g341"><g
         id="Layer0_0_MEMBER_48_MEMBER_0_MEMBER_0_FILL"><path
           class="st8"
           d="m 256.7,294.2 c -0.4,-1.6 -1.5,-2.2 -3.4,-1.7 -1.1,0.2 -1.5,0.9 -1.4,2.2 0.2,1.3 1.1,1.9 2.6,1.9 1.8,0 2.5,-0.8 2.2,-2.4 z"
           id="path344"
           inkscape:connector-curvature="0"
           style="fill:#6c7274" /></g></g></g><g
     id="g346"
     transform="translate(-22.700009,-13.9)"><g
       id="g348"><g
         id="Layer0_0_MEMBER_50_MEMBER_0_MEMBER_0_FILL"><path
           class="st8"
           d="m 307,416.2 c -1.5,-0.8 -2.2,-1.2 -2.2,-1.3 -0.8,0 -1.4,0.5 -1.6,1.5 -0.3,1 0.4,1.8 2.2,2.3 2,-0.7 2.5,-1.6 1.6,-2.5 z"
           id="path351"
           inkscape:connector-curvature="0"
           style="fill:#6c7274" /></g></g></g><g
     id="g353"
     transform="translate(-22.700009,-13.9)"><g
       id="g355"><g
         id="Layer0_0_MEMBER_51_MEMBER_0_MEMBER_0_FILL"><path
           class="st8"
           d="m 256.7,491.6 c -1,0.2 -1.5,0.2 -1.4,0 -0.5,0.2 -0.6,0.6 -0.5,1.2 0.1,0.6 0.7,0.9 1.6,0.8 1.1,-1.3 1.1,-1.9 0.3,-2 z"
           id="path358"
           inkscape:connector-curvature="0"
           style="fill:#6c7274" /></g></g></g><g
     id="g360"
     transform="translate(-22.700009,-13.9)"><g
       id="g362"><g
         id="Layer0_0_MEMBER_52_MEMBER_0_MEMBER_0_FILL"><path
           class="st8"
           d="m 249.7,600.7 c -1.4,-1.7 -3.1,-1.7 -5.1,-0.2 -1.2,1 -1.3,2.3 -0.3,3.7 1,1.4 2.5,1.6 4.4,0.7 2,-1.1 2.4,-2.5 1,-4.2 z"
           id="path365"
           inkscape:connector-curvature="0"
           style="fill:#6c7274" /></g></g></g><g
     id="g367"
     transform="translate(-22.700009,-13.9)"><g
       id="g369"><g
         id="Layer0_0_MEMBER_53_MEMBER_0_MEMBER_0_FILL"><path
           class="st8"
           d="m 185.1,592.1 c -0.2,-1 -0.9,-1.3 -2,-1.1 -0.7,0.1 -1,0.6 -0.9,1.4 0.1,0.8 0.7,1.2 1.6,1.2 1.1,-0.1 1.5,-0.6 1.3,-1.5 z"
           id="path372"
           inkscape:connector-curvature="0"
           style="fill:#6c7274" /></g></g></g><g
     id="g374"
     transform="translate(-22.700009,-13.9)"><g
       id="g376"><g
         id="Layer0_0_MEMBER_54_MEMBER_0_MEMBER_0_FILL"><path
           class="st8"
           d="m 163.9,500.1 c -0.4,-1.6 -1.5,-2.2 -3.4,-1.7 -1.1,0.2 -1.5,0.9 -1.4,2.2 0.2,1.3 1.1,1.9 2.6,1.9 1.8,0 2.5,-0.8 2.2,-2.4 z"
           id="path379"
           inkscape:connector-curvature="0"
           style="fill:#6c7274" /></g></g></g><g
     id="g381"
     transform="translate(-22.700009,-13.9)"><g
       id="g383"><g
         id="Layer0_0_MEMBER_55_MEMBER_0_MEMBER_0_FILL"><path
           class="st8"
           d="m 145.5,529.2 c -0.3,-1.1 -1.2,-1.3 -2.7,-0.5 -0.7,0.6 -0.7,1.2 0,1.7 0.6,0.6 1.2,0.7 1.6,0.4 1.1,0.1 1.4,-0.4 1.1,-1.6 z"
           id="path386"
           inkscape:connector-curvature="0"
           style="fill:#6c7274" /></g></g></g><g
     id="g388"
     transform="translate(-22.700009,-13.9)"><g
       id="g390"><g
         id="Layer0_0_MEMBER_56_MEMBER_0_MEMBER_0_FILL"><path
           class="st8"
           d="m 231.3,387.8 c -2.2,-2.8 -4.9,-3 -8.1,-0.7 -1.1,0.7 -1.5,1.5 -1.4,2.4 v 1 c 0,0.8 0.3,1.3 0.9,1.5 -0.1,0.6 -0.2,0.7 -0.4,0.5 -0.4,-0.4 -0.6,-0.5 -0.8,-0.3 1.4,2.9 3.9,3.7 7.7,2.4 3.6,-1.7 4.3,-4 2.1,-6.8 z"
           id="path393"
           inkscape:connector-curvature="0"
           style="fill:#6c7274" /></g></g></g><g
     id="g395"
     transform="translate(-22.700009,-13.9)"><g
       id="g397"><g
         id="Layer0_0_MEMBER_57_MEMBER_0_MEMBER_0_FILL"><path
           class="st8"
           d="m 238.1,447.1 c -1.5,-0.9 -2.7,-0.4 -3.7,1.5 -0.5,1.2 0,2.1 1.3,2.5 1.2,0.4 2.2,0 2.9,-1.1 1.2,-1 1,-2 -0.5,-2.9 z"
           id="path400"
           inkscape:connector-curvature="0"
           style="fill:#6c7274" /></g></g></g><g
     id="g402"
     transform="translate(-22.700009,-13.9)"><g
       id="g404"><g
         id="Layer0_0_MEMBER_58_MEMBER_0_MEMBER_0_FILL"><path
           class="st8"
           d="m 221.9,211 c -0.3,-1.4 -1.5,-1.6 -3.5,-0.8 -1,0.7 -1.1,1.4 -0.2,2.1 0.8,0.7 1.6,1 2.2,0.9 1.4,0.1 1.9,-0.7 1.5,-2.2 z"
           id="path407"
           inkscape:connector-curvature="0"
           style="fill:#6c7274" /></g></g></g><g
     id="g409"
     transform="translate(-22.700009,-13.9)"><g
       id="g411"><g
         id="Layer0_0_MEMBER_59_MEMBER_0_MEMBER_0_FILL"><path
           class="st8"
           d="m 247.6,178.3 c -0.2,-0.2 -0.6,-0.4 -1.2,-0.5 l -0.8,-0.1 -0.4,0.1 H 245 c 0,0.2 0,0.6 0,1.1 0,0.9 0,2.2 0,4 v 0.1 h 0.3 l 0.4,0.1 h 0.7 c 1,0 1.7,-0.3 2.2,-1 0.5,-0.5 0.6,-1.2 0.4,-1.9 -0.2,-0.9 -0.7,-1.5 -1.4,-1.9 z"
           id="path414"
           inkscape:connector-curvature="0"
           style="fill:#6c7274" /></g></g></g><g
     id="g416"
     transform="translate(-22.700009,-13.9)"><g
       id="g418"><g
         id="Layer0_0_MEMBER_60_MEMBER_0_MEMBER_0_FILL"><path
           class="st8"
           d="m 173.5,356.3 c -0.2,-1 -0.7,-1.5 -1.5,-1.5 -0.6,-0.1 -1.1,0.2 -1.5,0.8 -0.5,0.7 0,1.4 1.4,2.1 1.3,0 1.8,-0.5 1.6,-1.4 z"
           id="path421"
           inkscape:connector-curvature="0"
           style="fill:#6c7274" /></g></g></g><g
     id="g423"
     transform="translate(-22.700009,-13.9)"><g
       id="g425"><g
         id="Layer0_0_MEMBER_61_MEMBER_0_MEMBER_0_FILL"><path
           class="st9"
           d="M 96.1,472.2 C 95.2,471 94,470.9 92.6,472 c -1,0.8 -1,1.7 -0.1,2.5 0.9,0.7 1.8,0.8 2.7,0.4 1.5,-0.6 1.8,-1.5 0.9,-2.7 z"
           id="path428"
           inkscape:connector-curvature="0"
           style="fill:#54585b" /></g></g></g><g
     id="g430"
     transform="translate(-22.700009,-13.9)"><g
       id="g432"><g
         id="Layer0_0_MEMBER_62_MEMBER_0_MEMBER_0_FILL"><path
           class="st9"
           d="m 143.1,417.9 c -3.5,-1.4 -6.1,-0.3 -7.9,3.5 -1.3,2.5 -0.6,4.4 2.1,5.7 2.7,1.3 5.1,0.6 7.2,-2 2.5,-3.3 2.1,-5.7 -1.4,-7.2 z"
           id="path435"
           inkscape:connector-curvature="0"
           style="fill:#54585b" /></g></g></g><g
     id="g437"
     transform="translate(-22.700009,-13.9)"><g
       id="g439"><g
         id="Layer0_0_MEMBER_63_MEMBER_0_MEMBER_0_FILL"><path
           class="st9"
           d="m 199.6,624.8 c -1.2,-1.7 -2.4,-2.3 -3.5,-1.8 -1.2,0.2 -1.9,1 -2.2,2.4 -0.5,1.5 0.7,2.5 3.5,3 2.6,-0.7 3.3,-1.9 2.2,-3.6 z"
           id="path442"
           inkscape:connector-curvature="0"
           style="fill:#54585b" /></g></g></g><g
     id="g444"
     transform="translate(-22.700009,-13.9)"><g
       id="g446"><g
         id="Layer0_0_MEMBER_64_MEMBER_0_MEMBER_0_FILL"><path
           class="st9"
           d="m 121.2,502.2 c -1.2,-0.8 -2.2,-0.9 -3,-0.1 -0.7,0.5 -0.9,1.3 -0.7,2.3 0.2,1.2 1.3,1.4 3.4,0.8 1.4,-1.2 1.5,-2.2 0.3,-3 z"
           id="path449"
           inkscape:connector-curvature="0"
           style="fill:#54585b" /></g></g></g><g
     id="g451"
     transform="translate(-22.700009,-13.9)"><g
       id="g453"><g
         id="Layer0_0_MEMBER_65_MEMBER_0_MEMBER_0_FILL"><path
           class="st9"
           d="m 174.3,263.4 c -1.5,-1 -2.7,-1.2 -3.6,-0.4 -0.9,0.5 -1.3,1.4 -1.1,2.7 0.3,1.4 1.6,1.8 3.9,1.3 2,-1.4 2.3,-2.6 0.8,-3.6 z"
           id="path456"
           inkscape:connector-curvature="0"
           style="fill:#54585b" /></g></g></g><g
     id="g458"
     transform="translate(-22.700009,-13.9)"><g
       id="g460"><g
         id="Layer0_0_MEMBER_66_MEMBER_0_MEMBER_0_FILL"><path
           class="st9"
           d="m 132.8,319.5 c -0.9,-0.7 -1.6,-0.8 -2,-0.4 -0.6,0.2 -0.9,0.7 -0.7,1.5 0.1,0.9 0.8,1.2 2.1,1 1.3,-0.7 1.5,-1.4 0.6,-2.1 z"
           id="path463"
           inkscape:connector-curvature="0"
           style="fill:#54585b" /></g></g></g><g
     id="g465"
     transform="translate(-22.700009,-13.9)"><g
       id="g467"><g
         id="Layer0_0_MEMBER_67_MEMBER_0_MEMBER_0_FILL"><path
           class="st9"
           d="m 209.3,180.1 c -0.5,-1.9 -1.8,-2.7 -4.1,-2.2 -1.4,0.3 -1.9,1.3 -1.6,2.8 0.2,1.5 1.3,2.3 3.2,2.3 2.1,0 3,-1 2.5,-2.9 z"
           id="path470"
           inkscape:connector-curvature="0"
           style="fill:#54585b" /></g></g></g></svg>