<?xml version="1.0" encoding="UTF-8" standalone="no"?>
<svg
   xmlns:dc="http://purl.org/dc/elements/1.1/"
   xmlns:cc="http://creativecommons.org/ns#"
   xmlns:rdf="http://www.w3.org/1999/02/22-rdf-syntax-ns#"
   xmlns:svg="http://www.w3.org/2000/svg"
   xmlns="http://www.w3.org/2000/svg"
   xmlns:xlink="http://www.w3.org/1999/xlink"
   xmlns:sodipodi="http://sodipodi.sourceforge.net/DTD/sodipodi-0.dtd"
   xmlns:inkscape="http://www.inkscape.org/namespaces/inkscape"
   version="1.1"
   preserveAspectRatio="none"
   x="0px"
   y="0px"
   width="1794.7999"
   height="1127"
   viewBox="0 0 1794.7999 1127"
   id="svg2"
   inkscape:version="0.48.5 r10040"
   sodipodi:docname="Brain_stems.svg">
  <metadata
     id="metadata261">
    <rdf:RDF>
      <cc:Work
         rdf:about="">
        <dc:format>image/svg+xml</dc:format>
        <dc:type
           rdf:resource="http://purl.org/dc/dcmitype/StillImage" />
      </cc:Work>
    </rdf:RDF>
  </metadata>
  <sodipodi:namedview
     pagecolor="#ffffff"
     bordercolor="#666666"
     borderopacity="1"
     objecttolerance="10"
     gridtolerance="10"
     guidetolerance="10"
     inkscape:pageopacity="0"
     inkscape:pageshadow="2"
     inkscape:window-width="640"
     inkscape:window-height="480"
     id="namedview259"
     showgrid="false"
     inkscape:zoom="0.2931677"
     inkscape:cx="897.4"
     inkscape:cy="563.5"
     inkscape:window-x="0"
     inkscape:window-y="0"
     inkscape:window-maximized="0"
     inkscape:current-layer="svg2" />
  <defs
     id="defs4">
    <radialGradient
       id="Gradient_1"
       gradientUnits="userSpaceOnUse"
       cx="0"
       cy="0"
       r="28.387501"
       fx="0"
       fy="0"
       gradientTransform="matrix(1,0,0,-0.93923382,28.4,26.65)"
       spreadMethod="pad">
      <stop
         offset="0%"
         stop-color="#4D6F23"
         id="stop7" />
      <stop
         offset="0%"
         stop-color="#4C7125"
         id="stop9" />
      <stop
         offset="0%"
         stop-color="#48782A"
         id="stop11" />
      <stop
         offset="0%"
         stop-color="#428535"
         id="stop13" />
      <stop
         offset="0%"
         stop-color="#399744"
         id="stop15" />
      <stop
         offset="0%"
         stop-color="#2DAE59"
         id="stop17" />
      <stop
         offset="0%"
         stop-color="#22CB73"
         id="stop19" />
      <stop
         offset="0%"
         stop-color="#1AED91"
         id="stop21" />
      <stop
         offset="0%"
         stop-color="#18FEA0"
         id="stop23" />
      <stop
         offset="100%"
         stop-color="#19FFA2"
         stop-opacity="0"
         id="stop25" />
    </radialGradient>
    <radialGradient
       id="Gradient_2"
       gradientUnits="userSpaceOnUse"
       cx="0"
       cy="0"
       r="18.862499"
       fx="0"
       fy="0"
       gradientTransform="matrix(1,0,0,-0.93903247,18.9,17.75)"
       spreadMethod="pad">
      <stop
         offset="0%"
         stop-color="#4D6F23"
         id="stop28" />
      <stop
         offset="0%"
         stop-color="#4C7125"
         id="stop30" />
      <stop
         offset="0%"
         stop-color="#48782A"
         id="stop32" />
      <stop
         offset="0%"
         stop-color="#428535"
         id="stop34" />
      <stop
         offset="0%"
         stop-color="#399744"
         id="stop36" />
      <stop
         offset="0%"
         stop-color="#2DAE59"
         id="stop38" />
      <stop
         offset="0%"
         stop-color="#22CB73"
         id="stop40" />
      <stop
         offset="0%"
         stop-color="#1AED91"
         id="stop42" />
      <stop
         offset="0%"
         stop-color="#18FEA0"
         id="stop44" />
      <stop
         offset="100%"
         stop-color="#19FFA2"
         stop-opacity="0"
         id="stop46" />
    </radialGradient>
    <radialGradient
       id="Gradient_3"
       gradientUnits="userSpaceOnUse"
       cx="0"
       cy="0"
       r="10.8875"
       fx="0"
       fy="0"
       gradientTransform="matrix(1,0,0,-0.9391504,10.95,10.25)"
       spreadMethod="pad">
      <stop
         offset="0%"
         stop-color="#4D6F23"
         id="stop49" />
      <stop
         offset="0%"
         stop-color="#4C7125"
         id="stop51" />
      <stop
         offset="0%"
         stop-color="#48782A"
         id="stop53" />
      <stop
         offset="0%"
         stop-color="#428535"
         id="stop55" />
      <stop
         offset="0%"
         stop-color="#399744"
         id="stop57" />
      <stop
         offset="0%"
         stop-color="#2DAE59"
         id="stop59" />
      <stop
         offset="0%"
         stop-color="#22CB73"
         id="stop61" />
      <stop
         offset="0%"
         stop-color="#1AED91"
         id="stop63" />
      <stop
         offset="0%"
         stop-color="#18FEA0"
         id="stop65" />
      <stop
         offset="100%"
         stop-color="#19FFA2"
         stop-opacity="0"
         id="stop67" />
    </radialGradient>
    <radialGradient
       id="Gradient_4"
       gradientUnits="userSpaceOnUse"
       cx="0"
       cy="0"
       r="7.8874998"
       fx="0"
       fy="0"
       gradientTransform="matrix(1,0,0,-0.93819334,7.9,7.4)"
       spreadMethod="pad">
      <stop
         offset="0%"
         stop-color="#4D6F23"
         id="stop70" />
      <stop
         offset="0%"
         stop-color="#4C7125"
         id="stop72" />
      <stop
         offset="0%"
         stop-color="#48782A"
         id="stop74" />
      <stop
         offset="0%"
         stop-color="#428535"
         id="stop76" />
      <stop
         offset="0%"
         stop-color="#399744"
         id="stop78" />
      <stop
         offset="0%"
         stop-color="#2DAE59"
         id="stop80" />
      <stop
         offset="0%"
         stop-color="#22CB73"
         id="stop82" />
      <stop
         offset="0%"
         stop-color="#1AED91"
         id="stop84" />
      <stop
         offset="0%"
         stop-color="#18FEA0"
         id="stop86" />
      <stop
         offset="100%"
         stop-color="#19FFA2"
         stop-opacity="0"
         id="stop88" />
    </radialGradient>
    <radialGradient
       id="Gradient_5"
       gradientUnits="userSpaceOnUse"
       cx="0"
       cy="0"
       r="31.4"
       fx="0"
       fy="0"
       gradientTransform="matrix(1,0,0,-0.93909236,31.4,29.45)"
       spreadMethod="pad">
      <stop
         offset="0%"
         stop-color="#4D6F23"
         id="stop91" />
      <stop
         offset="0%"
         stop-color="#4C7125"
         id="stop93" />
      <stop
         offset="0%"
         stop-color="#48782A"
         id="stop95" />
      <stop
         offset="0%"
         stop-color="#428535"
         id="stop97" />
      <stop
         offset="0%"
         stop-color="#399744"
         id="stop99" />
      <stop
         offset="0%"
         stop-color="#2DAE59"
         id="stop101" />
      <stop
         offset="0%"
         stop-color="#22CB73"
         id="stop103" />
      <stop
         offset="0%"
         stop-color="#1AED91"
         id="stop105" />
      <stop
         offset="0%"
         stop-color="#18FEA0"
         id="stop107" />
      <stop
         offset="100%"
         stop-color="#19FFA2"
         stop-opacity="0"
         id="stop109" />
    </radialGradient>
    <radialGradient
       id="Gradient_6"
       gradientUnits="userSpaceOnUse"
       cx="0"
       cy="0"
       r="40.6875"
       fx="0"
       fy="0"
       gradientTransform="matrix(1,0,0,-0.93917051,40.75,38.25)"
       spreadMethod="pad">
      <stop
         offset="0%"
         stop-color="#4D6F23"
         id="stop112" />
      <stop
         offset="0%"
         stop-color="#4C7125"
         id="stop114" />
      <stop
         offset="0%"
         stop-color="#48782A"
         id="stop116" />
      <stop
         offset="0%"
         stop-color="#428535"
         id="stop118" />
      <stop
         offset="0%"
         stop-color="#399744"
         id="stop120" />
      <stop
         offset="0%"
         stop-color="#2DAE59"
         id="stop122" />
      <stop
         offset="0%"
         stop-color="#22CB73"
         id="stop124" />
      <stop
         offset="0%"
         stop-color="#1AED91"
         id="stop126" />
      <stop
         offset="0%"
         stop-color="#18FEA0"
         id="stop128" />
      <stop
         offset="100%"
         stop-color="#19FFA2"
         stop-opacity="0"
         id="stop130" />
    </radialGradient>
    <filter
       id="Filter_1"
       x="-0.2"
       y="-0.2"
       width="1.4"
       height="1.4"
       color-interpolation-filters="sRGB">
      <feColorMatrix
         in="SourceGraphic"
         type="matrix"
         values="1 0 0 0 0 0 1 0 0 0 0 0 1 0 0 0 0 0 0.2 0"
         result="result1"
         id="feColorMatrix133" />
    </filter>
    <filter
       id="Filter_2"
       x="-0.2"
       y="-0.2"
       width="1.4"
       height="1.4"
       color-interpolation-filters="sRGB">
      <feColorMatrix
         in="SourceGraphic"
         type="matrix"
         values="1 0 0 0 0 0 1 0 0 0 0 0 1 0 0 0 0 0 0.5 0"
         result="result1"
         id="feColorMatrix136" />
    </filter>
    <filter
       id="Filter_3"
       x="-0.2"
       y="-0.2"
       width="1.4"
       height="1.4"
       color-interpolation-filters="sRGB">
      <feColorMatrix
         in="SourceGraphic"
         type="matrix"
         values="1 0 0 0 0 0 1 0 0 0 0 0 1 0 0 0 0 0 0.22 0"
         result="result1"
         id="feColorMatrix139" />
    </filter>
    <filter
       id="Filter_4"
       x="-0.2"
       y="-0.2"
       width="1.4"
       height="1.4"
       color-interpolation-filters="sRGB">
      <feColorMatrix
         in="SourceGraphic"
         type="matrix"
         values="1 0 0 0 0 0 1 0 0 0 0 0 1 0 0 0 0 0 0.08 0"
         result="result1"
         id="feColorMatrix142" />
    </filter>
    <g
       id="FlashAICB_Layer_25__Path__10_0_Layer0_0_FILL">
      <path
         d="M 5.65,8.75 Q 12.4,15.25 18,24 q 5.05,7.8 23.9,69.25 22.85,74.6 29.1,91.75 10.25,28.25 58,164.75 33.35,95.35 58,166.25 11.2,32.25 21.2,67.25 9.8,-3.15 21.65,-6.4 -9.9,-13.05 -21,-32.65 Q 194.4,518.7 184,492 175.8,471.05 133.5,347.4 90.85,222.7 77,187 60.75,145.15 44.25,68.4 36,30 31,0 L 0,4 q 2.25,1.5 5.65,4.75 z"
         id="path145"
         inkscape:connector-curvature="0"
         style="fill:#022629;stroke:none" />
    </g>
    <g
       id="FlashAICB_Layer_25__Group__0_Layer0_0_MEMBER_0_FILL">
      <path
         d="m 72.55,8 q 0,7 -1,30 Q 70.5,62.15 55.8,191.5 39.15,338.25 26.55,417 11.05,514.15 0,585.85 l 11.5,1.25 0.05,-0.1 Q 12.1,577.25 24.3,488.75 40.95,368 47.55,317 q 15,-116 39,-309 l -14,0 z"
         id="path148"
         inkscape:connector-curvature="0"
         style="fill:#022629;stroke:none" />
    </g>
    <g
       id="FlashAICB_Layer_25__Group__0_Layer0_0_MEMBER_1_FILL">
      <path
         d="m 119.55,1 0,10 q 0,4.15 -16,106.25 Q 85.95,229.5 81.55,267 77.2,303.8 56.05,425.75 43.2,499.7 27,589 l 14.25,1.85 Q 53,493.05 56.55,453 59.1,423.5 84.95,265.75 104.4,146.7 115.55,83 q 7,-40 15,-83 l -11,1 z"
         id="path151"
         inkscape:connector-curvature="0"
         style="fill:#022629;stroke:none" />
    </g>
    <g
       id="FlashAICB_Layer_25__Path__9_0_Layer0_0_FILL">
      <path
         d="m 1020,17 -48,2 q -2,25 -3,44 -0.55,10.1 -17.75,110.25 Q 929.85,297.75 923,342 914.6,396.5 899.5,475.15 884.65,552.6 882,570 q -4.25,27.6 -17.55,46.65 -45.95,-12.55 -109.7,-22.4 -62,-9.6 -114.75,-12.65 l 0,-18.6 q 0,-17 3.7,-39.6 0.9,-5.7 8.55,-45.65 Q 665.7,407.5 669,340 672.75,263.35 688.4,184.9 693.15,160.8 701.5,125 710.4,86.7 713,74 721.15,34.65 729.9,14.9 734.25,5 737,3 L 688,2 q 1,3.5 2.15,9.25 2.25,11.5 2.85,22.75 0.8,14.55 0,44 -0.85,31.7 -3,53 -1.85,18.4 -21.5,167.25 Q 658,377.75 641,506 q -5.8,44.15 -12.4,75 -26.45,-1.1 -44.6,0 -33.9,1.55 -55.65,2.65 -40.45,2.05 -72.15,5.05 -6.75,-26.05 -8.1,-85 -0.25,-60.3 -1.1,-74.7 -1.7,-28.35 -3,-123.25 -1.4,-102.4 0,-148.75 2,-67 6,-157 l -37,4 q 4,8 8,18.9 8,21.75 8,36.1 0,11.65 3,80.9 3,69.25 3,80.1 0,5.4 2.5,58.15 2.5,52.75 2.5,91.85 0,64.3 1.75,220.2 -28.8,3.1 -54.3,7.4 -6.4,-10.9 -14.25,-31.45 Q 365.35,545.45 361,528 345.25,457.5 332,401.15 306.3,291.7 297,275 286,255.2 251.15,160.9 216.6,67.55 212,46 209.3,33.55 210.35,27.35 211.1,22.9 213.6,22 l -47.6,0 4.5,2.75 q 7,5 19.5,16.25 7.4,6.65 25.05,43.8 17.2,36.2 38.1,88.45 49.3,123.45 72.85,214.75 16.55,64.15 26.25,129.5 6.95,46.9 9.2,84.95 Q 301.05,614.85 256,635 186,666.25 86,737.75 36,773.5 0,803 l 1282,2 q -15.5,-7.5 -36.6,-18.75 Q 1203.15,763.75 1175,745 1144.65,724.75 1050.25,685.1 960.2,647.25 893,625.35 893.1,594 894,563 894.55,544.65 908.5,466.65 924.75,375.8 929,341 935.9,284.45 952.9,197.4 970.2,108.6 982,71 q 10,-31.85 25,-46.1 7.5,-7.15 13,-7.9 z"
         id="path154"
         inkscape:connector-curvature="0"
         style="fill:#022629;stroke:none" />
    </g>
    <g
       id="FlashAICB_Layer_25__Path__8_0_Layer0_0_FILL">
      <path
         d="M 56.8,26.65 Q 56.8,15.6 48.5,7.8 40.15,0 28.4,0 16.65,0 8.35,7.8 0,15.65 0,26.65 q 0,11.05 8.35,18.9 8.3,7.8 20.05,7.8 11.75,0 20.1,-7.8 8.3,-7.85 8.3,-18.9 z"
         id="path157"
         inkscape:connector-curvature="0"
         style="fill:url(#Gradient_1);stroke:none" />
    </g>
    <g
       id="FlashAICB_Layer_25__Path__7_0_Layer0_0_FILL">
      <path
         d="M 37.8,17.75 Q 37.8,10.4 32.25,5.2 26.75,0 18.9,0 11.1,0 5.55,5.2 0,10.4 0,17.75 0,25.1 5.55,30.3 q 5.55,5.2 13.35,5.2 7.85,0 13.35,-5.2 5.55,-5.2 5.55,-12.55 z"
         id="path160"
         inkscape:connector-curvature="0"
         style="fill:url(#Gradient_2);stroke:none" />
    </g>
    <g
       id="FlashAICB_Layer_25__Path__6_0_Layer0_0_FILL">
      <path
         d="M 37.8,17.75 Q 37.8,10.4 32.25,5.2 26.75,0 18.9,0 11.1,0 5.55,5.2 0,10.4 0,17.75 0,25.1 5.55,30.3 q 5.55,5.2 13.35,5.2 7.85,0 13.35,-5.2 5.55,-5.2 5.55,-12.55 z"
         id="path163"
         inkscape:connector-curvature="0"
         style="fill:url(#Gradient_2);stroke:none" />
    </g>
    <g
       id="FlashAICB_Layer_25__Path__5_0_Layer0_0_FILL">
      <path
         d="M 21.85,10.25 Q 21.85,6 18.65,3 15.45,0 10.95,0 6.4,0 3.2,3 0,6 0,10.25 q 0,4.25 3.2,7.25 3.2,3 7.75,3 4.5,0 7.7,-3 3.2,-3 3.2,-7.25 z"
         id="path166"
         inkscape:connector-curvature="0"
         style="fill:url(#Gradient_3);stroke:none" />
    </g>
    <g
       id="FlashAICB_Layer_25__Path__4_0_Layer0_0_FILL">
      <path
         d="M 37.8,17.75 Q 37.8,10.4 32.25,5.2 26.75,0 18.9,0 11.1,0 5.55,5.2 0,10.4 0,17.75 0,25.1 5.55,30.3 q 5.55,5.2 13.35,5.2 7.85,0 13.35,-5.2 5.55,-5.2 5.55,-12.55 z"
         id="path169"
         inkscape:connector-curvature="0"
         style="fill:url(#Gradient_2);stroke:none" />
    </g>
    <g
       id="FlashAICB_Layer_25__Path__3_0_Layer0_0_FILL">
      <path
         d="M 15.8,7.4 Q 15.8,4.3 13.5,2.15 11.2,0 7.9,0 4.65,0 2.3,2.15 0,4.35 0,7.4 q 0,3.05 2.3,5.25 2.35,2.15 5.6,2.15 3.3,0 5.6,-2.15 2.3,-2.15 2.3,-5.25 z"
         id="path172"
         inkscape:connector-curvature="0"
         style="fill:url(#Gradient_4);stroke:none" />
    </g>
    <g
       id="FlashAICB_Layer_25__Path__2_0_Layer0_0_FILL">
      <path
         d="M 37.8,17.75 Q 37.8,10.4 32.25,5.2 26.75,0 18.9,0 11.1,0 5.55,5.2 0,10.4 0,17.75 0,25.1 5.55,30.3 q 5.55,5.2 13.35,5.2 7.85,0 13.35,-5.2 5.55,-5.2 5.55,-12.55 z"
         id="path175"
         inkscape:connector-curvature="0"
         style="fill:url(#Gradient_2);stroke:none" />
    </g>
    <g
       id="FlashAICB_Layer_25__Path__1_0_Layer0_0_FILL">
      <path
         d="M 62.8,29.5 Q 62.8,17.3 53.6,8.65 44.4,0 31.4,0 18.4,0 9.2,8.65 0,17.3 0,29.5 q 0,12.2 9.2,20.8 9.2,8.65 22.2,8.65 13,0 22.2,-8.65 9.2,-8.6 9.2,-20.8 z"
         id="path178"
         inkscape:connector-curvature="0"
         style="fill:url(#Gradient_5);stroke:none" />
    </g>
    <g
       id="FlashAICB_Layer_25__Path__0_Layer0_0_FILL">
      <path
         d="M 69.55,11.2 Q 57.65,0 40.75,0 23.85,0 11.95,11.2 0,22.4 0,38.25 0,54.1 11.95,65.3 q 11.95,11.2 28.8,11.2 16.85,0 28.8,-11.2 11.9,-11.2 11.9,-27.05 0,-15.85 -11.9,-27.05 z"
         id="path181"
         inkscape:connector-curvature="0"
         style="fill:url(#Gradient_6);stroke:none" />
    </g>
  </defs>
  <g
     transform="translate(348.4,195.99998)"
     id="g183">
    <g
       id="g185">
      <use
         xlink:href="#FlashAICB_Layer_25__Path__10_0_Layer0_0_FILL"
         id="use187"
         style="filter:url(#Filter_1)"
         x="0"
         y="0"
         width="1282"
         height="805" />
    </g>
  </g>
  <g
     transform="translate(946.85,160.99998)"
     id="g189">
    <g
       id="g191">
      <use
         xlink:href="#FlashAICB_Layer_25__Group__0_Layer0_0_MEMBER_0_FILL"
         id="use193"
         style="filter:url(#Filter_1)"
         x="0"
         y="0"
         width="1282"
         height="805" />
    </g>
    <g
       id="g195">
      <use
         xlink:href="#FlashAICB_Layer_25__Group__0_Layer0_0_MEMBER_1_FILL"
         id="use197"
         style="filter:url(#Filter_1)"
         x="0"
         y="0"
         width="1282"
         height="805" />
    </g>
  </g>
  <g
     id="g199"
     transform="translate(256.4,160.99998)">
    <g
       id="g201">
      <use
         xlink:href="#FlashAICB_Layer_25__Path__9_0_Layer0_0_FILL"
         id="use203"
         style="filter:url(#Filter_2)"
         x="0"
         y="0"
         width="1282"
         height="805" />
    </g>
  </g>
  <g
     transform="translate(540.5,461.54998)"
     id="g205">
    <g
       id="g207">
      <use
         xlink:href="#FlashAICB_Layer_25__Path__8_0_Layer0_0_FILL"
         id="use209"
         style="filter:url(#Filter_3)"
         x="0"
         y="0"
         width="1282"
         height="805" />
    </g>
  </g>
  <g
     transform="translate(598.5,686.54998)"
     id="g211">
    <g
       id="g213">
      <use
         xlink:href="#FlashAICB_Layer_25__Path__7_0_Layer0_0_FILL"
         id="use215"
         style="filter:url(#Filter_3)"
         x="0"
         y="0"
         width="1282"
         height="805" />
    </g>
  </g>
  <g
     transform="translate(676.5,363.54998)"
     id="g217">
    <g
       id="g219">
      <use
         xlink:href="#FlashAICB_Layer_25__Path__6_0_Layer0_0_FILL"
         id="use221"
         style="filter:url(#Filter_3)"
         x="0"
         y="0"
         width="1282"
         height="805" />
    </g>
  </g>
  <g
     transform="translate(1155.5,578.54998)"
     id="g223">
    <g
       id="g225">
      <use
         xlink:href="#FlashAICB_Layer_25__Path__5_0_Layer0_0_FILL"
         id="use227"
         style="filter:url(#Filter_3)"
         x="0"
         y="0"
         width="1282"
         height="805" />
    </g>
  </g>
  <g
     transform="translate(790.5,450.54998)"
     id="g229">
    <g
       id="g231">
      <use
         xlink:href="#FlashAICB_Layer_25__Path__4_0_Layer0_0_FILL"
         id="use233"
         style="filter:url(#Filter_3)"
         x="0"
         y="0"
         width="1282"
         height="805" />
    </g>
  </g>
  <g
     transform="translate(641.5,492.54998)"
     id="g235">
    <g
       id="g237">
      <use
         xlink:href="#FlashAICB_Layer_25__Path__3_0_Layer0_0_FILL"
         id="use239"
         style="filter:url(#Filter_3)"
         x="0"
         y="0"
         width="1282"
         height="805" />
    </g>
  </g>
  <g
     transform="translate(1056.5,521.54998)"
     id="g241">
    <g
       id="g243">
      <use
         xlink:href="#FlashAICB_Layer_25__Path__2_0_Layer0_0_FILL"
         id="use245"
         style="filter:url(#Filter_4)"
         x="0"
         y="0"
         width="1282"
         height="805" />
    </g>
  </g>
  <g
     transform="translate(965.5,364.54998)"
     id="g247">
    <g
       id="g249">
      <use
         xlink:href="#FlashAICB_Layer_25__Path__1_0_Layer0_0_FILL"
         id="use251"
         style="filter:url(#Filter_4)"
         x="0"
         y="0"
         width="1282"
         height="805" />
    </g>
  </g>
  <g
     transform="translate(544.5,352.54998)"
     id="g253">
    <g
       id="g255">
      <use
         xlink:href="#FlashAICB_Layer_25__Path__0_Layer0_0_FILL"
         id="use257"
         style="filter:url(#Filter_4)"
         x="0"
         y="0"
         width="1282"
         height="805" />
    </g>
  </g>
</svg>
