<?xml version="1.0" encoding="UTF-8" standalone="no"?>
<!-- Generator: Adobe Illustrator 20.1.0, SVG Export Plug-In . SVG Version: 6.00 Build 0)  -->

<svg
   xmlns:dc="http://purl.org/dc/elements/1.1/"
   xmlns:cc="http://creativecommons.org/ns#"
   xmlns:rdf="http://www.w3.org/1999/02/22-rdf-syntax-ns#"
   xmlns:svg="http://www.w3.org/2000/svg"
   xmlns="http://www.w3.org/2000/svg"
   xmlns:xlink="http://www.w3.org/1999/xlink"
   xmlns:sodipodi="http://sodipodi.sourceforge.net/DTD/sodipodi-0.dtd"
   xmlns:inkscape="http://www.inkscape.org/namespaces/inkscape"
   version="1.1"
   id="Layer_1"
   x="0px"
   y="0px"
   viewBox="0 0 191.3 218"
   xml:space="preserve"
   inkscape:version="0.48.5 r10040"
   width="100%"
   height="100%"
   sodipodi:docname="cl2_gear_02.svg"><metadata
     id="metadata456"><rdf:RDF><cc:Work
         rdf:about=""><dc:format>image/svg+xml</dc:format><dc:type
           rdf:resource="http://purl.org/dc/dcmitype/StillImage" /></cc:Work></rdf:RDF></metadata><defs
     id="defs454" /><sodipodi:namedview
     pagecolor="#ffffff"
     bordercolor="#666666"
     borderopacity="1"
     objecttolerance="10"
     gridtolerance="10"
     guidetolerance="10"
     inkscape:pageopacity="0"
     inkscape:pageshadow="2"
     inkscape:window-width="640"
     inkscape:window-height="480"
     id="namedview452"
     showgrid="false"
     inkscape:zoom="0.92658029"
     inkscape:cx="97.599999"
     inkscape:cy="98.949997"
     inkscape:window-x="0"
     inkscape:window-y="0"
     inkscape:window-maximized="0"
     inkscape:current-layer="Layer_1" /><style
     type="text/css"
     id="style3">
	.st0{fill:#BD686D;}
	.st1{fill:#C4777A;}
	.st2{fill:#C98386;}
	.st3{fill:#BB646A;}
	.st4{fill:#A35059;}
	.st5{fill:#723D44;}
	.st6{fill:#C4797C;}
	.st7{fill:#CE9192;}
	.st8{fill:#8C474F;}
	.st9{fill:url(#SVGID_1_);}
	.st10{fill:#96374B;}
	.st11{fill:#CA8889;}
	.st12{fill:#C76B70;}
	.st13{fill:#C27377;}
	.st14{fill:#B75A63;}
	.st15{fill:#B1555F;}
	.st16{fill:#82434B;}
	.st17{fill:none;stroke:#893342;}
	.st18{fill:none;stroke:#9C3748;}
	.st19{fill:#D5A3A3;}
</style><g
     id="g5"
     transform="translate(-16.400001,-8.3)"><g
       id="g7"><g
         id="Layer0_0_MEMBER_0_FILL"><path
           class="st0"
           d="M 19.8,89.8 52.2,96.1 48,89.5 19.8,89.8 z"
           id="path10"
           inkscape:connector-curvature="0"
           style="fill:#bd686d" /></g></g></g><g
     id="g12"
     transform="translate(-16.400001,-8.3)"><g
       id="g14"><g
         id="Layer0_0_MEMBER_1_FILL"><path
           class="st1"
           d="m 33.9,91.4 2.2,1.1 2.1,-0.6 6.8,-1.2 0,-0.5 -11.1,1.2 z"
           id="path17"
           inkscape:connector-curvature="0"
           style="fill:#c4777a" /></g></g></g><g
     id="g19"
     transform="translate(-16.400001,-8.3)"><g
       id="g21"><g
         id="Layer0_0_MEMBER_2_FILL"><path
           class="st2"
           d="m 189.4,131.1 c 3.4,-16.4 2,-32 -4.2,-46.8 C 179.8,71.4 172.1,61.7 162.1,55.2 155.2,50.7 145.5,47 132.9,44 l -16.8,-3.2 -3.5,76.1 -24.8,76.3 6.2,1.1 c 5.1,0.8 10.1,1.4 15,1.9 15.8,1.5 27.9,1.1 36.2,-1.2 11.5,-3.1 20.9,-10.2 28.2,-21.1 6.9,-10.3 12.2,-24.6 16,-42.8 z"
           id="path24"
           inkscape:connector-curvature="0"
           style="fill:#c98386" /></g></g></g><g
     id="g26"
     transform="translate(-16.400001,-8.3)"><g
       id="g28"><g
         id="Layer0_0_MEMBER_3_FILL"><path
           class="st3"
           d="m 178.6,185.1 0.4,-2.2 -4.3,-11 -19.2,-3.6 3.6,17.4 10.6,14.3 15.8,0.4 -5.1,-13.8 -1.8,-1.5 z"
           id="path31"
           inkscape:connector-curvature="0"
           style="fill:#bb646a" /></g></g></g><g
     id="g33"
     transform="translate(-16.400001,-8.3)"><g
       id="g35"><g
         id="Layer0_0_MEMBER_4_FILL"><path
           class="st4"
           d="m 203.8,71.9 -10.8,-2.4 -7.1,1.2 -20.2,18.3 22.7,5.6 10.2,-15.4 -0.2,-2.6 2.6,-0.7 2.8,-4 z"
           id="path38"
           inkscape:connector-curvature="0"
           style="fill:#a35059" /></g></g></g><g
     id="g40"
     transform="translate(-16.400001,-8.3)"><g
       id="g42"><g
         id="Layer0_0_MEMBER_5_FILL"><path
           class="st5"
           d="m 105.2,100 c 1.6,-1.7 3.1,-2.9 4.5,-3.8 L 90.2,82.6 c -3.8,9 -7.6,18.2 -11.4,27.3 -7.6,18.4 -11.2,27.9 -11,28.6 0.3,0.7 6.4,-0.4 18.6,-3.2 6,-1.4 12.1,-2.9 18.1,-4.4 -1.2,-1.8 -2.3,-4 -3.4,-6.6 -2.1,-5.1 -2.7,-9.6 -1.8,-13.5 0.8,-3.9 2.8,-7.5 5.9,-10.8 z"
           id="path45"
           inkscape:connector-curvature="0"
           style="fill:#723d44" /></g></g></g><g
     id="g47"
     transform="translate(-16.400001,-8.3)"><g
       id="g49"><g
         id="Layer0_0_MEMBER_6_FILL"><path
           class="st0"
           d="m 56.9,30 13,26.5 20.5,-6.7 -7.7,-10.2 -2,-0.9 V 36.9 L 77.4,32.5 56.9,30 z"
           id="path52"
           inkscape:connector-curvature="0"
           style="fill:#bd686d" /></g></g></g><g
     id="g54"
     transform="translate(-16.400001,-8.3)"><g
       id="g56"><g
         id="Layer0_0_MEMBER_7_FILL"><path
           class="st4"
           d="m 55.3,166.5 -26,22.3 22.2,3.5 7.6,-6.2 0.5,-1.9 2.4,-0.5 7.1,-5.9 -13.8,-11.3 z"
           id="path59"
           inkscape:connector-curvature="0"
           style="fill:#a35059" /></g></g></g><g
     id="g61"
     transform="translate(-16.400001,-8.3)"><g
       id="g63"><g
         id="Layer0_0_MEMBER_8_FILL"><path
           class="st6"
           d="m 152.4,50.2 1.5,-32.2 -16.2,-5.3 -1.4,35.6 16.1,1.9 z"
           id="path66"
           inkscape:connector-curvature="0"
           style="fill:#c4797c" /></g></g></g><g
     id="g68"
     transform="translate(-16.400001,-8.3)"><g
       id="g70"><g
         id="Layer0_0_MEMBER_9_FILL"><path
           class="st0"
           d="M 193.1,69.4 203.9,71.8 191.8,50.6 177.4,48 193.1,69.4 z"
           id="path73"
           inkscape:connector-curvature="0"
           style="fill:#bd686d" /></g></g></g><g
     id="g75"
     transform="translate(-16.400001,-8.3)"><g
       id="g77"><g
         id="Layer0_0_MEMBER_10_FILL"><path
           class="st0"
           d="m 194.1,114.8 -5.1,29.1 14.1,-1.4 4.6,-24.6 -13.6,-3.1 z"
           id="path80"
           inkscape:connector-curvature="0"
           style="fill:#bd686d" /></g></g></g><g
     id="g82"
     transform="translate(-16.400001,-8.3)"><g
       id="g84"><g
         id="Layer0_0_MEMBER_11_FILL"><path
           class="st4"
           d="m 150.7,214.1 14.1,1.1 20.8,-14.8 -15.8,-0.4 -19.1,14.1 z"
           id="path87"
           inkscape:connector-curvature="0"
           style="fill:#a35059" /></g></g></g><g
     id="g89"
     transform="translate(-16.400001,-8.3)"><g
       id="g91"><g
         id="Layer0_0_MEMBER_12_FILL"><path
           class="st4"
           d="m 115.7,196.7 -13.5,-1.3 -8.8,14.8 -1.4,16.1 13.7,-1.3 4.1,-11.3 -0.7,-2.2 1.9,-1.4 4.7,-13.4 z"
           id="path94"
           inkscape:connector-curvature="0"
           style="fill:#a35059" /></g></g></g><g
     id="g96"
     transform="translate(-16.400001,-8.3)"><g
       id="g98"><g
         id="Layer0_0_MEMBER_13_FILL"><path
           class="st7"
           d="m 183.3,115.5 0.2,-2.3 -8.4,-2 2.6,3.2 5.6,1.1 z"
           id="path101"
           inkscape:connector-curvature="0"
           style="fill:#ce9192" /></g></g></g><g
     id="g103"
     transform="translate(-16.400001,-8.3)"><g
       id="g105"><g
         id="Layer0_0_MEMBER_14_FILL"><path
           class="st8"
           d="m 179.3,140.5 1.9,2.3 5.7,-0.9 -0.2,-3.9 -7.4,2.5 z"
           id="path108"
           inkscape:connector-curvature="0"
           style="fill:#8c474f" /></g></g></g><g
     id="g110"
     transform="translate(-16.400001,-8.3)"><g
       id="g112"><g
         id="Layer0_0_MEMBER_15_FILL"><linearGradient
           id="SVGID_1_"
           gradientUnits="userSpaceOnUse"
           x1="176.89481"
           y1="247.524"
           x2="40.394798"
           y2="80.524002"
           gradientTransform="matrix(1,0,0,-1,0,282.6667)"><stop
             offset="0"
             style="stop-color:#C07074"
             id="stop116" /><stop
             offset="1"
             style="stop-color:#B04758"
             id="stop118" /></linearGradient><path
           class="st9"
           d="m 190.1,71.6 3,-2.2 -15.7,-21.4 -8.7,4.5 -2.4,2.6 -2.8,0.2 -3.4,1.8 -1.4,1.5 -2.1,0.3 -4.8,2.5 C 147.4,55.9 142.3,51.5 136.5,48 l 1.2,-35.2 -24.6,-4.5 -3.1,10.3 0.3,4.1 -2.7,3.5 -4,13.3 C 93.5,39.9 83.7,43.2 74.3,49.4 L 67,41.3 63.2,40.1 63,36.7 56.9,30 44.8,40.6 l 10,17.1 2.1,0.9 -0.4,2 1.8,3 C 51.1,72 45.4,81.5 41.3,92.3 l -3,-0.3 -2.1,0.6 -2.2,-1.1 -14.1,-1.6 -3.5,15.6 3.6,2.1 2.8,0.2 1.5,2.3 11.3,6.8 c -1.1,11.8 0.2,22.9 4,33.2 l -12.2,11.5 -1,2.7 -2.5,0.7 -2.3,2.1 7.9,21.8 18.3,-11.3 1.2,-2.3 h 2.5 l 3.2,-1.9 c 5.6,5.5 12.4,10.2 20.3,14 l -1.2,7.9 0.5,2.6 -1.2,2.5 -3.4,20.6 22.3,5.3 4.2,-12.8 -0.3,-2.5 1.8,-2.1 4.4,-13.4 c 10.8,1.2 20.7,-0.5 29.6,-4.9 l 5.8,7.2 3.6,1.5 0.9,4.2 8.6,10.8 19,-14.1 -6.1,-13.8 -2.5,-2 v -3.6 l -5.6,-12.3 c 5.1,-8.2 8.9,-17.4 11.2,-27.6 l 14.5,2.1 2.6,-1.1 2.1,1.7 3.1,0.4 5.1,-29.1 -10.9,-2 -3.8,0.8 -4.4,-2.4 -5.7,-1.1 c -0.5,-7.5 -1.7,-14.6 -3.6,-21.2 l 20.4,-14.5 1.1,-2.7 3,-0.2 m -102.5,27 c 2.6,-3 5.3,-4.3 8.1,-4 4.6,0.5 7.8,2.8 9.8,6.8 1.8,3.5 2.3,7.7 1.5,12.3 -0.8,4.7 -2.6,8.4 -5.4,11.1 -3.1,3.1 -6.7,4.1 -10.8,3 -4.1,-1 -6.8,-3.5 -8.2,-7.2 -1.2,-3.3 -1.3,-7.2 -0.2,-11.6 1,-4.1 2.7,-7.6 5.2,-10.4 z"
           id="path120"
           inkscape:connector-curvature="0"
           style="fill:url(#SVGID_1_)" /></g></g></g><g
     id="g122"
     transform="translate(-16.400001,-8.3)"><g
       id="g124"><g
         id="Layer0_0_MEMBER_16_FILL"><path
           class="st4"
           d="m 61.8,40.4 0.2,-4.6 -5.8,-3.4 4.3,4.7 -0.5,5.3 2.3,-0.8 10,10.5 -5,-9.3 -5.5,-2.4 z"
           id="path127"
           inkscape:connector-curvature="0"
           style="fill:#a35059" /></g></g></g><g
     id="g129"
     transform="translate(-16.400001,-8.3)"><g
       id="g131"><g
         id="Layer0_0_MEMBER_17_FILL"><path
           class="st4"
           d="m 53.3,46.2 -6.5,-5.2 8.3,13.5 3.3,-0.7 0.2,7.7 1.7,-9.2 -3.8,-1.5 -3.2,-4.6 z"
           id="path134"
           inkscape:connector-curvature="0"
           style="fill:#a35059" /></g></g></g><g
     id="g136"
     transform="translate(-16.400001,-8.3)"><g
       id="g138"><g
         id="Layer0_0_MEMBER_18_FILL"><path
           class="st4"
           d="m 33.3,94.7 3.2,0.7 -3.7,-2.7 -11.5,-0.7 6.5,2 3.1,2.7 2.4,-2 z"
           id="path141"
           inkscape:connector-curvature="0"
           style="fill:#a35059" /></g></g></g><g
     id="g143"
     transform="translate(-16.400001,-8.3)"><g
       id="g145"><g
         id="Layer0_0_MEMBER_19_FILL"><path
           class="st4"
           d="m 20,106.1 4.9,0.8 1,3 8.9,3.3 -7.7,-4 -1.1,-3.2 -7.7,-1.2 1.7,1.3 z"
           id="path148"
           inkscape:connector-curvature="0"
           style="fill:#a35059" /></g></g></g><g
     id="g150"
     transform="translate(-16.400001,-8.3)"><g
       id="g152"><g
         id="Layer0_0_MEMBER_20_FILL"><path
           class="st10"
           d="m 34.8,165 1.8,-5 3,-6.5 -5.8,5.8 -2,5.2 -5.2,2.2 8.2,-1.7 z"
           id="path155"
           inkscape:connector-curvature="0"
           style="fill:#96374b" /></g></g></g><g
     id="g157"
     transform="translate(-16.400001,-8.3)"><g
       id="g159"><g
         id="Layer0_0_MEMBER_21_FILL"><path
           class="st10"
           d="m 51.6,173 1.2,-2 -5.5,1.2 -17.2,12.5 15.7,-8 1.2,-3 4.6,-0.7 z"
           id="path162"
           inkscape:connector-curvature="0"
           style="fill:#96374b" /></g></g></g><g
     id="g164"
     transform="translate(-16.400001,-8.3)"><g
       id="g166"><g
         id="Layer0_0_MEMBER_22_FILL"><path
           class="st10"
           d="m 80.1,199 -4.2,-8.5 -0.2,4 1.5,3.8 -2.8,5.5 -2.5,13 5,-13.5 3.2,-4.3 z"
           id="path169"
           inkscape:connector-curvature="0"
           style="fill:#96374b" /></g></g></g><g
     id="g171"
     transform="translate(-16.400001,-8.3)"><g
       id="g173"><g
         id="Layer0_0_MEMBER_23_FILL"><path
           class="st10"
           d="m 94.8,214.2 -0.2,-7 2.2,-9 -4.8,9 1.2,3 -2,9.8 3.6,-5.8 z"
           id="path176"
           inkscape:connector-curvature="0"
           style="fill:#96374b" /></g></g></g><g
     id="g178"
     transform="translate(-16.400001,-8.3)"><g
       id="g180"><g
         id="Layer0_0_MEMBER_24_FILL"><path
           class="st10"
           d="m 146.1,193.5 -5,-1.8 -5,-2.5 8,7.8 -0.5,6 7.5,7.2 -4.2,-8.2 -0.8,-8.5 z"
           id="path183"
           inkscape:connector-curvature="0"
           style="fill:#96374b" /></g></g></g><g
     id="g185"
     transform="translate(-16.400001,-8.3)"><g
       id="g187"><g
         id="Layer0_0_MEMBER_25_FILL"><path
           class="st10"
           d="m 158.6,179.7 -4.8,-6.8 3,8.2 -1,6 5,0.8 6.5,11.2 -5,-12.2 -4.2,-2 0.5,-5.2 z"
           id="path190"
           inkscape:connector-curvature="0"
           style="fill:#96374b" /></g></g></g><g
     id="g192"
     transform="translate(-16.400001,-8.3)"><g
       id="g194"><g
         id="Layer0_0_MEMBER_26_FILL"><path
           class="st11"
           d="m 128.8,23.5 -7.5,-4.5 -0.6,1.4 c -0.3,1 -0.2,1.5 0.1,1.6 0.5,0.2 1.8,1.7 3.8,4.5 l -2.5,6.2 6.7,-9.2 z"
           id="path197"
           inkscape:connector-curvature="0"
           style="fill:#ca8889" /></g></g></g><g
     id="g199"
     transform="translate(-16.400001,-8.3)"><g
       id="g201"><g
         id="Layer0_0_MEMBER_27_FILL"><path
           class="st11"
           d="m 182.6,64.2 -3.2,-4.8 1.8,-2.8 -4.2,-1.5 -0.8,3.5 2.5,4.5 -10.5,2.5 0.5,2.8 3.2,-2.5 10.7,-1.7 z"
           id="path204"
           inkscape:connector-curvature="0"
           style="fill:#ca8889" /></g></g></g><g
     id="g206"
     transform="translate(-16.400001,-8.3)"><g
       id="g208"><g
         id="Layer0_0_MEMBER_28_FILL"><path
           class="st11"
           d="m 184.3,125.5 1,5.5 2.5,-7.8 -14.5,1.2 11,1.1 z"
           id="path211"
           inkscape:connector-curvature="0"
           style="fill:#ca8889" /></g></g></g><g
     id="g213"
     transform="translate(-16.400001,-8.3)"><g
       id="g215"><g
         id="Layer0_0_MEMBER_29_FILL"><path
           class="st11"
           d="m 60.3,47 -5.2,-6 2,-4.2 -5,5 8.2,5.2 z"
           id="path218"
           inkscape:connector-curvature="0"
           style="fill:#ca8889" /></g></g></g><g
     id="g220"
     transform="translate(-16.400001,-8.3)"><g
       id="g222"><g
         id="Layer0_0_MEMBER_30_FILL"><path
           class="st11"
           d="m 26.8,97.2 3.5,6.5 -2.8,-8.5 -6,-0.2 -3,5.5 3.5,-3.5 4.8,0.2 z"
           id="path225"
           inkscape:connector-curvature="0"
           style="fill:#ca8889" /></g></g></g><g
     id="g227"
     transform="translate(-16.400001,-8.3)"><g
       id="g229"><g
         id="Layer0_0_MEMBER_31_FILL"><path
           class="st6"
           d="m 151,188.7 v -3.3 l -4,3.7 8.4,2.6 0.6,9.7 3.4,-12 -8.4,-0.7 z"
           id="path232"
           inkscape:connector-curvature="0"
           style="fill:#c4797c" /></g></g></g><g
     id="g234"
     transform="translate(-16.400001,-8.3)"><g
       id="g236"><g
         id="Layer0_0_MEMBER_32_FILL"><path
           class="st6"
           d="m 84,203.4 1.3,-7.7 -3.7,7 v 9.7 l 2.4,-9 z"
           id="path239"
           inkscape:connector-curvature="0"
           style="fill:#c4797c" /></g></g></g><g
     id="g241"
     transform="translate(-16.400001,-8.3)"><g
       id="g243"><g
         id="Layer0_0_MEMBER_33_FILL"><path
           class="st6"
           d="m 45.3,167.1 -4,-4.4 -4.3,5.7 -7.3,2 2.6,3.3 4.7,-3 3.7,-3.6 h 4.6 z"
           id="path246"
           inkscape:connector-curvature="0"
           style="fill:#c4797c" /></g></g></g><g
     id="g248"
     transform="translate(-16.400001,-8.3)"><g
       id="g250"><g
         id="Layer0_0_MEMBER_34_FILL"><path
           class="st4"
           d="m 121.1,68.7 c 7.2,6.8 12.5,13.8 15.9,21 4.2,9 6.3,19.7 6.3,32 0,5.4 -1.2,13.2 -3.5,23.4 -1.2,5.1 -2.3,9.6 -3.5,13.6 2.6,-6.2 5.5,-14.2 8.5,-24 3.4,-10.9 3.3,-22.4 -0.2,-34.6 -3.7,-12.8 -10.5,-23.4 -20.3,-31.9 -8.4,-7.3 -18.4,-9.6 -29.9,-7 -3.6,0.8 -7.2,2.1 -10.7,3.8 l -4.2,2.4 4.6,-1.7 c 3.7,-1.2 7.4,-2.1 11,-2.6 11.5,-1.6 20.2,0.2 26,5.6 z"
           id="path253"
           inkscape:connector-curvature="0"
           style="fill:#a35059" /></g></g></g><g
     id="g255"
     transform="translate(-16.400001,-8.3)"><g
       id="g257"><g
         id="Layer0_0_MEMBER_35_FILL"><path
           class="st12"
           d="m 55.1,118.2 -0.7,3.4 c -0.4,2.8 -0.7,5.6 -0.7,8.4 -0.2,9 1.6,16.4 5.3,22.1 6.9,10.5 15.5,17.1 25.8,19.7 5.2,1.3 9.7,1.6 13.4,0.8 -3,0.1 -6.8,-0.7 -11.3,-2.4 -9.1,-3.5 -17.4,-9.7 -24.9,-18.8 -3.4,-4 -5.5,-10.8 -6.5,-20.2 l -0.4,-13 z"
           id="path260"
           inkscape:connector-curvature="0"
           style="fill:#c76b70" /></g></g></g><g
     id="g262"
     transform="translate(-16.400001,-8.3)"><g
       id="g264"><g
         id="Layer0_0_MEMBER_36_FILL"><path
           class="st13"
           d="M 63,36.7 63.3,40 80.7,38.7 V 36.9 L 63,36.7 z"
           id="path267"
           inkscape:connector-curvature="0"
           style="fill:#c27377" /></g></g></g><g
     id="g269"
     transform="translate(-16.400001,-8.3)"><g
       id="g271"><g
         id="Layer0_0_MEMBER_37_FILL"><path
           class="st14"
           d="m 63.3,40.1 3.8,1.2 15.6,-1.7 -2,-0.9 -17.4,1.4 z"
           id="path274"
           inkscape:connector-curvature="0"
           style="fill:#b75a63" /></g></g></g><g
     id="g276"
     transform="translate(-16.400001,-8.3)"><g
       id="g278"><g
         id="Layer0_0_MEMBER_38_FILL"><path
           class="st0"
           d="m 187.2,71.7 -1.1,2.7 12.6,4.8 -0.2,-2.6 -11.3,-4.9 z"
           id="path281"
           inkscape:connector-curvature="0"
           style="fill:#bd686d" /></g></g></g><g
     id="g283"
     transform="translate(-16.400001,-8.3)"><g
       id="g285"><g
         id="Layer0_0_MEMBER_39_FILL"><path
           class="st8"
           d="m 190.1,71.6 -2.9,0.2 11.3,4.8 2.6,-0.7 -11,-4.3 z"
           id="path288"
           inkscape:connector-curvature="0"
           style="fill:#8c474f" /></g></g></g><g
     id="g290"
     transform="translate(-16.400001,-8.3)"><g
       id="g292"><g
         id="Layer0_0_MEMBER_40_FILL"><path
           class="st4"
           d="m 178.6,185.1 0.4,-2.2 -17.9,-2.2 v 3.6 l 17.5,0.8 z"
           id="path295"
           inkscape:connector-curvature="0"
           style="fill:#a35059" /></g></g></g><g
     id="g297"
     transform="translate(-16.400001,-8.3)"><g
       id="g299"><g
         id="Layer0_0_MEMBER_41_FILL"><path
           class="st13"
           d="m 180.5,186.7 -1.9,-1.6 -17.5,-0.9 2.5,2 16.9,0.5 z"
           id="path302"
           inkscape:connector-curvature="0"
           style="fill:#c27377" /></g></g></g><g
     id="g304"
     transform="translate(-16.400001,-8.3)"><g
       id="g306"><g
         id="Layer0_0_MEMBER_42_FILL"><path
           class="st8"
           d="M 109.1,211.4 111,210 97.8,208.9 96,211 l 13.1,0.4 z"
           id="path309"
           inkscape:connector-curvature="0"
           style="fill:#8c474f" /></g></g></g><g
     id="g311"
     transform="translate(-16.400001,-8.3)"><g
       id="g313"><g
         id="Layer0_0_MEMBER_43_FILL"><path
           class="st15"
           d="m 109.7,213.6 -0.7,-2.2 -13,-0.5 0.3,2.5 13.4,0.2 z"
           id="path316"
           inkscape:connector-curvature="0"
           style="fill:#b1555f" /></g></g></g><g
     id="g318"
     transform="translate(-16.400001,-8.3)"><g
       id="g320"><g
         id="Layer0_0_MEMBER_44_FILL"><path
           class="st8"
           d="m 48.8,175.1 -1.2,2.3 11.5,8.6 0.5,-1.9 -10.8,-9 z"
           id="path323"
           inkscape:connector-curvature="0"
           style="fill:#8c474f" /></g></g></g><g
     id="g325"
     transform="translate(-16.400001,-8.3)"><g
       id="g327"><g
         id="Layer0_0_MEMBER_45_FILL"><path
           class="st16"
           d="m 51.4,175.1 h -2.5 l 10.8,9 2.4,-0.5 -10.7,-8.5 z"
           id="path330"
           inkscape:connector-curvature="0"
           style="fill:#82434b" /></g></g></g><g
     transform="translate(47.049999,75.6)"
     id="g332"><g
       id="g334"><image
         style="overflow:visible;enable-background:new"
         width="30"
         height="38"
         id="FlashAICB_buildings_mid__Path__17"
         xlink:href="data:image/png;base64,iVBORw0KGgoAAAANSUhEUgAAAB8AAAAnCAYAAAD3h5P5AAAACXBIWXMAAAsSAAALEgHS3X78AAAA GXRFWHRTb2Z0d2FyZQBBZG9iZSBJbWFnZVJlYWR5ccllPAAAAupJREFUeNrcWL9rGzEUfpLuXDUJ 4UhJOZoOHg1tXI/ZEujSMWPH/And04AhzZ4/oWPHjJmKR4/BaSGQxUMcRNPCtfmB8FlS37N9IRfs 1D77YqhA6HxY9+mT3vveewKYYWPj/Lm68iqk0Wdio/vCAf2uOHCHzkLUMab5u32j8J3ej5p6KuDV sBTExsiC96TCGde/bv7U6X0C8CEoShzk0tP5EuMsMOBoAara+q4mBt8NXxcdg9By1/zXB6ntraxW nHNBB6wCxqJR5gz5UPkd9WxzVyvUx2beZQsusGCaVXUSZTUqArfgQjyKo/s7IIZNWl9Ygrbp6Mt2 +6quo05W8K+XP9QbMXeGQPLt4nOvdvXz1hC9QRM+rZQ3iTU+HuxfnOpJXSqQUnIQIQNGOxgN3fbE nTIbyQMegwso0gJ21LfmQOY+8LD/OFXwSGs97/vKF+J2J/l94zDWyovry5NpqxlpwlxBhkJ4a8nu pphb4yJjncxLTvukaMt1ivnui9WS41BkPotGkcas7JfnFzexv08xNzZWKKHRdRxHkGPbbjU+p1yN zoA7viF5Qe1dnNbyBCe1RDcOUXoPZxlRe36+97LcPYPts8aXvAH7Wk/9aLbMk/NG5VE7541a3oB3 8WbLPAkixsQHk4TOURvpCWNQQWM7mS1z9Lut+86fL/PyBvm5ZbY2U+akOFsJ+/8R74Ezf0R1u2vp 263jx1U4Ki76BUYvqqGfr+FYwiS/vnN+nKvvYRzvlVkRHA5dUV6ymqRPqXi+vLC42V9RbucunCgN TUwHrWyaYXRQ2eQlObXnGFpiN6mferSJqWCctLCbdqHpjb3CMSoU4DyMwRwNq35SRQP9yQdRyVoS p4CxROOWSWGYHLtEzqJ8fVDwRKHrzx9bjYPMNxNk/QJY1wboqqODef2V1lFy55JowzO5ENLNBeMs BAcaa4D6KIkJG1UgcMDciwWYewWozxInyt6dEGjrnLJkL9aqcbKhvwIMADMkVfWcsFDHAAAAAElF TkSuQmCC"
         transform="translate(16.3333,8.3333)" /></g></g><g
     id="g337"
     transform="translate(-16.400001,-8.3)"><g
       id="g339"><path
         id="Layer0_0_MEMBER_47_1_STROKES"
         class="st17"
         d="m 79.3,107 c -1.9,7.1 -1.5,13.1 1.3,18 2.8,4.9 7.2,7.3 13.2,7.2 5.7,-0.1 10.1,-2.5 13.2,-7.1 2.8,-4.1 4.2,-9.3 4.2,-15.7 0,-5.4 -1.6,-9.9 -4.7,-13.6 -2.8,-3.2 -5.9,-5 -9.6,-5.2 -3.4,-0.2 -6.5,0.7 -9.3,2.8 -3.8,2.8 -6.6,7.3 -8.3,13.6 z"
         inkscape:connector-curvature="0"
         style="fill:none;stroke:#893342" /></g></g><g
     id="g342"
     transform="translate(-16.400001,-8.3)"><g
       id="g344"><path
         id="Layer0_0_MEMBER_48_1_STROKES"
         class="st18"
         d="m 110.1,42.7 c -12.2,-0.5 -23.3,2.1 -33.4,7.9 -12.1,7 -21.8,18.2 -29.1,33.6 -10.2,21.3 -12.4,40.9 -6.6,58.9 4.2,13 12.3,24.6 24.4,34.6 8.6,7.1 17.8,11.7 27.6,13.9 9.2,2 18.2,1.7 27.2,-0.9 8.6,-2.5 16.3,-6.8 23,-12.9 6.9,-6.2 12,-13.7 15.4,-22.3 6.3,-16 9,-31.3 7.9,-45.9 -0.8,-11.8 -3.9,-22.9 -9.4,-33.3 -5.2,-9.9 -11.4,-17.6 -18.3,-23.1 -8.3,-6.5 -17.8,-10 -28.7,-10.5 z"
         inkscape:connector-curvature="0"
         style="fill:none;stroke:#9c3748" /></g></g><g
     id="g347"
     transform="translate(-16.400001,-8.3)"><g
       id="g349"><g
         id="Layer0_0_MEMBER_49_FILL"><path
           class="st16"
           d="m 105.6,46.7 c 9.1,0 18,2.8 26.9,8.5 11.1,7 18.8,16.9 23.3,29.8 4.3,12.3 6.4,25.6 6.4,39.9 0,7.2 -0.5,13.1 -1.4,17.8 1,-3.3 1.8,-8.8 2.5,-16.5 0.6,-7 0.8,-12.8 0.4,-17.2 -0.5,-6.6 -1.9,-13.7 -4.4,-21.5 C 156.1,77.4 151.6,69.1 146,62.6 138.9,54.3 129.6,48.7 118.3,45.8 108,43 97.3,44 86.2,48.7 80.6,51 76.1,53.6 72.6,56.5 c 3.6,-2.6 8,-4.7 13.2,-6.5 6.5,-2.2 13.1,-3.3 19.8,-3.3 z"
           id="path352"
           inkscape:connector-curvature="0"
           style="fill:#82434b" /></g></g></g><g
     id="g354"
     transform="translate(-16.400001,-8.3)"><g
       id="g356"><g
         id="Layer0_0_MEMBER_50_FILL"><path
           class="st12"
           d="m 43.3,99.4 -1.1,4.1 c -0.8,3.5 -1.4,7.2 -1.8,10.9 -1.2,11.9 0.3,22.6 4.3,32 4.5,10.5 10.5,19.5 18.1,26.9 6.4,6.2 13.3,10.9 20.9,14.1 6.1,2.6 12.8,3.9 20.1,3.9 6.1,0 11.5,-0.9 16.2,-2.6 3.5,-1.2 6.2,-3.1 8.1,-5.4 l 1.9,-3.2 c -1.6,1.2 -4,2.3 -7.2,3.4 -6.4,2.2 -13.5,3.2 -21.4,2.9 -8.2,-0.3 -17.1,-3.5 -26.7,-9.8 -9.9,-6.5 -17.8,-14.5 -23.7,-23.9 -5,-8.1 -7.8,-19.4 -8.3,-33.9 -0.2,-4.5 -0.2,-9.1 0.1,-13.8 l 0.5,-5.6 z"
           id="path359"
           inkscape:connector-curvature="0"
           style="fill:#c76b70" /></g></g></g><g
     id="g361"
     transform="translate(-16.400001,-8.3)"><g
       id="g363"><g
         id="Layer0_0_MEMBER_51_FILL"><path
           class="st16"
           d="m 102,90.6 c 2.9,1.5 5.2,3.5 7,5.8 2.3,3 3.6,6.6 3.8,10.8 0.2,3.8 -0.2,7.8 -1.3,12.1 -0.5,2.1 -1.1,3.9 -1.7,5.2 0.9,-1.1 1.8,-2.6 2.7,-4.4 1.8,-3.6 2.8,-7.1 3,-10.4 0.6,-10.3 -2.7,-17.3 -10,-20.8 -3,-1.5 -6.6,-1.7 -11,-0.8 l -5.5,1.8 5,-0.5 c 3.7,-0.1 6.3,0.3 8,1.2 z"
           id="path366"
           inkscape:connector-curvature="0"
           style="fill:#82434b" /></g></g></g><g
     id="g368"
     transform="translate(-16.400001,-8.3)"><g
       id="g370"><g
         id="Layer0_0_MEMBER_52_FILL"><path
           class="st12"
           d="m 78.5,125.9 c -1.7,-3.6 -2.5,-8.6 -2.3,-14.8 l 0.8,-8.2 -2.5,8.3 c -1.2,6.4 -0.6,11.7 1.8,15.9 2.6,4.6 7.3,7.5 13.9,8.5 3.3,0.5 6.3,0.6 9.1,0.2 -2.8,-0.2 -5.7,-0.8 -8.8,-1.7 -6.3,-1.9 -10.3,-4.6 -12,-8.2 z"
           id="path373"
           inkscape:connector-curvature="0"
           style="fill:#c76b70" /></g></g></g><g
     id="g375"
     transform="translate(-16.400001,-8.3)"><g
       id="g377"><g
         id="Layer0_0_MEMBER_53_FILL"><path
           class="st19"
           d="m 141,16.7 2.5,2.2 c 1.8,1.6 3.1,2.7 3.8,3.4 0.7,0.7 1.2,4.6 1.4,11.8 0.1,3.6 0.2,7.1 0.2,10.5 L 151.6,19.2 141,16.7 z"
           id="path380"
           inkscape:connector-curvature="0"
           style="fill:#d5a3a3" /></g></g></g><g
     id="g382"
     transform="translate(-16.400001,-8.3)"><g
       id="g384"><g
         id="Layer0_0_MEMBER_54_FILL"><path
           class="st19"
           d="m 182.5,50.4 7.4,2.4 c 1,0.4 3,3.1 6.1,8.3 1.5,2.6 3,5.2 4.4,7.7 l -8.9,-17.2 -9,-1.2 z"
           id="path387"
           inkscape:connector-curvature="0"
           style="fill:#d5a3a3" /></g></g></g><g
     id="g389"
     transform="translate(-16.400001,-8.3)"><g
       id="g391"><g
         id="Layer0_0_MEMBER_55_FILL"><path
           class="st19"
           d="m 196.7,116.7 2.4,1 c 1.8,0.9 3.1,1.9 4.1,3 0.9,1.1 1.1,4.6 0.5,10.4 -0.3,2.9 -0.6,5.8 -1,8.4 l 3.8,-20.8 -9.8,-2 z"
           id="path394"
           inkscape:connector-curvature="0"
           style="fill:#d5a3a3" /></g></g></g><g
     id="g396"
     transform="translate(-16.400001,-8.3)"><g
       id="g398"><g
         id="Layer0_0_MEMBER_56_FILL"><path
           class="st4"
           d="m 192.5,65.9 c -0.7,-1 -2.6,-3.7 -5.8,-7.8 l -4.7,-6 11.4,15.8 4.9,1.3 c -0.5,-0.1 -0.9,-0.3 -1.5,-0.5 -2.2,-0.9 -3.6,-1.8 -4.3,-2.8 z"
           id="path401"
           inkscape:connector-curvature="0"
           style="fill:#a35059" /></g></g></g><g
     id="g403"
     transform="translate(-16.400001,-8.3)"><g
       id="g405"><g
         id="Layer0_0_MEMBER_57_FILL"><path
           class="st4"
           d="m 189.8,142.7 10.4,-0.6 c -1.2,0.1 -2.4,0 -3.6,-0.2 -2.9,-0.4 -4.4,-1.3 -4.6,-2.8 -0.2,-1.5 0.1,-5.5 1,-12.2 l 1.4,-9.6 -4.6,25.4 z"
           id="path408"
           inkscape:connector-curvature="0"
           style="fill:#a35059" /></g></g></g><g
     id="g410"
     transform="translate(-16.400001,-8.3)"><g
       id="g412"><g
         id="Layer0_0_MEMBER_58_FILL"><path
           class="st4"
           d="m 177,118.7 13.5,-1.8 -19.5,-3.7 8.4,3.5 -2.4,2 z"
           id="path415"
           inkscape:connector-curvature="0"
           style="fill:#a35059" /></g></g></g><g
     id="g417"
     transform="translate(-16.400001,-8.3)"><g
       id="g419"><g
         id="Layer0_0_MEMBER_59_FILL"><path
           class="st4"
           d="m 179.7,142.1 4.6,-1.9 -4.1,0.7 -8.2,-2 -5.1,1 12.8,2.2 z"
           id="path422"
           inkscape:connector-curvature="0"
           style="fill:#a35059" /></g></g></g><g
     id="g424"
     transform="translate(-16.400001,-8.3)"><g
       id="g426"><g
         id="Layer0_0_MEMBER_60_FILL"><path
           class="st4"
           d="m 172.5,52.7 4.7,-2.7 -7,3 -2,2.8 -4.5,0.7 -9.4,6 7,-3.5 8.6,-1.8 2.6,-4.5 z"
           id="path429"
           inkscape:connector-curvature="0"
           style="fill:#a35059" /></g></g></g><g
     id="g431"
     transform="translate(-16.400001,-8.3)"><g
       id="g433"><g
         id="Layer0_0_MEMBER_61_FILL"><path
           class="st4"
           d="m 188.7,70.6 2.1,-3 -2.6,1.8 -3.7,-0.1 c -3,2.5 -6,5 -8.9,7.5 -6,5 -8.9,7.6 -8.8,7.8 0.1,0.3 0.1,0.9 0,1.8 l 13.2,-11.8 4,-1.2 1.4,-3.3 3.3,0.5 z"
           id="path436"
           inkscape:connector-curvature="0"
           style="fill:#a35059" /></g></g></g><g
     id="g438"
     transform="translate(-16.400001,-8.3)"><g
       id="g440"><g
         id="Layer0_0_MEMBER_62_FILL"><path
           class="st4"
           d="m 121.2,11.2 2.7,1.6 6.8,1 4.3,2.9 -0.7,28.3 2.4,-31.3 -15.5,-2.5 z"
           id="path443"
           inkscape:connector-curvature="0"
           style="fill:#a35059" /></g></g></g><g
     id="g445"
     transform="translate(-16.400001,-8.3)"><g
       id="g447"><g
         id="Layer0_0_MEMBER_63_FILL"><path
           class="st4"
           d="m 111.7,17.4 0.5,6.7 -3.3,4.5 -3.2,10.8 4.8,-10 5,-4.3 -2.5,-5.7 1.8,-1 -0.5,-8 -2.6,7 z"
           id="path450"
           inkscape:connector-curvature="0"
           style="fill:#a35059" /></g></g></g></svg>