<?xml version="1.0" encoding="UTF-8" standalone="no"?>
<!-- Generator: Adobe Illustrator 20.1.0, SVG Export Plug-In . SVG Version: 6.00 Build 0)  -->

<svg
   xmlns:dc="http://purl.org/dc/elements/1.1/"
   xmlns:cc="http://creativecommons.org/ns#"
   xmlns:rdf="http://www.w3.org/1999/02/22-rdf-syntax-ns#"
   xmlns:svg="http://www.w3.org/2000/svg"
   xmlns="http://www.w3.org/2000/svg"
   xmlns:sodipodi="http://sodipodi.sourceforge.net/DTD/sodipodi-0.dtd"
   xmlns:inkscape="http://www.inkscape.org/namespaces/inkscape"
   version="1.1"
   id="Layer_1"
   x="0px"
   y="0px"
   viewBox="0 0 750 110"
   xml:space="preserve"
   inkscape:version="0.48.5 r10040"
   width="100%"
   height="100%"
   sodipodi:docname="ground_front_tile_750.svg"><metadata
     id="metadata436"><rdf:RDF><cc:Work
         rdf:about=""><dc:format>image/svg+xml</dc:format><dc:type
           rdf:resource="http://purl.org/dc/dcmitype/StillImage" /></cc:Work></rdf:RDF></metadata><defs
     id="defs434" /><sodipodi:namedview
     pagecolor="#ffffff"
     bordercolor="#666666"
     borderopacity="1"
     objecttolerance="10"
     gridtolerance="10"
     guidetolerance="10"
     inkscape:pageopacity="0"
     inkscape:pageshadow="2"
     inkscape:window-width="640"
     inkscape:window-height="480"
     id="namedview432"
     showgrid="false"
     inkscape:zoom="0.49109415"
     inkscape:cx="375.1"
     inkscape:cy="56.4"
     inkscape:window-x="0"
     inkscape:window-y="0"
     inkscape:window-maximized="0"
     inkscape:current-layer="Layer_1" /><style
     type="text/css"
     id="style3">
	.st0{fill:#ABA254;}
	.st1{fill:#918B4B;}
</style><g
     id="g5"
     transform="translate(-17.9,-19.9)"><g
       id="g7"><g
         id="Layer0_0_MEMBER_0_FILL"><path
           class="st0"
           d="m 767.9,129.9 v -110 h -750 v 110 h 750 z"
           id="path10"
           inkscape:connector-curvature="0"
           style="fill:#aba254" /></g></g></g><g
     id="g12"
     transform="translate(-17.9,-19.9)"><g
       id="g14"><g
         id="Layer0_0_MEMBER_1_MEMBER_0_FILL"><path
           class="st1"
           d="m 105.4,113 6.7,-9.3 7.3,9.1 -7.3,-13.9 -6.7,14.1 z"
           id="path17"
           inkscape:connector-curvature="0"
           style="fill:#918b4b" /></g></g></g><g
     id="g19"
     transform="translate(-17.9,-19.9)"><g
       id="g21"><g
         id="Layer0_0_MEMBER_2_MEMBER_0_FILL"><path
           class="st1"
           d="m 149.3,117.3 5.3,-7.3 5.7,7.1 -5.7,-10.9 -5.3,11.1 z"
           id="path24"
           inkscape:connector-curvature="0"
           style="fill:#918b4b" /></g></g></g><g
     id="g26"
     transform="translate(-17.9,-19.9)"><g
       id="g28"><g
         id="Layer0_0_MEMBER_3_MEMBER_0_FILL"><path
           class="st1"
           d="m 191.5,119.9 5.8,-8.1 6.3,7.8 -6.3,-12.1 -5.8,12.4 z"
           id="path31"
           inkscape:connector-curvature="0"
           style="fill:#918b4b" /></g></g></g><g
     id="g33"
     transform="translate(-17.9,-19.9)"><g
       id="g35"><g
         id="Layer0_0_MEMBER_4_MEMBER_0_FILL"><path
           class="st1"
           d="m 222.8,107.4 6.3,-8.8 6.8,8.5 -6.8,-13 -6.3,13.3 z"
           id="path38"
           inkscape:connector-curvature="0"
           style="fill:#918b4b" /></g></g></g><g
     id="g40"
     transform="translate(-17.9,-19.9)"><g
       id="g42"><g
         id="Layer0_0_MEMBER_5_MEMBER_0_FILL"><path
           class="st1"
           d="m 273,118.1 3.7,-5.1 4.1,5 -4.1,-7.7 -3.7,7.8 z"
           id="path45"
           inkscape:connector-curvature="0"
           style="fill:#918b4b" /></g></g></g><g
     id="g47"
     transform="translate(-17.9,-19.9)"><g
       id="g49"><g
         id="Layer0_0_MEMBER_6_MEMBER_0_FILL"><path
           class="st1"
           d="m 311.8,107.3 6.2,-8.6 6.7,8.3 -6.7,-12.7 -6.2,13 z"
           id="path52"
           inkscape:connector-curvature="0"
           style="fill:#918b4b" /></g></g></g><g
     id="g54"
     transform="translate(-17.9,-19.9)"><g
       id="g56"><g
         id="Layer0_0_MEMBER_7_MEMBER_0_FILL"><path
           class="st1"
           d="m 347.7,124.3 6,-8.3 6.5,8 -6.5,-12.3 -6,12.6 z"
           id="path59"
           inkscape:connector-curvature="0"
           style="fill:#918b4b" /></g></g></g><g
     id="g61"
     transform="translate(-17.9,-19.9)"><g
       id="g63"><g
         id="Layer0_0_MEMBER_8_MEMBER_0_FILL"><path
           class="st1"
           d="m 375,114.5 6.9,-9.6 7.4,9.2 -7.4,-14.2 -6.9,14.6 z"
           id="path66"
           inkscape:connector-curvature="0"
           style="fill:#918b4b" /></g></g></g><g
     id="g68"
     transform="translate(-17.9,-19.9)"><g
       id="g70"><g
         id="Layer0_0_MEMBER_9_MEMBER_0_FILL"><path
           class="st1"
           d="m 433.5,114.4 5.4,-7.4 5.8,7.2 -5.8,-11.1 -5.4,11.3 z"
           id="path73"
           inkscape:connector-curvature="0"
           style="fill:#918b4b" /></g></g></g><g
     id="g75"
     transform="translate(-17.9,-19.9)"><g
       id="g77"><g
         id="Layer0_0_MEMBER_10_MEMBER_0_FILL"><path
           class="st1"
           d="m 474.1,128.2 6.7,-9.3 7.2,9.1 -7.2,-13.9 -6.7,14.1 z"
           id="path80"
           inkscape:connector-curvature="0"
           style="fill:#918b4b" /></g></g></g><g
     id="g82"
     transform="translate(-17.9,-19.9)"><g
       id="g84"><g
         id="Layer0_0_MEMBER_11_MEMBER_0_FILL"><path
           class="st1"
           d="m 519.2,128.3 3.8,-5.3 4.2,5.1 -4.2,-7.9 -3.8,8.1 z"
           id="path87"
           inkscape:connector-curvature="0"
           style="fill:#918b4b" /></g></g></g><g
     id="g89"
     transform="translate(-17.9,-19.9)"><g
       id="g91"><g
         id="Layer0_0_MEMBER_12_MEMBER_0_FILL"><path
           class="st1"
           d="m 557.8,113.6 3.4,-4.8 3.8,4.7 -3.8,-7.2 -3.4,7.3 z"
           id="path94"
           inkscape:connector-curvature="0"
           style="fill:#918b4b" /></g></g></g><g
     id="g96"
     transform="translate(-17.9,-19.9)"><g
       id="g98"><g
         id="Layer0_0_MEMBER_13_MEMBER_0_FILL"><path
           class="st1"
           d="m 587.5,121.8 7.1,-9.8 7.6,9.4 -7.6,-14.5 -7.1,14.9 z"
           id="path101"
           inkscape:connector-curvature="0"
           style="fill:#918b4b" /></g></g></g><g
     id="g103"
     transform="translate(-17.9,-19.9)"><g
       id="g105"><g
         id="Layer0_0_MEMBER_14_MEMBER_0_FILL"><path
           class="st1"
           d="m 631.1,110.8 7.3,-10.2 8,9.9 -8,-15.1 -7.3,15.4 z"
           id="path108"
           inkscape:connector-curvature="0"
           style="fill:#918b4b" /></g></g></g><g
     id="g110"
     transform="translate(-17.9,-19.9)"><g
       id="g112"><g
         id="Layer0_0_MEMBER_15_MEMBER_0_FILL"><path
           class="st1"
           d="m 666.7,128 6.2,-8.6 6.7,8.3 -6.7,-12.8 -6.2,13.1 z"
           id="path115"
           inkscape:connector-curvature="0"
           style="fill:#918b4b" /></g></g></g><g
     id="g117"
     transform="translate(-17.9,-19.9)"><g
       id="g119"><g
         id="Layer0_0_MEMBER_16_MEMBER_0_FILL"><path
           class="st1"
           d="m 673,88.8 3.9,-5.3 4.1,5.2 -4.1,-7.8 -3.9,7.9 z"
           id="path122"
           inkscape:connector-curvature="0"
           style="fill:#918b4b" /></g></g></g><g
     id="g124"
     transform="translate(-17.9,-19.9)"><g
       id="g126"><g
         id="Layer0_0_MEMBER_17_MEMBER_0_FILL"><path
           class="st1"
           d="m 634.2,82.5 3.4,-4.8 3.8,4.6 -3.8,-7.1 -3.4,7.3 z"
           id="path129"
           inkscape:connector-curvature="0"
           style="fill:#918b4b" /></g></g></g><g
     id="g131"
     transform="translate(-17.9,-19.9)"><g
       id="g133"><g
         id="Layer0_0_MEMBER_18_MEMBER_0_FILL"><path
           class="st1"
           d="m 589.9,95.2 6,-8.3 6.5,8.1 -6.5,-12.3 -6,12.5 z"
           id="path136"
           inkscape:connector-curvature="0"
           style="fill:#918b4b" /></g></g></g><g
     id="g138"
     transform="translate(-17.9,-19.9)"><g
       id="g140"><g
         id="Layer0_0_MEMBER_19_MEMBER_0_FILL"><path
           class="st1"
           d="m 545.8,81.9 6.5,8.2 -6.5,-12.5 -6.1,12.8 6.1,-8.5 z"
           id="path143"
           inkscape:connector-curvature="0"
           style="fill:#918b4b" /></g></g></g><g
     id="g145"
     transform="translate(-17.9,-19.9)"><g
       id="g147"><g
         id="Layer0_0_MEMBER_20_MEMBER_0_FILL"><path
           class="st1"
           d="m 507.9,85.4 4.9,6.1 -4.9,-9.3 -4.5,9.5 4.5,-6.3 z"
           id="path150"
           inkscape:connector-curvature="0"
           style="fill:#918b4b" /></g></g></g><g
     id="g152"
     transform="translate(-17.9,-19.9)"><g
       id="g154"><g
         id="Layer0_0_MEMBER_21_MEMBER_0_FILL"><path
           class="st1"
           d="m 473.4,99.1 3.5,-4.8 3.8,4.7 -3.8,-7.2 -3.5,7.3 z"
           id="path157"
           inkscape:connector-curvature="0"
           style="fill:#918b4b" /></g></g></g><g
     id="g159"
     transform="translate(-17.9,-19.9)"><g
       id="g161"><g
         id="Layer0_0_MEMBER_22_MEMBER_0_FILL"><path
           class="st1"
           d="m 442.4,85.3 3.6,-5 3.9,4.8 -3.9,-7.4 -3.6,7.6 z"
           id="path164"
           inkscape:connector-curvature="0"
           style="fill:#918b4b" /></g></g></g><g
     id="g166"
     transform="translate(-17.9,-19.9)"><g
       id="g168"><g
         id="Layer0_0_MEMBER_23_MEMBER_0_FILL"><path
           class="st1"
           d="m 401.4,98.7 4.5,-6.2 4.8,6.1 -4.8,-9.2 -4.5,9.3 z"
           id="path171"
           inkscape:connector-curvature="0"
           style="fill:#918b4b" /></g></g></g><g
     id="g173"
     transform="translate(-17.9,-19.9)"><g
       id="g175"><g
         id="Layer0_0_MEMBER_24_MEMBER_0_FILL"><path
           class="st1"
           d="m 359.4,84.4 4.1,-5.8 4.5,5.6 -4.5,-8.6 -4.1,8.8 z"
           id="path178"
           inkscape:connector-curvature="0"
           style="fill:#918b4b" /></g></g></g><g
     id="g180"
     transform="translate(-17.9,-19.9)"><g
       id="g182"><g
         id="Layer0_0_MEMBER_25_MEMBER_0_FILL"><path
           class="st1"
           d="m 316.3,81.2 6.5,-9.1 7.1,8.8 -7.1,-13.4 -6.5,13.7 z"
           id="path185"
           inkscape:connector-curvature="0"
           style="fill:#918b4b" /></g></g></g><g
     id="g187"
     transform="translate(-17.9,-19.9)"><g
       id="g189"><g
         id="Layer0_0_MEMBER_26_MEMBER_0_FILL"><path
           class="st1"
           d="m 276,95.3 6.9,-9.6 7.5,9.2 -7.5,-14.2 -6.9,14.6 z"
           id="path192"
           inkscape:connector-curvature="0"
           style="fill:#918b4b" /></g></g></g><g
     id="g194"
     transform="translate(-17.9,-19.9)"><g
       id="g196"><g
         id="Layer0_0_MEMBER_27_MEMBER_0_FILL"><path
           class="st1"
           d="m 244.4,92.3 6,-8.3 6.5,8.1 -6.5,-12.3 -6,12.5 z"
           id="path199"
           inkscape:connector-curvature="0"
           style="fill:#918b4b" /></g></g></g><g
     id="g201"
     transform="translate(-17.9,-19.9)"><g
       id="g203"><g
         id="Layer0_0_MEMBER_28_MEMBER_0_FILL"><path
           class="st1"
           d="m 202.5,88.9 4.5,-6.2 4.8,6 -4.8,-9.2 -4.5,9.4 z"
           id="path206"
           inkscape:connector-curvature="0"
           style="fill:#918b4b" /></g></g></g><g
     id="g208"
     transform="translate(-17.9,-19.9)"><g
       id="g210"><g
         id="Layer0_0_MEMBER_29_MEMBER_0_FILL"><path
           class="st1"
           d="m 155.7,79.6 6.2,-8.7 6.8,8.4 -6.8,-12.9 -6.2,13.2 z"
           id="path213"
           inkscape:connector-curvature="0"
           style="fill:#918b4b" /></g></g></g><g
     id="g215"
     transform="translate(-17.9,-19.9)"><g
       id="g217"><g
         id="Layer0_0_MEMBER_30_MEMBER_0_FILL"><path
           class="st1"
           d="m 119.3,82.5 3.9,-5.5 4.2,5.3 -4.2,-8.1 -3.9,8.3 z"
           id="path220"
           inkscape:connector-curvature="0"
           style="fill:#918b4b" /></g></g></g><g
     id="g222"
     transform="translate(-17.9,-19.9)"><g
       id="g224"><g
         id="Layer0_0_MEMBER_31_MEMBER_0_FILL"><path
           class="st1"
           d="M 105.9,55.3 114,65.4 105.9,50 98.5,65.8 105.9,55.3 z"
           id="path227"
           inkscape:connector-curvature="0"
           style="fill:#918b4b" /></g></g></g><g
     id="g229"
     transform="translate(-17.9,-19.9)"><g
       id="g231"><g
         id="Layer0_0_MEMBER_32_MEMBER_0_FILL"><path
           class="st1"
           d="m 141.5,55.7 4.9,-6.8 5.3,6.5 -5.3,-10 -4.9,10.3 z"
           id="path234"
           inkscape:connector-curvature="0"
           style="fill:#918b4b" /></g></g></g><g
     id="g236"
     transform="translate(-17.9,-19.9)"><g
       id="g238"><g
         id="Layer0_0_MEMBER_33_MEMBER_0_FILL"><path
           class="st1"
           d="m 183.1,36.3 4.2,-5.9 4.6,5.7 -4.6,-8.7 -4.2,8.9 z"
           id="path241"
           inkscape:connector-curvature="0"
           style="fill:#918b4b" /></g></g></g><g
     id="g243"
     transform="translate(-17.9,-19.9)"><g
       id="g245"><g
         id="Layer0_0_MEMBER_34_MEMBER_0_FILL"><path
           class="st1"
           d="m 210.7,68.8 4.1,-5.9 4.6,5.7 -4.6,-8.6 -4.1,8.8 z"
           id="path248"
           inkscape:connector-curvature="0"
           style="fill:#918b4b" /></g></g></g><g
     id="g250"
     transform="translate(-17.9,-19.9)"><g
       id="g252"><g
         id="Layer0_0_MEMBER_35_MEMBER_0_FILL"><path
           class="st1"
           d="m 269.1,71.8 3.5,-4.9 3.8,4.7 -3.8,-7.2 -3.5,7.4 z"
           id="path255"
           inkscape:connector-curvature="0"
           style="fill:#918b4b" /></g></g></g><g
     id="g257"
     transform="translate(-17.9,-19.9)"><g
       id="g259"><g
         id="Layer0_0_MEMBER_36_MEMBER_0_FILL"><path
           class="st1"
           d="m 313.4,49.7 5.3,-7.4 5.8,7.2 -5.8,-11 -5.3,11.2 z"
           id="path262"
           inkscape:connector-curvature="0"
           style="fill:#918b4b" /></g></g></g><g
     id="g264"
     transform="translate(-17.9,-19.9)"><g
       id="g266"><g
         id="Layer0_0_MEMBER_37_MEMBER_0_FILL"><path
           class="st1"
           d="m 346.4,68.5 6.4,-9 7.1,8.7 -7.1,-13.3 -6.4,13.6 z"
           id="path269"
           inkscape:connector-curvature="0"
           style="fill:#918b4b" /></g></g></g><g
     id="g271"
     transform="translate(-17.9,-19.9)"><g
       id="g273"><g
         id="Layer0_0_MEMBER_38_MEMBER_0_FILL"><path
           class="st1"
           d="m 392.7,70.8 4.7,-6.5 5.1,6.2 -5.1,-9.6 -4.7,9.9 z"
           id="path276"
           inkscape:connector-curvature="0"
           style="fill:#918b4b" /></g></g></g><g
     id="g278"
     transform="translate(-17.9,-19.9)"><g
       id="g280"><g
         id="Layer0_0_MEMBER_39_MEMBER_0_FILL"><path
           class="st1"
           d="m 425,70.4 6.4,-9 6.9,8.7 -6.9,-13.2 -6.4,13.5 z"
           id="path283"
           inkscape:connector-curvature="0"
           style="fill:#918b4b" /></g></g></g><g
     id="g285"
     transform="translate(-17.9,-19.9)"><g
       id="g287"><g
         id="Layer0_0_MEMBER_40_MEMBER_0_FILL"><path
           class="st1"
           d="m 472.6,67.6 3.8,-5.5 4.2,5.3 -4.2,-8 -3.8,8.2 z"
           id="path290"
           inkscape:connector-curvature="0"
           style="fill:#918b4b" /></g></g></g><g
     id="g292"
     transform="translate(-17.9,-19.9)"><g
       id="g294"><g
         id="Layer0_0_MEMBER_41_MEMBER_0_FILL"><path
           class="st1"
           d="m 511.7,59.4 6.1,-8.5 6.7,8.3 -6.7,-12.7 -6.1,12.9 z"
           id="path297"
           inkscape:connector-curvature="0"
           style="fill:#918b4b" /></g></g></g><g
     id="g299"
     transform="translate(-17.9,-19.9)"><g
       id="g301"><g
         id="Layer0_0_MEMBER_42_MEMBER_0_FILL"><path
           class="st1"
           d="m 548.2,68.9 6.8,-9.5 7.5,9.2 -7.5,-14.1 -6.8,14.4 z"
           id="path304"
           inkscape:connector-curvature="0"
           style="fill:#918b4b" /></g></g></g><g
     id="g306"
     transform="translate(-17.9,-19.9)"><g
       id="g308"><g
         id="Layer0_0_MEMBER_43_MEMBER_0_FILL"><path
           class="st1"
           d="m 587.9,66.7 4.8,5.9 -4.8,-9 -4.4,9.3 4.4,-6.2 z"
           id="path311"
           inkscape:connector-curvature="0"
           style="fill:#918b4b" /></g></g></g><g
     id="g313"
     transform="translate(-17.9,-19.9)"><g
       id="g315"><g
         id="Layer0_0_MEMBER_44_MEMBER_0_FILL"><path
           class="st1"
           d="m 616.8,71.8 4.4,-6.1 4.8,5.9 -4.8,-9.1 -4.4,9.3 z"
           id="path318"
           inkscape:connector-curvature="0"
           style="fill:#918b4b" /></g></g></g><g
     id="g320"
     transform="translate(-17.9,-19.9)"><g
       id="g322"><g
         id="Layer0_0_MEMBER_45_MEMBER_0_FILL"><path
           class="st1"
           d="m 660,70.7 5.7,-7.9 6.1,7.6 -6.1,-11.7 -5.7,12 z"
           id="path325"
           inkscape:connector-curvature="0"
           style="fill:#918b4b" /></g></g></g><g
     id="g327"
     transform="translate(-17.9,-19.9)"><g
       id="g329"><g
         id="Layer0_0_MEMBER_46_MEMBER_0_FILL"><path
           class="st1"
           d="m 647.7,40.8 6.2,-8.7 6.8,8.3 -6.8,-12.7 -6.2,13.1 z"
           id="path332"
           inkscape:connector-curvature="0"
           style="fill:#918b4b" /></g></g></g><g
     id="g334"
     transform="translate(-17.9,-19.9)"><g
       id="g336"><g
         id="Layer0_0_MEMBER_47_MEMBER_0_FILL"><path
           class="st1"
           d="m 609.1,46.6 4.1,-5.7 4.4,5.5 -4.4,-8.4 -4.1,8.6 z"
           id="path339"
           inkscape:connector-curvature="0"
           style="fill:#918b4b" /></g></g></g><g
     id="g341"
     transform="translate(-17.9,-19.9)"><g
       id="g343"><g
         id="Layer0_0_MEMBER_48_MEMBER_0_FILL"><path
           class="st1"
           d="m 571.6,38.8 4.3,-6.1 4.8,5.9 -4.8,-9 -4.3,9.2 z"
           id="path346"
           inkscape:connector-curvature="0"
           style="fill:#918b4b" /></g></g></g><g
     id="g348"
     transform="translate(-17.9,-19.9)"><g
       id="g350"><g
         id="Layer0_0_MEMBER_49_MEMBER_0_FILL"><path
           class="st1"
           d="m 538.4,34.9 3.7,-5.1 4,5 -4,-7.6 -3.7,7.7 z"
           id="path353"
           inkscape:connector-curvature="0"
           style="fill:#918b4b" /></g></g></g><g
     id="g355"
     transform="translate(-17.9,-19.9)"><g
       id="g357"><g
         id="Layer0_0_MEMBER_50_MEMBER_0_FILL"><path
           class="st1"
           d="m 492,39.5 7,-9.8 7.6,9.5 -7.6,-14.5 -7,14.8 z"
           id="path360"
           inkscape:connector-curvature="0"
           style="fill:#918b4b" /></g></g></g><g
     id="g362"
     transform="translate(-17.9,-19.9)"><g
       id="g364"><g
         id="Layer0_0_MEMBER_51_MEMBER_0_FILL"><path
           class="st1"
           d="m 455.4,45.7 7.1,-9.9 7.7,9.6 -7.7,-14.6 -7.1,14.9 z"
           id="path367"
           inkscape:connector-curvature="0"
           style="fill:#918b4b" /></g></g></g><g
     id="g369"
     transform="translate(-17.9,-19.9)"><g
       id="g371"><g
         id="Layer0_0_MEMBER_52_MEMBER_0_FILL"><path
           class="st1"
           d="m 410.7,42.3 6.7,-9.4 7.3,9 -7.3,-13.8 -6.7,14.2 z"
           id="path374"
           inkscape:connector-curvature="0"
           style="fill:#918b4b" /></g></g></g><g
     id="g376"
     transform="translate(-17.9,-19.9)"><g
       id="g378"><g
         id="Layer0_0_MEMBER_53_MEMBER_0_FILL"><path
           class="st1"
           d="m 375.4,52.5 6.5,-9 7,8.8 -7,-13.4 -6.5,13.6 z"
           id="path381"
           inkscape:connector-curvature="0"
           style="fill:#918b4b" /></g></g></g><g
     id="g383"
     transform="translate(-17.9,-19.9)"><g
       id="g385"><g
         id="Layer0_0_MEMBER_54_MEMBER_0_FILL"><path
           class="st1"
           d="m 347.5,32.1 8.2,10.1 -8.2,-15.4 -7.5,15.8 7.5,-10.5 z"
           id="path388"
           inkscape:connector-curvature="0"
           style="fill:#918b4b" /></g></g></g><g
     id="g390"
     transform="translate(-17.9,-19.9)"><g
       id="g392"><g
         id="Layer0_0_MEMBER_55_MEMBER_0_FILL"><path
           class="st1"
           d="m 292.3,61.6 5.1,-7.2 5.5,6.9 -5.5,-10.5 -5.1,10.8 z"
           id="path395"
           inkscape:connector-curvature="0"
           style="fill:#918b4b" /></g></g></g><g
     id="g397"
     transform="translate(-17.9,-19.9)"><g
       id="g399"><g
         id="Layer0_0_MEMBER_56_MEMBER_0_FILL"><path
           class="st1"
           d="m 266.2,34.5 7.6,9.4 -7.6,-14.5 -7.1,14.9 7.1,-9.8 z"
           id="path402"
           inkscape:connector-curvature="0"
           style="fill:#918b4b" /></g></g></g><g
     id="g404"
     transform="translate(-17.9,-19.9)"><g
       id="g406"><g
         id="Layer0_0_MEMBER_57_MEMBER_0_FILL"><path
           class="st1"
           d="m 222.9,35.3 4.1,-5.7 4.4,5.5 -4.4,-8.4 -4.1,8.6 z"
           id="path409"
           inkscape:connector-curvature="0"
           style="fill:#918b4b" /></g></g></g><g
     id="g411"
     transform="translate(-17.9,-19.9)"><g
       id="g413"><g
         id="Layer0_0_MEMBER_58_MEMBER_0_FILL"><path
           class="st1"
           d="m 193.4,55.5 5.4,-7.6 5.9,7.3 -5.8,-11.2 -5.5,11.5 z"
           id="path416"
           inkscape:connector-curvature="0"
           style="fill:#918b4b" /></g></g></g><g
     id="g418"
     transform="translate(-17.9,-19.9)"><g
       id="g420"><g
         id="Layer0_0_MEMBER_59_MEMBER_0_FILL"><path
           class="st1"
           d="m 151,33.6 4.2,-5.9 4.6,5.7 -4.6,-8.7 -4.2,8.9 z"
           id="path423"
           inkscape:connector-curvature="0"
           style="fill:#918b4b" /></g></g></g><g
     id="g425"
     transform="translate(-17.9,-19.9)"><g
       id="g427"><g
         id="Layer0_0_MEMBER_60_MEMBER_0_FILL"><path
           class="st1"
           d="m 107.5,39.5 7.3,-10.2 8,9.9 -8,-15.2 -7.3,15.5 z"
           id="path430"
           inkscape:connector-curvature="0"
           style="fill:#918b4b" /></g></g></g></svg>