<?xml version="1.0" encoding="UTF-8" standalone="no"?>
<svg
   xmlns:dc="http://purl.org/dc/elements/1.1/"
   xmlns:cc="http://creativecommons.org/ns#"
   xmlns:rdf="http://www.w3.org/1999/02/22-rdf-syntax-ns#"
   xmlns:svg="http://www.w3.org/2000/svg"
   xmlns="http://www.w3.org/2000/svg"
   xmlns:xlink="http://www.w3.org/1999/xlink"
   xmlns:sodipodi="http://sodipodi.sourceforge.net/DTD/sodipodi-0.dtd"
   xmlns:inkscape="http://www.inkscape.org/namespaces/inkscape"
   version="1.1"
   preserveAspectRatio="none"
   x="0px"
   y="0px"
   width="661"
   height="671.40002"
   viewBox="0 0 661 671.40002"
   id="svg2"
   inkscape:version="0.48.5 r10040"
   sodipodi:docname="k02_cloud01.svg">
  <metadata
     id="metadata66">
    <rdf:RDF>
      <cc:Work
         rdf:about="">
        <dc:format>image/svg+xml</dc:format>
        <dc:type
           rdf:resource="http://purl.org/dc/dcmitype/StillImage" />
      </cc:Work>
    </rdf:RDF>
  </metadata>
  <sodipodi:namedview
     pagecolor="#ffffff"
     bordercolor="#666666"
     borderopacity="1"
     objecttolerance="10"
     gridtolerance="10"
     guidetolerance="10"
     inkscape:pageopacity="0"
     inkscape:pageshadow="2"
     inkscape:window-width="640"
     inkscape:window-height="480"
     id="namedview64"
     showgrid="false"
     inkscape:zoom="0.35171386"
     inkscape:cx="330.5"
     inkscape:cy="335.9"
     inkscape:window-x="0"
     inkscape:window-y="0"
     inkscape:window-maximized="0"
     inkscape:current-layer="svg2" />
  <defs
     id="defs4">
    <image
       id="FlashAICB_Patterns_New_Pattern_Swatch_4"
       x="0"
       y="0"
       width="125"
       height="125"
       xlink:href="data:image/png;base64,iVBORw0KGgoAAAANSUhEUgAAAH0AAAB9CAYAAACPgGwlAAAgAElEQVR4nJy9SZclyXHv9zN3 j4h7c6isuRtTo4lukgAIggMO+Z6kpbR4K32A90G100Za6RxJPKRAEEA3pgZ6qjkz7xCDu5sW 5h4RN6tA4r3o01VZmTdjcDO34W9/s5BXL17q2fkZPnhyzqBw3O+5vr5lOB7Znp1x/8FDzi/P iCkRpwlxgg8BRRGEeihKmhIxRqZxJGUlOMdmuyEnJcaJtmsRcSjYNWMkpcQ0jeSsOCd47/Gh QQAt5xZxiAAiiEBOimqmvznYZ0RwweO8BxQhI6JMGtk257gspJT5zXDkp7vXPHWB/+n9bzGl Cc1KSsmevx5iV3YSAPDe4YPHB4+Is6fVDE5QVVBFdfXr5V41A6p2304AAc3kZNcUzaSUcM4B Ymsck13TOew0inN2XecddckFQR0IDk2JHCdEnMlGIMaJ0INsHbHt+OVX19weRoIrJ8g5o1nR bBdo2gYRGIaJoe9pNgHnAi54EMiayElnkYsXu6kgBALemxLFcSQnBYEQGuY71szUJ1QTKUU0 60p9QFNGARfCspBOymqWz4rQdA0xZ3JMjOOE95FN1+FDSxx7Ns0ZkiE1nl8cbvns+po/bzb8 xdPH9BoJ8wIWQWu9P/s7qymCaiZnE7T3HvHOhKpqqllvbdkBdp9FmCIyP7siiCjee7uOyHw9 IbPWduV0XRalKvcXFU0DaEYQU57yCyE0NPcDY8w8f3nN7/KecOYItv4m7KrpIo7NZgObDTv2 qECKCdcGnPPzAkh5aDm5GYdvVv8uD+PKjpjGkaym5f3Q45xDFLz3hOAJPuBDmFfw7gObZRFw Cc1iCpgSLjg6QHMmpQkntvOCBEbJ/H+vXvLZcccH2zO+f+8+jfMc0oQ4h7qMqMNlE3IVtAnb lEsypJzJWWhCg2sCPjg0ZROsKIKbBQWmuM7LLCA7X7Eg3pvQUsaJp5oJr56cEwklqzJvSlX8 ajGqhfUOcvZ2DRVUQZMi3iHecTuNvO4j/8ebN/yPjy45354REIdiQp/GAcThxB7MN56u7Uyw xaTN2ucg+MYsBCu7dufwwZTEB09OyhR7e3ARvHhSijjvy45YiVmXa81HchCyLa4IgiI+oAwI wvZsy3A8Mo0RELwLTOPEzw8HfnPY893tGT957yleHPubW7q2MWviHKgpTLmobcB6aZO8ua+s EEeaYnEopl2CnLi6nBOqguaEOvuZqqKpnDQITjw+BFJMUBTGB0jJmyLLastj1kazIEX64sQ2 TBtAlRQTiuC8Q50nKXxyfcv//fqa//LkKe93Lc45AppRVXLKxJhBlOCFELztvq5hmsbi85Lt jJQRb6YkZzMrWn3cW0IPZE0E3zAxoZhl6bqGbbchxjib6qr5KS2K1HiPFs12AYgO8dl+xwuN b0ixRXOkPx5sdzUBXGDImd/c7vmiP/Dnl5f87XtPkJQ4Ho6ETbsIoC6gc5CzWVqtKmjWxBXz nDWjav7Sa/WzGUkOdVp2XNEaVVLMJzvdLCRI9IhP5gaduVbnPTmaEjo1v163AprJOEQVUUFF IQM523ZXcwQueKTx9OPE9f7IP98c+F+vHvDwYksbAuNxJORiDlJOKGoPJw5VE8CkI9MQUc32 gEX9c1JGHdB8ustnLZSiueLMiqSJ2E/EcWKKowm0zTShXWy4Qkpp3j2IkGuQJA6S4nzdhrYT c1Y2Z1vG44Hx2BO6lmaz5c2h56ubAz9PR/5me8HHF5cQE1OaCN725CBKUBOUiJRnV4qW2aKX 55D537LayYngO1QgozjJczCnaptAk75tCV0N5hziklkYdfP6Oe9w2ZcTpeX3NKMq5FQciQMX XHHNSi63Po4Tz253fH19y/987yEXF542OHbTxDGOhJyVnJMFAuJsd/tQZKDEwXa4Ajkme3op kXrSeRFk5XCqwAFSThZkDQNTjITgSdkxDEdSapGtK9ctSuKcCRpzM+JkVqxy6RItl50TM03b 4F2DbzKh23I7jHyx73k2THx72/DhoyskZW5vrtlcbmm7hnE/2DOKLvcu1UTPOcOy3lrvQUoA l4pumvAcZSeW317f47wuTmYFk+KsU0wW4WMCFcpOd7bx1PyOuQoUcsI50KIUrgkkzYhXMpnd 4cCLY88uJuhavnnW0mw7fv/mOe9v77HpOgKqZZFtUYMPpj01sCjCyDnZLnRiPrgI3gVflkeW AKZouH0t5JiYYsSJsLk4ZxO3DMOA9yUQlGVBcipZhNoOaUODipbPrYSQLWr2TYnuFZqmZUqJ L97c8OVhpNme8w8PLtj3PVMrnG0DaThyRAldQ7gd0Y47h8y+3LklglcUUSwww1zBEgNkNJWY p95jDeq9LF+L7WJx9j2Lpe5e3gEZJ0KmpoHL2tpjF+HjmaaS+XiHOnh9OPJid2Bzeca37t1j 0gPXr448bi85Ht7QhAZ5+fyFVg12zuGdP1ncutNyth2fFYL3hLahaRucC0xpslyzWAqAKU5o UnK0/DdrsigVSw8RxYsvayRzHr6+NoAPQoq55LnerM+YCMHRtC2H8QWtvyRIw9BP/Ozmll8M N3ynbfnHB084jgOu5rJkUFMuwwIcQz/ifSA09txVQVNOpzu13Ge1bHMeDzjnLY9+R6SuSUu8 cCfQU8NExLkSoBWFKlZSNROnxKQRh5gfz9kUrLo9EdzugNtsyZuOf3u941fXt3xwteUfnjxC 9iO9T/O91HsLNe2an01k1s6c8vxvR/ExOZFVyTEz6ohvLK/0viyaZnJKsEoB1+evC2YRuO0O mf2mvJWjpWg3O44TWSe2246ziw2aEmhi097DZUefMv+23/H7w44fdmd878F9bqaebXFVOWeL vDUvPlyXBdYkqMgi51PXvnzznVnzHz/uKrGdRU//dWe311jQiRAkoClbwJwtvsmo3asq4lti E/jNqzc8v9nxZ+fnfHu74bg/0OicBJ3cR6gR+OyznODEPBQs0SueWfBZSxyQS/AYbNeYic9Q 8n6pGrl+IGzXmWVZQAnnynXuLJKru2ScsHBV0TiRdYmCY+P46etXfHq44Xtn53y0PcePick7 siZQOUXb6nLnajITMZkvrQqBWICLL+a+yNtyZznJ6bLqHFWvdUKkRNn/jp7ktJLMKeIBTkjD ZH4eDP1LMgs+i6Cbjp8/e8HrNPDe1QXv+cB2mMheODaeoA7nZM73AYIvD5iL6ZpNUbaH16ry mH/yLuB12b22s4u8fElvKiqkuQBOAuqKAomhTvUR68+lBIB3Fki8J00R7wOtFzRNTDHjQosP nr6PfLo78Nlhz3e7M/728UOYMje7G+5dnHEcRip06+UUREkpzc+oBUatMHAugRrcydlPtGb1 A7UI/G7sYXtmZfLvRHc1zRXu/E7dFCjeGXgTp2KtmhJTZeWT3ZEXx4nHlxu+9+AKfxwYbm7J XYdrggncWVBcN6AT5wsgY4suBTK0YGUJQmDl9xtP0zX2f9PgnFgeH1MJdvysWXN0XxXqRJmX XVVDc2H5Hyy6HYaxKKPh967p6M7OGSL8duj57PaGP9uc8Y/vPyUojHFke7Flmibz3c603dKy aq0s1rBnXdIycRZseQkV8Z3Bmgqtrq2XBVb5rYhd6n8rl7UEusvnlk1+YiLK386i7RAMxcwJ gsM3gUGVF4cjn1zf8J3H9/no8h4cjrhG8JcbYprwUwQocdqSUYVZMOKXVKI8PCWHt+vLHH26 OaLPtG1rxZJUsfiM88zQLs58p65g20XL7+yKO4eUBWibBicwDSMxQ+MbboeRz1/f8Mm04y/O zvnzhw8J3nO7P+JQutCy18RZuzG8YbJgc/bKVSk59Xf1a+cdXj0xJf6UYzbxqx0rTmAG+VYC Xz9j2WzOC4ijyka8IFlR5wyq9Z7tRYd6x2GaeLY78Oz6lm9cnHHlhTZmSInUCNo2+OzQ40Ru mxljqcFDsAsvwEC5w7IrHIk0S6AqRM6ZHA2jnjH7Yh6zmN+lgP9qK0J2ixDrUeHYP3YozDs1 FszehY6bY8+zw8DzPvF0E/j4yROCQH88WmEoeeI4sN1sClKqBTevudgiGq3pGAsgVX94opAL JoTt9hVQowVvqTDpOwLS+YHWf7MSOMXvrq/pLGKfYsQFj+8a+mni8ze3vOwHdNPx91f32N/e MoWG7dmGcZpIKdL4hhgyMo6IQBMCWuMnXeePdwQgzgD8E1ABS+FSTEzDQH84EscJzQkKhq8l Pw1tmMEMV/5eC/wumveudckpkabIOAyEpqPpOl7uj3x+O+BDw//w3reZ8sQhjTSNIwhMTpGu RfrE0A8M4zDjAc6JmfuSOaSsWEU5m9BULRC9m3HcvcG3vr8q0qw+JKsI6p01irWCOXlLV1zT oM7uc4iRz1+94Q8vXjGq8p3Hj9je9rz38D5+23DdHwl42hGOuz152xLjVFJmwz0URfa3O/3q iy9pmoZ796/ouhZxjmmYCI0v8K6VAZu2AVXGfmQcJhTLw8dpwntH17WEEEjJMOVm05RigkWp liVgVqE8VBPA+WC+seTq02hQ7PnFln66RnJLIw0pK//25prfxAMfbLb83aMnjHGyeMS72bTm Cn9qZhqneXVdqWevLc6UoolDmXGG6r40K+MwkMr5Ko7gKmqoOn/tRAjezzV3oFS7ZEbuarA4 y1tAvbfoXC2DlRK1aynQuDjiQseA8NPnr/nF9Q0fXnb85MlT5PUt49bbMxVLlJLJI07R5EY2 HCI0c5wVUIu2Y4zc3t6y21mFTcSx1RbXWqAmRctzzuSUSyqkcxkyZyuUiKQTDa+ECecz4BbB l2McJ0Kw/Fic0jSBs/Pih8cR0RaiMHXCL29u+d3+lr88v+D7773HtCpdziVXSpzgFLIRCso2 W3ZWEULOGSduZQVOs4fZwinF1Ors3mDONu1r1TlAy0mLyYY1GitzZLi4jpzTnNU45y1dVi27 M+NcIHvHb5+/4vnumr99dJ9vXV4wHA+0W4+oFVlQiKWm0TUtwXmGcSwl4UQe8yyT4Lzj7OKC KU6kGOcd2bbt6mYdLniyZjPrMRrJoaY53iNYjRyBtmkLE4QZ0tVk1ShUSCsz17Sbsvi2EzWn 2VLmZAWZuIF/efWaX+13fO/sjI/u3ycPE0kyrVtIFpyYVUvPgvg5wl4fKVrw1bb+VBsAzcsC OWc/j7kgW0XwBYem7gbF6u0uJbyAJod44a4HW1yoCdqTS+YkBZTJC6/BOSY8v33+ii/6Hd+8 d85HD+6zccKQE1HAF5wkl4DTOaFtWotfRMgxMk2jZT1FJkGBi8tzNMM49gyD0aHapsGFMN8M gKZkZiNFyxcxLQreNLTm5C6Umm7WVW3QdkMupr1G7i54Yp/wrQU0aRpJcbIiSuvRpHxyvePX +x3fbjr+9ukTPLDf7Tg/38zCrrn2vLh1gb3Dzdi4ySqrWRWX8wL/OjHYWBeBC7IUglRJkkiF UubEMPQ5fVO7i5StzOpC1Yd3AC81jQUgFxhXSNFgbtcEBEcGfvXqmt/f3PDexZbvP36CSxPD caI525BjJNRguSioDwEfPE5hI5AmU0bbnGWnxxhpN20J5gTnjPvWNM3M7pCyA+OUSnSos1kS rADjnZExgi/4u2DWIC+7SHNxDznPjzyMBXEytAHI+KZDmg3TNPHpmxs+2+/4+OycHz95hA4T h2miO9+As3ybEjyeVMJq6rPe/XYhXFZwDkIoqVLFzEtdXPPs92f/ro6kuYKCzPzAaiBOA/2V UFc/vBMoKxCHAdoNWez+XdMgLrDve673e355u+cH9x/wwb0LXBrttzpPjInOedQ74jiRNdN2 rd1vLVZtGrJ3qAopN/i6051zhNAWBouj23TGdGkaRIQYJwObcmachsLOMB6d5kwTTODBF9/t 3Are1ILfL3n9IhgTdEyJ7abDObWYIHS4tuO2H/jq+oZPhz3f357x0dV9nMJuHPEoXmHIGf/O DMDyY2MhVZyh6FRaFKMqp9SARRSRdRppDlkKquWzA1d2s1SfrUVp1yatoHN/DH/VBfESPGky bMO3HYqyPx75w6trnt3c8O0H9/nmvXPOm8DUT+RgQZ5khQzqFnfgvMM5T4wWvDrx0ECHEVN9 3em2S8VYM05oQiCmWOq5VgzRrMSYiVMmplgQHouYfWjmk9VHzNl2hGa1c4lV79YBXI2Ugy+7 TY1EqN5zexz4Ynfk60Pim9uWj58+wk2J25sbNudbPMpxvydsN8yQuiylUIG54lUBoirEGfYU Z/EG+bQa5lc5fDJXVCP2WqdwlZlb9KIqjn3fQJa3jtlHmsBzYTz4tiOOkylpzuyHkd+/vuZm SrTnF/zN44ekaSIKtNst4ziAQmgaS50r6uY9FnHm2fhkNdqYcw5xC3DkVDMxJdvByfKGnJRp nBiHcb7XlCIxp7mGPEeC1fzVC+VUAsJSHCm7W6noU9k13hbdiZDGxDRO+BAQ8TzfH3i2H2m6 lr+5fMAwThx0Yrtp8CT6PEHr8fkU4Ss3Ngu8pj/mt80S5aSFPr0sQmW3VNTQlc+vc2wp52FG Lc20zwSPGb5+Ny6zHKsYoFQrhxiZcmJKiZc3O15cH2jalo+fPICbPa0TInAYBlAhiIMMkyrT NM4Qs5YgXEq2ZUxZne89m4oj+/1enXOmOaqkGE2w4jD2rmPY9xz7npgiIQQL8lylQ5XI0/my AJaaOW+Lk2NP6M5QFfp+WjD4Eshld8umuYQUGIeJ3w09vzje8DQ0/Of3vmF1eYDCwD3BNwSa NpSfv4OQAHSbjjGOpMkU21g6RoIQ/x+LKMc8Y+s5mxLHZDlwiqng+s446mawinJ7s2DBWcyR tKB2JU1zggRP7g8E2UDX8E+vr/n1/sCPry750ZOHDDc7ZNvaPWBW14eAOLHdHxO5ULKdk5nQ kuMCHeeshKYBgTTZ90P1tynFYvJCgVRz0RwLEkSk0JO9mQtqHl4WUChARCFG2B+EbkuMicOh Jydl020IwSOi+OCYxpbhMJEDfHLY8/XxwI8uLvng4RW7oafzvtyPIWUp1+qXSb/pmjnoWqzq YqL3+wOaMzknnA/4wkGjsm/fshSn/zCupENQ+xqHy1ZClhJ8zT51XVwq53HiUBLOy0IwGY1k Qs7IJKR7LT/9+mu+er3nx994zLfvXXAcRtptS0yFw1csaoyxED2slrA92zJzIGB2X+t0G6ng 0Ap7r8dM5CuLajz1iKrOqYsrpsJX/zlDtPUki/syH+nQ0bD54B1N4ywTSBPQ0Lgzhibzs+tr PusP/NnmnO/eu4dbYdtU+NeBl4CuAqE0xQLp1szAGD5QKmBiVX7vfXEpnrolZ8gYjCuHLApb gztnZFBN9n3vMoRmKbtGfctYaAGxRI34WIPBGYkULFB2ju7snH9+/oIvYs+H98/53nYLOXMY e7J4qwqIoJMWQVvm0wTP2dl2iUPeEUfU2MakvriikJLl2eI8miLTOBGnEfGeJjRF0CtyAcwL I24BNOplTmoU2SjAzjs2bYuZKErVx6JlVfj0dsdn/YFvNxt+9OgBIkJ/OLI960haY2CH87C+ gMAscBXj4hdAsOy+0iblAk0TcI1HxKOlO6dWn0zHpcQlxoVbhL9E/3Y9hy9BY4qJSFwwgVno FTOw/LgJjfngZFbKtdYBpAqfvLrl892eb12c81fvvQfjyDD0nG02ZtmmNJNWKuASvKPbbNhs OsY0ra67+Leak1erZ4hnicM0Z9R7NCfm9NktGHTIfgZTNJ/SeWupVFe56CpOLjcC3gtJhDia T/dtCxLI4vnlqxs+u73hm13H3z5+SMBMmN80JYXz842/61Ay4mvKVCHXUt+uYEuJ1C2DOMW/ 3z5hhUx01exgSmVRcOEHJbE4KC1paAWc1pZPiumzNRRTPO85ThNv9gf+6fqGn9x/wHfvXZDT hHplc7aBLEjXkkN8q0xTg9QpxsV011TUL769rr+iJcMoeXooHSgp2jfbrqXbbIrQlsApp2wU qkIsnOu+6619ss1LhOwc4jzeJ7K3qlEWx+04cjvs+fnxNT+6uMdH9+/TNIGYsvHSC9TYrsQ9 M1zSurFCZhNeA6ka+NktuaUcWrtxBFwQIJQg6Y7ci/BPFltXUVoxuRUiyFqyFMwqehGkkDVc YROJczRNQEU4TBNf3ez4+uaW794758MHl7ikjMPE5K0ApdHcQmgbQ0CLUGsZthaVXPOO9PDk vsu9rR4zOO+stFgXyXlC6VeLOS2ItDBH7NWP10WdYcCSu1es3ZJ1E4A4od1sUe+4PvZ8fnPg 9RT5Rhf48OF9HMJht8NvWhrvicNE6JqVxVBQK4PWrk/VTNM1p8qW1H4eM6kEb84LEh0UbkDF GJw4cOsGhTuit7ryev2Q8qG6ZmamlahaGhy1YPdWTxAfmGLCNw1elMM48uX1LW9Gg1J/8ugR 0/6IE8E3HnImoyZsVVKywC1Fi1e8DwbCBItP3nKwFQiLhTBS+PJWJCs+HSyQVTUYNU2RRKSW v6tpXwu7tu6Ynyhur2hz7XmTssA5GjGx1NHoh4lX+57rKTNJw38+v+TZ65eIJO75ljgOxPMt bdehxwltajZQHqqc3XmLquMQoUDI9cgrN5TShOLxi8UrwZuCN0014qOuDdv8zEsHH3MwVEul OStNZy4lpmQWc6ptx8lwfmefa70nxcyLm1u+vL5mc37Od+7fR1/e4q827HNiO2W8gtt6omYk mWVxwRu/X6tSLTckzhs659dNl8W9lRhA1Whmc3/DMA469ca28IW7HVoL4MbjuETQiyrNOL2I M/PopGzzogg1XVdl0muIgU1zgQL/8uI1Px9v+ej8nP/09H3643GuyVtkalWjtmlxwVUJLWAL i5lHzW9XTMBEuY453Elww2pf1Jx/VpbiBurGrr/WbVrGOJJLlB5CQJwzEGpKZOdwKCQljZOV MXMuLUZKO4xo6Mjbjl9e7/n0ZscHVxt+8uQJsuvRjZ+bO+yeLRqvlPLaEFGjpiVSrwqgJ2QX LTRpW55MCIHj7oCibDZb+/2+P+ruds84jYgKoQm0TUvTBuO8reHG9dqVL5y3kiti/ts5yBE0 GRVaQiS4jkPM/OvrN7wYej7otnxwdYkKbNQK/3E1FMAVXNx7IyfOvL2aur1D6Eua9Y5jLdBi tasy9H1vSowr7CHjqc3Y+om+v+MaUgYCTBnBdnUFb9QJrk+0Dy752bMX/OF6z/fee8R3Ls+R cWTjHXg/p1IzsLNCFK2SV7VQTnLymad1qs+FvlZyHi9MvTWgtl0LQHDOs+k2bDYbI1NMkZQm 4nTa4F5PaplINXGpQHKmHE0wHxIlQ3AIDtGGPiX+7faWP0wD7zctf3F1RbtpeL6/JejCQlnr V1bjt4cQSvFk2eVr5ataPifc5STVP7sKg8lKMVbdqkYvtvMacTKdyLXpSgUyyInlqMzhOCXi YJZSaqdq6SR1zjN2nl98+YyvjjueXJ7xwdmGc+foEXoyXV5ihlnBtWRLooh6KhopxuaAxCqQ Lp07eW32TzXTh6UVPGclpJhwwbPdWFPX6/41Nze3OCdst+ecn5+dLjIl5UlWXMxYa3PjrRhh 9fZ64QRZ+On1G34fB77bnfGDq0tC0zAME5ts6Rk17y+CedcuW2WFJ4cIJairjB0/B3Y1HqlR PbVTaWb7KE3bLLm+LkGd6YfMOHYVMkXwlQZ2uN1bVpBKnd17JATrV3eeX7655as3tzy9t+Hj hw/QvudwOLK5d8ExTqdmvezaZecr4jFiqRolS0INoFZWx2LXU1dWrJvFPPYZA9oywQVPmiaO /UBOicPhQJwmNtsNTVgWUGCO2EStWc5ptoBDwtzO5Lyn226IKdMPA794dc11jLwngY82W7Y+ sD8euT3saBScM6KGcyDevxVDrGnZdh+nfrs+dQ3eHJby1HuuzJd3HSIsKVuBk31BHF3p2Ikx klWJvVGRaqVtGkfreRsjFfcXZ9i4awLHaeT6eODXtzv+6r3HfOesQ/qeSCJ0LcM40OBQqYLy rGk2tdU5T6uhD85zN0GrTKM1B0/K5qwBrnPOeATR/FtoQqDfHxnjhCh03Yaz7ZbN2TmhCcQ4 LRbe11i2RuMOSZBKr5WqElpPVLgdRl7uD/wq7vnx9h7fbDcgwu5wgJjZuMCBxHkdpjMP1Vmq VdRK151AbiXrOXXT0upr/PNc4gtZRb2W5lXVgcLD/2MwQ87LblLmGrX3YWaXxpS4vLwklmFJ OMP099PEl9d7Xtzc8sGDK75zecZZhn6M6NYzYTGPU1BvaaHDplG81Ruwgr7q/SkUSwt1qISW wNlusvpimKFEapwihKEfGMeB4/FIaFu2Xcv24py2aYkxllkxULFq+72l6TC4EshkARUOh4HX ww1f7K1P+lsXG55uOrpg2p8l03WBoB6H4vPS8LCgWQu1aY0N2DPWpLruiHUzQolo1c871osj rWDXuXesCHSd6s1n0Yym4v86YwR33Wb1cy0zcgK+C4h3hGKBro89X17vuJki4eKMnzy+z2F/ ZADaizOGaSIPCRrHhFqNofS2u1KhXJTQCj1W7HGzX0atvalG6hWBnDfKqqcuTRNDSmiZIiII QWqZ0YlxzPMCJdaVF6k+o5oPMbbpvPjCdrvFece+HzkcjvRAs93yw+6M/Thw2++4Ci3n5+f0 RQiXvmWaadF5lQ9baXft5+b7cSufV/+mNCsUrNt8m8cFR8pWUk1lHNoyTMkWNZS2rLrI68P5 VXYAJ6SK4DxNF9jdHgBouy0qwk0/cH3o6S7P+ObD+4TXRzYtDAHGGGkyNNEGCOTW0WHR+Vrw dh+27pXiZOCY3Uct6+YcV4lUGeKw6D+IWhVydMRYW6odctgf9NXr10zjyOW9S84vLkxDci7M SkecbGiOD4Z+pWhARAiBfnpFF87xdKSY+Pn1NZ/0N3yr3fIPT9/jeDgwjCMKND7Qds28W9YQ 7noHVgygslhOAzojQeSYiCmiKaFz3CG0my7rQGMAACAASURBVJam7awrJiemYZwXaIaF70a3 3iZFrS2M8egdfZ5wRaUqB0DLZxTB5YxOQhT4f69v+dV+z48vz/nx00fE/ZHsbZZcSpmUjV+Y YjJ2bc60bYfzVraep0+smhp942dhV4FbibkUlKRO+8rzmlaWjzih6VriZISYEBraTUvIKdO1 HW3TsN1u52Y5RGiahqk/lhFfzhauTD3w4kATrT+D6OjFBP71Yc9fn9+3evg0sN3YsMAYrSFi TYTQMktNqbz4dX5Yv6yh90qDmSsDSzNF+T0t2UWtgvXjWAI6q7Y5X9qXSgk2hLbEDcsuzwoS MyJWM685cmgC3llpt7KInGvIZ45Pn73k+vqW//TkIU8vthz6gS4YYihOyvDBDnRRgFxTX7Di SbWkXmgK3DpNI05sh8YUrbdOIQRP0zSG0Veoum6KXChT6hiH0T7fNKVFzBNSjLQh0HQNrvGl mSHN3RKh7cpgQfMLvgIwZfqElw5tPf/64iW/2d/y8faCDy4ucGMka2IqkyJrjTvMvVuLOa2+ aH0YkKJ3oqt1hczErrMzs4paykKcprIrjIMuzhF8WJnvXHaE7RLUzS5lrXKq4Mv1HRDHRCrD hDK227pty788e8kf+h0fP7jko/uXJFWGFFEXZlLlul7hfCFZ6sIONnCqTJHMlqvHlHCiZFHy PImiPvASqJlS57kuUHl6IsY3cMVqpZgYtCdM00QIjpwCYOBEFUjUCSfBggCMmgRa8GzwoSFP yievr/nDcc+H23P++uljSJnr1284P99wGPo5x5aTtELemVcuTZRaE+1l+73j8I2llZoVpxbw BG/t1zFhTRsluq3KV4Es53wZsgQQcL6yVBZF02Qz8CQrMSYkiNUFBMaY+Pnzaz67vuHJRcf3 njwiHXsOQ8/m7AwF2q4QGGtnUAmGa29fZeU658g+o+pLT4G5Ox+aMsbM+PFtE4qLjYzjMHfo zMsodY6Pfa/pbEpnzrm0aCnh4uqimJzENEykbAzKpFqmQbWcn1nBPqvt7qyC+AZc4NNXr/jN 7Ru+vT3j795/D4mRYZw4u3dGHsc5iq6sFFWbGZNyJCm0waZQijPCA+lOJpr/WP3bUrjaKJCd lqqXNWmsOWNCnvvRUx3h4QoFSnzZOLVcWxCv1XaXUlwyhbVS0v5w5KvX1/xfNwf+9vKc756d 0+/3ZCaCA6aI23ZWgpWMg6JgteHDhD7FESduVlYpFqni6s7LPEfWz7w+yg2ajGDlEO/gHE3X GlWraUChH3pCnoy9Ok5WrA/BzxFtzkrMStO0ZM1Mw4Q6wTcbdsPE890Nn/bXfFz7wwX2/YBT 60nbB6Glnc9lmr5qaqoLkBIeZ9GrO61v6zwNYJVRVAx6thZW306shhU5wZVSrI0udXNjYW1Z rhE8FIZsBpU8p6l1QHGMZcAiZo5vbnZ89uo1n794zYPHV7y/6WinRO8TufVsmxaijf+M0zjj D74J+GAKlKNlSq7ArjlnIuDxs8Vx3mIUmwkgNudnHA0P8Q2b7ZZpmGb0sJL7c6nGZVX2+wMh eLbn29IIUQcNsSyCKymaiCO0QusCOSeD8xBwDbtx4qvdgS9uB94/7/iLp+/hVTns9kgQHMI4 DDRtiytCSzEyxgg5z8WUWu6sKUoFW072s1vubSYti5E4nHqDcVckx5wzTvNsMZzYH0ZrDhaA Ulp9Cue9sk1tGrOQtXKjYJomCwx9QLxnP4y8OByJzvPkvcf88MEVw/7IGDznZ+e2lqq4LhCn sTBwyzCHSp1WzAqljA8ddQp1VUgRw91nxSwZh3hFkpQMx+rpG39Cc7ThELnAxDkzTFNpSrHh BP1wJFAxZln8QYoZaWyi1DROjH1P23rOLi44Tonnt7e87CNt1/KPTx+yG3tyjmwaE8oo4P0G HzPaONPqlGyMZ4au68ychYa3Dp1pE+UpikCdztDiLPiyIIuGnJq2OSSIiVqlyLUJQisnnCJw S+lydviw5MRT6fr04kgp8fX1DV9d77l4YIzd7hBpLs84lAENHkGDY5giOiV8IZXkmMgz9sGM QdSyaiWburCMdJsJoCWg9d7jNgusvO5aoaR6BhFPBh9n5fLigjGOoEasnMYJ6Q+3etgfyVms YdG5Mu5DrLfbH5l6YRu2+Lbh5ze3/OJ4zQfbLf/4/jcYp/GUn1WZGwX9Go79bGoWgTI/SBuM JFirSymlGfFywZOntKBuUlCpGryqrsCbFYCzPqpS+2UGXC4CV2DKSnCCl6UWvToh6XAk4YjB 87NXt/zqZsd3r7b8w5PHuJs9XG1nTGHGEEqTI3AyqmXWxCp0EaZxnNG2yjT+bznq+JdY6FUV xEkxk1Jks93My12PcNgdcd7RhEBWmbdHFVKQM1QHepTf3Fzz+W7PD84u+PjxI26HgY13SJBZ iBX4r7SmhWmTQN0yVrvgwGvkDyq8u/SKNZuGnCqhUalzUFNNIX0oD6QFmSsEhLKIKIavp5KX rGa6C7BpG1IyS6TR0ibrC3c4H4hZCRcbfvbVM758fcsPHj/gg3vn7G5u2XihKbtRkNn6rMGU WffuYOp3fnrn7+X4Y79Rj6mwYUPwpZtHbO5ccQ+72701qGw6QpmuGXAeVWFKqfDSrdAeJ2tp 8rRMG8c/vXzJb497/vLiko/v3yeoMmhCMLbqOleuqcn6jp3YtEcvdyZSSmWYSml1VsDNp8zR dn49lQvOKmnZgZqfqm9lWM9HDycNhSuXURSEUsBJMRWkzZV03bITG5oUmXzDv331jK8Oe55e bfnw/IwzFUYvjA58UnwwlMxmrINmN++sdenUZuws4jQQaTVT712W6j84clwGPM40NrWaQqBh miZiiki/dL6Epu3oj0bMazqPiEXzRij0xCHxq37PH8Yj3wgb/urqCvHCfr9ne9bZrig9XihL If8dKvqWsNfPWSNQb+Ot6w8q0GICt3TGeVkCsikizpFiRNYEh9KStW7xma8j1UMoYz/Qdhuj aSfzs8EFEsqUEr+83fPV9YH3H5zxFw8f4o4905jZXJzTl7zfZu4tIJOsM5C4KOx6t881n3UV jGU9FqV5R6/WyeMU6xqXiuO8RsFz78HVHL/Ua4c6Mmuz6fDBM/S9RYdNoJ8Sv9sf+OKw44fn 9/jBg/vkw8jttGO73RCnAXEdeH27bn0CpJ2CBycfW0m+Bmj1lw0ACos/mvNpbEwotvMl2U4x BmymNvNpHWJM2VHlJIb7FPDDN6CZOCpT6XWTxnPse17vj3x6s+dHTx/yvcstOgwoCe0cU5xo KT3rM45UweHV7ZbAs+Lid0eqLYWUsi6V6fMf2fVlAeeULxVypveANDagoAS66pcThpyyQZQY yuPbDl/6w3/74g2/1p7vb875+N49QjD6z6UPqChvhoGrTWtMGVnMjEaxtGN23+/wZ2uIdfW1 lD/qIlbtnzUfZmY1mot7WS0AFkjV/e3K1q7jy/ROVS/4MklZMWZpY2nZFzc7nl/f8o3753zj rKPNynEYkU0gOUFjsuFATX0GGwG+Fjju9N7ftRZLhW/pJajP8Scd68jeLdxdV9ztOI7LupXr OieOtm1IaWKKE77tOIwTn9/seTbAN5uGj548wImw2+3YXp7RnW3RlNm2q/EfK/NhD1b6uVg9 1Koa9pb/qkFzdco1oEy19TmWqorOi/pWpKunu0xgXgwtmYFVo5Yy7pgmhhhJojanLSa+uL7l dd/jL874u6v76OHI4djTnG1RdchkpdVUcHW7tFkWG6KYSvrEklr+u5JbgtnZ2/3J7n3JOObe eKkz8RK+sVHuq0W1gktzviEV7CWlxO9fvOF3NwNX9875+/tbkirJZc62DWnoOZDxbeDStwxF k9a3X2OlPEfXBUpdpUNrXKACROuS59uUqGIO68nLp5w04NLcYFgFPBMynBhur3ketw2VnGHB Y9SEqCdp5tVux7ObW8L5GR8+fsj2+oBrhdHb87QqeMUKIKty7JJSF/5dRRclLJbsj0Xv/x0B 3J2VMfr4nA7aORUHKZ6yagC53X+pqRc2zT1c8Pz89Rt+Mdzy4WbL3zx4zDiO1gdWetvqq7zm XNQV6G8eJ3rqt5f679KKJBQCoaybFGS1MKeLk5MhehnFYXBmaPw8H2dhxCxTIavZ3A29vf2h 4gBxwnmrKibNhCGSfQOblk9e7/l0t+M75y1/9/gR8mZP367BH8VLmDt4tV6n5t0spI96xGgl 2GkajYRb5F/LnOtg7sS3lzXIZdY9WDt5Kvi9rbVVz4A5pc3lHTRC6e+zma2IZEubRQjHm4mr qydE4J9fvmSfIn93fp/Hm47b4cgmhGKOmdGjnCwtU1Vi6qnS9s7mzywdA1pgTetSXSt69dcn D6nMgUn9XhWiDwGvapCqc0teTynohBpDLEqgWnhoap9rQmAqv5eSlTOdb2guzvnXr57x+zc7 fvDeQ75zecFw7Gm3AeZ2IMXhUFkGAtcMTFyBsgWja68EX2HdEFpcXjIJmc3+3V1+qvAuuDIM oXL9bTvX352JE+JIlGbH0tmCM3g3FBjXGDpCGJ73PM83/DqP/K4/8lF7zrfPz3HeMWjE6WrC EiZwox9NpGwRr82AUySAUzfXdSvYskxoYvGnajVp0jqCXRakfIVIWi1ipVAtKdeJ4J2lSyna O1ZQq4c772m8vX2hobS7lekR2QV++uXXfNHvef/+lj+7d8HWeQbnGE/aVikNnFoZG4D1tImW WTP+TnZSA3IvZVLXquCjp5+p31/WQYq7AsilVsDi96tboQSzYixlMIDJ5viIQdCNlL44o1QH 6c74f16/5g+x58/P7/G97Zbd7R7n4fzyDF3RjzVbccLYn2ZKK7RpPP9cBvus/EftG1xb76IB dRTmorGL5i9AXaUwle+fTIg05oy9ecKVBTHsXDDBOm/cMXJtZjD3oCLkHPnZ6xu+vN7xjftn /OC99wgpMvYjoW3o+34hlspKyG5h+dTuHu/8yauz5td3zF2zs/rMlUQTTn0R33qHy6zcC3Lp cJKhdMPWFnEbZKxknaC++McvRSUnMs/9qwYg/L6F/THyTTr+vNnSTsohjbS+rZef77a+m61O VLacMMyz7td56hxZiyvpHCeHsur/LrnzCSJbghEnsIq/bJv6muI46ljSu+ebJ1VGw/FTGdrv 29Iq3R95tTvwm/2RH733mD+7d0GIEZWMdA0pKZ0Es0aSLR+vV1KBwldXNVKjvXjvbZ9+4qHv CNcG8INme+D15q/8wLnqKJyMPE0x2rwZcaTCE7CJGxZcxhQL2mh97MkJXWdTQMNv056/uHeP DzfnqCj7qedyu+X86oLjNNKVGqwN8c+Fo1WmPlCoUzVqLF2r62aBXD6vmROfvizF6c6ua2Ou d/6CmvQrQHJoWALCKvRcL7JkMSiFl4/i2gZ84DAOfHWz5+V+x0cPHvDB1QXnTUN/2+M2DTYu TmibwFhLnqvo+N871oTPE2yiCPxkwOH8QIuw548Xt1c30l1ypPOuVAldMT8WuIXQLNcHmBJT ToRug+9ajv1A+PD8gr+8esRZEzjsj0Rv7znTZF2Z6n1Bt7R0ZC47ub4qorYhe+etjg8nzf5L XHZX6vKW+a7rum7Hrb+VZ/9vTfaWiawd7DtYNiKFqWLDEQ6T9YfvcuTy3hV///QRYz8wjSPd xYU1d0SjXanT+QUF9b02rvRmu9nM5tnPvrPKdyrXtz6znp55x/+tnuXtzEacIzhHitkC6JJV VNPeuEBInklGvCi+aRhS5vWxJ/zd/UcMmrkeDpy1gcfnV+yHgXEYudhu5zczLiXDJSUK3lsL 0Qwkl4fSbFTflJZeMdWV+O4K5q0vlgUrDzoP6J8XC5ym+T0ssx98R/NCTuZjE/Bmf+Dr62u6 i3O+c/+SvOtpWs/kDK0LzuNzIqbM5KBxFshmNVa63eW6IWE2c/ZXhZBrC/FK2Mqp4JYNVKzD nBUsaObckVsU4SQlFWs4DWUerNQMi8Jxb8ziJhE0eHb9wPWxR46HY3E3+eRG6uGcK/3jA7Uk 7EqAISJ0Xcc4jIU77s3XZPP1MRpl10aJwzjZjPjGh9LnLfNrwObXWbwlsHe8TkOr4JVjmmh8 oCljS713+NaGEMY04aYB13QM4vj5y2s+2d3yZ/fO+cnTp6T9Aemqn9T1X8v1y+y4lMqbLIr5 rl0kQmlIcGWK9Wze7yhhdXGmEXMEXzlyvjBgUopL+RmxbuJQmffZ3lE349uOfH3EXW4YneWL HYLGEdWE61okBpyHZ7d7/rcXr/nWxQVhHXzVoGH2OwCudHXU5nvqC9yX1MKIjVUjlzzbe2c1 XDUzFuqAYSkgTyyjyu5Iem3lXBk0PKNx1f6Lnf+83VjKpoo0Yd4xKVtHqO/OIAR+9dXX/O7l G77/+CEfXN1j7Hu6bUNaoYTAW29lkqzgnCUktTN05dtrSXQJQhdTvWzQVYp25wi+KTRpeyjn l2YQU4I007hcsFYqRUnTxDSMTC5z0QYkRfI00ZydQdsSx5GUlW7b8Yc3N/zvX7/hvzy6z+NH V4S7pma+8SLD2Zxg9eYaHbJ6yNodUv1aPZMrE6HjZJi3KymUBYZ16M8qP+fkn/a9SinKtdne qMBSX385B3zGTa8v51Gxl+tNIvzyy6/5bH/D+/csD79oSq2h7J/TC96RiixpkDFT3eKutL7W +4/483pv6+POv+UOPlGHBM4zAGDe2TkpirUbT6P1xIfLLWOKODJtcKQxIiJkhCSef37+gn99 deB/efSQ7cZm6c2surfZHiZ1jWmOktdjR5abBodfVYigRqlOvDFqC013HqqbcqEGBWZgptTX 75YW6/AeM4/l4VVtaqM3evJcNlVma2P9lMJPv3rJH1695v2rM3703jfoNBP7nu58y7G+p3T9 6HeEt97BqoL3FpuklCHLbNZPk7OFx/cuQZ8c9TmTWpdPMi5AnT4hcwHF5gHFaGxY74PxAJqO aTjSBIeTQBwjGhoOWfl6t+P//Pqa//rh+4Qp0nSt0agPh2OthrzFdlmESBFaAQnmqRB3H8AQ u7G8NbDpmnmXg5UxDRlKRtxvA7UR960g7ETTS7rzjttSLa/DUAzsEWHKmZu+57rv+afrnr96 cMHHD67onBZasS2yZJn74O4+8jxB8s54j1pzMJxby+TMpYJ4N9c+OVZDita95IsrWzZUHWQ0 L20uk6ZKEavpOtq2sYYHipoJZHHss/L57Z5PX17z/Yf3eHrecrlpGV7sCG1LKM/CzD9LiVyo waiy2Z6diPetNSo0oTniLGY+5YhPoYzVKmO3ymwZ5spaWZ4Zh7YLnNSb5+i1UKqqYy8mv7qg XO4jiXI7jny1O/Byt+PPHz7go4cPuGgCcehRL0QFEriU0XBqXqkgyUnjehGnLEMJrNGCWeBS S9mrEOFkt4O9Ir1M2pbytoCFLsZpw2YqEzJrEUXVmhy7dlaMcZxgHJC2TJd0jkNWfv36Fa/6 I9++OufjexteRiUdIm4zgo+EeYCsFv/sPZ5lAoUVDGQBR5RZNReQShdGbPkjq7URNa2NyEwp 2ZuR1N4R1pTXd80x0V2O2Pz0nHyvzkWzVVU2G+v59liwOfYDt2Mkh8Cjh4/4+288Zep783+b jnGcLOhzjpzinGK99We1zHdGnWttDix+XLTEFVXKKwSNFVw8f88zj26RxSedzHcV1MimZRFc EnJ9q1NYUaqTEtpQwCdhHxO/v93xbLfj8abjR08ecxxe8yCdcZTMtrsHCCEVYh1C8dfW110b +mOOSFxIB6pqvqz+u95asVV1oqFWU4hxuGKMllO2gbZrCU2YK3an1mPZz1CCl1VILXryYQ7H IzFmG2+tyqv9ka+ud2zOt3zz3gXTmx1+2xAxFknIEMTatqIXWliyDrsAawrX3V74eTNUpUgs LFRdzbdZZTecfKUlwbEPxilZRwv+ZBbcMsgo4oIjiIeCOmqy99aHxjPFPVPKaGh5vu/57GbP +xeX/PDpY6Tv2W4fMk09l75jLKO/5bA/LLiPrPnhpYSYKYPxlxfOllVAwYoXM2HfXsDnnGPs xzLdoqE/DmQym7Zhe3ZmD10c9h/nqpu5szF1pWiSlpcMIFbc0GNP2JwRfeDnL9/wy5sbPrzY 8vfvPSVd79BtU1qkzU/6xs/D8F0FVGraVdUt54XCfRdLv+On73bkvPUoNZ9fFa4MVTafPg1D mQJZGx0Wn05WRCdoAomWlBWfE40Xskam2OP0DPWOnz1/ya/7HR+eX/DjR49xRPo80LntzH+Y p0DbBRYNvVvfNSzdypvLTFYt/HAl5jhDkqHMRJt3pgj9sbwrrG3ZbDdlIGCxAu8y4avDXoBn o8JVC/gBy1Ah73DNBtd1/ObZCz5/c80PH9znO1cXjMee9qwlUcenLBMe5qF77WmDw0yUnqOx hXP2R4X67/509YFVRnJad1mdQZW7QEF2npzhOB1ocHRNU155qriwQbPjX54/5+vxyA8vr/jo 8SPA3tK0oTPeA0veDxByeWiVd6VtYC+AOH12LdFrjWCTWEoWU6RJZV4r9f2eEyF4us3W2opZ muZ9sBz+HRdd2B9YVau6THEOjREJHhcCk1N+9ew5Xxx3fOv+Od+7f4+NE6asTFIq2LpyQ6m+ XrPstopxq86u498Tc32r4p961M10UilcHdaYAVQa+Z1jxONFOO8Ckm3yhoggoWXMyi+eveRN Hnmy3fLte5c2kFCV1ARyP63AJ2b9WvjFRbKaFA3Lfk9TKuBIGWaz4qtLto5TVcrQwcjkIxvN NE1D01pnhQiIL0Pw1oFOtePvCtjq15nS7lwiXIyereLICJ+8uubzN9d88/4FP3jyFBdHhv1A e75lLGNHxQsuO7SM7wSLX+prS+rxLqGsU7D5eyvB/4cKUAYKVlsyr3e5bo2BLO6rLsaCOXVC wEOKtG2DYm/K9N0Zh3Hid29e89tpzw/O7/Hhw4c4Ufr+iM+WMfUCknJx10v6Gd696iXQKFtk rSzLUSJLZ9xvlRq4TcQc8NnjcGy29sqvuPIp9UT2ig2ZF3I+82pShcZU0ji7JxccOQnHaeTm 5sin+z0/fPSID68ucAVzlvLestY5IkobOpxAPwyGz5dh/2nVSPEfHXOWUf+96t/700+yanyo +eZJyqflPe064xNBbADg8dDTbBpc23E9DPzhdscf9gc+urjkW+fndIXMgadgJYneC9t33EZw 5QWwdx/LWDC5jMjOaF6zPnNp8C8FCDsRtK29FYHydqdoLbnzgCS3ftWVUZtDsPHeRhpdOlSg xPHe2VuH1GbDpSz0MfLVzZ7ntzd89/KSb12e04lw3B1xnUN9sBfu5dUwIxFrnJgiIjbePBFh tfj/ocz+pE+9fcyUAHE2jQNmoRYZGwGDFQhVAbPhSNNaXX/KwhQzn715w8tjzzfPL/n+gytw Je4ZIuI9tzIyotz37So+Wfx6qGZT76BiFuAsC1ZjGgND3FwOrLorTvBa5pDPo68ywzDQtu1c e6/CrP+9c3G1vmajxA3l/Roqjv2x5+vbHTfThLQb/vrhA4bjkUNWQtsyjUMJ8BqmmFAnHA8H e613mTEz9QPJ+0XJ5tLw6rVdf8Sx/3cL3tVFXwQPNfq/c7FVGTrnidY3NGcbXvcDn1/f8Ko/ 8jC0/OXjBzD2qHOIeHKCfuyZGsdZ2xA02xsYWZBEgGAFjXc9iD2eNRDad5yT0uAPYFh8VkfW VF7FmQsnzZddquX9bMxz6lDQYOmSvQyvRsz5xMTPOavYKM3gGqIqbw57vr65wW82vH91BS9u cBvH6GCaRlo8QR1pmuhTwokhV+1k07NSTPR9b68q8Z6mbedLzu94L5H2Owzgf/tRFQorCGnZ 8RQ+YSp1CX3Xn6q0nXDoezQ0fLnb88nLNzzabvje0/uEKbHLR/LzI02zQa7OuVW4VGEr9t5a 121nizfv9JysWb+CSpR0xjDDUtqsEG3WhekqxQxHG/rrqK/fCmX6VCJlh5DQlJHgcGV35ZRJ hVKavb0wSCgB27zOQgiB2I84HBOJX7y64Wevdnzv/iV//+Qx+dk145mNQJPRsoDJaYlYreGp rzNd7cWsOITtxl5rNY6lt96BYC5MnBbLZpy7hQl86vqAufq3fP+ueSg9fndq6bMyAH5IxNYx FbJGiJCPA0kTftORXie42vJvL97wxe0tH1ye893Lc0gDsRXaaUO+35V31SoPXCj0bqU9uyx4 vQ0srjN4gtFuc3koWXxMLXLU2noViJY5McpSOCh2X2QhWNRzTTEjYiY3tBZAzViV2PvNTChC KLXkaZxIGm1o4ZRw2w2/fPaCz292/M3jB3zn6h55muCyJY3TPL1JofAV6yiPbNOUCvafUm1n lvm9sun/r+5Mnuw6rvT+y+m+uaqAwiCBg0hRohVqueVub7zohe2t+192eNURjnDYXliWNbZI UQRAEEMNb7hDDl6czLz3PRRAyl44nBEQqMKr+/LmyTx5pu87PqDRpch0dJvyRVwaD7xzTASt 8u+NJkK2xqthNo24yediyemrRBo8YYi4xqKVY3toWZ+t+W9/+opXQ8/j+2dczhq0F/47+lDu Ddn4keyXJ1KIFdiBSSMLBrlbU8wFjif26RjEKNGk4t1l/zamUfWb3OEJPSI9dBLWRgYwxguB ndZEpBOyztE8dO6nUjZbynNRiuAsv3nxkm/aHT88l10+B/rB0ybBlhcuhdJoXk6g4NpVvt9T khSv0I2pygUTos9Gqh1Tm1MGp1rEUu7ed+v6kgsvGS+FypEwmKJvYESzBGfpdntmTjN3jv6w ZwiJ2Fg6pflfz1/wumu5t5nxw+WChY84HyCIN9KsFvUAAtJlOkmbTnqwc53ZtUN1l219CTV5 2VpBM3khctgzUgVOTn7IyTG1d2pZAIOEIaVzw0AMjoSpRZMmATFV1KzPLTZVbvobE/zpzS1P b7Y8Olvw+cOH6P2e3aHDzpsxUJHGZ8baQwAAHQ9JREFUZoHStyRJEUUqQIhcgZKE2hSg6ztS AqOF1iZ5LyTFlip4pRSpNHormrCiTEc4Uf3n8bhMGuaMPm8xF8YgmGhMDWgfxd10Gq8N18Hz rG356uqaTx+c8/FmwyIETAhobem6nmQ0TcqInjjF6qXcyy0jc53N7yPfakupjiCFCqlPBgTK 3oGSdSuWTSohM7kjS0WMsCrkRyTJVc9mTa6XR6JvPuKHIQsjqw8zyZ0jxuKhG3iz3fGb6y0/ v7zHj9ZL9KElqYCaG3yMzLWji77OrdgfQUtwQ1p8S7fEfpC7vTFO2DGVZvBeWJdEPPiQMBgB S6Rcyn3C3nQ6qvhqYub4bo8hlyeXANNR1DVhhsSmmRG6XmyMmaPViue7PV9tt/z04SUPFzPM oQPvaZZzBmDbdzg7Z1ZjH3UB86RE8G3fMSdhGUmdrM4pu9F1OzZOTkextov7hU5SjZmJgUpr CaUQ0qIwE/BejLLwSZAXCgUt2MbQ934MsSpN2w98/eaab65u+PBiwwfrFXNtOHR77HJGNInY ClGv0ITICDFzrSQEa64Fv5aAlGTjDcHT4Jgv5hjjM/vT2IP8rdzD0VsXd24MNNXiiUxcVGro yr+HGKQJYDF8lap3e0rgrCL6hDIW0zS86ju+fHPNTdfzYLXgk4sNtB1qkPxH0AbtDEbB4bBn 0zQ1HR7uKCL1ufAiYceTXgyvMuGSVBnbTR+LfHRBhOQWnVW7y25aghKnNdqQTITkSLkhrAAf i6qLRORet67BNIa263h2veW6H5ifrfm7Rw/w/UA/DLjFQrJ9uRnwEPyYy07Z9iiQIqUwymS1 r1gt14RUeqUpGptJDROQ9EhtoMZSpwy8kv/NwapypRWpyT2dqj1SglfpaNUSRIUyo6qXg6NA Cb4A62hJfL1rebUdeLho+Oz8gtgfaJSmWa+IKTFozcw1XFjLLlcoGVu6ZdqqZYoJ1uQTrqBe gaP4i1uRRshSjDF3E3xrA4m60jkVa9RIP5Jj8QVJCZnoLmhC8tWYSUkIb5XRQoelNQTD69sd L65vWGzWfHR5Dm+2uPWMgwLftcy1xSXLEDzejsJKqKOGPHpC0SXsSg0xBIbegypEfmOJUons j2LKnos6EfhJqXg64bQ5ddrqlZlSZuyY3umKwR/QsxVtSPzp5S1Pb1t+cLHhZ+cbXNuz0x6t GklzN7ZWFDfGMn94SduHzA7mpD96SRkjOLvGOQbfUfq0AqhDe0gpFcOD6paFIeRebRJAKalU mbQZW2rnwthp5UfVGEAfkyRmvJeaeJ/BEykRFdhuIBlHWiz44+7An7Y7fny+5O8fPSBuW6LT 40qmEedeDEl5ucRRXFuRGSIF71Y6Kqu8USsFCUglbz0LcqoliCT/fxqnqBshllM9EfHJ6S7z akgEpQjWybrFSBw82iR0Y1GDptOJX7284uluzwerBR9ulsxSFKCj16M7rMTLsc5mZmckfF0M 77qV8t/vyAtYpdVxP5AsdDm9rpL1FXUxtpaU/mPN7N2GjkJy7EpFUrKomAimdCuUnaebOfZs xa+ef8tXV1s+f3zJp+dndLuW+czWiN77hvQ9TRMLOodU1cS4nPjPSuss+GMlfNd4myvnDoGD eD8ngtdK0Q2BZrUQkOHQM5/NwUpvnH4IhAR/fn3D9WHHo0XDk/WSjRHGD997jJvntLKq11b1 IE7YV77vsEohFaH5fqphU0ZcOkmw2SkkfLZGjTVYY48W6y76K6ldk8QJUWcGJJUpyzReGX77 zUue7m54sJnz4axhEUQbdClMUc95Y94tnLIxQTyRUtgxdkJmEnhJJXYCTFKZdzx22jLk3eR/ ZQ46a8pJEGYxpx0GNODQhL4XbaIVXht+8+qaXdexmTV8sFlzZgzp0KETWNyYUs51/qXcu9oy k1m/O4JwPGxKecdEle/ZIVvEsqNc5k6HkjqV0OLUPXvfqOE/LSVIAozXRK0YEvzPq1u+vbrh 8fmSnz28xLYD3XZgtl7RD55GiyapRtI7TmS5xwq4sOT9KwJlAsUSBz3C5DouJmupDCqboXzf GDQ6HtNyrxGRWg6LEPH6rsNZi82dGqJx7GPk69st37YdjxcNT1ZLNlpD24lt4qyUT5XXQlUK GMppz0JXRh3nLXi3agc40s0KUd/BCwZdJcRYspZZ00j/FTWGFWNMGDe6LHd9aSp3cJB73DRO +NK7njfbHb+/2vO3j+7x2XqJaQcSHuaW3neYJMT3R8ZmXeG3X0r8YFHpUxJ9UelT6jGyW6dq Rq8+tuCu37G5Th8yTWS8BVFWmnBomWuHydE5M1/QpsTT62t+/+aaT8/P+ehsxSJB2B1wTpOc Y8jTaHIJURG4sEvKv5X9+9eOkc9SyT3uTIa8avFfD/sD+/yn63ppZK9KQOe7j7r0/070wyCR tpljUPC67fhmu+fTews+Xi+ZJ0XquuyLSiGjSaUnS6EBm5y6PGqnYJU9hpyvJycwxHh7C7xU N4M8L9Y/8gN1t8hr8FLV75MNNQFFUDZf3nA+4lxG+qC4DZE/vnnNs9stH1+c8en5hovZHD1I DxdlHUElhhRomoIAGnnslSKX4h5rlenJnhah3CmTqiK0BO7dTJx97z3RWYydNJ8bBqnpshrj HErpDBS829hSGY3ZpZ4AOGvYD55nN1tufM9ss+Rf3b/HYbdncAa3WgihfhvQjcPHY5qxcZwa YNntylWzahJdLNTg6fjjdePU3MJ3jCNu16wl3vpMZrA6KkKcaaLoL66Hnmdtx4ubLZezJb94 +AD8IFWMgGkavIIhJByKJsKgTo23qRYqWumvG7aqCEWFxOIsNlqiT6zPTKXxFr5RCWGGGPFD NyGme9tlkJ8JsgUNUSluDge+vb6F+Ywn985p3uxIOR8eUqJBYSL43jNYzTwppvdmeeZdLzta 6SXxcTymQZWjnxcseQm0jCrg5PknpL533QTZ0q6C15GQNNFpvnnT8uXNLR+cbfj55X3UtiPN An0vsY2gNSEpGudoYiLe7FCbJXeOvLlUjjOkFI9P+3tMe3U4HCqCr/QgP3ryRJRjvHy0pFs/ CIMTQEwYDcZJs5nBB5xOhB46rfni9sCX+5aHc8vPz9eYN9fc5p2rUqbsNvpoTfM6ynWSLXLp x5KxYLmoo8CnpR2W9GXRaow93GXYpFAou6l/Q7ZDCnDyXQcpySbSPhC1IRihVNM+4LsedMA4 hWotXaP51fUVX3ctT+ZzfrLZcO4sqW/xCJN1dWOzIJ1tsM6MV0rx1e1Y8VPtqKLdSoCpuJRJ Gv+kkn0sWTYJG47IzWNjJFusObqWKKk7siGhcVZL6DOVXiMZdpPBkNGDXS757bMX/OHVDZ88 uOCjzZo0eOz9DYtDP/rsSudm8WM8/E5Dpdz1UbJr0vjGVJx3vWuNOorS3TWm71uoTkscgnds lukIgHKaMAT6Q8uqmdHMG7wPkuM+W/D7p99wc9jz2dmKD9cbmhBohwPOGaw1+IHMHCU2ibVj 8CWSjt8H6vq8LXBG2eXXHnLPlyMW6OBLRarOAPz6qwC1BEr2RonN52IJjVBw65QxXeI6xFTo qzQ77/ny6TP+srvlYm75gdOcaYVqGgKR2XzsYVpeSCauMt9LzpPHie+rQOUsolZi1Rqrx9Oq Mneb0gTuqKtnekrkVWOMAiKIoUb4gKPs1F1oHG+MVPekyEwrYu8JCqLRBKX5r988p/Mdj5cL fro5pyEnhoyjC4GZipkJUuBdNjcMBMHwl+vz9JuV0rmkrNwvp/eMyCl66akXUqIkemzwHpJw r6WoQY8kvuUZ0SfA1wWvZcsikaxaIfhM8I/czz56fn215dnrKx5sZvzs4QOWEVIIzJdLrg87 5lpK76thJQ9myrtS3D7J3Zuc8kxZ+kUYxW8dJ16vh3ec1uL2F/bLWhUUp4WJYdwbd9yT2hpC P+CsnNrB90TrOKTIX15veX59yyfnGz69vMdMKfxtC0ZhbEPoY8Xu15gCHG3wqt5PeAGK4Eue o5ormReoanCtAINJAhoBhIkixogKWipHvOaITRuh+Rz6HmMcrhHmxZjkZMj+kiSN76VGPWrF 9WHPq9st/3zo+Mn9cz5dLllFaBYO0zja9oALQHOigmv9GbmZTr7Dy2e0MFoYZTH2XXG0fJJN fOddXkbIuYDymNJHrVwhAr8qhyC81d+dPrEwDSoEet+RnKO3mme3W764ueVf37/PxWKO9oE2 DESbCBHC4SBtM1PAaEtjm6PDWmoUvovkf/JWkwND3cTFpSSCKvAzEez4YZBaq3KPJKiBFcKA iUbqyZKcPimClA5PPkaS1hy6nm+3e765uuXjB+f8aLPmwkrJknEzUW+pxOVzACaUqasqeKC6 i4ly4gMxCUe90Tp3KxzVX1m3BDBFoqjjBSxiL2HnNFF/4gJm9ZhVffHQYr7/ahOgbmC2mON9 JCpHbw1/urri5e2eJ2cbftDMmDeOruvoQyRahVeSj3dBS1jbeUySiEupydPNJPJW5nyCCzj9 eQqpWvWpgktOAkaANXqknVRRkXSuCq0qXNS5iSNvWhh8XTbpDxoJMeBT4ma/5/W+ZRsjzWbF 315c4NsBrzXL9UoS/UFgT+XePL2NjoYSIt5A7kkaQ6X3lsSQqa5a7dZVA2LHKvFU8GTVKMCN AEk24ykBoJR6l5jIMRRK2ayJtGFP4Pntlpe3e+5Zxy8e3KO7vsINmsY4Yoh0EbS22auRXnUx WnGJdUkQ5cxeiKhJzLTAqY6FPxV4SQOnfGVFOd0niSBbCPlFzWeuVyV3Wk065nRejAk/ZP4Y I+0uu6HL62AYYpR8+O2OZrPmyeUl7tU1ejXHK9i1LXPr5ISj2fueJjMfyhTGXHWptC1tMUtR R/Ce2sNRwczZzFRJti4LEPE97tZ0lHVLUi4lFihHgM4ieAFSHm9P0+icQNE8fX3LFze3PDnb 8IsH91C3PW49o2873KCwyuBjIFqZe4p97dJcLevMCaczoVPMtlRNn060lwiYSTwh1fmK5xOy +3pM1SbqXU1+L/9q6WSVhPSVGDwxn3ClFWEY6FLEtYGgLJ0z/Pb6wB92no/unfN3l/eYXbe8 dpq5UsxzL9FIJARQIdDUIkOqd1j44SuhgaLm+n2QU75aLViuVzSuoffd5HWKGzP+JAwRYxSm tCxJgZDyqQ6JoTQpSAmjIBmVrXnB5C/6gF82DEoTAZcM9APeRHSjMH5OmFt+8/INX99s+Xi9 4rOzNWroYT4QOolKhmyF24hg/3wCPaMfDqyWK5bLJW7WCGedF153beJR4GUq+LrpMg16TJmh exjkyih5gRjGkPBU6LLwE/92Yr3rrAmssajcunHo+3wvJ/ZdwJ7N+fWLb/nqzS0//eFDPtms aPcH9NywdiuhsSy1aCFblDpzpkWBHp3604J3y2S+uU2XzbQls/lcPAa+ewiPXe6wONnUsQD1 7zCU6kyUYktgYS3D4On2LRerFbPlnM73Ur400/zum5e8afd8fLHik7NzXIiEdkBnRp8QJzZB Pl0xyfqtliuappGDF3NxSN63p9fRXUapUrry70uiLGRXFjnhR9fU1JAryYfq/kwWoBDh5uUY uoGb7U56eCoFesEXz7/lRbfjh5crPj9bsbENXiuC0yxznze5gyUypIJQm9TOinGaPWO0mvP9 6qMneAEBLBbzjHOH4S42yZNhlBYG6Pw98h35NGXvIMv3ZDWBpOidw7ctpMTSGpT39DHgjaaP IvDbw57L1YKP1hsWiJZs5nOGwYPKIdbMq3uUlUuwXC7F8zRKcATfEw1bbJWY2SzDEPChp2D5 UfrY05jYIba+YBZ4yaOLoFKl9PaDp+8G9u2BzgdC5n77c9fzqhv40eUlf/P4MU304CNnF2fs +r4CJRSQsjso1n4gBDIl1/GQYIwsVtf2+CCJHmsayaAlCDlJ8V2L48OQF0C+O2SCHgmIgDul E8n+bVkX6xzddsfCaGbO4n1PcA27EHi62/P8dseT8yU/vrzkzFq6qxsBdSxmHIKnlIoHH4WO O4qLNps12MYI907JJN4h8HTigZyO4As79yAC1wqj7Vuu5ZF6vytbVEOQWhq6xRjp2sDgPco2 LBYGr6ALgee7Lb/84DE/uX+OJRE1qFkjdenWSY37HbF/Eaqgawq36pg2TxUQ2fUtRiuaZk4z m6FNrr4h1Z5j7xvSgxyBOWcO9MEPKK1xWuOcrYEM4djJlGpZwbkA1gmU6HBo8Y3D68SzXcuf 39zw2cP73J81LGJChYCbO4YQ6Q4HvIKGsZQr5E5OygqZ8mK1eL/A3+Ojl98Z+iE/X0LQ1rqj lPdd1T52ejFWZ774djERyD5l0+Bmc5LR7IeB19s9r3Y7fnKx5uPzDTOt6XZ7ohMUq4kBp4TO s5Dq1NJqYuaaNQQ/ECIYZXKot0Tf5MS7xjJrZiwWc0lAMN53UsL8TmcvL2JO0gQpyvR+AKQn vHUmVwllfzakTGQ03v7JB5wxdD7gXUNrNX9+/ZqbvefJxTlP5jNWzsLg8UFhmgaM8Lk2rkH1 peOCEq2mDE3T4BpH4xxtPxqi38dGAXJxqUwz5ryJMQ0mR+0mhTvUYF3JpTCtnCnXXUoklWr5 Ud8NJIX0QreWwzDwYrvnddvhjeXfPHpA37Z0MWAXM4ZB+NKV0bkrQgl0TJIYk16qxpgjw3EE HUgd3tzNaJoG02QkSoy59Kk00PmupRLVWjacta5SnSqtIZTOEEfLkB+rQAda7xmMorOGp7s9 r7c9D5oZv7h/j77f4ZQTPHzIMW5jWBiDVYoOKPV1zjUsnauUaiEnpWrK4D1X1VGlcZ5oSgnr 3Mi7b6aab5JEg4xYymHYqWExzSxJMbBCWSOsESnR9wPPr6755mZHs17wyfkZ8XaPazSDEoE1 RoIukUSPoqkBmNK8JtUsXEwRa02NsxffvARaYoLZfJ7bWKRMSpRqMCbGhLHvF7rkAyQzqI3K IEqhBQ/DWIdPKur0RHM4aP1AsHOebg988eaaDy7O+ZcPH2CvD8wuZ4R+IGJx8xmDUoQwoIZB GtcbWzNc1jkWy4VAvWJ2F/WxwKdqXogZTurqJ1G3QrGus0sKZERxTsSoglqSg1ITc7f7XSq5 cJXGQsIKr+1b0DOCNfzhes/vrrZ8dNbwy8v7cHNLWs7H8iDZkkeW8JRg6DQAA/J9Qz9In5GM JLVW08yyOv/OazsHGZQ07ylRqmKwFSGqfHJHIzX/+hBIVtMjm1b1Xlic8ATVk1rH1hh+9fKK N4fAJxcrPlo2LK1muVCg55TOyICQJPqBQrYfQsSa/D7G1D7rKXspenK6j2r1StQtM7+CROhq tbKSAFntDKGKwTelk7nDKwGs0Voa04coDMFZIAWDrnA06yV/ePqCr95s+ZtH93myWTC0LfPV THhWy0TL9BIToyyOrtJUVFlWfdfnzsyAFX/e2Sa3y7Q1IvWuIVUvoknKpipxZ4FlZS2Gyr5w Ol4Jpwkp0XU9ThsW84Z+Hzl0gWgdcd7wz8+/pQ+Jj++veTx3rBtHY6Db7lCzDMvWpf2WaJVy CLSz9X2UKW6MCFwl9T1cNFWNtvrsiTTffcHlL7pjWKs1XsWcrAfpOpSRltbQJfjd18943u75 4cWKj9cLFtbQR0NHmibkshQmi6oYe7nUhZbJlEqQ2vpZK5qsqkrjn3dN+t3vKCovhtF+GO28 SdZpskwd4ucaFdEh0PeepBR2vqQl8ZvrLS+7gcv1gk/OV8z6gXRoYSZo2BiTKKMURrc3x9BL QYj0JzRZg2bYV2nnxSi0aWVuCcwkciWxH9kytdGoxNj1oj4ACsgjVXvnDutd52oN9Mj2KEEX RYiRX7++5tubGz66POdnjx6ih4Fu12IXlrbvMntE1gqT8qRxNlO6jWPBA7hmVgH6015kKUjy Q70fKUzBoGexZoGPAaWUAWTVslDiOpeUo9aG5HtmzpAGEbpbrQgk/vL6lhe3LR/ev8dHmyXn pa2GgqADs82KmEwVcH3rSWlThqvmPSkh5jK3gsxJcJQRPHo/nyhsXpRNkTVFitn+ymuQYsrG XLyz4KMKHeReTUrmI/+tuDm0XO/3fLHf8cvHj/jxvQ0mRgJJ8OGDx0Uo3eqOar+np/2uUYoe ANvc8bma5v0rRsrRQyZeQjVSi4qXqelc9pNiotGKqCwMUTbgzHA1DHx5tePL6x2f3Tvj08sz 1sYQuz12PQezpPcRrGVa91MSR4pCpSbwYenPl7ImmizBHeHnU9+8AEplOXWFiJcsmlaFTTsL PmQ+29O+JJNha7A+yb3ngX3X8+1uz+vdjp/eO+PjextmxtDe7qHR+CR4EGcsNcmTLUoK50xi rNRk8iF55bfvoWk8VKkct1ZvWa+nQ9XFHkGHpRS5PjqfipRdyBRLZwlFtzuwmM/xwdNFOJD4 4uqal/uWj+9v+PzynLkRPHiczUha8GfGzQBNRX7FSDSh4gKjD3KkYqyNBI7acZ2sw2kUjrxa dcWK/50YASQ5IJRxXPWJaWJD3aU9bIhB1KjRxJS4PRx4sWs5pMBivebvf/CI7tAyxEizmtN1 PSoJZUjdXZNjOc1FQ+Ynj5EY1SjYlCpA4JRFWak08mp/n1FOc0mnZgv9CIaUxG0p3y2lQfI7 KUYwGqUb3uwPPO9adn7gw/Waf/H4EkMkDQPJiJ2x7wd8SiwaKxHIGO/awvmrjk9tNTaZmD0n QhnTzOVzmfGquLpB1HyiNC+W+gSDBT2e+PfFL3QIkaSEeE8Zy9Wh49XtLRjDB/fOGK63WBI+ JbpM1NMouf/beMcpPNEqitz49q1vVhSeG6WpfLgpyYtHH+W0fO+R6qYSN35yclI2UO/QeIvz FSGBV9IG42XbcT5f8tNHD3AhEmOPkF4l+hKGni2lJVjXM0XeqPw+hcZbagFU/VOBlJSp5s4O 76lRl/JuWasSS4ixcOmoGkGconAr49c7DGF1uL5KZjFnG+AvNzv+6eWOf1jP+fzBmqTeENMF krCgnsCxnDYXXkxi4MWPLLirKTVZwZpRppNirYKpP2Ni7inAcJQ/Llxo8nKR9A6PrhqEQ2IY BnrvMVrlMitFjgZhnMMrxX9/dc3/uL3i3z645PP799n3e+azOSG832X87jHxQopqLu4aEjAq 71vaf5cX0EYMrZofSRIHiCXCmBdO1xhJ7seujzXtaQWR1UtNCppDe+A/vXzDf7g44/Fyhm0a bv0lC5sDNSHlaNB096iT4P6kBi1/Tkj1C51WmrhoZZKj2lfTe53iDRznkysTRAkQnMynnvBs tUUitrEYZ/JiBfqh3JmJBs0XhwNfd3v+8eFj1qsZf9m+4snygr73mLd80r92THZ0fc9jrNwY kZzcxXc9Ih8cbTQxIFfP5COnvhOq3P9g7FgJpIYQ05dvrviP377iHx885MF6jnWWP16/4tP1 PYYQ3hvdLhOdco++NYqKmoQGK2VXdmNOVW+xbmsPlcndF710fBqGHo2ptWV3dXGMKlNfh5Rr +0BZiwfawfPm+pZ/2l3z7y4e8eT+hkEFls6ybQdWzRyfvj9T9N0LVKNUo8F79O+Z7iXX9pca uRKpm9oLYx+ZsVNDiuHoeaowcOT1LT3ZK/IHsP/5zy95rQ78+4fn3Fs1NLOG60PLB2rBdnsF yopKdA5rTWZxyFWpYVIUUHbyGIojpsR2v6Oxjvlshsl8ZsSsOUhH2mEamk2JSho0faESnx+G Pn8+SGxZWXg7VEQkoJMuFzvGNSRj2LctL3Z7/kt7zT/MLlg4i08JNwx0Xctmc4+u9//HbA+j UNP416nAkXy4tL0W+nSjMkQr6Jwqzfh8EsRMW2rGzZDSyIARU0ITa4UMTGhOE8LtA9iY4Kxp uFyd0TSOrh+4vt2yHiK96pkv1/+Xb/3/eqgKERJrPdH5jlfXN7y4vuHyfMXZYoGzRihCDi0x eXSzJPiEnf0VnsT/J+N/A5KazzYVzMwGAAAAAElFTkSuQmCC" />
    <image
       id="FlashAICB_Layer_1__Path_"
       x="0"
       y="0"
       width="661"
       height="298"
       xlink:href="data:image/png;base64,iVBORw0KGgoAAAANSUhEUgAAApUAAAEqCAYAAABEJauaAAAgAElEQVR4nOzdX3Bc93Un+O85 v9sgRJFEg1Q8yRNaOw9x/gmtTDKSa8pGa2e3xpkXdmrLKZjmn8uppArDUNYlPVvFtUnhkqAU 1WZHbNsaDTdJlZoSQ3MSbxl62fLLjhrZ1IbjcW1A2zult4BvKdsiGyItguh7f2cfbjcI8J/Q JIDbaHw/KohAN3D7gATZp8/v9ztHQERERFvGl4/GVRdIVcRVBTb77rlTlbxjov4Q5B0AERER ra/xiROlYOCpyCChqg6JACICMczlHRv1DyaVREREfagaRsXtO4tVJxKJyiggsOWfYEBiNp1X fNR/mFQSERH1kfGJEyUXbIshWnVOhh74SQZAgGQhnd3Y6KifMakkIiLqA+MTJ0qFgW11iBtb 1RcIUBjUKoDaah/jYDRVSxbT+qW3YyajdB/JOwAiIiJaG/ujM3NiGOl8LCue5TvL3wLzfkYU 9ZvN69PT9VpzddeeqjrR75kZDP4qgPrN5vX6ar+e+h8rlURERH3CUl8T1XMPus97uwak9WTx Tv3y+Tfmur22QqoAAAEUbhSCc8N7PnMuPHb2Aszq9dqpxhMFT5seK5VERER9ohpGxZ1Du290 PhYBzKfvm5f6xbfixz6UUw2jYnH3Z24YDJ3TPiLSTjAz3vw1ALXm9Z+zerlFMakkIiLqI185 Olk3oAJY3SeLj1WVvNeB6EzoNHgHQJY5WDuzVIFmN8AbABjMMK+q07eTO/HlWvzEj02bB5e/ iYiIetSB6EzYzb5HAPjFrflorSuFrQXfwKA/JoLIqRsBlg6Qr2AGqOqQmR0KIHMA4rWMg3ob K5VEREQ9pBpGxV3F4cjERSoyZD45/W5tMs47ro79UVwJXBACWhVgRcsiAwARLC4s4JNb88Nc Bt9amFQSERH1gGzf4p7ITCKg3V8ye5aen7/+s1KvJWjVMCruLO6uimgcODdiEHjz8GmK1sLC hcvnXwvzjpE2Fpe/iYiIctRJJlVcBJEhbx7ms/skOwkztHP3MyG66Ce5EdpJbh1APYymKt5J 6BN/yKcp0tR6KlbaGKxUEhER5aCTTAIaqehSZdKb3T0I02406c1fe/fNk6WcQl21ahgVC4Pb q399/vV63rHQxmNSSUREtMEORqdj1SASyZa5Zenp2OBXfKbBez/jLY0v1uLGBoe5YcLjr83B MJeYjy+y3+WmxaSSiIhogx2MpuacuhEBVoy9sU4TSAhSn/R9MgkAYfRaKE7f6Xzv3qczamlc 7/Pvux9xTyUREdEGM1hswDudj1be5y8s/CKJL5/fGj0exS1vO2RQ0TF17oPw2NRMsgWS6n7C SiUREVEODh47O+tURzsppff+wuLtrZNMAkAYTVU0CD4wa1dpOz3VVWDtfaWpT2eSO2l06e14 NsdQaRVYqSQiIsqBtyRSK3zgzS4sWrJVp88Uvbd5ESwdVJIV7xhUdWxgm/79wejshUVs2d+n TYGVSiIiopyMT8SlrVSZfJBqGBV37d4Tqeiyg0varlRa9p+/O2s8TZPD79VerecbNT0Ik0oi IqInND4Rl4JBV75YOzWddyyb1VLzd3GRExkys3ZnpbvHl7zZ/M0bP++5RvCUYVJJRET0mJYa l7tg0qd+fuGTm+XL59+YyzuuzWwpuYRGaI+BzFouGXyPjayklVzeARAREW1GB14+E27b/vT3 nbp/JSIwYNBMh3/8gwarlU/gw9krC7N/90Hj2V997nxh27Y7MHneqQ4a/PzHN66Pfzh7ZSHv GOnBWKkkIiLqwvjRkxWBqwUuGBUBRBXL+00upovPX6rxpPJaqYZRsbjnmVqS2jS3F/Q2JpVE RESrMD5xolQY3F4DZK/3HjBAVLIDJABUFaICnyTvv1t7tZpzuEQbji2FiIiIHqEaRsWB7Tsi 1ULkXDDkvYeqwnzWV9HMAAHMe5j3FxYXLM47ZgL2HYnL3qO51U/XbyRWKomIiB6iGp4obXvK NQqFbSPqHDrduc0MaJ9OFgBm6YxPhQ26e8iBY1OzgJRgPn6v9mot73i2AiaVREREj3Dgq5MN F2wbS83DUo/2oRwAgHl/zZtF33kr5l6/HnIwOh2LBpOdj8Uws2CtkI3T1xeTSiIiokcIo7js pfD3aZLAzENE4Q3zor526Vun47zjo5XGJ+LStu2Ff1i6wZYap8+n5uP33jzJquU6YUshIiKi R5i90vjH3/idzw+LyIsQg/f+wkJ6Z/yv/8NrrE72oN/+/P9QV9XPimSHqLLtCQZRGVTIF597 sfLSr5XHGj/5YYMN1NcYk0oiIqJP8U9//fkrg4NP/Vpqyb+9/B+mah/+8G+ZkPSoX3vxC1cC kWdF5bNZgbKdXLbHiatISUQO/8Zv/4sPf/LDv/kw73j7CZe/iYiIqO+E0VRVnNZFdAi4e0of ZkhTj1YrQZK0vtm680nMsY9rQ/MOgIiIaKNVw6iYdwy0vuq1U9M3PvpZyXv/PtA+t2+ANyBN PcwMQVB45ekdw41cA+0jTCqJiGhLOXh8Kh5+5p/c2HckLucdC62v6XqtWX/zG1Xv/WGYzXvv kbQSeJ9CVREEATRw9bzj7Bdc/iYioi1hXxSXAwnqqjoKM9xZXLz6nbdOM7HcIsYn4pILbDrx ftSpohAUYPCcfrSGeFCHiIj6WjWKiy9+4X88UdDCdwTyy+YNSdKC9/bLv/nPPi8/+eHfNPKO kdbfT37YaP74BzPnf+OffUEKhULFFNduNq9/8cPZKwt5x9YvWKkkIqK+tT+KK+oK9YJzI2aA Tz2SpIUkSSCiUHXzqfNlNsXeWvYfjSveo8kJSGuLs7+JiKjvVMOoWBz+pVhUXjHcPZiRpinS NIVzDuoCCHzjF80mT/5uMRffiht5x9CPWKkkIqK+sj+KK4EGdRU3YgAMHmni4X32BhG4wF0D EF6snWrkHC5R32ClkoiI+saBl8+EKu4dM8DEsjndHvDeI03T9oQV++at5kfsTUi0xphUEhFR 37h58/r007v21FQwhPYklSRJ4dMUMH+t5RF+9/zZRt5x0uZSDaPijh17KhffOsXRnI/APpVE RNQ3puu1pvdpCMn2US62skM5SZp8c+H2rTITSupWNYyKu4p7GkFBv3fg5TNh3vH0Mu6pJCKi vrPv5clp721v0kqvwafhd//ijUbeMdHmUw2j4s5duxvq3GjnNp+kh9/79qv1HMPqWexTSURE feef/vrz3xd1T/38p5+M/5+X/rcP846HNp9qGBV3Fnc3RHVURLIynADitPrcC5VrP7ryAdsR 3YOVSiIiIqJ7ZEnlcEPEZUnlPbxPD79XY8VyOSaVRERERA/QSSydFkYfdP/iwuLzbKB+F5NK IiLqadUwKu4a3hN/fINtgGjjZT9/zzRU9L7E0szmW9aqXKoxsQR4+puIiHrY/miqunP4mTkV fWVXcU+cdzy09UzXa82Pb/y8AvNXRYDlb6oyFEhQr4ZRMe84ewErlURE1HOqYVTcsWs4ds69 AmTNy0UV3uz3L9bYK5A2Xrti3q5YZumTCGAGpJZevXnjo8pWr6SzUklERD1l35Gvl3fsGm6I 6iveDADgvcEMEBFWhSgX0/VaM7mThqnZ/L33qejoruJwlEdcvYRJJRER9Ywv//GpyLTQkPb+ Ne8NncQSAMwMA0/tqOQVH21tl96OZ9M7SWXFjQKYt/c/bt6o5RNV7+DyNxER5a4aRsXtO4fq Im4vgPaMbsCbZb96D4NcFW8hT9tS3g5EZ0KnwTsigHl/oX7uZJh3TL2ASSUREeVq/OjJiqJQ VycjIgogW+qGGQwGGODT9JvfefvMll9epN5xIDobAb7JXpV3MakkIqLcjE+cKAXbtv8DzKCq EM12ZXlv8N7DJ8m8eV+9zJndRD2PYxqJiCg3P/nh3zafe6HyrKqWRQSiurT0nXr//u1fzFe+ +xf/K8csEm0CQd4BEBHR1nbr4xvRruFnyqo6amYwAN7SY5e+PbnlDz4QbSZc/iYiotyFUVyG Fhre/FxyJ+VhHCIiIiJ6PPuPxhX2oCQiIiIiInqI8Sgu5R3DeuPyNxEREdE6qYZRcefwnmkn Wm5e/1mpn0c5cqIOERGtuWoYFfcdict5x0GUp31H4vLO4T2zTnQMhqFdw3sa/bzFg0klERGt qX1RXN41/EyjsC1ojE/0/5If0YOE0VSlsC1oOHEjIgIIIKKjxeFn+rarAZNKIiJaMwei18KC FhrqdFRUhgpPuem8YyLKwyLSpopABZAso8zeVA995eX+nA7F5udERLQmwmNTtcDpn4joYLZj X6DQX37uxZeevXrlPzO5pC3lx1ca//ibL7z0oYiMGwwQgQhgBqQ+/eKv/vaLM//th387l3ec a4kHdYiI6IlUw6i4a3jPtBM3BgEMyJ5dLLtfANxOF5+9XIvncguSKCf7v3o6VtVJ5xzMDIut FtI0BbzNC5Ly5fNvzOUd41phpZKIiB7bviNxefDp7Q0nbhS6rE4h7TezeXj/exdrk2xmTlvS j/5Lo/Hciy89D+CzSZIgSVKIAIXCwGAwMPDSs58dvfzh7JWFvONcC9xTSUREj+VAdCbUAddw 4kbaG8eWckkxAKm/2rz+s1K9dqqRb6RE+brZvB7eaS1eTdIUQeAwsG0ALnBw6vrq4A6Xv4mI qGthNFUT1Vc8OocQ2slke9nb+/Sb9XOn+vIwAtHjqP7R/1weDAYbA4ODQ6oC89nfHlVBkvpj 79VObvrkkpVKIiLqyvhEXBJ1rzzoPu9tvmXJYSaURCtN//mfzgbOhU6l/cLL4M1gMAhQyTu+ tcA9lURE1JWf/LDR/K0Xxq6JaBXWXvISgTd/reWTL/7lucnv5x0jUS/60Q8aHz73whcE0IqI QERgPjn9bu3VibxjWwtMKomIqGs/uvLB7HMvjD0LkTIAePMzN298VPnrPjrJSrQerl5pNJ57 sfK8U/crMP97F2qv1vOOiYiIKHf7v3p69itfPV3POw6izaQaRkVOmyIiIiIiIiIiIiIiIiIi IiIiIupt4xH3eRHR42GfSiIiAgAcOH4mHHQD/7Avist5x0JEmw+TSiIiwsFjUzUn7h2YwUnQ 2HeEiSVRL6iGUbEaRsW841gNJpVERFvcwWiqrqKvmAfMABUZcttcfbM8kRH1q31RXN41/Mzs zuKe6bxjWQ02Pyci2qKqYVT8nS/86ysi+q9g6IzGAQCIyC9v2/bUr1y98sGmeDIj6jfh8bNR wRW+p6pFgZSee6EiV6980Mg7rkdhpZKIaAsanzhR2rlrd0NURw3A3bfsP+/TmY+bH3F+N1EO Dh6bqonoOTPAzKACOBdM7o+mKnnH9ihMKomItph9R+JyMPj0rDgdFQFE0ClQAgC8pRfeq71a ma7XmrkFSbSFmdmsZb/CDAAEAqCg2tPbUphUEhFtIfuOxGU3EDRUZOhB93tLT1+sTYYbHBYR LfNe7dW69/4C7nnBJ5CRYvGZel5xfRomlUREW8SB6ExY2Fb4exUZknblA9n6GmCGJEkOX6xN xjmHSUQAPr7x88ibvyadrDIrWUJV9x6IzoT5RfZwTCqJiLYIgzSXVz2AbOnbvM37JH3p0rfj ei6BEdF9puu1ZuKTqsCWEkog2/vs1NXGJ3pvUAGTSiKiLeJi7dS09+nhpSU1ATwwnya+cvGt uJFzeER0j0u1eNan6enOx+3tlQAwNDDo6vlE9XBsKUREtIX86MoHs8+9ULkmolVvdrV1+xeV 7/zHsx/mHRcRPdjslQ8aoy9WXoJq6Z79laXnXhyTq1cajbxiuxcrlUREW0x2CMCO3bzxUeXy +Tfm8o6HiB5t4XYamtk8kJ0IR3s1XCWY7KVlcPn0TyEiIiKiPO2PpqoF574HWPtsnc2nLQsv vnWqZwYUcPmbiIiIqMf96MoHH5Y/99LzovpZmL0/f+Pnlb/6sz+ZzTuu5YK8AyAiIiKiT9e8 /vNwR3FP5WKtd6qTRERERERrisvfRER9qhpGxd+t/N6V0d+tLPzoB42eWiYjov7DpJKIqA9V w6i4Y9dwQ1VHRbX6m787Nv/jHzSu5B0XEfUvthQiIupDO3YN11R1tDOC0Tk9t/+rp+t5x0VE /YuVSiKiPrP/q5OxqHsFAGDZKEYAENHyb/3zyrM/+i8NbvInojXHPpVERH2mGkbFHTuHGxAZ BQyq2aLU0vhg81dvfnyjMl2vNfOLkoj6DZe/iYj6zHS91rx180YlTZML3qydTArMDN4MUDe6 s7inUQ2jYt6xEtH62HckLm/0Y7JSSUTUx8b/+NW6c+4Q2pPdRASqAoEgTdJrv7h1qzpd/1Oe DCfqE9UwKj61Y6gWBMGhNE0PX/p2XN+ox2ZSSUTU58aPvhordBIApJ1QmhlSn6LVWpxXSyt/ /edMLIk2u/Ejp0KB1DRwQwJBmqbzt38xX9qorS5c/iYi6nOX3zoTe58eFhGYAWmaIkkSJEkK 54IhddvCvGMkoifzB//2ZFVd8I46N9T5e+69HxI3GG9UDDz9TUS0Bfzkv/7N7G/8zuevmdlL 3vtB7z0gAhG58Ffnz07kHR8RPZn/74d/8+FvvTD2koqUvFknqYQ6ffHXf3ds5r/98G/m1jsG ViqJiLaIy29P1RdatyupT+ZFBDBc+Kv/eDbMOy4iWiNpK/Kph08TePMQEQTOYVuhUNuIh2el kohoC/nw//1//vFXf+tz33eB+5Xv/tlr43nHQ0Rr58f/9f/+x199/l+I974CCApBgIGBApxz v/zc71au/egHH6zr3mke1CEiIiLqE5VqVNzzzFOzrhCMFAoBCkEAQGDw8/PXf76uh3a4/E1E RETUJxrTtaYruChoJ5Op9/DeA8DQruJwvJ6PzUolERERUZ/58suTDRU3BmR1ShEBRNFauPXs 5fNvzK3HY7JSSURERNRnrHUnFAFE0On0ABVB4amn6+v1mEwqiYiIiPrM5fNvzKnYN50qAnVw 6qBO4SBz6/WYwXpdmIiINr9qGBWH93ymBrPSO29+o5J3PES0eh83b8TF3Z8JVWTIzGYsSeJ6 7VRjvR6PeyqJiOiBqmFUHB5+piHOjQqANE0v1M+dDPOOi4hWLzz+WggA9Te/UV/vx2JSSURE 9xmP4tJTbmBaDKPZfizADPDef7N+7htR3vERUe/hnkoiIrrPoBsoi+iotUsPZgBgUJFXwuhM mGNoRNSjOFGHiIjuM/t3/9eHoy+8NKyiLy7daNnylohWf+OFz8/86EpjLrcAiajnMKkkIqIH mr3yn78/+uJLz4pouXNbZ8+UiP7+r7/whe//+ErjH3MKj4h6DPdUEhHRIx0+9lpDVMdgBgFg AEwA7/38/I31HftGRJsH91QSEdEj3bjxs6p5u3rv7SIytGPX7kY1jIp5xEVEvYVJJRERPdJ0 vda8fXux6mHz1r7N2u+o6ujTu3bX84qNiHoHk0oiIvpUl8/Hc4u+VfGweS8ABDAIRAWqKLFa SbS5jUdx6UmvwT2VRES0avujqWohcN8D2n0r0/TCu7VTYc5hEdFjCqOpiqiLISjf+OinT7RH mqe/iYho1X505YMPy//8pXkV+aJZevrCuVNshE60Ce2P4kr5c/+yrs5NikpJRAa3DQ7emf27 DxqPe00ufxMRUVfqtZO1hXTx+fqbp+K8YyGixxNIEKrqmJmh8wZo9CRbWZhUEhFR1y7V4tm8 YyCix7dwO4lh7RZhS0klhnYWd4ePe00mlURERERbzOXz8Vzq0/eBdmLZfoPIY29pYVJJRERE tAUZfA1oj18FICJw6kYORGfCx7kek0oiIiKiLehiLW5472fuppUZEX2saiWTSiIiIqItyhLU 7n6Qvano6P4ornR7LSaVRES0rvZHp2v7jsTlvOMgovtdfOvUtDd/7d7bFUHY7bXYp5KIiNZF NYyKv/OF37ui6vZC7HP/3a+VL384e2Uh77iIaKXnXvzvoSJfXH6biJQ/O/r5Cz/5YWPVzdBZ qSQiojW370hc3jn8zJwLglGBQERHtz89VM87LiK6383mz+tmNn/v7QODLuzmOkwqiYhozQXb 3LQTGep8LCIICoW9B6Op2qO+jog23nS91jSz6eW3ee8veKSNbq7DpJKIiNactzSESNZUGQZR gajCgFe+NPH1MO/4iGilxYUk9uavpd4fa17/6fC7tZPhxVrc6OYa8umfQkTUH6phVNxRLJaR AACKCKysqkgWbPrS26ufEHMgOtMQ0TEgq8BJ+59Saf+L6mHzZj67ngE+9bMXvzW55WZkH4jO hKruHTODtBPM1mILd1qL834xqUzX/5RTeYj6SJB3AEREa21/dDpW0QoAmKGoqqMiAhUAJvDq kXoPmMG8QIMEAB4vwTHAxCAQmGWJpUCGRNxYdreH7/LaB6IzoUArQDoHAB7WAIBkAXOXz8dz jxVnDt6rvVoPv3a2ohoc8j5F0mqhlbSgokMDTw02qmFUmq7XVn0IgIh6G5NKIupp40dPVhZu 3ZrtJvnwKSoayJiKZGPHsGxZRtrDbpHNu/Xt5LI7WW1y6auWJZb3f6Yi0LSrxMmJq4rKXpjC wxBAJgGDe8pwIDoL721eHWazub2+4VObu/TtuN7lN7Eh6v/+ZBgee72cpulomnqoOgSBQ+Dc UKGwuwGArYaI+gSTSiLKVTWMijt2FMsiKIlzJYOV4VGEypgZIDDorqHTAOLVXtPMw7zAq0La /0HaSaAZvFm216/d6Nf7x4n8nhTScPcx0E5iBRBVwHe3fV2AokCyvYjtX7M7BApAHIYAjGXf lhsT598HUH+c72IjNG/8tFIYfHq2EBRGgkKwtBQuKqMHo6n6u7VTYd4xEtGTY1JJRBtu/Mir cWEgqBQKA2PmPXx7z50gKxqatA93AAAEKt1VEsXQBNBJXLIl6XaB0hvgfSepXLpul9Uyu5vo AZD7apTtOqYBqaVoJUl3l+9cRQRmfkWmKtrOXC2LQFXgzbpaXv/y0cm6CEoAoIKGmTRTwyyS hbnL59+Ye6xgH2G6Xmt+6Y++XpUBbQRBMGTewyP7XgQ4tD+amr5YOzX9qRciop7GpJKINlwQ uErggrHOyWCV9slg79EuKqLzTpZoaqWb66vDrKrutWWpXpaHGdIkuZqab8IM8Jg1oAnYXDfX f6/26iPj2RfFZYUrAimSBFi4daer64vqmMjK5XUASxVXgcBblrQKBOpdd/sSBSUnbqxdTh0T BRQCKezAoeOvwZu/6oCmNzQM0mwtJNNPupfzr//89dkD0ZnIzN5Z/mfuk+TCreZHjSe5NhH1 BiaVRPRExifiEgB0k3QELpgVwZi39poxsFQ1zM7SrKz8Oeuy+5lKw5ufM/g5GDDfbHa1J/NJ Xaqt/iT5g/g0eUkVFQ/Am5QAKwGAiBtbViC9W91F0t3jGUq2lLzfT6V9sMmQnXAfdEV0sf3g Yd6rvVo/eHyqpOImAcCnybH6uZPsW0nUJ5hUElFX9h2Jy24gqAhQEZGKiAx57y8ACFd9EbE5 b0v1yKyK6D3QSSY72U5WXrwGdLfpsdvear2mXjvVANB42P37jsRlHUBRoCUxKS0Ac91cX1RH 7qbzn84gXSXkX/qjr4dmfi5JMDddX7mc/u6bp+KDx6aKaphuf59E1CeYVBLRI41PxKXCoFYE Wu0kkfd9kqDSzTUTb7MFl6WTBsB7f9VgTfG+4eGahmTWA80nrfj1q256at7rS0e+3vVp624r oSaIXVAYGXyqgEPHX4OYnwG0CfGzicdscietP8n3QES9ic3Pieg+4xNxKRiUCF6q6nRElpaj JWvBg6VDFkursfPXfza82iXmahgVi8U95UWkTBxzMD5xooQgKKkEJRUrGbSskKK4rKE7cHdp HRAsfLL4bDfbG8b/+FUrBAGcC9D5Ccn2g3a2OvjsxUSSXoVizuBrm726TNTvwq+9XkXqS/Xa w7essFJJRPdxBa2q6CsrtjIuyyDbDb6zFjrtJHPHjmIFwKpO8LaTz8YahkxdaJ/wnnvQfZ0W T15QCpyUVFy5m4Ry35G47AoOgXO4v25xd0Nop6WQqI6m3nNfJVEP2vdyHKqTihNXNW9DSZqi Gp6YvndbSweTSiK6T9r6ZNoFO86JtCtW7apVagbV7OOlLjci8D69mme8tHaeNOHXAVdS1ex0 ervPZucku3l/t42TCFQVooo7vrs9oUS0MdRp7NSNCAQLdxaQJimCAVcF8MAXgkwqieg+l8+/ MXcgOnNVREeBTtNwAGbt1j/pjBc0vE8bXLakldKmeVwwbyVxOubbB7CAdl9Qy16IqGZJJURw ubZ5Rk8SbSUKmYbZK600gfceqoog0AqYVBJRN1JvjUAxajCY99cEmPZJ2vi42WxwXjM9TPtF RqPzcbZ/c7AUqFXMoySqJVU3tlTtNj+TU6hE9CkWk3TaCV5ZbLXg1GFgoAAXBHsf9vk8qEPU 5/ZHU9VAEKVm9fdqr9ZX+3XjEydKrrC9mrY+mV6PKSu0tY1HcSkASoEWSvU3v1HPOx4ierA/ mPhGU1SHBgoDCAoBYEDrTvL7F9+6fwoWK5VEfSqMzoQiGovoSHZLWkQX86HbiSQPUNC6aC95 z+UcBhF9ClFtbNu2ba9TB5hlHUDUV/CAg5ldjqkgol4XRq+Fh4+dnVMN3rmbUAIibnT/0biS Y2hERLTJqHMNabeTS33WDkycVh74uRsaGRGtmwMvnwkPHpuag8o7JtnEFANgkr1BAC0EYb5R EhHRZiIpGmYGM49OWzAVHa2GUfHez2VSSbTJHXj5THggmprTQN8BZMSbhzcPD4Nvn7g1s2x2 TZeTb4iIaGu79HY8a2Lzou3qBADAsKNYvG86F5NKok3swLGphgbuHW1XJtFJIA1LyaQ3Q+LT a2maHn73zZOlnEMmIqLNxqxh1h580c4rFVK599N4UIdoExPDnCjGOv2kbdl9lg3VnjHv44tv sZckERE9Hp/6hgu03UqoPW5VtHLv5zGpJBB3vdYAACAASURBVNrEFpHG26BVEQwt7xDmUz8D JpNERLQGxDALZMMLIAJvfgZm953+Zp9Kok3u4PGp2ImbNDOk5q+apRGn3BAR0Vo68HIcpilm L70dzz7sc5hUEm1y1TAq7hre0zCzWjfNzYmIiIiIiIiIiIge7ktHvn5fmwYiIqJex+Vvoh4x PnGipIVtNRW3N/GLL11+62wj75iIiIhWi30qiXrAV14+E7nC9lkVtxcwCFz9QdMKiIiIehVb ChHlaHwiLhUGtS7QsWzqDQADVHVk+46hGECUb4RERESrw+VvopwciM5GKogNGFretdyycTiA AK07nzx7+fwbc7kFSUREtEqsVBJtsHYLoGlVHTNvEBhMABgg7flXqbd5mI+ZUBIR0WbBpJJo A+0/OlWVgtRVdAhZMRKGTkaZfY7Bz6StT0ImlEREtJkwqSTaIAdePhNpoOcAwFZM6c54s3lL ffyX3361tuHBERERPSEmlUQb5ObN6/WdxWdiFRkCgJX7KP1MssDqJBER9bb9UVwRaEkgJUBK ECu9e+5UBWBSSbRhpuu15v4orooOfGCWZZTe/LxPjdVJIiLaFApu4AMgO096L/apJNpAF2tx w/v0mwKBmb/aWkjLTCiJiGizMPPXAKzoH7Q/iisAK5VEG+7dc6eiA9HZufdqp5hMEhHRpuJh cyoYEcNS55IOViqJcvBe7SQTSiIi2nxE5oAsoRQAEEDhKgCTSqLcjE/EpbxjICIi6orZXFai ROeXJUwqiXIyMOimDx47O9fZi0JERNTr1EtTgJUZpaACMKkkysWBl8+EIjqqkBGnhQ8OHJtq jE+cKOUdFxER0aMls9Ie23HvtG8mlUQbrBpGRTitAXf3N6vo2LbtO/8hPHa2Xg2jYo7hERER PdQi0DQzmBngs1/NUAaYVBJtuF3F4WipAboAAoGoQFShLjg0vPszc+HxqTjfKImIiO53qRbP egOWEksziGAIYFJJtOE8rOHhr6F9ck4EELv7vqoMOQ0mDx8/OxdGU9W84yUiIlpBlr21l8Cr YVSUR3wJEa2jA9HZSFViERlSIMso72WA+WTm9u00vHw+ntvgEImIiO5z8NjZWRUdzT7KKpZp K3mJlUqinLxXO1mbv/6zkvfpNyHZyCvz2R4VGCAiWZ6prryw0GzmHS8REREAKKwJS2dg6Yz3 6ftm6ekkwRwrlUQ9YDyKS4NSqKnK3uyW9tq4Ad784fqb36jnGR8REdGnYVJJ1EPCaKoi4mqi GDUA5v3V+rmT5bzjIiIi+jRMKol60IHoTKiitdSS6sVa3Mg7HiIiIiIiIiKidefyDoCI1k4Y TVVKnx1tfjh7ZSHvWIiIaGvh6W+iPlENo6I4Nz2855dmw+OvhXnHQ0REWwv3VBL1ifDfvV5X yKHOx5baVbM0qtdONXIMi4iItggmlUR9YF8Ul7cVtv09vN13n3n//sLtJGLzdCIiWk/cU0nU B57/3L+8DENJHjCVR0Q+WxhwUflzFSn96ugs91sSEdF64J5Koj7gLY29T2ce9TkibnJ49y/N hcfPhBsUFhERbSFc/ibqIweiM6FTjUV05EH3Z5VMg3l/1XwS1dkDk4iI1giTSqI+FB6figUu EpEhWLbP0gSQpb/y7du8zdy2Vni5xv2WRES0egePT8UKwLc/VjCpJOpb1TAqFovP1FT1UOf4 jgDAPfsuRYA0SV7iKXEiIlqt8GuvWyeLlPaTDPdUEvWp6XqtWa+dDBcWFp83u7vf0qfJNzvv m7eraXLneSaURETUDUGWTEq2DAYDK5VEW8b+aKoaQMJ67WQ1jM5GUCvW3zwV5x0XERFtPv/m a6+365MCA2DwTCqJiIiIqDuHl5JKdLbuI8grGCIiIiLanAxYyibNDCLKpJJoM6uGUXFXcU8M AO/WTkU5h0NERFuE977TSAQi7T2WuUZERI9t/9G4IoGrC2QEAJLF5PlLb8ezecdFRET9rRpG xZ3FPTc6p3NUFQIufxNtOtlf5t11p26vof1qEYALtA6gnGdsRETU/wZ3FMuwuye+BUCapFfZ UohoE/nyH5+Ktu8cnlPRvZBsQo6qQrNfRw9Gp+O8YyQioq3DDEjTFEnSarJSSbQJjE98PYRq LOJGBID3BoVAXDYlxwww2NJkAyIiovWSJY9ZqTL1HkmSwNKUy99EvWz8yKsxzGfjFiHt2d2A NwPMoFlzMPg0vZomPuSeSiIiWndqFcuee5CkKVpJC2Iyx6SSqIeJIIS6IVi21A0RmBlgHt4A 8Qpv6emL35qM846ViIi2hmTxTl2DAbSSpJh4Xxag7JzO8fQ3UQ8bP3IqVHXvAEC2h1Jhli1y G2zGWnfCy+ffmMsxRCIiIgA8/U3U0xY+uTn91PZdNVFtVysBbzZjSRpfPn+2kXd8REREHaxU Em2QfUfishvQSmvBT18+H8+t9uu+/MeTdVU95M3POEh88a24sX5REhERPR5WKonWSfUP/10l 0IHKQKFQVhdUXCGrNhYG0QRQX+11bv9iPhocHIy5zE1EROslm9A2HIm4KLWkerHWfQGDSSXR GvjSH329XCi4sgZBOfG+Yt5Gk6QFdQ6uUIBzDoABYhCgii6Syul6rQmguV6xExHR1jU+caIU DD4Vq7hDKgIDoOZCAI1ur8Xlb6In9OWjk3UVOdRp+bPYWkSaplBVDBQKcEEAUYXAYAZ4s/n3 zp0s5h03ERFtXdmoX41EdK+gPby7M8sbwMLt1rPdbNUCAE7UIbpHNYy6SvicYi47lW1ZQpmk EAiCoAB1LmsB5A3Sfg2ngqF9R2KOUyQiog23/2hcPfDV0w0N3AcC2dtJJJcnlBDBwKCLu702 l7/psYxPnCgFA0/FolKCyNILnDRJ4BOPhWQhmv7zP111I+4D0VSj3dcbiuyUM6BLP+QrCGC+ FdVrq2/0/eWXJxudIaUChZNlRXrNekA6kZKIGzGzeQCrTiwTnzZUdTJJU7Ra2ZJ3IQjgnMIM 2Qwrlz24t3RGzBqffNKcW+31iYiIntSBKA4BjVVkZOU9y59oBdCsH3LqfdcrakwqqSvjEydK A4NPxRA9lCVpd6e8WOoBExgMMNdltU/H2plkVj6Xu+MH7yUCpL676wt0rDNSSqR9/fY70u7/ 2Hn8bHrN6i3cujU78NROpGkC5xycCyDqkKbpPASzYmjA+8YFntomIqIcjE+cKKkG7zzoPmtP aMuezwHv0wuLt9O426VvgEklrdL4RFwaGJRY1B0Csp+/TmJmZvCph09TeG8QEQRBlz9anYRu 6X9rS1UA33491n6QzoSapb0k0v6mDNgXxeVLq6yETtdrzf/pD/+Xa15sbkDdrMBmfet2g6e1 iYioF1w+/8bcwej0hc5z+EoCD5tXS2t3blv9cZLJDiaV9Kn2R1NVp/q95be18zFkL3AMaZog TVOIKApBgEAftG79CALABPLA9e4nF6iDaXtmNrJkWPRulbVT/u8s4w+gu0ro//EXf1Jau2iJ iIjW1uKCxdu2y4qk0pu/BrPareb1ervTyBNhUkmf6lbzo8bO4WfmBVhaFhYRiCiSJMn2UXqD qMKpg3MO8qB160/V+Zr2cvp9CWaWchqApMsri2b7PjspZKc6Ke2HXdqnfPeTeDqbiIj6xuXz 8dzBY1MzIjqW+vSaAPF7tVfra/kYTCrpU03Xa82D0emaiJvsLHubAWmaIklaFxbuLNYDAEEQ wCuQWoJbzeaqD9EAQJIsvgR0fiBd+9b0ns9yS8nkreZHXV2/lS6//rIkcumxssd75zGavRIR EW0GiaWRWlp8nMbmq8E+lbQq1TAqDg3/0g2R9ilvn1xIFm5zygsREdEGO/ByHJrT2Kc+vvTt uJ53PB1MKmnVDkZTdQBYXHi8U2FERET0eDpjFA0aqsiIN4OlfubitycrecfWwaRyC6qGUXH7 zmL1k5vN6bXYmEtERETrY3wiLg1ud6FBIxEMdQ7IZq2AgFaavnS5R1rWcU/lFtJuWB4aNFLF 0NM7i0UAtbzjIiIiopXGJ+LS4GAQi+ohWzpYuuxkafu0aaASA6jkFOYKTCq3gLvTb7L+VNls ToOIRGBSSURE1DPCaKoCSKSqew3triTAUmXSzFb0SjFIKYcwH4jL331s/9G4KqqRqIz5FTM9 25+QjWE63EubfImIiLayw8dfb3Za+JlkSWSnxzLM0Hk+h/czMIsv9sjSN8BKZd+phlFxZ3F3 FSqxGEY6r2qWs06zRxhcVq2sb3ykREREdC9DWoO4yawy2V73Xl6lTNMLKaTeK/sol2NS2UfG J+JS4algVkWGsuK4B9CegLiUV9rS1JgkTd8PRLn8TURE1COa1z+qFfd8ZjJ72rZ2pdLPA346 uXOnp1v5cfm7zxw4NjUrkFHzHvKQP13v0wvJYm//YBIREW1VB792tq7QQ0mazsMntVsfz9c2 Q7cWVir7TJpYzSneQXvyTYf3Ng/4TfODSUREtFUtpklcQDB7q/nRmszk3iisVPahr7x8pqkq Q6KApf5qalbjYRwiIqKNtT+KK4G4GCbT9drJvt9uxkplHxJnNQBlb7528Vu9t5GXiIion4XH XwthPhRxYxABzJewBVr4sVLZo/ZFcXlAgkhEq+bTar12qpF3TERERPRw4fHXQhHEIjKyokk5 AJ/6w/XaN+p5xbYRWKnsIdUwKhZ3PxPCEIroqLRP2phICKCRZ2xERER0v2oYFXcUh6PABZGK DhkM5g1QyVqtmEFEIIoYfd7Cj5XKHhBGU1VAqqJ66G5jciz96QiA6x/9dHgzbdYlIiLqZ+MT J0oDg9noY6c6JKLtln224jm8876ZzS980ipfPh/P5Rb0OmOlMifjE3Fp8KlCJIKqiI7ce7+J ZaOZLPu5LO5+JsQW2I9BRES0GRQGtzdUgxERWVGhE8jK7itIr6Xm45vXr0/3e3GISWUO9kdT 1QEXfG91ny3Zqx5YcV2DIiIiom7EIvLOw5Z8zdtVM6vVayfrGxlUnrj8nYNqGBWH9/yTG4/6 zTcYUvhrZqjdvP7zTdWnioiIaCsIj52dE3Ujy5/PzfsZMx9vxQO2rFTmYLpeax6Mzl4InDt0 731mNm/mp2FWf3cL/kASERFtFt7SuppMiii8Ty8sWlK7VItn844rL0wqc+Jh0wCWksrslQ3q zebP+n7PBRERUT/4uHmjtqu4p7Sw0Ir7+QDOanH5+wntj6aqClQB4N3aqbCbrz187LWGiW8s fJLW+cNIRESUj/GJuDQwKCEAvFubjPONZvNiUtmlrB/VnkogUjWRqogMmWUdTuev/4xtf4iI iDaJrBNLEEP1EACk3s/fvPHzEp/LHw+Xv1dhfCIuFQa1ItCqOt271CV/qeVP1j5gZ3F3FX3e 2JSIiGiz2x/FFUUQqepeoN1K0gAnOrRr954IQJxrgJsUK5WPcDCaqkGkoqKj999r973nffr+ e7VXqxsTHREREXVjfzRVVUGk4sbu3rry+dybsVr5mFipfBSRqj6gMXmHtf9n7R9IFbd3gyIj IiKiVToQnQlFNH7Yc/ry53MBhnbsKJbB8chd07wD6Gn28B8oM8B7DzODmX8/SZLD8zd+NryB 0REREdGnOBidrTsN3nloQrns+dxbemHx9q1nL74VNzY4zL6wZSqV41FcGgSK9S76R3nYtC5r +9NhZvPe0kZr0U8vfNJkCyAiIqIe5ZHUFQP3PZcv3W82nyZJ7ZNb8zU+nz+Zvkwqq2FUDAZ3 lAcCrUCk7FyhUigEQz5NrgEorfY6t5ofNYq7PwMA8OavwWzaA42LtVPT6xM5ERERraWLtbhx 8NjUzMp9lID36TWD1G42ObVurWz6gzpZi59iOdCg7JO03ErTSuptRFUwUCjAOQcRgTeDecOd 2zefvXz+jbnVXj+MpqpAOtdNhZOIiIh6x4Hjr4WB6jsCwMxfS9I0fq/2aj3vuPrNpk4q9x2J ywODA38PABBDa7GFNPWACgRA4IJ2Ugl4A8w8kiQ5fOnbcT3XwImIiGhDHTx2tq5m9a04k3uj bOqkEgD+zdf+xFLzSFsttJIEqopgoJAd5TKDcw4QwHuDmSH1/puXvjUZ5R03ERERdW/fy3Eo ZpW/fOt0mHcstFIueyo7S9ZIUIRK2QNFNV+GaMmbxd1UEls+mfGpjbVaCZwqgiCrTpo3+NQv tQnw3sPS9KqIzK3X90VERERrrxpGxZ3F3VUIYvMYMTOMT5yIu9nORusvAID9L59uQDALRROJ zQJoJgAWbjVnn3TzatYbKpunCZGSEzfS6etoYllPKG+ACEQAeF/q5vrJYjLnzcbUKQqFAahT eG/w3l/z3s+K+FmfWIPtAYiIiDaXahgVt+8aisRcpOqGzAzepzAzuGBbDCDMOURaJth3JC6L 0zEBslNRQbZyXICgUHwGB6KzAABVgUDgLZ1599ypymofQESrqjoGM0A6jcKz+YYiWX8okfa8 w+yecjffQKu1OCtOKwUXzEJtNknTxq3mR0+cDBMREVE+xifi0sCgi1NvVRUZggBmBliWO4gI RIND4xNxfPl8PJd3vJQJxKECAN5s2QZLyYZgtm/p3G5Ls2NWT8VmAezNrt+uRnZySGnPze70 sDcA0GI31//un/1JDUCty7CIiIiox4xPnCi5gadiVT1kEAROsubkZhBrpw4i7aRSMTjoQnBO d88IIFKB2d3RlwIsn4O5lFCadFLM8sFjZ6YhMut92rhYW8Wysi1LRW3pfyseU0zgYYDIGGhL G584UeI+GSKireUrL8eRc8E5s2y6jQiw8jxxu/glAgNmvE9r7BvdWwIYKibWXoLO3H03Kydm eWC2fK0iQyrBXgP2iujkoWNn4c3PCGTWA41kIZ1dXopOvTR1qSJ597Le0qtmaAowB/g5n+hs grS5cKvJfpBb0JePxlVVqQJaNfMNANW8YyIioo2Ttham1T19rp1rAMhaAQJZddIAmPcz8Bbz nERvkn1Hvl421ZJT1z6FjXInqRR1Y0tJZXvpOlvClmx/pDd0dkmq3B0jnk2fwawBjXQxaTin ZTM/hyDrbL/h3yX1nPGJEyVxg9XAaQWqe82ynyVAYGb4xcfXh7vZF8vqJhHR5veVo6fr6uSQ aDup9FkG4s0upIu3edq7x3XVp/IrL5+JgsCd61Q1bcUy+YMvtbiw+PyltzmNZqvrtIMQSMWA ioiMZMsbWRKZptmrUafZi5ik1Tp8+e2p+mqvf+CVM+a9zUOkYeanfWuhwX98iIg2l/GjJyuF YOCD9iS8ee/Tul+8U+O/55tDV0nlga+emdbA7c2+8O7xnUddqv7m1zd9g3V6MtUwKg7t/qUb AO7/cWn3EPXeL22+NvNoJcn7/+ntqVUtgY8fPVkpuIEPsuvq0uUNdk2yJLPRWvANnhAkIup9 +786WYfq3K3mjRo7uWwuXSd8+6O4opAKIGVVVxGRoeVnb5brtv3Q/qNxRQKtAZgT2Oxi0mos 3Ermput8hbLZHTx2dlZVRwEsHdzq/NzYsoNc2SjNFK2k9f53//fXV5VU7o8mY5VgMrvAsr3B KhCVpQdKvb8mhobBGpz5SkS0vtptgcJ3a6fivGOhjdH1RJ32nshG5+N9UVx20LJAKxCUVdqJ AwAYulv2DqSi6kYBGfU+3SvmJgcGgT+YOAkVmVGns5b6uZbZbLJwi70oc7A0DQkOF7uYn6qw hgDZz8bdDdfZhyrwhnlY2ki9n779i/npbv5sBVpZ9sFKdreDlYqOQHBIgEMA6qu9PhERrd7+ o3EFgYROg0OAYP/RmANItognHtN4qRbPAphF+0m6k3QoXCVZTLs66i+QMtCuVrUStJIEMEMQ OGgQjClkzENQMMPAjiK+fOTVme+8fabypN8D3a8aRsXBHcWyEy2LWEmclgEpO9UhAIC3GSDr cboaiaExALwC3C1qG+yqmW/AbPqJDnB5FKFLjU/vcbexfucXDz/z2I9FREQPFEZxBeJiEx3r rECZeSQ+jdHF8wVtXms++7tdYWpgWTVz1cG4oOzNkLRaaCUtAIJCoQDn3FK+oKronBROzM91 c/19R+LyJ58051jhvN/40ZOVQAshgJKZlFUlSx4FABSC9uSjbAQSACt1c/1bzY8aw3ueuWZA A+YbC943LtfWZo/je9+aLFfDqLhjR7EClUrqfUVVR51zkE7LfsHdCU5Zy6JVG5+ISxgE1ipe IqJ+Eh5/LRRIZILRrJekQNXB+xRJq4UkTceqf3iiMv0XbzTyjpXW15onlU/CgJE0SZGmHqoO QeAQOIcV1SZgKTsInM51c311UtsxtGfs4LGzAKzTJ3NWFU1AmolPZoGt2fZIEBRF9FBnmNLd eUorGQAFYKIj1TAqrjZBb39eae0ifuD1p9tvWEoyA1fx3lfUudFO3zMPa3Rz7cKg1pwL9h48 fvYaDDz4Q0SELJmEWKyiI4ChPUURqtmBy+XP59tcEOExik20ufRUUtn86KfDweCOsgKVQuBK 6lwZIqPZoB3FioVTCDy6qzglPi06tF9HqY5qdtp4rNNisyAFpN6w/5UzMG9I0/T05bfPxGv4 LT62ahgVi8U97bnoUgasmO1I9DDRCoBs/+CyiUTvnju56oNYhqRp0BUHXT5NtreyN/+ReHCS uaeiASrdv2jQCgxQ1RExHAL0kHsaOHhsKksyU2u0WkwyiWhr2B/FlYIbmIbIEMyWDlsum3aD xTt3kCYpRGXeqdQ+ufUxxylvAT2VVD5s6XzfkbisA66k8GXL9l2WVHRUfdDtMvboUlpqlp0O XlaZ8wZ4n/0FaS+xz3Vz8UPHXzPYyvnoAoGZvwpBO1aFIksHFy2N2ntSV0Wc+2DlZCIPM0Vn kpVo1vOxE8N4FJdWu2S7cOvW7NO7dgOwZROVHpxgmvdXvWFV1+0V9yaZq7XvSFxWkaEHbM2E io6Y4JCIHRoIFPujM9cEmDX42lasdhPR1nCr2Zwd3vOZ7MCldZa7BZY938EnCdIkuZZ6qycL n7At0BbSU0nlw7Sbp8+iy4RguWoYFZ06qFOoSGeCKAAs/cXwPps3ar59r+8uqbT2DPWlVoyd yUSio0tTiACYOcA8/EJSXO21p+u15uGvvb503aXEtf2OtDedCgS+HUeQLTev6nuYrtea+756 Ots7aUsTk65BbA5AIzWbU4e5rZYsOaeVpT9HZEs71nkVYu0BAEvbBXREBCNmnq/IiahvTddr zfD4VA1wk8Dd5zrzHkkruWZpK/5P51+r5xch5WVTJJVrYfv2YkmdXA2cG80SJmBpDwiyRDJ7 y6qIEAGC7n57zB58uwiWZSTZabg09VhIksf6Xmxpw6NAZCmrvGfbqSB4SDwP45PkMNTmzPvm pbdf5xQkAHBoerOrKjKaVbP9it/nB/2Zb7XEm4i2noVP0vrg025SVSEw+DSZSZO0/pffjut5 x0b52TJJZbvaWQZW9FosKnwZHkjMl81QhFlJVEcggoWbN7pKrORBq8XZsemlnM+bh089fJo+ 2TfUyWaWHnRZxaz9eJCgqz2P3YxF3CraTdLr2c/MngrgKwKpSLsf671/5mbdtSvKmgNL6GEN JqNEtFlcPh/PhV87ewHQkk/SuN5F32LqX1smqVxu2d5N4AmW1O/VmYneSSBXbF5Gu1DpPdJ2 Qjk42OVvv7eZdoOcJsTP+s51vc0ZsvZKyQLmeGBk7T3sdLkGrmKCihNtVzK7PFle0KpBJlVk 8vDXXkfSSq6KSsMDjVvNjxrci0REG+FAdCbsdtJY/d+fDNcnGtqsOJd7nWWntovlBAASIEn+ //bubreN64gD+H/mLBUFVSLGba7FPoH3Dcg8gYVeFKogR+uLAqqbFmsnF0Frx+uvoDd1mMZI A/QiSiwkBooCyhOEegP6CUI/QAI6UVxZOmemF2eXom25JuUPSdT8AErm13JpAdJwzpwZD+89 kCSwqUCTo8pk+q3QHSeoP51fWYfSKRDgmGMfTWA3u61yB0A3WBsjY8wLsPinImPigh3Pqfdn btnytXkGFlQac4CW8is9QuzxRkRwVX8rYLCx6yGq36ze+OtIM9GNMWYv81len3l9Ngdcxo7n qpkWCr1766OLjYM+P3N08dMfYox5ERZWigYTz1G5ax8Y7sSKQWsrGb6UDfqNMWZc81leX/zz peLVmdkeyF0i5jkgBpREBMduLjt/PTvg0zRH2LGsqTTmMNja6vdr0yfOAWiBuMVEs6paDZbc o2UR4INaUGmMGUvcEOgKAeYZNCuke24sLT/MFgBWX+4ZmklhQaUxB6Ssp22XFyyeLVI3xSmB WkpolRN8yuxl7J36381+Z5zXyM5f7wPah6ITVLphWzplJwRjzISbz/L667/8VZvBywDA5WAM rgY5lGMV4+ZShYrcQVDrs2v2zWoqjTmkFvKiUQO3CJQqoQUFbrUvpiM/f6VovPqLqe+q63E5 HbFWU2UDhI4IOpv9723DmDET6u13r/WYXKzbLlc/4uS43Q4lUN2ASLF209qamWdjQaUxEyrL r2TMyefVdYVCyqCSQLsV1QqIyB2odre3QmE7zI2ZHKfPX8kcJ5/vFmxX9dkKEf+NKLVvWzBp nhNb/jZmYnHr4esPj12qhjEpACY6qUQnb392MXspp2aMeSl++uGH9fqJN9sgmoVW9dr6hX/w c3H7s7/1Dvj0zISx3d/GTDAFoBQvIAA8NDZ0+HFEENU7L/8MjTEvUixtkbaq3hPRLx7c3/n1 l+2LmQWU5kWw5W9jJljVlD1hpKJoMbtmlbAsx8cPhBA+/vKji/mox/7N7/+SJYnLpmrcgVB3 c7NvE4CMecHms7wODDb6vbDnGLMfFlQac8ws5kXqkLQcoUWMlMBzCsCrP3Prxuhj2n77hwur tVpt2TGjLNSEqNwloAugo5CuzTM35vko2wLlAmQQWV/7x6XsoM/JmEdZUGnMMbewUjSSaZd6 hO7t9uibdH73x0u9JEnmtJwGxMxQbnUuXQAAB59JREFUFQBU9sCLv15Ewx1S7Qi0s9Yu1l/I mzBmQi3kRWOKXMHEy1ru3lZV/NT//g3LPJrDxjbqGHPMlbu9e+M8Zz7L6y5xc6oKgcLR8Cag qlt7DCqZ+KQCJ6GhD8CCSmNGsJQXLSZXOHZNoBqAUI1BAGbqb+QAigM7QWP2YBt1jDFjm56Z SasxklwGjyqDTu2xH2b8svskb9OAjHma0/mVLDt3rVtzU99yGVBWiOJAVyICkcurWkljDgvL VBpjxnb75rXOwsqFt8hRypSkELSUMec45lJA1YjJGHASAd5vjRVUns6v9gD0CNIRcNdvha71 0DSTaim/XBBR5tjNMbga1hqHFuzxeFK1rL85dKym0hjzXMSd5vWUoS0FtxSUMtFsXLSTu7c+ +qAx6rEWVt5vTL068x0NDSgmAF7kHol2FdoJol31W11rjWImwVJ+eTVxyTJR7AGmUEBio/JB gCm4xyzr21tqQwrMoWSZSmPMc1FuGuiUFwAxOOTadMu58Y6VJNMpsDtGrgouHfOsQJoQNJPE wU29huVz1+5tP9ju+h2f//tfH9oSuzmSBNom0HKMJaWsHonfg+g9UGjf//Fe2zbnmMPMMpXG mENnKb9cMNwlAIOxkgQATBARqCicc2AmeO+x4wO+vlnY7zNzpGXnrnYU3AwhgIigqndFpfjq k2L1oM/NmFFYptIYc+gQuFV95KVBi6KYuSQikIu3xfYqAEBjTQNayItGApcKQu+rdmHZTXMo +B20OdGmSNjQQO2v/2ktuMzRYp/sjTGH0lJetAicEigFISXik6oKQllvpjpoWySqX6y1R59b nr13tWBKLqkoRBQPth/ckSDdJOEegzveo2c1a+ZZLOVX5wH019oXO+M8b/FskX71qX3QMUeT BZXGmCNj6Z2iRcSpkqYQpJTwSWaGQM/dunGhPepxzrz34SoRL0sQeL8D7z2IGLUkATsHLWvZ FLIhXntK2rElSPM05dSbDEwZE88J5O6Xf7/QOOjzMuZlseVvY8yRsXaz6GBoIxAQMzv37/d7 4xwnhNAgUoQQEEKI9ZkuAXNZu0lVNpSbroamBqkDWH0+78JMmqX86jwTZUx8atAASAEmnlvK i5aNKzXHhQWVxpgjbT9LhSpoBvEQEYAYLqnBOS4zlDpoMq0qIDDA4zVufzu/2gakDwDitSOC vi1pTpbFs0WaTLlcieaZaDbOlBoaAEAKUgIjyfHIByFjJpUFlcaYY8fv+I9VJSXmZi1x4BhB Duo1pWxlxMwgAEF5rIBQgZQ5aUIBV8MlB2D5/HUAgIhsxMdIF0BfgvZkZ6tj/TaPhtP5lUxB 7diDFeWHj3J84nBBmZaBJdOphZWiYTW65jiwoNIYc+x8/enlvPr3wkrRSJLQ4IRa7FxDVBtE 3Kx2nYsI4MNYvQGZuLnnGBQt7wOgoCYAcAIETJ8DMHJN6FJetDb7/a71LBzdfPZ+Y3o6aUxP vwKPgIRdq7pv9cbFYpxjOaLZoaRkWTIBPPozF5UNqK5aQGmOCwsqjTHHWvkHv4dHligXVopG Mo0GRFtrNy93Hn/mkw0nrKgcXVk1ckc1H6Ucv0cEkGKsTGjiat/OnngTy+evg4ihEu6JaheI O+JJtS8SugAjSRhb939ePYqZ0Pksr8/M1NOylnYki2eL1E25tooAoKaoQIKAACS1BJQ41BC7 8Q/FgMWox1cvPaq5xxKTg/tV7ymw7rd920oezHFjQaUxxuzhScHm0yy9U7SGE1Y0+F5V3cVF dtDuLeOK01aqGr4AIp5lQhMq5ex1AjGdikuzBI+kU76XkWTvXt89LWaI+A1GfE0ZPo/yS9gO +agB1OLZIk1ece14mjFrSyCAASqzfyoKUali5PiQEfEU6szcFFXseI8QBI4ZtVoNzrnymLSv /3cA8B49V3v8dtHwDQLWb33yweq+DmzMBLCg0hhjnqPNzX73tfqJMwRtKCiVQHWAUkc0WwWS BBrsMFcJ2Nzsj5zRms/y+mPxUJk1kzLio3IXewgCH2LLpHEQCDoUxjG7JgFx+X7otVUVIEA5 1Ec9Nk+hzuTKEoDhg8XjSXmFKUaZ+wn9VBXex539RATnGGAevDfoUJBPsZxg1B3atz8reoP6 2Li8vb6zJeu2xG2MBZXGGPNclXWOq3vdVy2pJ6g1wNoABAptjVMbOTNTTxXVDvXdyG93TjrK WlBFCB47Ox7wW71Rjz+f5fVBYnDU/OAYf0nW2kUnO/9hefihF1CN76Ha80IEKgPBpfxqa9Qm 4mvtorP4TgFfBpRJUgM7HgSsVNY+Duog9yHIzlvWJsiYx1lQaYwxL8nQkvq+iaBPKhuEmO0D YuujWJ8Zs5/BB/gdjyAejgn/WW2P/Joz9XoK6NC+k/8TeVV37W8l+aFAOH5/ePu0VsEfwljH 9X4HzrlyPjyDmePSfQgbGgBigEA9MHpQwI/5M7GA0pi9WVBpjDFHSFm72Bq+bWHl/UaSTDeQ APCAl9DY9qEBEUxNjf9rfriBN+jp6TzZxjPtQi+Tk7EWtGzvVG1mEpU74x5/24e3phPCzz/+ aDvkjXmJbEyjMcaYJ5rP8nrMXj7ZuJm7pbxoAYC1RTJmsvwPQVt353vP+kYAAAAASUVORK5C YII=" />
    <image
       id="FlashAICB_Patterns_New_Pattern_Swatch_3"
       x="0"
       y="0"
       width="125"
       height="125"
       xlink:href="data:image/png;base64,iVBORw0KGgoAAAANSUhEUgAAAH0AAAB9CAYAAACPgGwlAAAgAElEQVR4nO29W5YsuY4ltgHS zD2yWmtphD0GzUFTrjwR7kYC+sAGSbPweGTWlb7E7rp5wh/mJAECG0/K//6//m8vtUBF4W4w A7oZ2vFEax2lFOz7hlILzBwAoCr8PMYQif92d6AbzA1uHm+I8D8Cd4eIQCAQBcQF3Q3WO+CA 8NlS4oFufLYAjnhN4HADHDGB43nEvEqBANCiEAie7UAtBQoBikLgeDyeOJ4HtBTc77c5/3hq zBkOx5xzvr/OQx2AOACdmwDjfy+veTzDJObOacN9rsEt/iVw2LKvpQDu/G2un9+GO1CLopuj d+PnFaoS84ejHR37vqF3w5/3dwBA9VgjHIBBADhEAC0VxQGRmIRCUEswBlzQ4WMBLgK12AQF 4EWgVgBxdI/P5cRVFCKxyN4cosEIDgH/P8wd3uJ7ogqMRV+YzAXdDFBBIXPBDWaOooKiwcyq QGsdj+cDboZt21C3CvGgRxL0xMScM9y4xQJRARxQAYwcoCdCf8EAEn8rYs6Wa4nFxj81JuAu UJmEdwNEfSH8nKGIo1uQtwZ3wJFTdrg7ttuOfjQ82zG+X5NjRAwwwNwgIihFUXRDa31ugiiX GewhyMUn8wkgcR4liZAL44REgqjWO1pvEOGmSJzwkAoS7GcgYRwwicUHKwSDiMO7o4jEczBP j8NRVCEKtG54Pp/orUNLQd0qaqlkYECSVmT+JL6Ko5lBEISIoyrxvsT3nAyhsGUOsUMCh3J7 3PkjYifWcDJSPhO4Et7hXHucvvXbAjeHVIXCwcM+JKgLAOt4PD/Qu6PuWxI9N0kokg0uISJE FNuuMPM4PW7oPKWiCi0F6g4hQeFOdjjzvGgwhLujW5xE4yn2bhBViAh0Eaex6ZJ8BBeHeHD3 FK+YDDJ+TOZGw2HN8Hg+YebY9x0bF269QwpP+BCby1En8QUy1pLMYGRs9Pg90fP3SI5QQWrz Rc+j8uIlAdRTPkzCO6Wtk+GESmAwKpnLDHAzvhf/Zw58/PmD3g2lKm5J9FxwEta6oRQAKMvG U+/kYp26iYS4btaq76y3EOkaH/NuMDiKKEpRWPUToVfdFk+Y7OM+sQNk4gt3AGZwhIQCgE5c 0VuDmaOq4nbboaXCrKF3g3YM7PDVKOQgX4nloEqiMHOBiUCpCgzCg0AVsX4RuNBdxp6ZBIOt hF/3VnxiDRhCc6hS2kyCA0DrHa11HL1j34LZcw11/X0hKzviVOKi58YJ0xC91jqZgHqK3Coq oQoUUBBIwcZJd7c4LRKTltyFlBjcjFjA+RSmjhuqRBUwGxImHhPqo1uHdcO2b6i18rcbSlGI ClpvUCvjpF7PqwgGl8nygfVzAozTmHMQqkwgVNnpmYEEB/PG4SHBSXjx9cFz95163MltYsH0 Bg/mp+hvreM4nmjdsO879tsNRQTPowXRnZuUKyhFB/oNcT3RtpuhI35IENKhiE5gMjadi+lA 0QK3sArcgaKKHqoUrXXUGkBQJPX0YAHolNOhHohJQfWqHnMsokCJ+YiHDm+9Ae6opQwEbx6n X6e4CHlishBhEsR5Yk9ru4jn8boF4XP915GruloibrEZqhMfJaiUQIwnJhtMn3NxAgKNA9d6 x3E80M1RVbBtGwSO3gm8QZ0+pA5nJKpDvxQRuEiYYb0TYVcoiSMqKGOhFpwKC33mgCNOW3dD EUEhkOrd4uRBUBZkbO7UTUAzwVZKqJdxypxo3mFpAqqieJwQc4e1BusGCPB2v8FaR0dHqTHv ZmEelhp4JZ95Ja4I0HtYJMNUk8F6J2L6crrz9WHm8fv5XPXJIM18rB3rZ/NZxLmJyEMsUNCJ w8VhZhCLL7XWcNDUvt3uMHM8WoNAsNUgdw1CD6qH/vUwtUBieh5T2tvmVCgqgYABinjBmS9B oggqCgGJwcIgQFGqAhAcDlSsXG+I8DzBQlvbLE5nKYIG8PQqpBgefx54Hk/UUvHXX2+TUQUw 63BNuKH0O4QuhAIVAlPh88PPoAsvKAklC4W62bDnUzKlD8HdJyYZ2xLad2y5UoqmdAQuzFPC LPU4IKq0IIjBDq4VAnx8PPB8PrDvO95udxhifbUUWrOx8XVORRaxt/6oDJknScSUP91hJaQC MMGIXLlelj8UkOSTL0Tl+F0A1n2cIu0WPgEyH4pAejBq6x0fHw/01rBvG/a6hfopoV6czIEe 4BRcx7CDTdCViJvOi/OZ/sVYTusinL4dwzIh4cFfTh9C6x0qoLmMULkJJN2xbzuezydab3Cu N1RZWlSA6hkU6svNl7MOUnJxeuIAwOCwNNfEh15frZeY/Oele6qMhclykfHzy+tFBvCK3zS4 B0K21iHcmON5wHqHFsW27Sirs2L1quW6uGnAJHR6405M+sshVK1DDcnZ/PxqWJ7uL1jEKWGV TqzGUz++b4bjONCOBlENES5As36SugkA3YneT+pkmedAketrivQnngHmF+tz8GSnlPMF0ORv 4DPBVzClEKgaeuOPKZGuhRp6Pp/D07btG9zoVBHB0RpU6AlUJZOG2jj5O08bHT+uF+vly+EI tYH5+XTr/uq7cChknPh1lKJQ0QChVFUQhQrQ3PH+/h6et33Hbd9gDrTjAHoP6SBzPcmRlWoz JprmGE0DaruVsWhmAUCI9U63bHjszusZC/iC4MAZP10JDgmz0IetjLDvtQDq0AN4fLwDFt63 bd9QS0FDBxa0um5kWAo+gJFA+Bp/kL/v+d/++1Of6kAWBv4V01zXnycKjlJ0gOLwQQTodTN4 bzjagX2/4bZvAcDNoCVdhROHrRtbc3NjQ5YDSxGwBgXyQyLpgJHBqe6go2ZlDMBcTspNTh6W Fwv+JFnmH+ElBNwarAUwM/qXaykwN7TeQ8ypoLeOrdYQke78fJzgQRw6jS7LXpjgZ6qF7ryc 1vPh+npQDThiXqe1u5yCXEJymXUcR1goe92wlQJzwFoLC0kLutNi8hm7SJrUjHzNBYTozBPo y2lZfdTGjUwxNl2l09yRF4GSZKSxsAt+OH80gjy925iHuaM3Q28HrDtqLdhqgarCe+hlpY9e 6HsHdbYRIZsLCol6Cmi4DanCH/uBYsjVDxF/nf9PVJfhjKHKXESfUV8M8KwCaw0P4hcRQd0q VAusd5gZUEv4Ujl3M4u1ErQCC3p/BTrSQUM0F+LSAxkaZU6pBZTw4UIdTK5E+etzP2/AJ3S8 6PKYu4Wp5R6hU+dr3eEw7Pe3OA1uqHsFug/P01YKWjvGo0s6gS7zGepLLzo8rZR/MfLw2M8f hQvxA9VqDgXgKrC0dszwfB54HgcUwL5vU3xr6Hkxx2EdEXAqYcMTF02dDuD5eMLh2LcNBYKW kTYVRm58Bjg0wqhpNjyeB0WlMGgyEfIqCQBysUzRl2I3w5tnryM5FXFCt61CAHx8PHG0hr1W 7Pc3iEdYVQCA+neL4EGcQS3DFHWb/oewRASNoakU5yl5Uqo1swgPm0M1rIiMtLlnRDFPe5xI c79qjS9H0QJHBKFCyAT46ouTat9v6Nbx/vd/4/k8sG0V99stTjht76IC9xKrVgHM4R6RP2F8 ItdeYwMU7p1OgBYAjgpvFT1BCxsYYfzDHa46QZ8uNnuKb9qtkwEwMMFqq8abU9QrCooouhke Hw9Y79i3Dbf7ftrU1bmRI9lv2L/CAFIylPsEXRSzF6ALIFRBV8Y4Bjr/FTb/cRiCQYoWxC/Y ZH4Hyrbh8fjA8XjCILjf7yg0yzotlDFfCqaCmK9aBGM6Xb05qoqg1IreAO+GAwZVDUYwm2Jj 2Yv0EHVS0nOGWDAB4gQIdzsig05f8oIhctMXu3HNTJEq6E/D8TxikarhTy4V6O20gd9J4hWb rJLmFOFbrYokLl2kBakmae9+/VP/aLgZpJTwXdAEV0pNL+EgOp4PHK1jv+14u98BhG8CCKvF OS8j5UVoljF5JCTGjPhVACi1QFUi7Sh+le5Rnr1BcQYtjI6ZDIMOuEt0LRFAiIDFTBNaU5wM c+de4YkMqLRnw+PjEepn3+mLD6QqMoXoJT43ImSSc805aoQvvYfaKGtodQGZ+TwVhYvDu0Ex Exsm3vs8938yxEPtmKRzCBEuDX83jscDcKDWim3byBwdAkGtJXAUwSqXPBMoANQKtA5Yj8MM MF2qqEQy1h5vFo0ctUEkimpQz7j7QIdFdZgdIGAIE4RAhugzSeI8Jvn3kE6LNAGDIB3A+/t7 nLQS3qZCNN/NoEVQ3D9F+c67mpvgyLiG07QK1ULAKFMyhXglLmcYWUToM18CNP8zeo91p/UD yEiMsaPheRzo1lFrOJ2KSJidxlCqCCAGdSHhaQXp3NgRDxAdnsk6yFEExQWqJUgnQNcAcO4A CGjAYIQgkOWYpUx7M8gfUTCzC359IRrFKUYl349kDrijtY777Ya61UDxyKiawszO6Vrrzyw6 /mQWYjJdBC94ohkwQqqhJLzxuwqoeWLFzGH4jwzzzEQKj2HrHY/HA601bFtFTZPUOk3MwFre OwnPPR+xnXPiZimALf7xGgtLA0npPDGKuYBCBosN9iB42rIDp1/2PU23sbvL+6JnI82J3iGL ZDBDp9152yq2fQv1c/RA0dReymhTPjfnNJ8dvz187+7D2XEKe8abEZ8HBvHjD5u6XiK0+g+c dD8OcYI5HqhmPQCrGYoWbNsezGlM0lCEmsm100JKTyowwaaReiIMkfM3q1C8rIkU0+3qgGr4 zj1MgAmwz7oQwHiGL6+Nzyc6xnnDmeQzOdPjOclkf729xefMsdUCgeBoB8yB+23H0dswyVan 0jpyEz5JmMV2ffV5AGhENgkA7bzy//GI5EVH6wYRw8GIWSkFb7f7TOdyH9HByCx3qCjd4FPd DIITR2VmMJZErOrmkSCIGT0DnIBM0ClSXeZnMnacGTXfjXCbOpMVMkY+1rFk3oTOfD5DrNWt 4r/ud/TWByGNjCeqKEAEU3RmwdpiReRQrXBrkSrsGL6E3Jgii5B+xTBS+JYzhh9WTdr8SiwT ySbM3oGjE4HXUnAcDe4WiaQ6XatAoPdtvwFu+PPnD3rr2Pcdt9sOQaiwxBGRyKkhbSySRaQo 9Rfx1HAwTRXF3RtbU+fybKzbuYnhdJj78W84PAkVLtDAATqynhWtRc7a0Tva8YB14HbbUbYt Jl8ivTdBpVCsOQmhep7VFdSZRWLkCFGuqga+SLXX4xpmTTczhPawGwoEnT6v2H8dMf/eLRxa zDaaSY/x3Fo3PB8feD4OuDjqtoVJ6gIXG4meAMJH4jbAsZRILo1IJHeExMtQavD3TL8GMgXa MPV0chXkbFItiX/XVOXvRlGBoQzUv+pUIBbVzdCekcinhanVIAjMeQkw8uR0Ol262yk8G3ru hSgfVsI0I2HAj8tYMEkgeWascj7CjJap9hMthxTs1lBLAGPj/qZ1k0fqeTQcveE2nE4SdrgD DTYYOzN6AECKomqZvzf0WqasTWB3HXVYHrboY6SpdkI6I11oPfM/bho9TeJnSTEYS4Dj+URn PLzUGqITES1Dp8IhAs+SHQAoJHrkRzoyDymdJ0LJAIpaUR0nQjycGT9hsvQ85gZmDr/SDCyX nU2Hj5ud9L8DI4OnaKQvmRne3/+Gu+O2bbj/dYdogR8tkh1KSMLe8zkR7k7nDYRh4eGViiBI 5vSBkHfkBaR4n49bUO1KVMQ3nJzNFz+5Z78a1ogJhj4N0Zfc8v7+N7o5ShHs2wbdahBaQl+2 BTiuDJbAr1DnArOqZHUCpTmYvnVAYJIM8vNYpV5aAZAQ++IyHjNVzlRDcB+maKqRPLXdItvn cRzY6477WxA81o5Ieyol4gidIh2R4Sr0cDoMYhqskLn3wGDydPDk/iRvVKgwdWgudNh7M+dx OgC4kb/1TWSgShcxbYxtuzlamxkvgADdIJtCuuM4GmpVzPqvJKiNtSjh6jUpczhXitABM9Gj UOyITBX25fwdIy4wwqjzR4LYPi0XLEAxpRPAvLwEpL3jOA4cx4H77Y5926GqkaufGMABbz1O M/8ff5LvR1p5ZgWnY2kQHvO3QwgK5QRQM/A/9Pdi7wkTBYWfWXXnlBDfk16x2tAO747eO1oL X3qtBaVWCFhWBUFpgR/mRk7FenLjAkPHXXI1pvkY/tw4he7MAwBFfejk70Yfz0vBNu2/lF4R bZtYwmwCYiUASEzSrKMdDd1Cfd1vOwBFp5maY4SvgXEgBXFwpRjEJRh+TGfSYdj9ThRGUJ54 qsbJyykmoeIoZyR0jVKt4xcHJYCWYagCpy7rHrbp/e0t9FYDai2ARLhTRbG/7bCjDxMkbfwh PjGB05ja5R9mDvQ4rZPgzD0vekogeTXOWUMY1IxHOaNjHdZlbjbowDEDaqUFoHA42tFosQjq fsPRDPBI8BRVSGYXi6NIXRB45BH0bkD3kTvnl2rYlfnyuwlacyXVFlQdNrWEWQVyj69o+7Ih CwcJznVknuYUdb/Sfnw+Hjhaw1Yr/o//83+h9Y5aayQ5mgMWGSFQgz99USWLTk8U78uJXwmz /KGsipVcjwSxuhvQ7GUW7vgdCfPrGrJN20wQEUp7Rohz3yKh5NkOwCPpox1PbPsOs46PR3ja 9n2P4MmI8hEJeKy/c63C4BaQNYUCLYlhQjKsOAPLGsf84eiNwHCL79ajzVRZc4GjQ0j4H48x MPPEJexIQOmOFwCKxtqxboaPPx9o1lBrRa3bKKQf+7hSbhGf/3zMiU+X8JQSwMQla7RvTICZ QPCZt3b2Z08x/2TN+zr7IhKgUiL+/TgOtOOAO7DVGsUH42cXHHJZ6gCRY3pnqZNu5nVcP0PO HWIeAGp2LhCenijyI8ku3qNXI7xjEyQZfdghUiyS9nrkZjsM+1Zx2+9AUXTmrQ8xBFkYkAv4 gegjB25dqfk4AZ837pL+MFzHqZsnwfP1CfxDTGOgZTAdKT7em40vKk9Z6+GDOLph3zbUbQcQ WSyZyw7kMhe2H2gfk8BXgXM5l0O0j7k7VGd4OIspqyDRbbYdaTAzpgZp6NlvxtCNYHrPCD8J y41KZH5ckgCeR0OnNy6TlVM7/8ISvEwCTDqxz0UUdMZAZgpURs+SJeamjUlMp8eFadJ8He1V wMBjb0MdFPoSzB1//vwNh2PTgloj5atZRxGBag0R7ec5rBLAbaoyYFF12XgAn8Flfj7OHSN4 wJCsNRW9eMrTuXhmWX+730fvqJkjRg+XSIIRxd/v4U9WlahYdUdvnXqmwzrg2T6Eoij+M5TU j2MQkKbLml+vIjOXPwG/hGUiLqf46FdVNvlPI8Yx+t5zv8xsHJRSZJRPd+twt4iH1xrMMBB6 SNFRhRpel4sFAqSZNTUQCc4FitvpZOc6gM/Ae9jpacB3flm1QEtlytTPe15WLqWobr2PDNXn ceDOGmnrhufjEaehFKSpcgJQEkGZROo/zWBWc/r4T/JOSo20RLK5wquqpfQOXnPP5/vx/MQA KZnS9CuUjApB7z0SIFrH2/2NJmmccJgPK8W6za4ZIpDF7Zz7kebf6SAgGFBhQ2RfPZ75mvNA r0ZKjd4vHc58M5UCbBWi+eDvN11rIcPH7Nwc7TjQaBXshQEEVcCc4k9RalRuCLM5VxG/5tz/ JOY9gwujKHKSSUdIkTV35gPtT7H/w/MXnBFPDelQiAGKaoQ5KdLb0aK/Te9Qiaob8cwrTMBL BnKHlmT4fI+/M5jWT2FpgGYoIrPIbOKQK+jNQ7OCWQCotVTAHQf9nWUrqEUBjX4yfpURnzYd I86eP+7gaw7c3u44nk/g+UTNNhhmETKFBHYgR85UKv+0gK/GWqKUSwUC4GUGjAmAHqHQBE5Z Z85a0CEFcgGr2bbsItJUy5TwxsNi2W+jd7Zwqbjfb2jPYxZQUKoeR6MqUETXKB9gNAsv5vpm LD9yKVLXL9JNgKxKvbZAc0qn1QdVHRYdpATY9h1Vy7AXM+M01VBMMnRYOCYivpuo2yx6uqXt fb/dIzG/zAium0VQXzcA7FCR3r40LQi6ZsgwvxyewSzTNceoQxRuUPagExKv9TbAzqDjAhfM M2o3wVFyoVHVdOrwwi5OhviM1AJxRa0brDf8+fsd3QKw7tsemGLfh641c0TPkKBG7+EnmFHL +D8ZB8AHQwrDdEMS8h+16ginGk818n2LxM/WI/autWIrBbU3Zr+iMBIlZwSghRufgMEGByUX FRH0Zng8H4A7bvuGogWtR1GCJfghhza6CAGHahkHLCny1SE3OR88gAR3Rp/AdikzwQc9Ey1Y pJDJDs5kh+x5k0yWMYXBWKqjn0tW+GR/GW2OUiuO5xPH8wlVoOy30fHBFskymU1PjX4yJ32Y kQYGiEI9jcRSW/R3Rg75/gCgLzzKlnhj31BEobVEH7mikdEhzKEOohq8+UIEZapuhFjXnKve Op7tiGiZCkqJhIHMc8tsnNQB2V8mzp8PUXSlqPBUjfSlC65b/3REjZqCopKiXWkSSnxoRNhW de7UAWtrsASAEf/Omean+TuOKKN6PmHWUfcd+74jYwyqEkD1akIuay2ukzkYG5Aev9mQdelA pkmREkiJoLKYu4tJmuZpZ80bwArj7qjCwgZFuFM7ohFPJChGUKCwqZ8T+UgtwVo9+s49ntHY Zisl3IuI+vCiGilNCHSaYmx1qQbImIkF6jj5kKOvymdAtW6iI2LrOZz/I3BsdZuShpEpTYYj PM4aMjEZjipIgM5sBAjz0Vixauji4Vr1ODhbrQi3Z0THKpk/GTjt6KgZIPhiMUkWoSh8SFHA YT1T1xQjXS4PRJ9OqPUkOJw9aCYTmBu8G7qw9jX1lFmLGjWKF3NA3WGKpR0mWDMWaVDH8wmA XZz2bVZQepy2QhsoxWoWIGYXiOFLJoFHSnMunJLnq85N4fLkRiTizVzvxAkMjXpfGgVJ6s5p kUtqHT1bDZlwISIjaaK1xsqThlo31I0ovWVtXDDKGrzKExtSiWvsbTBh+BR0HgjuFUBrga+n WS+SlS6TuLF1c5P2utEtXoaXs0bPtTj63SLfS1lxKhonXMmDkR4drsVoNmjRnG7f2Ws1XlMC qehytER3nQWEvsTDudkGOkvg58geEtpPAJagzzHVT6LT0bgHUS/eWnrKorPVwCOg16qeizqc SDf0ZLZIXSQAIiHzeD7weB4otbLgQ0ggQaEXM9qgUgl57sI5ObQ51QUPx1oODiCAtYS6GC5b sCXLF5aVk7jpM1EXNgrWUENZZRmxVxktJn1xW+ZDqOiiGyP1dfZpixOXukmH3Ti8YKzMzIkX 9q9xTBC3gpnhbqTEEMinU57fWVOvR3UtEumH3hvVtCIQsTCxPL1yoVPSMhh7nlCEqL67wVrH M7tQ1opt3+nIEv7WWhQ8mfQTUOXfVc5u7pEAmt/JvVkeOhJYxKOz1IXiPiKfQHseaGlHS1Th 1kJx3CFs8UUfHwlk5BhVQdUSgMdnwP9+36P1NJvtFrUhcgLF0h3SmBRAk8JRWTqVjLKAq8Ur NS2o1OqfHTYpNkP3nR3H2yXzZiVH1IUthF7RMVIX9mFW9p556T3KhRlHkCGag22tO3W6jkgY JfincSJw0HGkl4fXrp/yA3O9o83a0nt2Ar7ZBKqy7XdKOzFHdTc0s6FXrHe4h+MgW3Onr7mB dng7ULTgr//6K4IqoydMTCAaBccEjjYrS4sIJhoxtCOqOGTsytiJ8Y+J9P3TBiWhFM7nnucB 81Nq8sgIgiPr5WrdRq9YIHwR+XiDwNntorWOx+MD3Rz3vWLbold8pkENKTXm52h9YpZrUOTV yDgBCPbSlBpWxvK93DMpBTAyZqDXMPcW/q5UPyLAfttRW7dwUdI9mtlg+cMVwQCtdbTnA7BA xNu2BZpdNigXN7pCY56afzuimCHEcaKf0YjfmWzrmO3AwNNOO5afRHaQHhvPGbZ28KRGlkee oHR07Hv0aft4POHu2GplAQTdm1rOp1gwwtSK36/9p8DWVyPbqkGjcydcxkmHv3Zj10t0+WTj ZZ8Tb8xpax2lTpQ+jHoEuk/CD5SaR+yb8YOXd8kbSyS0NA8EYN6DsETFIQa5EmWd3gkonkWq W1SepKjPDKIcrXc8nge6NTL7zjU6OzDHg5LwjrD38+B8cahfj5Vx8LVEWMcAurkfwrkJ4Ihk y0twOOz08LZFAkUUywXhC/POH88keMW+VZ6Gzn4z40y/1Fn/05G28RoTH21MEEQTArHx89TB o1fLFSgur2UteNZ9CTDTvtzw5+8/ccJ1w77fwkvGjayFrUY9zUA+MzHEL/bjmlk8/BG/JPzw eXjGFqhiRaEFsGzhvjyn+nJa1zkm0j4ejyiCq+F40aKjjsv7NGmEpys53S3Nr+9nPRN2Xw+9 9mNf9d14f25ZACcfQDT7zF4TIE+BiRSH1Ifw6ODQ2hPNepzwPapHk8nDoUJVo1zrsoPpZPpp rPl/KYxXwv9WVNCansAxEPHJoZOjerfIwNTZBrR3Q3seMDc8GnOz6dkCMJz8z6NN4PNFIvyP tWI/FHmfy6D4nVUM5qIyAWFIHur8C/A7/bYHWmDpLE3I6E6V/Vbv+4ZatnCE8GoTpYXTO3u+ OHvIMSFiqQl5YWt8tRHxn2SWrzyQn/bH87qRUMXFZXj94P0EfEf9nCHSZ1TC+RCbF8UI3R21 RIN8LSXcsg4I208qkwYWaZv7jfQ8/UTUn3Be72lGERgNtBxOo6wyScm0xtbDhMN05iwm2UiM ZGfJXFNvzOejG7nUPSOicHi0KU/zZwoYFoLM4z2yWPSXRMcUwSvhfzrqyahGn0Nm1aRgU9XF rR1zqcOxYMH1hf1JUh++/RW2qGVIlNkuikC2EcUiEWhPj8iQ+8nmfjl+eLssF9U4LYPIRzAY Qv+OFt4+9bik/kfGDM5jiNX58GhM2PsAd/fbHllAdL/GjUixoYrwARyNfog87SNM/P265vIv UcWrTfrDKEVHPnzepDVKx7hno6iTjx1Vq5bUOOYAACAASURBVIW6+uMR/dL3bcfb/3pDf07f buiLwOgRhIj3MpOjLSdJLz7kEaNaok4yTK0FWKXpt6x7TfQbjopC/ODZZUGAEs/L06UOHKMx 0vRhj6rOUN/Yt4pujo+Pj7j+g1d4uQMbc9ljTmk3hzRs3QdTDhC3iPbY25B4vc/QaHhcMwt5 nsoJNFfAaZds3/P7QA3CerozmNOPnEf4GR4fT0gp2LaC2luD7hta73g+HrAeJ7jWiv5osxfM +pOsJ5sExxB5p885fhTfvxnX03pytJQCZLmyOWwBWx2hd1WETqDF0ogZYtsKHs8WGS7wUTmr YKHjXE2AUyHxzRmDT4qdmdWX3zgliODC0D/sj/v8zSs+WgMyGTzKPIX06PXuUAvMozwc1czw /Hiwliqugajs4tSajajSCHkSOWeUrJvxpCnVbUavvl/Mb8foGrZuqsyqVWEzQ9Cblanp05TE SEqIJENn5i3FeTOWSnfc9ht2ZrqYO/VlX2bjc3Op6GeAxIfo8PSISRwNF8a9nWtZCP2jUyYt kWEVnd8Ov8Lqt8BwDEW9Sl73ET55NwvnzON5wMyw7ftSH26odSnpkfif1Ncj8G8e3QnBCenZ wfPPvBOfx4h1z10arwFROTNUAkuSxTHy0jai2rgtyGjrcx3d8Xh+wD1CkLd7tPxorYUaqovo zXUsKcsOLOlJn822OeVF5iew5Nb8JAk9OCYUil/NYUzQ7Pm8iVTcgsHzlgfvPdzm3aa/vKiO mxvgOIXu8q6xQYqBzpluhAneYgLyow3+nxqfbo9YdrKUbEQAgI3+09x6thaSqhTs99soCIxH MPr4yeT0k451/o+7D/18yp5Ng0Mx+tFCZm7BP12n+/SJAMLMIBaKIgobS9Ex/yjE6CNFW8xR zR23fYfWuIbS3CIDRHWI7pE5Apa7UkQVl9FsdkgtIngh3PufjmupThwqQlGxEfAQTJEu6QIG aDqGFNgo/1s39CPaZ99utzBJVUZ0sFR65Fo0NQoftp8DHtlUkJM61bpzD6ZEmq+vYw2X/mpk O7bMoJgvM7Ygs9ARUTkTATSDlBq3aglQ923Hvm1A0ega4TyjHkAoT/gk+EToueLk5vE6EHro PwDiZj57on8QZMVvz+vBls+sQMkz41VH1+fjEddwxjVW+7BGklnSjaqpCownLG2xpRXJVcic kz4SUmMwrl+ofP37xQ5c/pZJfGB4HdM8BVLyzSpi65RcFlZEfXu7M6jh2LbQ5603mAjqtsF5 e0KW8eSJHr5mnw6IoUu4wu5+srP/7UiTDcBIO8p222NuuSXZxWHobhtqyjwaCx+toWjB/Xbj jMN8AmMNnTn7kRGTFakXYg1geebsjP3HZ4AsdU6Cfyqd+gHxjiKoFCnAqSbvOAyVIh2Y140W jWtPRBVPnhxr0QyhjhwrB9zpZswbmY62nJqAnknwzP3SWmCtIU+AETyICiwL7jWK/53BfNWC vH0piSkL85wWnQGXIuuh4emb+jd7vhSXkFrusOMAILxys+P9zwe6zz5tENI0XbEcNX/JHb1z xWmPD8A05w2QGdN6Wd5fibqankIw0DP8KTiFYnPfC11sY8+BWd3riH7vG1Vz97jdCuGwEmYn 3/YNj+cx0rcuuTZn0SgLh89gQDoXZOFyOREs3fBDx4BFA9kTPt9fnv+Vu3Lto7bG7DOnzFn4 JwoidB9x/mjvccfH4yM6SQuw16iyyYDEK2/deUNmxs7YFz/v05eOpYVL04zNZ12BXGKCNYNm JlNSso33Jr6IK0XZroVWTq4dEEhRPP77g9It8uTqNUVoTOJieqRDZAUuq6k07FBkcsEM4Di3 rGY/NJp8qgLvp585tbmMp80o2HqyE7AAPhI3veTtiRMtt3bg8fFA69H9IvvMwgVSo7r0uyG2 HGUA1yLIL3GLXP79grdmXGAS+coUgymvjpmUBDUKQYVpaTPs7HAY3klwVcXb2x0uktduLvMb k5tweXiUlo+u/dzyOudkP+dPDvOErshURmu57jqGLl5E4rg9kRUpAANpOn/PTEaumOi8mtPd 8d9/ok9bqYW3C8dtjSKCKnrCAy/HAKi5sDPx4yNzHek8evUcwTzt4B7lAXI+R1IUXn7j2jFj HDi+C4DSL4zO3iJx9f3xwG3fsN9u4b8SQc2+MH4CIDSTQE/SReTL6W8f6Dd/ODc8wJ5hRNzS z76YNsAU7aN7hEjk21+YDKeF8nXJjBfawYjeNY018EdrcZ30fmP3Sowom7WLmHkx/ERQ/0T8 dawEv4ZUXyVGSL7Af8+MpfkbP6H7NKfj8oI477119N7Qjx5dKN/eoHA8nl/o9E8Lecm2cyFO URolSMywkxDxpix2ljC9LF2mmDouxzXunYQXmb7VNYCTedIBCLN4giZapnf1jr/e3qJBvsoA QMrYe2uBfL8bCVgBLFddz5QqOvlyQ+K1PACLqrpmxMx1zIP0isFGG5L1i1gOPc3pEdntbZxy aEZJ4yCm5K3rDYMLLBvXSF7dhJ5SYaWYL625VKCdOeIsIZqMwD5xRYdT5arTT7+VPtWvRgYh BBDm0PfecbCb0vC0DQlxVoxfs/Pn3wEweumsWbU/ETz/fSX8Cu7W709GEUrRVKHLhAnuADC3 L0PhjufziITWUmbjB+ZBxD2sgprXNq1Rskw8dFyO4/jNaW+KA6YY+ewKRxegL+YYVCAm6B7v BxOwUcwP8faJs14DLvMo/lfN0iwbeGLft2ixKTOZ0h3jHtZSv64SmSPfj7KX0UQJFyIuQ1/w 6af0qST8cspnz/vU+TIcPCeTTfg6v2+IQxjEj0bC9baj7ntUHAnFvkcVfS3LUc586SB20KNd FbB5cFe+JAJhP9OBilWwl8oGgR3gvbCZsBFb6KOnjcOXYoR1X8IP0BkAidSs6IGeMQO4QbdI 33p//xNXYNQtqkdpQXTm9BWRE3Mnxk0AefptYoopaOb7JTYrfn45dedPcbvMlvh+KH1Z8Iqx v0h4GckAggFaM2KXrudI0kg1IZAaB+rPn3fAHff7HdtWlnwHIRjnPrt/r9N/Ex61HkqtpDCi DRJok+3J6KwpeQsRNzUJ8SqJMHV83iA4xSeTIeh6VKmsLXsCkOFLz1qvTIvGQpvr39FJ1E9z y/nI8vqnzfkpRAac/A9plVxPfKaBjUYMPvFDXt0hVKmCyQgQx+P9Ce99BHOiXo85/DhbQrnu ee1mnkD5zK3fjTTVuicHLl4niTjb6BCR4tB/k/IXIyNECh0RvESqQPRjOx5sHb7T8ZKmB5H9 tcHx+vcIFSyS5irxr4Qf9P7FqVjB3Kvs2OxAceq8IRitPyHE5IxlxJ6yuteiA2cpQexSgtmd eiz77FydRy9P+pfc/WLMK7M6Ur2VWtgGJLP0MAMf8QMQj9o5+GcT7SpuMy+duxRJG24jxck9 iwk3KKJaFu6oWy6W/oEMm17+BvDJXl8PQczpM+F/M+Z3ZoxgTefKGMbU6eOLpx9K9SkIMy07 RseWROJLTYKvPo1F0uXQrFK9DsmT+4sx/cB5JefqMpwVsIlAHT+g8vMEWZeV4o4n3BzPxwOd kiAIvnRSZlSJ/RRGTPv692/HyBr6h+Pk00h/hE0xP/PbfNwWkS5Vl9nqLZxO07nVjwZrR/QJ IsFF4hqvPIBfieyXJ/0khn5Yp7OFggDQWsbNxcb4ewZfYqOz8IBY3ByF4ck87cA8HTL0XV4l Qhdln9dw7rcbO0AIbzySccFuJgim+3bM+UUy/m9Sla+6/5+MkW7GHL4hWagmMhvG4yiPYJTT rxA4ztCawVobtfBDnSG6Zox+uzIPyZWEPzpnfhqO8NiN3i4yTZnsapGmxZXzPvkAXmxmXr+p JHx2m4zLZRU7ZXh2s8ZqzwKzYfHyg+vf+ZOrSlmB3Ov5/J7wI9YvGV7yQfiYn48AVH5+9JkD prXjjn40PGnJ1BoiXZFtSGw+gHEJZ5naFX7oK5vyn4yymGGZLpUNDBJRhprJu9bCLasQVorI J+IDpI9M8yalRG8Nrc1ihJ62KWbq89E7jhEyjuTN0bzv+jdeY4if9uXfiPr8rRxGe88do0Qq b4qI1335rKH1uA3CeoeIYtvZG8D6aT3D9E7mHJZP/L+ahXarlwkJuk56gYhMzwW4Zp2VRDJK o4btbT46JyrvFHOKqQzC1G0L/WQWfdoYBMnWYL33cbHsx99/8DgO3PfwJ3dm+swZ+jJXjBYp kQKt42I7lbAEzA1qika0PE46mEjoS2iXlsMqBZytVuKPpcl+7PCwNNa55XMTiQ+TV4Tuaqe5 RVCsguPZ8MEOVqVEQ6Ot1uG5KqXO0G3mQgiQjSEzTT0TWirt/JGJMrJPPU2vdSMnEk0nDZZX T+Ynn9vN4UvpbryXbl5hox2BVp06X3KiDq0VH+8faLzz5b5X3G73uFFBZpZLeqXypufTVFUh HpfcCC++l6xxfyFlPB0asiBugtNBGI5RoS/Ld0EtIz9nCQ738QKcM+DiAD4+Ij3bLW67KBp9 dR0+cvoSDAIY2bkysnR9XpZM8Fwzp+sqYoVI0i9NaoFFP3j41ZJhRudFydw9iWwZj/CnKlOX xNnMKGrVRqrSsCt5E4SFc6K1jmYN+xYhQtUQ83nnS7okQYK7hcs0BFNBtA0L+1DVB2HWZnzm DFosUm+tJbsSe+zTjJosZpcP02D4+5Mo4+NsXKA62p050m4HT2iERhWRrVxLuq99tvHOqlwB GwzytzTz0cOu9wVHLP0752lfCZ8lQFwXJ+bI3PfMohn90igQFEtyP+IUZkfj4Kd5oW2mKzVj UiZtO4fh/f0DAHDbb8xLB+89YRoV5ydAME7EWGfCRYm2px1xv8o44RZtV8qI4knEEDwzg3Da C+ALhH95KYFn3nb4XdXuCKc6MFubCWvqoiVK7w2FrcOF62q8O155l3z8DoGzz4ibs1DC2Cew kxjjXrbrIn+NU6ib1ngwgAEgtBSCtTxdNPGEoc5QptOLx2dYjy6Uj+eBG6/wEkaMkuClFhwH QZyfrcvMaYv1p540iM3AC/cG7gjrgB46D86GiL8EdCfk7tPEXfV26vRX8fCTs8RpliolI094 N0Ozhtt+G6XRToA81GDvQGKOxCWX37LeKcF0COw6axvOQC4jaelaxfLAzAQ9MT5tydWrBvF5 Ea/PNKk4w1F2oygARW6hMjP2Sz+OA/u2YbvtTH1qMzkDBGpL87wr7Ii5Us/L3OxMtFToADkv efzFab+OFbyNfnTXxwyzLac2vWTZDEE9m/5H27LMzXt7u8eVXuwNv20bpCrvdmtDVGftWqq4 4QhKVbVI8ZqhRcEkWOo6W8yg0yISaIgi89XCTNPpTpVIgBidHgVEwE6cQABjUXxYVGESGbSN drgWxdtf9wEIQ53EUewWuXHXEy0XIkbH6TJO73AWAZi5ZQnWJqo+uX4H8c72e9rYqcZzH6/g 8JrseHpmEh8W5igBq6hi12zSrFAPv0Sq0mwMlalseQI179KTkEh12CLTm1lXd2jcH8qJpoly Qnhpw8kp4Z4KlY4Z6uoXPs6zuKMeZWwbCHdjby3uDxfFfr+Pk9h7OBoqCyvVHbUqxkFP8S7x C9mwV9mvdZhQc7WxVwrAl8J9CC0PGeI2ib2CuTQVV8faUHULcb9KPB1bR3USKV899DUEW6nY b7e4CYM9d0P0BLAVFWz7HhIh6weF2CBEdNhirF/HxJaoYx+GIpoLxpAYPpMZZS7AzbHp0qge E11mcWPRcnIPFnKlccOst7jqwxzv73/CLHt7w23fmd8ZIK8wOpPNdrXKSBgAlmICqg1AIAXD TZyVo4lGs8Q3AWjo7ukKzqaJeRFQpoaNk5oMcSFiqJ/cT7AR0pIplA4sWiiGUFvPx0dECgna AIyulOuvaMSTR1SuMIw6IpA5PRLPbQktf0Lviy48BQmQk9NTtSXwBZq9jLwOW2tcFNuY2QKL xIvbfsOzNRzPA26OukWvVQvK4FoDeQJRts7mApDytRTZkKGjTwmOr+b8w7JeiekvP6uzmDC/ m7FzAOhHQ28Hc9gUlc2cjMmN2Q+fC4z//AJrfDfqSPkBPiFOccDZvUl0cjvgC+eSi3wBNAO4 RAiwSiD4ThEqgqhCIRO0x5N56VvU1QmG39jtM23W6y/ma6dPsM6M0grzZOSJTk/kqeDghcmy 7s2n93javxuZ95/7GToZIybweD5DzfAazcoihTVJPIl86u0OnEOx/2DUrI6IAAlF21q35r64 VkFUCW7mebxav+i8mC9bgmuCLwX+vP8Nd2Ar0VxXVMn1Ye61ecXt6fmvt1oSXoTKcV/MnUxQ iNy8kaSQ38y1/2ITT9UpP9m262dTtXEveg/wtu9sHS5ZNx/Xj2/bdu70kaDt3x9yAEBFGC4D gWZApFMnQwAzHX3bcyHq8lKcXkfJ7kfkUWWYtXXeLtzCt14zTZk585Cpd08iPDNgP415uiWz ZVIa5Qkf4JJJmeLpQwHwmeBr/5orbVfd/t3IHLjU4c7K0d6OSMHeavTnE2Vb9HCiFJG4x436 P1WKntbz7456PTkqhrhO5U8w40bzLBaZ0N8Ep1Lh68jPpxu48jqvTh3e2oH7/Y1F9Dr6tBXV 8C49G7TOGPznkRYG8Vm6k09eIgyQyWDl8l6s8RWxx78vv5vu098PX5wpceNF3OgUe/N2u4fq 61EdXFRRhV5E8xEPPwFR4KyX/uGo0zOVPVUBoIS4Ux0iP+1DKUs5E8VlluKmiPQMl16jVlzc c4RGS+hwULLolB7zMp45UpfnjE9DMWZ1ojlt1rh5CRgPGFGx78fQx8sn13//tPUr2D16h7Uj PMVFsNdtRP7QWQWU8fMeQadUrene/pRW9S9GzU3InOpsLJQPjX4lPPk6fewZIPjNGJf0Wlzr nNdw1n2PKJmxbYYWNv9pcBWaLqlm+Ltf/Eaccpm949ZP5ibNqsAvdfdXtW2rF+2fjMw16D0y Xo7eo56s3rDf7jieD956GdZN3lxp7qhsi54E/0+Naov3JoCOL6fAh80bY9WnqQDoKYKhedrJ 4WjtPRoOFolIUnRijDvb9n1DrRuO4zl6wHf2pZMS7bTT9egQqq8IjsxAjg/34/QdAEPma9rs K/CKF9SnBFgLCaTI7ErhwHqD02QIH14Z0YJsUpwh4bVAU+uGj48PPInS922PfvhFYcaL/BhL CEJE5HAvBVoiZz/dfkOCscwLwEz9GiTiXsabI+No9S7W5OBMTb7qCltY7BR84Oe6OYqE27Do 4r2gvix1x+PxgUc2FlbFvsc1nNb7Sf/K5b+xqRN0jMaDFP3u886Ay7R+NabmovrJfSCYZOD4 Yh4u/zqZXzaWHldXx7+jN9+8cTHyADKwEp+N3vL8EclbmcGo5CvRzrDtgsfmnp8BaRwQPzWA qPlGcv1qi3lA6Pmj6w8vm2yKkbGaOWSRPSp4Ph94Pp5oedVkreN67mCY1ympJ10qyynjXDKq lvbr6btEub9mAM/Nm8ROv4O/yhJdEkjiz8gECuGiZNRYw+PJC4VVidJnyxSHR/PD3kcgqTI2 kMGbeWvGGbF/ZTScsneAGR9YPHZ1bLClzxYDqKkzMoYg4CvdUmq4WUcTIqH/nnebvv/5wzAo r3ysZaDZovNigFNww6mXE2QugXl3hkmUeQIcw9V4inycLaqXFoDM/2TEC4YJTimqT57AE8HT BcxVxIPQ6Uc3M2xVUGuZzqbMdKAvQRhAGU/1eYpHQCxTkZbq3Rg0P4GX6VpJcIw5AnWG/TgJ 7kBy1RoOjPfz7jRyXlEizShYixbYjmdv8NbQPfzz27Zh3yoyT25O2D9P9ALX3CfBBIArg0O8 +Odqrs4cgUURXig+vW/EL2tAXjC8eSnWprfxIlWWgEoSo1uEhhvvbJMSDX+8R15efCc+3ztj CRmaphhW2umvoOtiUL0c1xCvItLT8ov1tAaKmJWrCAmI7ybhU9yjday3CQCxkIgBR790kXTu zMk6Q6VrZ8krwUekj68KP+QmTNBcS6jyS1McnqTHJwWIETkbdfY+IUk+z0/S5ALsEmBJEH2N lKXFsm91hH8bs4FTTwvCbs+LdTLn3eFhvsrMAFpmvZILw6hNJuUerjGH9QJjYOj0lXXOpslV L44kvDycFH/ZvqsfDUdvcIvLcyMkGFtm7ig0fmzM8XPcep2TUPQIEGKTzngt5/ywlFBDNGLZ kJzBEJmLQ8bSW3jWe+N5JwgXoG52jHAi/9TTFrXxcOrwOm5rGtE1c3awDkwjlqlcTP8aLu9M Nzsf50+FnuN/faik3JP0bJ7+BmajoVdDZOF8f8EAuSnkoN7DLDt6Qy0Ve61xA6DGnewqSezw fYvOS3uz/6vn72ToMh08gSnhnbc7q8DWKoHLCcXy8nd4zkZExz/FxteTfP4SBj/lJQduYA5+ nOTtVrFtlYUIcxIRC8hwKJNOzdDB5EfouKHKcQaMc01++uvT+36m26rXAZ70062/fIjFqlH3 ivbMipLY5JFHzau78kK+9/d39N7wdn+LRPzWkFGlNLMGoFAAmQEKjCzZqMeatzUW2mTZQ0aL Yt/iqm7DksN2oayQkK1b9J5XCUaCMd1YKEKpqizy5PIMZF9YQ9xymFmrRkaMxM/I238+PniF lwWz0yRtzdh1a+5XlnyNdGeasVrKmGf2xLNuKLzQcLW1p18hQZwOcyYbQbrP2nxJGstC9Ct3 rKM/ojlNZGMKgwKdGZuRIPD+/oGDOnyr0S89IMGS2TrEeQKjECMzcEGEmVmswY1I71paAEWF MWpeOvtDlCsjen18jvkB5kzPvgC8geYFKHSHugPWw1GCeUgUgo8/f2DOblVa4s5Z4g0oxndy iXnpUB6AqCeX6a71jPXz9mb21hliGtNWD2wUfenz2cvuzn280PdTSzE+GZnb1txRS5Crt7hQ 14cYi1PyeJLg24bbtodZ5hgZINOm9vm3EYWDje/obfHFthBEBU12WFbVQcQU8d8Lb0QKNOec ruTQl3G19Gs3wRnTGLsxAsBow22xyY/jGUUIRVHrFkRMpqK0ipOW/LWoEVXUei4nHAEkRjWH GQkMU3o1V0wwJCMwrYKhFoedP8disr3etMrCxN47jueT2axRh+ZmeD6P6O9yf8N+CxcjzCEl /PhDZ3qsKKtEgAhrugawegHlAEQI1lmsuNXc0NCB4az9YuLjKQESRh4+nSLzgL/6/jIbVQiz fNJ/0M1ZEswUMBWUJLhguGKTuEFrh/UZryhlVtsA+BTZmxJninTgc+JENlachRt4Wam6jvqK 2AtzATQtRARaKqoQgDmiJ6wg+rTdb1GPZU5CziwPW8yllckcDvRpWkDYegMzcT+kjo5CyVVc RcOyH4Z1DIeGMFcv7WTqWCBDtHk6OTeLgImxfk+VeX1srNt434usRZxpimKeNvd5UZ5TYolo XJP9RYAnGiTFBp4Jnp+3T/4LIAM8jJjmXl9+4iRbTiHDBDSsoRJV3LbopdpbZzw8kvGzRrpl 8iNJ0a2Hr3nI65XDPKc+9TamKBKaQAl+VMvwA0wf/8/iPYgZksIWDs9iy/RGLuktGCI41Poo d4JjVMa4RcpYYU1+eL/itGg6r5DdrsDaMmIR3mWelxdf9x5Ise1A0aVUanl/7FV0jPLCoBRV WC5ndTwNN+xX4cIUuG4OLx7dlQG0o+N5PMOTBGBnmk/mfIksYUuP6eVsM5o3MkuXzJT8TV/Y 11UA0VHNGkTMqJL/RG9+LjVLZNUquyqnbn7VGnaARP5Ah0e826LNijEXIDpAlNM8Mh8PJ2CF cb1IFiFCp5v51YWBmdUb6kkxKW6nKCCAYZno/DV+POsQ5ORxfNmUYNWwQhuPVmPUhnvc6HTf b7NCQ5TFgh15SW1ewptRLMhMNc5fCXNtphyDG5UbnzIAYGCD7a0BMHnyewEfYHCGL4usejQ2 MQMoadWMjNkEmJYEN7TW4SLYVXG/74DnHSmJdRCv8fNx5nmJHy0PsLYsjC35THAZ//PJTzDj ERh62CVLnZXMwCeTabKeIZ9TI/Y9L+JRyNmPDGC7bfDW8fefD/Tecbvdse1bVKHkKWcHpDXz dDQUyAkvPmHlBrgZ8trqZEUVgUqJHu90kOSNExnBAoLDs1xHF0bNfqmOXM+szZ7SJJlC44Ke ZDDuQ8667or25x0fxwFxoG5btNsuJXwAwtZmiDh8N0M2MZZAdRF2rjo6ZYv5Ehw5Zxmt1HVq nsjF19M+jWRVWgTdATWnW3oJymTAZuGs2qwPQuuL21hr3XB8HDiOiIdvJXu0sYb8GtC+jKwu yQ2P15KDnc6D5R1hqLTQ1v2VDOfiMjYgU1YNJPziMfleXhiQfv51fLx/hD8CgloZQ9AZD3c0 iM1jNE4gpjpT+T6JdEXrc+OCCWfKtp+tnFUlcC9NJrB9+UyOmvuVJu+K9ESB1hoeHw9069hq 5a1G9KP/0EwXSBF6VhkZsRuqh/oLNDckgcj3/HQaay7A9Wvf+W8GQ/D0j07UPPGP5wGRaKaf d87KYl0YnJdVL2SlpMwmvtlo6TxXnADsFd+MyXmc3rw6E7R0LC2bsYMkPOLSHkC/XHfdag3n A50J2SkY7ujd8fH+Dkc4Wu5vd6jq6ICQjo+fxmsrPBZ7ZZzEcU4OvCZIfH7OfP9amDCtgZk1 Mr7HzRNRqBoxcG5o7EdvDYLwmtVSUbc6gitlPDDE9ripMqdAVy18IabztMoZvI2+fdfjmYCW INkB1glOHDR1p7wgfOzCddSM885atfhQJgEAUR57u+1BZFuuZ7afCf7jkAvhFvNiQr2fHjGJ feXuNcz4+Vbl2dFhXFqQjpUeFxRGLl9FKXUg/rK4RfMmhdXjFnP6Qlf/ZizI3JZ553b4accw 1vKJ8F+d9CT2uBBX4j6y1hp677j/9UaRJvCBzOPhrduvbmNKMXZ9DcBwH64AMOsU/olKTxPp 1W9ktenUh47MmGzZV9UUcButw/NZpe7DVwAAAy9JREFU9/sdec123OR87igNWek6PXdxKul7 +IbwnzpbpX//BIJlEHtNYxxlVQsTnwgvrwmvvRvUkS1f0I7GEx46u24b3XqGWcBPE+UXXDw6 NJ7EMM2jLLHN9wikflNadB3DZnV8EuV89NAd69th4gbDmTMengmctzudKDqeoY7BMGub0Xhh TjyybZWSY8Ezlz1bGyXmGKXR1OO5f6ObxwqIQdGfOHaYvp9B6TI3cooozDqejwONV1tt+y2q J63DDeOer1xEqT/3HvQFWZ0ITLEeQRQMZ0X6rTt7v/6T8VM1KffiNEJfFwiBT2atbPuO//rr L24gW6BFsmCGw+OGRiL0vAduSPQS9vh0VJ1/eYA5Ar2V6oPg+TXBKAQ5tVA7uVr989q/E++y V7gxZu0dpUR9VTbnE0l4b1AoUMsoXLieYCARe6Ypx6yHuF7GmqemuQMvdPjpLhfHcpTnqkWW RCJh3RgkImkyjb/sVaPO+0klRHzkAnT8dX/Dtlc4EBG0BSdEFwzAD3Z2KuXkX8jzBwDomSuQ p3GuWZD59sGl4Yr2SSQyjXpiEp5ydcDm7Vfjct+xUcYoYsTTl9kM1QkA9e2vv3A8H/hgufC+ 7dj3fTRqqiWD+KBd+s/AW2aAZtpvNiVKK0Fe+UGXsfY2H3ndRAlZx7wy9ElViGOrNUToGg+H s7Fgh5vg8TwAd9zud2y8DcHBhgC/sE7+J8NZqnWqFyItPd25kg4aQV6nPQJX/+I36/E88PHx ZOZmxe22Q0sF3KDiWLM2JiNOPfSdDQzMLJuBnCmuorbMfm4AsJ5qseFtG96p1MkL0J/eKODo LbxmfC08WQoUY17+weSPgn3f+TUCsO/6gf2HhjOdavUSIgVeB72S043toHmYKef/YtS///tv OE/E/e0OiOL5fAIWV0x3XkcRvnWAl1mQM/1HVmstare0MDSadWSZEPgrkybRM1ubYN67pvGo EdrMxw2RTKsAAMTS+9bQeo82o1xn3W6AOY5+ROpSLWitfVmM8Z8amTe/JjVye0LKQwbWGM2/ JcLX31169N2oZSsRuCiFgj+yYqw11kn/v7vo/3/8fz/+H/JOwNNmjRCBAAAAAElFTkSuQmCC" />
    <image
       id="FlashAICB_Patterns_New_Pattern_Swatch_5"
       x="0"
       y="0"
       width="14"
       height="56"
       xlink:href="data:image/png;base64,iVBORw0KGgoAAAANSUhEUgAAAA4AAAA4CAYAAADNa8lhAAAH/ElEQVRIiS3UyZIcx2GA4T8r s5beZnpmerbGDogkQjQY5oEKOWwfHOGTD341P5FfwuGLdDFFgMQsvdWWWbn7QH0P8Yn//q// yD/927+QFJTLKwoxx5724HY0M8/T6Su7rz1//Z8v4Gf89S9/oVlXFGV9QT0/h0Kih5aizDSL BmsN7fMe28PUJ5zJ7B+PiFzz4u496ub+W1hcEdsObTpW9TUiw6gHxtMzblI8fT7S7XrsKHj3 +g/88Md/oNh++AFETc6J4AdEHMl2wIwGM3n0oef09MD++ZHVec2PP37HdntNUd/ckp1HCoGb NHb3hOt6ygIkEm86yjJTzwS3L1bcvFwTU4sSWKaxpaoUcZg4fn2mkXOKWBCmSIyR++0dzWrJ 229fU68rHn/5FZXciWk8cF5JZBD41uN8y2l/oj+1nJ9vObu44KaU3L3aImcLemtRZIMzHZyd U8sKGRXPuwNPXx/xceT7j/9EKhXFrKRZbUAKYipRYeip6wXeeZiVuNGwPz1CLPn+7Z+pP1wz tkfmc0X39H+IQrBaNCg1q3FHD6NDdwY79OQMN9stNx/eU1SKZjZHlpKQAm6whBgpkoCYE9Po MO2IHSxnl5e8+u4D9ZstyUeULJBSIYuCUQ/YyaB8ClTNHDMMeJtoZmuu77Yst/ek7PDOQgpE IuRM33U4H1FlWVOWNXvjkGrB9d096xcvUYslve5RUuL9xKgNfrIMfc84agpZCFJIuJBYbG5Y 3b1CLc/JSiHKEsjknNHjADmTY8C6CdU/7DC9pmpW3Lx4QbO5IomMqivqFPF9JKeEMYZGSVLO pBhRj7/8DVk2nK3XnN9vEUqRw0RoZohpQghBUQis0USRMbonhIjSX5+5ffeS9fUCIQdyIfDT ifA00FQ1kzuxf9oTg6RUM7pT4nF/RBWV5Gq7RUjJ4eGB5XqJnyba/Y5lM0dIARSoqsRbz9PT M4FEsbo4Q12ukXVNQUYqhZIFwVmMGVGyZNIjWmtcDLiYWC4XqM32FqxBlHB+cQl1TWUmqqrE 6JGcHeNo0L0hxYIkYH11harXK6zuSESa5QIxRbwe8HZC64HuOGG04Xjq0Nqi6orl8gyVRQaR 6I8Hhu7A+fkapwfspJFFxvnE88MTu2PHxdUNP/z4I8tZjcoiQgExRkSIJG+ZtMaakUJJUoho rWlmM775+JFvv/vIb3/7GSWkxNuJuq6oyxJyZmxb2rZDKsnx4cBquWT79hvevHvL2c0d+8cH VNY9lYRU/Z5VyoLu+YB7NgxtT0/Bn//1T6yvVyxWgfbxfzkcPqPsZKmbChLoYUSJAh8ivdEM 2nD38VtevHlDzhNPXz5jrWMxm6EKUWCGET9phm4ghUinR9Ss4d39lnc/fKK5vMA8fMEPI8kH hKpRIku63QmpBCToTh2jtty/fMmnH/+EPJtDzkx6oMwFZVkyOEdx3B8YBv17BS7jjONsfc7L D3+gur8jxUDyFnImOEv0HiFA7XZ7RAg47ehOLVDw6s1bbt+9h5wIWhOjI6WIJWBHS0CiSlmT YqI7dRDh+vqW9dUNYrYgEcnGMU09IQQCieN4wjkoNlcXSFninWVzdc3L12/JwDS2JFHgxhFS RDUlNngObYt1E8W89lin0aph8+kT/mJOi6aqFxSuwqQBioQ7DdReMksVOIFqjyeWqxXr2RnL sxWjOyBFAAyFKmnmNV5P9HbChohxHpug6AbD1fUN2zdvyas5hfAE3+HNjpx7VFUx6pFu6Bmd Y3SBwRiUqipWlxvU2QoRHTka/NgyHh6oCkmKjm7o2Z86Ju0ZJ0/IEVXPZgglidagcqIQUBXg hpbYrNCnlqHrOe5PaBuZXKSsJUpWkhAdzhjqWUHZNCxnS6IJmONAf9gztj1d2zM5ULJiNZuj qkWNEBC8JaXMQgqkqJj0RDu0HL4+MB5O2NGiqgXr9SWLWYlqmgbVVOReYydDWRQ47RiHiTA4 uv0eM1iyj8xXc64vN6giouriHD8YCpkhS3K5wMUZIRqM74gnT57g/sV71nevubo8Jw0tKolI oSRESC6QYiL+vYvJTOx0YPPqNe++/8Ti4hopBc9fJtSUNbNyjsoCTCQFj9Ga0+GIygXz7Te8 +f4j7//xj8TkGfsWakVhvSbmhKoU5Iz9e4XHXlMtV/z07//J9rtPVNcbzHTgafcFnSYUBeQc EKJED4ZgM6fOEIuazat3vPrpn/G7n0kl+KnjuPuVtgdVFYpkIy7CcdfifEGUc5rLJRevvyFX DS46Kp9YKEE2I/3JomQqyCHitOf43CJnay4294SiRiwuyH7E2Qn3sIPJIsyIHwwq+0TyCW88 WnsuFiWXm3uGLLAUpBRJ0fH02y+Ueo9ue5JPqOwj+Mjjr5+535yzud1AVVFVS/RJw+Vn5pXm 4fgbtY801R3H3c8oCPTdkaopuL28pVmfM/pEFJboAtZISAnnAkVIQEEio4IzHNody9UZt+/v iZSY/UCREzklplGhosf7SLaRYXKM44Tquj0+TsyWG8SqpJgiQlpECCiRMENNmQyZgsk6nnZH dgeLOh565oslq4sLEJAVVJVkcgYRfo94si1CSGxIPD0f6LuMclPm+vaK2dklCIWsS+pZIB06 go1YFwm2IyaYfMZniZQC1TTn1PWaQi4RooKqQkmPMxE/edp+xE8dIjiMDVxubtAuo5bzSwpK ogcZC0QuSVEQbCDYwDgOhGlE5EAIiavLW3wS/D9dWB4586AjmAAAAABJRU5ErkJggg==" />
    <pattern
       id="Pattern_1"
       patternUnits="userSpaceOnUse"
       patternTransform="matrix( 1, 0, 0, 1, 429.7,117.6) "
       width="125"
       height="125">
      <use
         xlink:href="#FlashAICB_Patterns_New_Pattern_Swatch_4"
         id="use11" />
    </pattern>
    <pattern
       id="Pattern_2"
       patternUnits="userSpaceOnUse"
       patternTransform="matrix( 1, 0, 0, 1, 429.7,491) "
       width="125"
       height="125">
      <use
         xlink:href="#FlashAICB_Patterns_New_Pattern_Swatch_3"
         id="use14" />
    </pattern>
    <pattern
       id="Pattern_3"
       patternUnits="userSpaceOnUse"
       patternTransform="matrix( 1, 0, 0, 1, 679.7,491) "
       width="125"
       height="125">
      <use
         xlink:href="#FlashAICB_Patterns_New_Pattern_Swatch_3"
         id="use17" />
    </pattern>
    <pattern
       id="Pattern_4"
       patternUnits="userSpaceOnUse"
       patternTransform="matrix( 1, 0, 0, 1, 701.7,85) "
       width="14"
       height="56">
      <use
         xlink:href="#FlashAICB_Patterns_New_Pattern_Swatch_5"
         id="use20" />
    </pattern>
    <g
       id="Mask_FlashAICB_Layer_1__Clip_Group_0__0_2_MASK_0_FILL">
      <path
         d="M 658.5,193.25 Q 658.65,180 655.7,160.6 651.95,135.95 636.45,108.6 621.05,81.45 591.7,47.6 576.25,29.85 542.95,14.45 532.5,9.65 521.55,5.65 L 512.7,2.6 q -6.45,2.2 -17.2,7 -21.5,9.7 -42.8,23 -30,18.75 -57,41.25 -8.45,7.05 -15.55,13.6 l -5.45,5.15 10,9 q 6.25,5.65 22.25,24.9 8,9.6 14.75,18.1 -16.75,-3 -37,-5.75 -40.5,-5.5 -58,-4.25 -24.35,1.75 -39.85,4.25 -20.05,3.25 -33.15,8.75 -11.85,5 -25.6,14 l -11.4,8 37,21 -14,9 q -8.75,5.65 -27.25,9.4 l -16.75,2.6 -51,0 q -11.5,6 -28.1,13.15 -33.25,14.25 -58.9,19.85 -25.6,5.65 -43.85,5.9 -9.15,0.1 -13.15,-0.9 13.25,3.75 32,7.4 37.5,7.25 65,6.6 27.5,-0.6 51.5,-5.85 12,-2.65 18.5,-5.15 l 68,16.9 q 75.5,17.75 113,22.1 37.5,4.4 79.5,2.65 21,-0.9 34.5,-2.65 l 7.75,-2.75 q 12.5,-5 36.25,-16.25 38,-18 151.05,-70 0.65,-2.75 0.75,-9.35 z"
         id="path23"
         inkscape:connector-curvature="0"
         style="fill:#ffffff;stroke:none" />
    </g>
    <g
       id="FlashAICB_Layer_1__Clip_Group_0__0_Layer2_0_FILL">
      <path
         d="M 658.5,193.25 Q 658.65,180 655.7,160.6 651.95,135.95 636.45,108.6 621.05,81.45 591.7,47.6 576.25,29.85 542.95,14.45 532.5,9.65 521.55,5.65 L 512.7,2.6 q -6.45,2.2 -17.2,7 -21.5,9.7 -42.8,23 -30,18.75 -57,41.25 -8.45,7.05 -15.55,13.6 l -5.45,5.15 10,9 q 6.25,5.65 22.25,24.9 8,9.6 14.75,18.1 -16.75,-3 -37,-5.75 -40.5,-5.5 -58,-4.25 -24.35,1.75 -39.85,4.25 -20.05,3.25 -33.15,8.75 -11.85,5 -25.6,14 l -11.4,8 37,21 -14,9 q -8.75,5.65 -27.25,9.4 l -16.75,2.6 -51,0 q -11.5,6 -28.1,13.15 -33.25,14.25 -58.9,19.85 -25.6,5.65 -43.85,5.9 -9.15,0.1 -13.15,-0.9 13.25,3.75 32,7.4 37.5,7.25 65,6.6 27.5,-0.6 51.5,-5.85 12,-2.65 18.5,-5.15 l 68,16.9 q 75.5,17.75 113,22.1 37.5,4.4 79.5,2.65 21,-0.9 34.5,-2.65 l 7.75,-2.75 q 12.5,-5 36.25,-16.25 38,-18 151.05,-70 0.65,-2.75 0.75,-9.35 M 511.2,31.1 q 4.75,0 8.15,3.35 3.35,3.4 3.35,8.15 0,4.8 -3.35,8.15 -3.4,3.35 -8.15,3.35 -4.8,0 -8.15,-3.35 -3.35,-3.35 -3.35,-8.15 0,-4.75 3.35,-8.15 3.35,-3.35 8.15,-3.35 z"
         id="path26"
         inkscape:connector-curvature="0"
         style="fill:url(#Pattern_1);stroke:none" />
    </g>
    <g
       id="Layer0_2_FILL">
      <path
         d="m 509.15,482.5 q 8.1,-2.5 14.05,-2.5 l 19,0 4.4,17.15 q 4.5,17.75 5.1,20.85 l 1,5 q -28,20 -34,23.5 l -6,3.5 q -9.85,-1.85 -22.25,-5.3 Q 465.7,537.8 453.2,530 441.05,522.4 428.95,504.4 417.7,485.75 413.7,481 q -5,-5.95 -10.5,-11.05 l -4.5,-3.95 11.8,19.7 q 12.65,21.1 16.7,28.3 4.05,7.2 6.2,12.3 1.05,2.6 1.3,3.7 l -2.5,2 10.4,2.25 q 11.75,3 18.6,6.75 6.9,3.75 31.15,12.25 12.1,4.25 22.85,7.75 42,-18.5 49,-23 l 7,-4.5 q -2,-10 -4.75,-21.8 -5.5,-23.65 -9.25,-32.7 -3.75,-9.05 -6.75,-14.7 l -2.25,-3.8 q -5.1,-0.25 -12.5,0.3 -14.75,1.15 -26,5.2 -11.25,4.05 -18.5,7.7 l -5,2.8 1.7,8.4 q 2.35,9.75 5.8,16.6 3.45,6.9 6.05,10.4 1.35,1.75 1.95,2.1 l 5.5,6 8.95,-2.75 q 9.85,-3 14.55,-4.25 4.7,-1.25 7.3,-10 l 1.7,-8.5 -13.5,10 -17.5,0 q -1.85,-3.6 -3.7,-7.55 -3.6,-7.9 -3.3,-9.45 l 0.5,-2.5 6.95,-2.5 z"
         id="path29"
         inkscape:connector-curvature="0"
         style="fill:url(#Pattern_3);stroke:none" />
    </g>
    <g
       id="Layer0_3_FILL">
      <path
         d="m 518.65,0 -11.95,0 0,409.5 1.35,1.5 q 1.85,1.5 4.45,1.5 3.25,0 5.05,-1.5 0.85,-0.75 1.1,-1.5 l 0,-409.5 z"
         id="path32"
         inkscape:connector-curvature="0"
         style="fill:url(#Pattern_4);stroke:none" />
    </g>
    <path
       id="Layer0_1_1_STROKES"
       stroke-miterlimit="4"
       d="m 523.85,391.1 q 12.55,5.55 24.6,12.9 38.5,23.5 57.25,56 18.75,32.5 32.75,72 7,19.75 10.25,33 -21.25,12 -46.85,25.5 -51.25,27 -73.15,34.5 -17.8,6.1 -44.35,19.25 Q 462.55,655 455.7,656 437,658.65 407.45,657.75 362.7,656.35 318.7,646 276.2,636 219.2,624.5 L 170.7,615 q -36,7 -59,10 -14.35,1.9 -31.6,1.15 L 65.7,625 79.45,621.75 q 15.5,-4 24.25,-7.75 14,-6 44,-22 l 16.9,1.15 q 20.75,0.75 40.1,-1.15 19.4,-1.85 41.65,-14.6 6.95,-4 13.35,-8.6 l 5,-3.8 -32,-23 q 1.15,-1 3.65,-2.55 5.1,-3.1 12.25,-5.9 22.75,-8.9 57.1,-11.45 34.4,-2.55 85.15,2.4 25.35,2.5 43.85,5.5 -4.5,-10 -9.75,-21 -10.5,-22 -14.25,-27 -3.75,-5 -10.25,-11 l -5.75,-5 q 9.75,-9.75 23.75,-21.75 28,-24 49.25,-35.25 21.25,-11.25 35.75,-17.75 Q 510.7,388 513.7,387 l 10.15,4.1 z"
       inkscape:connector-curvature="0"
       style="fill:none;stroke:url(#Pattern_2);stroke-width:5;stroke-linecap:butt;stroke-linejoin:miter;stroke-miterlimit:4" />
  </defs>
  <g
     transform="translate(0,373.4)"
     id="g35">
    <mask
       id="Mask_Mask_1">
      <g
         id="g38">
        <use
           xlink:href="#Mask_FlashAICB_Layer_1__Clip_Group_0__0_2_MASK_0_FILL"
           id="use40"
           x="0"
           y="0"
           width="661"
           height="671" />
      </g>
    </mask>
    <g
       mask="url(#Mask_Mask_1)"
       id="g42">
      <g
         id="g44">
        <use
           xlink:href="#FlashAICB_Layer_1__Clip_Group_0__0_Layer2_0_FILL"
           id="use46"
           x="0"
           y="0"
           width="661"
           height="671" />
      </g>
      <g
         id="g48">
        <use
           xlink:href="#FlashAICB_Layer_1__Path_"
           id="use50"
           x="0"
           y="0"
           width="661"
           height="671" />
      </g>
    </g>
  </g>
  <g
     id="g52">
    <use
       xlink:href="#Layer0_1_1_STROKES"
       id="use54"
       x="0"
       y="0"
       width="661"
       height="671" />
  </g>
  <g
     id="g56">
    <use
       xlink:href="#Layer0_2_FILL"
       id="use58"
       x="0"
       y="0"
       width="661"
       height="671" />
  </g>
  <g
     id="g60">
    <use
       xlink:href="#Layer0_3_FILL"
       id="use62"
       x="0"
       y="0"
       width="661"
       height="671" />
  </g>
</svg>
