<?xml version="1.0" encoding="UTF-8" standalone="no"?>
<svg
   xmlns:dc="http://purl.org/dc/elements/1.1/"
   xmlns:cc="http://creativecommons.org/ns#"
   xmlns:rdf="http://www.w3.org/1999/02/22-rdf-syntax-ns#"
   xmlns:svg="http://www.w3.org/2000/svg"
   xmlns="http://www.w3.org/2000/svg"
   xmlns:xlink="http://www.w3.org/1999/xlink"
   xmlns:sodipodi="http://sodipodi.sourceforge.net/DTD/sodipodi-0.dtd"
   xmlns:inkscape="http://www.inkscape.org/namespaces/inkscape"
   version="1.1"
   preserveAspectRatio="none"
   x="0px"
   y="0px"
   width="485.89209"
   height="473.36798"
   viewBox="0 0 485.89209 473.36798"
   id="svg2"
   inkscape:version="0.48.5 r10040"
   sodipodi:docname="k03_yeti_01_arm2.svg">
  <metadata
     id="metadata54">
    <rdf:RDF>
      <cc:Work
         rdf:about="">
        <dc:format>image/svg+xml</dc:format>
        <dc:type
           rdf:resource="http://purl.org/dc/dcmitype/StillImage" />
      </cc:Work>
    </rdf:RDF>
  </metadata>
  <sodipodi:namedview
     pagecolor="#ffffff"
     bordercolor="#666666"
     borderopacity="1"
     objecttolerance="10"
     gridtolerance="10"
     guidetolerance="10"
     inkscape:pageopacity="0"
     inkscape:pageshadow="2"
     inkscape:window-width="640"
     inkscape:window-height="480"
     id="namedview52"
     showgrid="false"
     inkscape:zoom="0.49894292"
     inkscape:cx="242.4921"
     inkscape:cy="236.84596"
     inkscape:window-x="0"
     inkscape:window-y="0"
     inkscape:window-maximized="0"
     inkscape:current-layer="svg2" />
  <defs
     id="defs4">
    <image
       id="FlashAICB_Patterns_New_Pattern_Swatch_2"
       x="0"
       y="0"
       width="125"
       height="125"
       xlink:href="data:image/png;base64,iVBORw0KGgoAAAANSUhEUgAAAH0AAAB9CAYAAACPgGwlAAAgAElEQVR4nGS9y7Ykua4kZgBJ 94id5w66/3+kpa/RQJ+hgVbrqrtPZUa48wENAAM91XnXuVWZlTsedBIwGAxG+b/+j//NRAT+ y6CiKKVARLBsoagCIiiqWGthzAHVglIK1poYfUJV8b0ulFLw8/PG588Hd+/4r//lv0BU8P1+ cd8da07UWgEB+t3RWkM7GsYYWHPh/X5DRPD5fGAASlEAAlXFfV+AAa/3C2suXPeNWgtqrbjv jlIKiirufkNFcZwHAMFaE9d1wcxwni/UUjDGwJwToopaC+77Rq0Vqv7vIgJVwfd7QUTifRoA w5zTV2oZ+uj4+fmBQDDnRG0Vaxn6fUNLga0FUY2/vzDX9NcrNdfXYACAMQZUFa019N6xlq/H 7P5+53kCAny/X6iqf+/rRim+BmMM9NFRtAACzDGBeKyv1xtrTqy1AAD1PA7/gd4BAepRcRwH RPyLQAwiglIqCgAZCpgBMNgy1OZvbmZQVaxlEFUIgP/xP/8H3u83xhj+M+IPUFUxy8Qyw1oL Igpg4b5vGIC5FlQFY0z8+vnBsoXWDqgIVBR9dZj5Ys25IAB6vzFFUWoBgHh4ijE6AOA4DrTm Dw4AtPjCfT9f/xMDYAYRQAS+gd9v1FZxXTdG76i1opSC++4QAf71619QVYgIIPDNEj+rRbFE /OdaQ4tNiPjcAKCmsPi/tRbMDGbmPy8KgUCL5t+Hwf9cBCKCdjSc54k1F+ac8cAFtpZvqGV+ yODPkK9VSy2+A/iX18IyQ1GJE/yBiOI4gFobWq35giiAQSAqvkC1ovcOAfB+v7HWwnX5CRUV yMJ+8KKYa2IMoBQ//WMMGHzzHO3AmBNjDt9UMJzHCTODQCIKAGvO3NlLFo7zgJnhvm5o8dcq WlC0oPcb931jzoXjOFC0QFRR1I/EWguqClj8u/jJm3PiOzrmmmitRST009dH9+82BWv6SRLl gwFKrRAAa66IIJqbQkT8QMSJnNOjJgAsrNzYMODuN2DIDWoGtHbgum70fsOWf1eJ96+oEZUV tnwz8X3q93tBRdBqxYxFxvX1L6cFZoa1JnqP0xALPNf0N64tvkTBMg9hpRS8X2+IKv7zP/8z w3DvHXMMaKQTM9+BAt/BpoZlvthaCgqA3juu+4KKosbmqK2hWEHvIyNMKSXDrsEgsWmL7lR1 3z02pQDw9zrP08Nr71i2UGuFmW9AkQn7ALUU1OIhtNWG8zww58Td7wjLBXMMjDmh8b5rCgyG Vivu+/b3VcHRfFPKEl9PjRPMzaDqqSc2iC3DtJkbv9YKGDDngNmBf//7n4xkqurrU6s/qOuL ORfmvGFr7Yd+3xeO40SrFVrUT8wyz7Nq8dAN9z0x54oP4uFDxL+YwPP2irymWjDmRIk0wC/U e8/cJSooKFAtmdtKLbDh7y0qWGuhlor3+wclTs9aC7X6z/W7Z3g9jgNzea4XIHHJmMMfcmzs ozWI+oKPPuLERZjN0GsREhX3faO83x4aBzIHzznRb08zWibmnJgjvr8opi1obLZlvgm5Ma/b N8taC6/3CVuW4doscIN5Cpo2Y5MCxDdj+Cbod0cpHhXP88Qywxz+fUUFgHgUsPV4DaAex4FW K0qtKDCUUh2gjYH77qhVM/SZDbRW/RRZgUZ4Oo4D1Qx9LX+j+8ZlHkL9RO+15OlWLVBZmHNg jAkVQa0VIoplA3MuB0JV8HqdKFpw3Tf6PSLvVc+LunPcWguLp6QUQg9M87xfakVtFQLB3Tv6 faPU6t8/Hsic08O0eNoRWVjLH0JtzR/adWOMDmUknCujoGqJk+4RABC0VqFyoJSCuSbmPVFU cRzNsZNNT5e344I+PBrJLZh9+oapJQBcS+BoZnidL5zn4Qft+qKPjhXRz5YDcYODx8dDP6Hq +UegKFWwloeVgeHhCIbeR6A/30FrTUzzJCOn4nWeKKoYczr6tIVSqr95ADaI73YHW4IRKQJw 8FeKPxCJDTCGv86c3IS3v+9Egh5faEUfHWNOHOeReVlLgbaa1YHZctwQyJthdEYoFRGPdGZe tcBDJTfSUas/NP6+Nc+18IdVpKDV6oh9ehRhqJdAiP65/XVfrxf69GjBiqKUglYDR3y+EAhq a34gIFERCF6vV2x6wVqGOW//XBDMObCmA7dSiqeFUjGJ3j03aIIr7qpDfPG8zNAILoictXM9 xEOIxt8pqjCWEPeN2mo+IBUBqpd7DIfHeWItP2lHa5iqHnWi5NES4SweeK0tqoRAqAESs+z7 j3+hlorrviIa+BG04sjcljn6j5C6bKH3nmHeSyrHAh6lfKEIvhyzaGzeCh3DwzfRe+RV38wS +Xfm6ZvTK6URZRmrDRGJaFJxnifu+8b97xtHPRITceOrqAPRUjADfBME1rpLvlq9hLQA56xk qqjn5TGH75wVu2MZFpYvcoRPizx+3xfWdKQ8oo5UVRiIpiNUq/qG0ILv9wsz4PV6Ya2F3kcs xkQ7PGz+/vzGmv6gZfipUAhEDMdRIdIiBK/ACh6hrsvRa2ueE+/ADiznxhwZnktRNGmJqhmV fNEs63WYYU0CVoPdPC0z3t8xgaigaomKz8tOYhj/d4kUNlC0+MN6vzCi6hh9oB0HWmnoY6Bf 3ddAFD+vH3y/H0i8hi3DcbQEaoZd5rEG9/JtZMoTWYB5Wfx+v3FfFyp3mUCihBqbgDDDwsQC ckfBHPVC/A1a5G3uZJY0BG2tNdTasKbvVN//nudKnAqwMjHzRQ0Sg9FE1Xe6iiPbCQcmDOP8 DisWHUCefE8eHlL7CBInyBELBP/EGdzca66snf27z1zctbyWNjPoAsrhKWuMiX7fDmJVoy42 //wlDz5UFWeQKj3QvxnX1qDLINXD+vj9D2pEtBGpxysUJ3wImucYwT20XclEVbBkPT77QpXI syqKsgpG7CiLgp55s5SNnpv631+xGEULanFiYE7P/R4CT0eTIii1xuKvDVQCXfOhkQ1k5FBV jN4TgGQeDwzN/y8inkaWYc6FGg92jstr1gRpixxRfpc5ZnAD/mD8O8f7Rxif0wFiqSU3g7Nv K5gv1t/ALArMFfV/8YdeFHNobMQJsMQUQe8dtpyU8mfhB2HMAQwEIVQBM0w+vNgEzllERJoz ylSBSMt1WtPTIOaCmQPJ2rsDidYaNELfXDN3+YovUGtFLfAfKo7gr+tC79NLu2DoSCIwlM41 gX6jluoAZTnQIwJn6ZIbT4uHzFIdscbDGVGTP385yt6MoYmTRqUWNFHfkFFjq6qXTysWLHa9 o3wvr3YujjKzFozubCKpTyuWgAsG6FEgQJZZtTZYWbEBJ9oRDw0eibjBLShdVcU9OswWzuNE a81xxu1A89fPj3Mga2YZRpxSa4HAqWqJQwJEpFoLayEPIQDUGiWvPzgnLTyfaZZWsKBEgSxb li1YQdZ9IsB9X7gvfhkHc3MOXJfn0ut7obWG9/v9OHErT3OGciyWyBmOVBQmAOKBbrpTdn6X 4B1EsGLzmUYNxQdC3CHAGHeWZY6C/e9KpKy5JhYc/DBdqArKLBFyIkmJh+AZJy0STfAcHXNM SLDWFqRTqTURN8zw6+cXarmcu69+mKx7OKqtxes7PlHxPsgYAyrI8g1B/VpgkxXA0XsprLY8 fZgZKksqIj6etKJBFXIxAyECQCkLEjXpHHecLq932ShxJKwJhlbkK5Zj/Kdh7dC9DCYWpYmj bKdcveGxlDW0h0FVhUbe1qwwBDOaG2yQ2DKMOVFriVNumXIk6nEvrTyXOwu2IHPGd7LciMzv pEuJwpetvVmDplZVP7FlJhWtVjb5tZanjigRRQSjD6euAbTjwBgd931jjIkaFcSI9Fhb9U1v yMbOWtNZTfX1b9XT0B2MoIiikiPPcG4LsiRzmiNFREh2mtF3FPK0adFoaNRk7WpQijDz2lk0 EL7hjJreGy5+INdaMNldPjMLdnBGnlIeJPjbSuRn2VEhyqje7wjB1QGSyg7BceJFPVrcd8d5 bCDrm8W/G3END3fW0wFIudm4dv7BojdQnZoe435ETuc31loJaq/Lmze1NrTYVGQ5AfO0Ftz5 jBpdRSMK9eT0a6u56UsAX3YI2diq1Z9PPdqRO3NEDUnyoZYKbQG44nvKXwBO8Xq/8f1+0fsN giqBg5bP5+MPOPK1l1IdtTbMwARsGTKSFC1ARNEZINGWoUduItjhRiWaNrPceOw6tdqwoA6O zLJ0k+IbpQf5w40++sgyTLVkuccNq0VRliavAXjvIYkeePTzjalZzTCS8c/YSSul4PVyOpkb TlVxnmemgvv6OovIn9PoA8wJs7WjVZSNojMrmmUOdVVI1FTUMlGv6MmyObE0NkAfmGN6XT1X sjlreZ5gGBUYXueZiFJFvBHRRz44CRBF1Pz9flFU8f55J90KA2px4sUmw7J3m4RtRi156p1y JZJuvqOXeZ/+OHDqiTH8QTDXPZG2qIOfYtFhs5W5kad7LfMaum5Wj2nJy9IRfy9Aoe5SScTX aaEkkGJlIAgcs+DpLN7XKyDHFfxzgwC2e/DEcf6QN6FGDUDRV5Tentt7MIZ+0hvWMi/Z8Kjh eGqIYq/rykKfOWOySyfA0Y5oy4ZQIGptflF7MEGq6gi1ttwkTt54/sFaQc3uz2NL0JrvenIE DgIFGqROLc76TfPW7JoTtoK4uTvY5tRSEvuqOFeQNbl5nvF6P0pBFdSgMccc2UOIpUAp3pBZ M3gD1v7TkTOrDQegAoEBEuszPYwf2pi1sPOXr3O/LT87a3yCMYZ8qQoxL1/XWFkh1FqgR8P3 61QuscyyhTpGj93ioK3WEiQ9MrwRSEmcXDJdpD+5k9gLd5BUIJBof/oHOY4DRzsy73rTgi1T yXxpEZZgXgrOtSCPTUSk/RRJeEVAVs5LHgP+eg/HI074CHazhgweq5cVIo5aG677SqBbqBia C9e8MLOh4RtAA4sYJtbcXbu1fBNNgi0SP/Ed29HicyPWZfqDVt8EDgd2b51kEyxUOuwbxAlH cO21bUFMGdMxTymoFguriNAWD59/Lt3DGYFBWQWrbLBxTUeaBBglukyIHWrfL2yxvPMwjxWt yT7wer0S1DEEavEwzlPiDy9IHtajssvKNRf6fUNU8X69sExx44aZRyK+Hk8IzE9z7x3ncaIU z9PZ24/qhT0C9uxrqy6qGBN3CAxEBWIIssm/YykFgs3ZD8wAcMbn9lepynNuyQ76w05xi+0D sDe85Iat8TB9/f2QzJBHtePI5tGKCFPP89w0KAxYy+tiQ7JEcy1Y7/lGEfmxEEqVteMeP1Bs Ypzny6PCg5DwFMIO0cwaUsSjQW3eYnUE77QwRRuUF3GRj8PTC0NmHwPeT6/R0tQkZnqEegeC nnZaaziPM1U5LL28TPUyz0G/5QPy5pSg1JY/Q8q3REPJARuc9JozRAzE5Nzgijm7n9jeXWom 4ukv9IhF636PWGcNXAJFagv4vr5ugWGmN5MsSj2yeJXhasxoPz52usSJWnNiGJEzSzEkRTsT qBClOtDjTlUVqJRk1hClhEhFv3vm01r9w/ODJ86I6sKwsqHj3HZBnx3H6WmjoztwibYqGyRs qLB5QpJpzYXf//zG+XrhOJr/3FJAvYU5+shNTrS+U84MydcK3hx5eJzf8E3JSEE6OPv+sWZz TmiLlLpCqwiPrsdxxrqu2HQzGmEGW4CY4DgcnM0xsypIwYQ/ZecBHhGijk6SIE6cAIICaNTh sWNl7TAkEEjxf2eJx9Bs5oycFEeVc8yo6ecm/FuL3jlcINlXhDZ1ec+YuREAB3VzhYIkgCcJ nxFNlBrKn/uOsCviKhqiYQvSB16qcWP0KCMJTNnIMZJJkR8pY0LoDnwnIClarzCQ7JyIRHcs CC1lT4FEVzRY1u4fAN5UIVt5HA22AOhedzZP+FD9gHTHTjc1gTv9GTdWdlMn6pie+FnK8Mh6 B4rhLFCF5cp4zSkCaYIuVLsyfLgSx0JIMYN9YrpQkiVxWgDEaXR1jufQOPmlhkhgem+ghVI3 wv6vX7+yRn02gHxD3jjPFwxeNrZWMcdMoHSeR2jkAg0vA5T1rZFrSVLme31Res2eghMwTmAV Lcl8zTkyDWSeJJFUNKKNBQ18Ys6JP/fH1y4iIGD4fq9UH6koUHwjOQq3TIk82RYVEUJPKKqZ x6mXiHV1HThDz/f7xerdAVbdIj0KEsy8hl/r9rBRSuYYKjzNHDWvZWitYMBwnM5Rjx4KTaxs tBzHkV/Cw553vag6pUr1OE7U6FGWohk6PXQ7hfyvX//CXA7sSJlyoxGc1lDvHMeReW4tD51a fHHGdJ4CCrSzuaRaBaU6UDvVSad+j/x8W7rlhJBKMJoiGMObTFmqxeb16qhCoBE1F5RRFob/ +e9/4zh8cxYoxjRoEZQAxRb4w5U1/l4a1VOrLXsH3BjHcXhOf1KtGsoVCZLFW50BP2KBnv9L 2RQQ7UnKex1J9j6SZvQSbosjEWia3a8neGRhyt66Ssmqgr/IVTMcOxANbl0FrdTk6s2idLJA zvDUk5/D/ISvMSGYf5E1pFlTcw5yFp6WRDRxgoqgHIeLJ0I1fLQDGrIzhvWn8GG3r0ueZHId RRUtpOfUrs/on6/ln3fFZ6i1phQNCH4/8MbC8rQEQx1jpJqF8uXjPAGzlPjukgEbDMQOpojS 2a6BVbbIcJm5igMIHvxRcnjMwuf7SfSfJJAIYLu+91MUOaknH5xyKhEB5ooadcbPeXoY0Qb1 cs0fpBaG/77/mxE77AdZYnMQtzD9EaxmP70AAyMjz6EeQXpUB6Kun3O16uU/Y8h+AeAbqrYQ Ss65pU2tee8+Pj8B8ojPw8ghgmyUMY9TQWPCvoOzovW6rhQEjMFOVIS7RLqWZRX7yiwR5tDY WVHjRppwDf1Erc5a/fnzxzFAECVkrjy6lAyH3tGyJHskkCyBVB97usUMeL9fHiHWfqh+cPaD LOrVgC0KMD3XUUzJkhIIVnEt1CKp5U+OIH6/bGUaIPmxGcvYWBIKVENKtVNxu7Z83DWKlpq7 EmqbNX0OAIYtCp0T7Thy071er+z3U4TCtWFUAAA12QMRRX3ChUCDUyN8A4jgjDo8p1rilO1w bIk0KUUCIqz3jp9fPwB+Z8lUZHfFli38/PxkGUjAxpOmwfiRW6Y2PT8HECWgf4Xa6mYOAzVP ebRuzUko/t5PibNvpVC+JdC1slXstXJBbRxpun0jSYFWTsNEP4ICzWXQ4q1RC3AH+NSPFo8g 7J1793LjCoBCSs/X1MKvSQA6svQsqokNIMi04EFUXUrFVMqNoAX1/f4BVZxUkRDiu5Ys5r60 5ukiIuwRgp0p242KJzp1oNYwp0+BGDxP+yareJ2vbDJ063HqNiiKgx9jPo4bnJK0pB7JnrVa AxQu3NcdwoTy4BQk0wLDYkYpgSP8+DucVCmyETpTDcs/hlfEa2toCDItieB4vz1SzhnqnAC8 pL1LdVGKsOT1MqxV5+TJClbOJqhiXS45+/P5gHo9VUkByJNAGnPijGikxfvrVUX+qlspWnAR hKtetGhMo2hShC6PWjmGtLBgwwCMLCnMfMqSPXZEJ4wNnSIuIZpjYbCly0kQC51YNB8YbXYY 9YXiZiWJwjqZIOZoB3po3UsJwmTNDLH85aBqQqL3gMjJGWXY4GApRmxTXELlqQnJukF8/ItV wpwesWzuUa4+up/U2AAUn/KgiSiobAJ8do4q45ykmR7eF0mfKOPMFqbtKpvEkaig3v2OyU3L KQiK9EmSMKRK1J0eRlaO4j5bkfuE+2vct4/VEL2rIpUjfK0REmERwVm9CzfmwOqhug3yyHNS ybHftTyt8KHNMdCF9bqHvxIlKSODAyHLFGLGIQhAIxUIJIkfrgUjGAWdGT0gKWMyn8KAxHjY 5/MJebeXoNy4LEc5Fl0ielATDyAVTBpydBJHjDat+XpSkJrRBXioaILeRujzZrRYx5iZUzmY cN895TkMbwLZerEAGxRIiHhu+n597Pc8D3gHzHPP+/0Lthb+fD4Q2cN2ow98hw9LUmsu6iFp jJECgTWd5EHx7VqbCy9Y/sF6hmQ+DJaiBh9nwkSCUAP1d4JaD2hR9D4iv1JL7hXAfV1otQV3 7Q+vtSjJZkij44SbGcbsGNcIoHWid5c7tVYhoeSpxdnD42y7CogSjXU+GF2w8H69vIkyBjRK UR66FTnXDKme+X6+MDP8+vXLD9QaaIdrFf58/qCqCkxKdK984WtZSXiICOTBtjF2MffLI5cQ FDq1GMOOFhMcqrEZJNuXtbUEGq6P82ZDqQX37aGr1uZdveXNFEqqz/PMAX5XfFK7LokxNGrs FrlwRi6XYBnXXLj7jZe+YmIkThzr8lgTEk75veaEmc+KzWjJ7noeSTq5XKrH+7tAwid0BFQD k4vwqRdPZ5VlaOAMX3OC142bGI0EEsqaR+9DvFHmvQzJ6uM4DlS+lh//sR+KGSzqTlNJ3vsJ zFR8tzN8Up/t8iHE2K8lq0fWimVFUUU5DpyvM9wlLty9o8TfP48zFTcITduMNDKH/x2PEv45 GCr3fLjgum6U0yPZGAMzwGVDQ48IkeraUr3RMkZwALtjFsSC58sQi+TJpN4cGoxhy0gz58T5 OvNEU4vX+xVrUKM/4RGjxmYFDHMaVA0IdY/lw44mDyzLXMk0yI1DBhU5x0BBaCVjM+Of1G5R V0b+neWSR7LolYNjtZvoX1Hbj2ihStSsnptD9akxUBBAjAAEcPr2ml5GnceJHi4WpRa0GOnx 0+jzbe/329+fyDyQMum90TtuYTNjBIJt0BYat6NhzpiMiQ2Rm97soeyVeAD+vS3UNqXUbFZ5 vtd0zQAQ0WMf1ml79sz1BJpRpTWnTsmGzjFwNA/LopKn2IsFdWBaPR2SgRvdIw9DfWKy+B8M LoEWCMQc4Dh4YBsRULJPwQg52JBkxiTQM9WvYq4EkS5xwgMULidilipa0JSAh7bvv78uZAyd N6yHmmULGEoIOYBQyXQvbVzR4qfbQtVDkobRpY+eux2CZLNYZvXV0zRAo6XM762xQZnjyex5 Bw6hQYsuWL5nAWItAODz+WTlw/KrtSPWJwwJ1B94rTFd2n1zjTlQEBMuOXbmyqXaXHEjQUil 8CV0hPYAwIwQ3g+ItuFfCDCYHStbK6cm2b6kGM9RK7bcOUDeWU7UUnH37sCjNcgYGAylwYox alDqxIURVRzNczudMgReAvUYImCqKSX61CqYw+t5xMPjbPboHVM2helGQP7+3+/KMK3RHjWE piDCbJr0cHHXyg0y7hGz4yWnZnwNt82KVybYZIk4iHNAWGAS5aM85guMAwybHZ0hs5q0LBGf YKFglHYp3vHbLV4tngJW9xxfuWM1chaRJB+IxzOJ2TRKgTyP1VpjFmwTLoqCEhRmy+LQX6vU 6uLBYMM4K/bzfmfThbu4hMKVs2asrTkxS/BEJsxzqybiZxnFESR663BKlRu9D9LAJV8Htkmb DItAbvKJHUWcBax7ts9W4h/WzK3uUlgi5I4x8qGy0TTnQF9BzS6XO7fWkrLWulVAbGH/8/sf nEc0uGpBlRah3iVa52tL0AmAq7dAibR3jn523xgyvHwrScEiePGbyBNAMcPWm/misdukAQjn GBgAGmq+N4FXjYfW+8A///4HR7hfTezpVVTk5rv7jbLq7l3Hw2JbdU5LS7A5BjpGtEhrkhjs tEUx7OlsBjYIQaKWErUxnOyxv6d1iEnITDpYcwqXo0xFC6xZOFkMNyrqI7l/A4KziLmD2Kjs Y5T4DFVqhmqNh00NQSkl8JTTu9d1palS5nuWGo4UN1FAPpvoeY7h9iJRdtRaUnGy1oSWjc45 gTHngBaf+vQP5AskUZOyK5V67/WUZAnaUfP3/Pts2jDttHpEmIsIka1HF06McLviZ+Ks/Rg9 5VADI9m1tTRww8gSqpSCqs/+vWObaxla8+HEERpCd5wauK8rO4A1RqzdzqWGWcDMqmc5z7wH N6OeZ4PEO3ceZa543RrjSjQrsOLhgp547/fLxRl//iA0mp7O/nxReRrXnDDdu8bg2jg35dlz aJ6DPQwxVKVuHY7Ql43Ii07AsIFQtGTdyL/7HKCnVMgXxnPeWkYDpmjvGoy2JWZ/bQrOcWUH K+TPmzXk2FYg31DTJLoFtmhEC8pZstMHSEqXGelUJA38KHZkS5ORYLN5AIWexAYE0Yymvmhe Pq7prlJu+zKTBcxKJ6oIEmp8b7aBDxygOJOHCbHu9a8PRxQjyI1QhGBiJUoeNBx4DCLyh/nw 1hiAenPBhxZCTGgaA4Mxfivb/8wnQgKh5C9Ltwdgd5JWIPXXy/loXYY5JNMSwysnYvjw3FmS wHNmu5PfkZJrkitMuCRt8FirGF8I2OIOVz8/zj5+ry/cvM+HJkuoYbZ4wptG+hCmcrb+OA4n uoSKG+zPaAu6gBmb+DxOT38PORrLa4H7+/G787NWt7dsKMdGnwQkay3IDFbI9pCgBplB8EQO 28mSA6oTV/TDi1aUukuG9eDsvTZ9gQxfArIARZ4+9hyZxNyvzO2iSGWu5IPS3MRbYxftxqI4 CiVXAG6eAs2618Ry0Z5adSRPYfmQRdxsKPV9yzB6j3MjkMJU4aVZCa0CBnIwQdUroooK2CbH vCLYci+A5A7C8CAOKZm7+Cw4WnAgfrJba2n8YItGQ2uhItyUSFWuCRtUmCO6TpZdIBr7MfeR q94yp6j3sduH9LFJNEwhQahBdzNjuy0CnucYDmHbS7WEGwaAcF2M5gO2uwUBWrZqQYmTZQXi ll0PKRTDqBlsrJxQzV7+42dVfB6PLdbv9cX/+9//O9b0GcD/+I//wHV903uGX4TbZk6nlY/z 9JbwSaHHVuXs0jM2nHp5SMKLvnH10RjKSiqqlzlDSBIbuFLoCEN6lYl4npClSaKw1rO1oKma GTm8wJ10fa8APxW1Fvdqowgh7LmybBIXSNrQbAwAACAASURBVLKNy9SSZEU7MrSu6AXQCI8t VbZRiyqs6MNoRwNsbm7cv+vt9Wo0iuju8MzrWUMhTueyR/QzT0mmuQG5wdxGdWLATyBLX1YG 1PJrlGIMUSnVis/uv/dIU0sFdCuRyXySVqURMTfKCExBUH1dFwwGPc6sMCrlvcsW6qo55AdD hsHRt7ackxyqbnjrh3bkh6MNqFQPa9/PFxAfLzpCbjyiQVIKUPSx4EbQhE2UELz504/1Ix2M lAERS1Bu7eNEe2F0zr3+cdKAv8UfPiUTLGCIHYqyK2coj8FD1uKfP5+HMLH44ERIrj6fbwJG 9s3nvLx2b2wJ+/rfl5dlySbGOgyM7LezOiHhw9Fr70Xs+QMH4QsdPVvWCSL50LnbXIPmXDeH 3/rtJrrHeYR0hzvbmZ51rbTLatEypcT4vu7gtueD5fKRJdKITiTsD0fHRTNLH1fm+VIFGqUa U4mqy5Zaa74pIv3Q/XgiFjN85Zy9c5s0TubkePIIB6e1ICWwRU72BDESbhgkSOjpooxW8AfG nHtdX+R8m9DojwMLXgGlJ6/t6ZgUa84FqxENdW9Stod9Qsl9atfysfFSipeN953NnuNo+6Gf R9tcrRmsd7ettBJ15wvn6e6E13Wj3zderxekFthySvE8X2EKpJAaI0nTcL5e8bBLLgZJB1YN bJW21hI5k6C5vpdPykRO9Ycdr6MuB/p5v9LT1gR4/7yiN+5+8D4axHn3BQ3Cie7LtAh3VK8x i458oLVUfP58vPb9+cHohu/9hRZ1H/XVdnQIjoJhSMnDA/hG2mPY9Xn3rcCd0z1v3QNHQg0r LrMKmnUM965vwbmzw7aWzxQ6QjeMNVCq4nz9QOFp8PP5kzxAbaGfyoWIx8Mv/X7/wJbh8/3E rLM3LBBdqdf7heu63cCv+YNWreh94Pv5emcsXKSu68K62HlTlOKlV5ZBkVPZ3ED0A1bU5DuD AohQRqsvCivvVJ6638t5vpEGPGsBgzPsO4xqtEbpHskBhPSKK7t8YsOERghAwRiaTGbOronA KNowC6TuPYW5Ztb3x3mgRAMogTAsx8dbSM1hD8fLMPP3yoktPP9F00fW9CkIFUUL8WrNOjZ6 tBTwrzlx34DZH7jsyWfEjvMMrxaf+HDr7x3a+n3n7ltrQcbTOtNS1FCbCwu+3/7QuHnLkkwY GTimYIZ5Yj5PDQu6FFoLzJzIaK0miOm3X0Bw9zvHexCLx8YOF5upjjp7Ej8cQKCxIkM5cygn b1nFkHhReO5ek0g8nJ5vQ7eOVlheaaYjfjO2uNndtNgIU2Y2ZKrutiz59bVW2qGkgWJUIxBs HzkqZuZkga/JTvU+kiali8QMJGsjyiHxRV9z4oqGCPPPztWed6vx5gcJ/XiJcVvFjEF+atvX 2tIifQAuctWeFizynP8Z/eepYukRJmFIzj3JoELGamKNvbBaNULsRH01KCxSnj+TBQt+fD9s pq8IVQE6icJXbnoaK5NfuO8raOcSDKdt/T4Q4HaXrrLovBWvUyOlGLBk8yv8TK214FtWdulC IxddMFVoa4kWSb3uxS8PdFyzg7VizIbiSqmyCYvY5bVVnMcZk5wra0nmaP4SFWDuEIc43Qz/ M5SxJCjY+bpvH1Fux4G1VtimYI8ugaWgRpmGoJRnGhO51SltyXfkehr6st9ta0GKs22JMTiS RN36jMHMaKDMuXBd/+TrXB5Kd5cPwIpT6kCx/y+25Ewf7NQdaBgIriQ0A3ny45+1VFjD4xkp GSyBBLJOFwjztuqYfqMBjWn5Yl32w0JEiNqqNy7iQ7GdabZPp/BUSOADTMgiH70H+jVqXYlT kmwY5UmqsOAJKNjI/vwy5+4j6hAQzOUbkX9eQ7jg3antrliCzbuubxoi0PFh9R6mits1QoOv h0aXzvjf/Pe0MXXRRQhLArHnaZa9GQUKM6886IHDsK5FUYNLod+tqpsUkDjia13XjVpcdbRi U1aONPmYrjNhnJmG0XAg5qwX/qprecqdG28R1pBlDh2VKa02xMQrjXoJTmwDK3ed1tyxNhCa NA/TNNoV0nRezGcHb4YVd23Ny6a2r8VgmJ0jQGGEYSkFRSWj0LMtzBJzBe/OAzKnr5OFnDp2 dcquS6D3XfIVaHMkTcZS5IiWtGXkmzFZVEvBWprduNTDR3XAlNrDM6hRVoVtduTmSAtjGqrV fG7VQVyYB5EatU1VllBvXpdrts7zTEGCh9ytCffWJXKz+Jz2njeffab6tdYaroosM5DMCXMZ NXX3GDka1FpFQckw2sKJoQZzdl1uAnweR+ZoLsSzU0eWrEfIo1qVmrYerVenWQvm2J+vaMEq fjoHtquF+UkAp0tEBTb89LEN+vM+fIZ9RPSMh0hXSxoacYb/aAe+6/J0pzWp1bUMTfaka3b/ GDEysroZkxsvORZxo6EIMTTdbUdD0Yo+Oq7fvyHqHaTj5+3AJEIjc8x5nDAY5n1jTsmT4vUo 89nMWxP8FCFcpnoupkTfmYuwliP7lGIL591ceKCq6H2GiFNi8qO51eZ9x4CF4ZpXthfZD+fJ nOFR416yO6zDDD0mUWstEHXiRhay2rn77d53QrWspyt5+OjWuu1A7vvC0BEbfeHP50JRr837 6Ps+N7gf3hkmTK21HOoYfUSXMtwuT8cw388HqgU/Pz/+++sbh9G/dx/bWq3649leMmmlWRSv +sYtl/ufnEfUwZ+YnmzI6zqYt2rLsWUX/zUfK+rdQ0woNG1ZAkIRybZiKQVnsHp9DL8HxTQR 9bPRQH7+7u4ilZYfkCSKKC3yseMQd1p0qoJhOwK4IijbnXb8op8nReydP6AUDm2eoAqWCpoe +Z4A2OwxOw+BYzICyzgYUV4ZyGGU0LS7wiibEkDU5sH6lT3zR06BHr+ABVY58rMT0ddn44Hy oxTm1YLzdW6JMIItCwUm235zuNnP+/3C9fXZq2BLUVoM4KFmb/26fCqWH1RUcMb1FBRevs4T r/PMDhpbuZQmc8H8gXMDseUoYTAw4lIi3tw0saZm7uU1XgRT+3aqLdREALUEuJF2VARSwhpc kf63cwX2Ka7vK4Hw0xokUPbzoFkg+FYl26WKMHiaMyaJNNafVC4tVFemS3rrmG19HY0a19wy 8/r79+9E44DrvygVkvvG+/3C6B19dNTil83UuAxndM+1vXe8puf763v5XPpauGFoo2Ue9Kur dlNBVZOxKyE2oCgQ5LuX5kZYtmDdU8oSwSoLr/PEnDVPFx+62bbgIs2sARzzrrYVf4ekjAim rfwMpC2ZJ9ke9v3s7eEslZbBh3mil1/8fjeGYkByBo/fb9PTCAziKYBqW75Tjbl1f73i6t4x IOFYyRuoqHV4VgFsMwO0NAGqxMIznx6toQRnvkLXRf2YwfC9LmhYe7LUIXC4rxtjeivziJGl P8Fbt+pf1NY2sWVnbJd0LFsCTEY9zi/tPnE9MYXbaK/AGcQLflKATT+mCcDaA5drrLRXYTgn SqfCtwgN/LkRkcHWixt/6GPOuGvW11AfwMqvNPE2s8nTaXpvIq8SSpgcaliFeFSpMS5Oj3yR mG4122qiWLvkGMDIYjk78FT1VpZmY3YfAVJeTrsvvCG54V5zAyvqTnbQ6IlO2S6tRnrovdfy BWb78QjTvTEnPp/foFMVWMPzw6vz3f4MS6pNbC2oeVgu2qACmL9R4gvm97mmI+io8AoMczqA 44RoRgThwyRhoplb19qyLkYpgfrNDkOS0VTZzSsR5GV4PN3sm+/to0maUAe//ekcVKdDpRlm ewBiAd4/Pw8eA4l7yOzVEszq3BcR1L/oTdm1NHfGEaWPrfBiP8vu5kToYE0sAbJ8E40Ac9XF kSGBzkEK87z4H//6jwReY/oFgP5hS96akKI+dlz4eyDzlKiiPoYcqMb1hSD3j6y/IRRUkvQJ ykgFha8TNiVAKGJ5h4vti36oM2BLljJvg+EoB8bsWQL64ZH8fGaGWmPI05AeOvw0JcDwdV2g h++evbcYizpjUXbEM91VCm1V6R4GAJV3ftGCCvL/s7KO0MN7V4nw+yBKDGM823ZcJHuO1nC+ TtwSF8Xp9lkX+HUVbi1OAYHLoS0EiWwvOpBCAi8PZSXLFoK6WmqSFI41gudXDh5a5mJ/kDUX kzo8tkc3z+8aAAdF1PjvPj9BmEq4bQaxhIWcv/MbnEKd9KiSLOhsgj2Jw8+a/4hL+OjEnVeB mFc/93Xhef8MDR948p3+bkkotcAn9TwOd3gyw76NUSKPDKwFSCBE3tjEMoqCC/D6qWk5kcI6 1RUeEZJl+9tIaLdn3IXqLVTLm5VYwgS03pKleGD+x4766V7BDccy7oiZbBoapWRq+gUF9+11 8lxxN1xguvR5MSeHdHHalKpefyg1RJGigFaFiWWbd46JsQZexwv1aChWH5T0VqcKLHsBWy4V rpvROxhx/21rNWXhQ9xoiArdyDqZozwlDJRGWzW/7BAA6j+/f/uF9JAcGPB60U8YyxPvSWfS A8R34pgjbb5H3+yWwQl+zp0JSPgj0LWzZ5wK7T1sv8PQZ5m3WN8x8sTN4+E6Gjr3xApVSS37 5iU6aFCckSqXta1K8ySrwvoMxwzOpO+ZMna/fDiT4dHbyaxIskwiN0/Audz7JseosPGRiECW JEdATVwSR5HL7pubBMF/LJznsWt03a1mevHAADn2QbAwc8icTuHE89Zi1sEiD8dhiftV+YOl QqsPK5bqtfjqK2tzCT52jIkzQi61eFvwcGWYJR/NrtCK06RF3RBQDRUb5Nna95G7//r4q1un 8VCIzN1Z2g39nhKsFiGTr7OCmaSrNCScOsyAGbiGhj/G2y72CImzgVeaGnbpkbvrX4rbogWm 7GJari1vxeJXmcuv4166rzDhuNl230SWnGbe+vXmV0E7agovkmtx5F2zLGLPFXkyLE7+NhPw tLiAGU2FHifxQbm6/FkCkNVdG/OhT9qEanaGnhfOHHKi1hYIvUCq5OnhCT5fZ5ZFbkOCqH81 hRpsrSYPoT1VNCx/fJqmpf3XnDMwR82JU66HqVcArjwdOREkxb/3dV/uG1c0WMzHTBGPJLiM UUotXk3iT1t0t5tV/XOw/UswSj3CGsG3B0im4zWZyeu68qptijFrGswu2kvT1cCiOVKj3Fip lNmtO782m76u7eHTzoewzOKaKk518Mt4U+T1fudrEODQJuw8Dr+uikh97bqzlIKC7Yb1vFwg UVE0fgx77Dejhwiq1fRxmSM6aCJYIjlRi6A7ydoxLeT9rBFmWXOr+sU7JJ0cX1gCOCD6HGGu dMQFhTlnx6EObgsSP0ByDFT4kIVjJTBtpy8/ZO4nv2zlIQSAalEqjFCsknPmG7QYEXL1hQBF UIzmuqyL44qpcCzu953qF1uG21w2Rdlw9u9F8f18/M4w4ejzyLn2Ph6GRzHuc54HHGtMfL6f DOEIxGpATnKIqgsCIejHAc7fn+cLx6GPq7AlL8b1hyipRnGNmr92kbIfSHSx5py4caPMkvN6 tW2HSxJXftAlWck5p196H65TIki7E8AFkZNaAB4V8e/WQ7kkoika2QKL0OC3uOSg+Ps7Uxol tlOEJWlLkX2dhsVEidljMmRO9DhMZiudl7TQWHcLGJ+uytTNkZcOs3R8ryuaLTwFe3SYl84w MrSY+DQzfC+/mVmOMOuzMBhc2wuGIX2F5m/EQzjPPaVCbvq+DbCFwlJESNJosmEkZ2bU5K7p s7zWK8eU53anlgcLN4V+8ZK6+k2q6KajI8r2MXAeZ/QsvJfQ4+Tm2urrwWQiaWb2FHjyGW08 vIuPxEB85sv5XY0Ggy+Aihf3OXiQDYTQvdHILhai+Qx0XvJD10Y2T87j8NAUZSJVpgSJr9Bq 39e9kX/8d41GCa/LclBUk+Dh4CJP+79+/SvDMK4rb1m8pws45/D/ZmsB+jAO1s1NbIrXSZe7 d/AWRuZbXe7lupZbo/AyHsqxKLn2+YCWd9RjGSxAJbWAMwSevG6koEIQY2WxoYjvGaFYC1OR tAIntMPtv5/GixXiLVEPHVuLtWyERZi7HIkAVetuVETuJ6d9h1CvluLoXQQNFffloXuskXmL 4Avip7DENR5pVhi5TIo7LM6olyGSd7RI5G5DPCx4TgOA2grWksQH/lDZvtgLle+jW6rsOb8k kdL7nf7qhc0XBdaK7iQUemiGb+GcvgRzyfmxMN0fo+P7+eI8T5znywdJghyjts/99IGjuRD1 ur6AxcRRMGsarN51fWHLL+h5vc7kRwg0Dxzha++HFQDqmiuFdc8S5NmiS15cNsou2CFlRI2d 95lECBtzZvh01ismQuY2LKRDL3MhQSDFgQloIiHo8zOUPUbNsG7YDGIpJcPvCI6A1QLBJ29/ hu02L0Eb5+DohsXGy1MCplr+svf0nG959SdpbqJ8L1e94dL7nSYQ/M53uFSUWr1refkVYekb YPs+GIi7cdmDOKM9q8DXKNXAeDRceLGNiyCRyDxFCFStmGumbQaxEKfGr7bYbU0/xc54rTkx Vd1JMkCR38EWxrqhwqH/Cq0vERuqqJ8Waur2FZm+gUTVjQeEpn/zrxxJ8QV97Nl6HLHxPKoN rPUwDwjq1h9Ez05iidBrsg0CDY5tvE8/dytWJK4N69Cy/XtYHZSwHONVWvzcDM0acwQrvlMt db/uWu7kEQexBCGVEXr556vRE/j3P/9kE4ZYq7IE4JuSuCAQ4wIyrINmfvHfv98vAAnrzxiC kD0BS2UqHyrzPE2Dycez1mbo4qlQLZgaJ39a8MvMqQVzDTR18qdISSEB5+BIiBzHkSIOXiBM 7dqyFVSyg9f28NYhU0ezAAlUnqofG1lDA8CqKxlFPmxYOGPFTUzneUCjE1lqwbicEXTXqSNx jh8Wg6mluogTuaP4PTG0GWHK9M/h1VHVmlGPfrFA+MjxCmsGUi4cJ0Ic+dHn5e9fM4z+EARO 2oVridzX8641Dj/MMYDqPWYRgTTJ0LawKcsxB454OD4nR93dAG22SHDwJAHIkL/Wgs3wtQvu HGYZ+mFIeVG6QjNSFI0+uOaG/PP5JP+9L0OwtCR96t3pkG1j6/d5tYjjAoWs5XOBUaKxpHK+ wy8HIO6ZdwBdQfIGrNVV3GeeejiKRqdOv7jIGNojvPNB0xuO4fGZ13M+6/Gw2ZDgBMV938k9 e9niX+D1drDS746OnuSFd4omTNxY+GhHvm7SjHfkYvNvWKu3cHuoO7kg/Lw8Wc8uGSVYbLSo SHbi1lph84H9/WT3vL2Mag64rgufiGo0PL6u7+5AAvukmWHC5/vXmijhBLkqL9uVHBD5fr+Q aJ7QQYqcxev9igrq6dC1LdhVNPr1oUSmloEsoLjtaA+lTZ50XuImleZ5krlp6gQl0f4aUb9G 2C+RU5bue07Im/feIaJ4vX5Qa8X380UfHT8/v9Baxff7DbmyZBlDBM2T3ipPaHxhkSRqrPlG XXHrE+fG6RmnILl0QBCbI0qZMQeKlTAaavmZCVbdX36htBbukv493+836Ie71ggHqx3+uNhu 4u+MJeBpoYVo1P3bbwx4JXLdN46jOfFUDvfKu7y6ONoRYlLJVqxHjEgvKj4NGw0bH2o4AJUH pSvJ5tFvoG7N1j7BuqIWtgWF5O1+6fvidFR2o0goMGzN21UptTb8P//tv+Hn109OkBAw1lJR fhV8r28ySsknr5XkRS0V6zLMUKBIAhInkYqUHNiz5W3evOtNeEcMx3sE17zTduv1eqXbEzX7 bMrwgnqf53M3jdf7DTPD79+/YWvhOP26bvYRnpGEG2j0gaFhXTZjALKUSB0V931jxtCmRono VuEHfv36yc9vpD7NUsdYLS40DDJny8G8J78Cf4zefQyMJef//X/+76YxjmTLkismmXK+XiHG 89amT4TGsEOUT7bMP/xy6bOAd5msXHCWPQIk4wfDXzIqzQ85Ml9Rm/fXFKbs6ypq0KQ0CiA4 Qyw+yQwOLjIEOw16B2UqeJ0u+Lyv2xc6uPd+D9TWcsiAJ5mdK/rTcbLUI+WeeuXsPMEw17eF QMJiyIObnRGLYJZdtd3qDdfKqGg4g09rdO9s+uHyiwhXaB/6ZuRor00SnWUTCRi/8TBo1yAz FraVx5prtxtR8iKZ677zmmcHhw4kmPcplmhHA23C5twX1Vo0arq4JKiWCl4RShbQjCfU6+BD XVDR00w4RAvY1Cyv76ylQF8v5Ji1BN+wti/eGDNRP5tH+xIAD5/sGmo9UsFCbCFwtyppG2RW 21r663vlJia3nnTsw3lyBR4R+BRqqTU3We87V4swCW8CrFR9uHoFkBt5RWRoy9WZo3zRMB+g 7dYcA1jhLhFsWq0VGoiZNGm6PKfGzV9DQwRpkYdaqzDZzlWigrOdaRBA9oy8O5sSJTfT0y3K de9TfCiSm4pRgJw5HaXd9G8Frczrsta2/gy0zNN9Rik2x4xLi7ZRgMmCKD/jNgxcD+7gKaZg qXiE8gdGrr9k7U1blwVG1cAK2eOgJmHX+NwwpJ452fKXGvb7vVz2XDSBjkWbVUTwub5QERzn iaKK8QAsa8bNAVF+zCilqPmikyKvv+LDn2t53h/hZx6DkHOORNuyBB3OiPlNyYb3zw9qiUtx 58yTtebCWCPuUyth9b2AyJ0dA7Ov5AUYbUot6H3FBkdyBKxkiFXmmlhqu8UK+sL6XPkYPYGs AWji4MvWgsnf15uRfCpaoKfi5/WTHAh1hD6uNbK/oKqor9229ima2NTtyBTIFqzFBpt999rZ S4+UsEsaDsZZUJT+wKJOVnq/Ssim/BepStaGNp0G5K0NvGDOadmRlOg2vgVqfGC/4SCsR+K1 3+93WoYxQrDxAKVrNb3vEL2CuN9kTdzXfDRrJBCxAy3eweKO1G4anFajK4wQEOniulgaexqs 1ZGyAax/vXS9fBBBaWP+uFmZXb/Ju2P3HbMz1sOjWjB3wSUAm2EkwFSLK1Hi0DkvMLFGlNkB Rs/X8ZewFQAqb+2lRIingA8eJo8NsbKPTDnOCtRssaOei0C6lne89DtsryQuvysPqRJWjvEi TmRrvmGO4w3A++s95NlPy00XH9QElmqCme3g0AgEWj7Pcz/IGbPvj1NObYGK07G8ffIvilcU UxX6UP+8zpfr8rmO4jIwKn+3G+a+qKfMEiWnRbTwZtJd94VFmwfpESmQKXSOhXF9EzznEEU0 kDQ+ry3DEl67gvB7f5ZBWraNJgR23bm4XibtGwtqKbjX/GtB8iZDIOfJnmJFdzBuKcjfo0V4 XF2huWHm2pfgjhGjziJArYlkiXKpVnWh5EbR7C2TEh1rbO+8WpJRnHOkCQKiXuc07NGObCQx ZJLlomdMxc6nXD8CT4KrrZN3LR0tuwkuPcxvZ4mnPy3Tx3FwxHmzkXwd5yNCpBLlEllLguQ6 xnDyoHlo89ZnGP8X3YZ/9HOPFuiY3rVac+G2O9Fx3uy7YyFsSSDYuHmgROkUM++8Ofk8Ticj jHeP+Gn9fD4Z4lqtycKp+s2QEpz/6H4RTw2Kl2lHovnTx8ixKD4AbgZbhrHoQu0z+b17lzCb srYjwtNZOlAqqN0TdaasX9felKHu1SCEmJvHHUMhx4EzqF1f3119tMZZP6J4j1wCv+yQI2ZE +6SFYba7mIUHGajv1xu9d1y3+5O93u5Xfl1f7+5UXrEVF9XfIR4oBcum+5cJhfakQhFtP6/b B+07qtfvn483TEr0wVnO+N0lIxCn4ufnB+wDZ8khj7Rhhuv7Sapyc+wT970SZ6Tx4Q18/vwB VSRuN0JfG6RJ0d07+j3QjgNjulceb3AAHga/RfPmSH7X1irGuJMDYElFIUpVvx5U/FgmueV+ NaHnqwWlakStnmrhfbnRSCzAfO18hx+sPjpaHIp+OTGDhaS6K8UMXpc6TTjXSsClfWvbckAu wq3YvqLDp14iHwt70gt//vzJB3bF4jLHrbX8wri4CI8Inro45j5ajf8l5RISGgZESUNbkhmt zhGb8b5uUEDpSpKNtE13ucO6ewbQnMutxVnnsyRNEmkMrGAr15y418y/83q9MirwOg/vs/e0 Y6uF+kPW/2FHJpLsm49exWUI4VtnwReoKM6Xy6XmPfM7UstgvXuP4748fcTnqCNcEYvublLq y6JJ76KBkjo25iwRSUmPFoXM3SPWkBstF3uE/OehZGWHDbQGoWOUn/o1Fz5//jgRwdyldE2i gjfKqHhoLLVkSrZPS/HQvz5++d+a23q8PVJAH9x4Tv++2iskXSt7EmQZU7hhhlbiajvZpND7 /UqplJsuee7nhrzuC6oF7zdvi8DuDxhgkTosIgQ7mSy7COpcpuYbpIbnjhaFjY3e3+8Xriv4 AoZ3V4AW1AAvnG/mtVt9lHzohlC6Bh/cWsMYC7U6ZXoc3g7svaOWuEtNiP49xcxJx6SVHHm/ 3b3hPJxSbLW5fryPaD0ib2bkVd3U55NE8VJvotDlIQCTl2EryzhRQTu8NUqbNMBQesEV98Lu ZkfDdX8TcW/Dn82wiQok9AK7I+mpniPV6943XRDImbk3fGr9VKFwJRF7/ex3OED0n52R659l Lckmi3J1DL+nzV09SiiaJX+mEowwN/gIkT8hK+77uhZtt70040iNRlkVsTzf+Lpu3OtGNb9D dYZrIT1fvcngpA1tqwt8UoPiiNf5wtFWOFTtUSAgrrXUfXmuh1//oiItHspuvBzH+dfvOQrk U7I3jtbcCVMVV/jGfb4f4PPB8TqyF6GiKK0kGbLm8iFCIG51eLtsWfYleJkag2KVokmjLvOK gxshL/2LU27LQSX79CxBS0i07usOOtrXd0S7drGpE6PkXr6VbHdXnyer26TOaHsZdfrh7gg9 PFeP48BxumkBZdP9vnDJFVOvVK8u3OsOX5YgHZqrZGEITiCmWQ631+ANy+4Bx4vpGJY8nHP0 h3y/X5dZEiwxf7J0GWN32XircUHcEESlngAAFJ1JREFUjDRm0piHnDElIpgLyZAZDOfrxHme mHPiG6b9qQSKJgijwyyuLaA44xVcg3fKvLdAk8bsONa6jRpikwB+PTa/C1U3rVXU1wtj9H1/ zNoeOUe0gwkwU1+32wIujFQJJ+K1GTk/CRPr4tTkvvyFDJAv2p28rk/EOC9eaiDOORkIUuig WT5QfBl9eVmwuFCPVqQkFJ7S3jmX/12ECkZ3OZKO1nNrvv2nVzKCGvjEbGXIvKO3D0HMvXmZ d/ULbcXdaOZqVV57pbpNdgEfyFy2koSiPMuH8cII6DGmrbFOopxT22bCoeyIjeuUrAssPMLW UoHDv9lYu6KqraHkiV8P/KWpC6zuC+cP6LouzDn/QuSORveMGVt32acVpL12Ds8fpxMtss34 gFQiBfjal+TyfXi60qt9rLxGi+kHRfLEjDWyg0V9OYLzz/GoskvOgpBZBwFDRJvOz/BFJW1s a+EMsyP6sFH5QwR/tCPGnm98L48ajDq1slIY2UiZQQrx6s8jJm/oNkGBZd5uWWP+jA0ic6dr wb51YsTI+C3AMY4AgaG/yxlDEkZA9aLfF/84G+bU7OWWVZwPFslx5BVD8LTKoD0I7Tavy8HQ nAMom1RgKB/hL+PSJ5445DzbEVbkc7o/3KlH5kDWx7yQzy8CvLPnXF5lawJWzIoXer75Ip/v M2t5vt55HjFePAAbWCu8Ztby9DR7XshznoeH8ene67+v3wGkXBJ1xxw85+Zd31e42BCR9LFl 38IngJDg1OcLdNPMum+IJCcgAhR4+qM4pWjBP79/Y9nC63w5k/g68kBxIrjOmPumfyj9YkSA Ir4T6T3ee8f97ZjYDgc12o1XSHxerzNJFzMOHAKCPZ2iCKEgkKnBqUTOuDkreNMAcO6L6YWd wJiXT3EkT1hRHDiS9KES5smmAQAmOWmLUB3O0Yh27+K1IyHTCjvVOSa+60oOPE0GgjTiva8U RXJyNsegbOdtsYhQWMlKttriLncelpKRsMgGfHMMz9vmngItpobkFvTb8cToA8fZsvKIhOpT q5j7yuw9ixW5UML+S5DNkGkL63a1yOt1QuB3k6y1pcb0rWGDhCd3OzqvMBkIzXxYinEuzDGA v8f9kByLBE8QqeIp5OSI0t+TuMhNsSXC2P3oy+VKHL7Y4gePRtTslRq3JvbtInkcR+IMDhdw bo8tWQ/PMzxwHhcGmnMaugwwYg/vG3g6D/JpeDPGI1eN0tmyb0FSKTdcREpiLM6nk3qeOlHT n9Q2MiaJIkJxwR4zptjQ1sIVfd3W/Pe9dwc6X94i1NI5aU3BWiU449B8mZMi7IDNOfHne0f/ /vCrNebuKxcaC8wFA2e1DtAcj3mZbUR2vAi6aHnWWgtDvoJx97gio+Ln5wcibkti5mVYj4la LxGjpBozeYDXyw0TXXHDzp9lGXUHTmKZKaC1uGLJyhlBiZOP2PgWICiJKTgfcU86S4XTRMyg z+AqSql4BXa4IwoR0yC0AHWubQnWn2RBgK9SKua40h7MPeG8tnbU6cIH+V9GZsMWNOpOnsxk jcyH+6ncobZ99+/duN9HiRF9Ab/fRPUGbyb0rl90vOZG8CXoyvEdKSvmL4ZQgeDn5ydGox9l XTovbs2dEyVxZXbxcvW+u5epfEDx0ARwi7OISowWHJGqMceOLrk+dJQgihcAopwe5icP2ZfF JUjVL++lKDRTJely4YCFH15Gofr9fPF+vzO8uT21PxR7AIAc6o9OTzFlkzHfyHVyj6smS0Gr nvto58EJDIKUI66KHoFw3693FpSLTFeoTraJUQBDIHPqU6fPzVVrhZ2+wJRiVdldud57ujQA ePT7EYCr71xvBgl+gJIpgkF64Fe4SBMSNp8iOF+v+DyucjELjaH4Q7wfnTi6gbCy4HVpPRRJ zuO3XXDHOnLgwYC0KeXhGuETwI1vy1B9wX0xBYLSfDx5zpF50B0gXeVxR1k2wTaepi0X86GE EmdFWVJqgY1QaXY+IP/Sx/FOI79aLJ2dxpgJlshGXfeVPHQNR4zxHdnnfuay1M4HgZJjzpB8 YBR1skRMY+JondI8mAZGa+3JWFFFgV/BRTEjTYOe98yQvqaS5/lZqN1bY2GVlZLvlFpF123G 52qNymLN1+EG907a3/LxJwYi6zfnRGW7za/1UK9l54jSy7K0IuDzkwa//Vf3wKKX+lFixIm7 u6Nvr38lH8zWoe35qhy6EEnni+M43LxI9n3noC+yGUafWcrw9Ul/Mk1BkKCSZkMcmHy/3xnK mcpEVn6OVg/w0lvwxM2ZjR8Rwfqzou8QpWbkdgo8WLu746QkuGxxOd9Z/e47AOA07JSJvtwZ 8mnez2jsQDHSQIBWWrIBSLEq9Y4TAXzN162erzeoE3Pe3HvdHDBkyLzvnuYBtPWspbkFiD0u sRMNrZuH8TmoMG2ojbnV9d/H0dBvTmts2TFVoWbu1cZF5xgV61lVRb+jbRoNFCwk+GrtwPcT cqKisLlg4nPfzJW999yAgjD/i/DuFqEdd79A816/CtO7gbxJsrVt5usChhaNj+HhNXobiCpl Cx5cBXQcB677xufzB3M60cU+PDX7Uvb1Jv32lunrPP/yt1VR/Pn4IMZ93VFGuvjyewU4bQcq bbOBCBGDAj3B6zjzJAWczF2HYH1ac9UNQyt3O0UOxnAYC8pyhFXBCsssesG7CpQXxG6LDoop BTTdAxARY8yBeU1Y88XlqSul4Pp+YRHma2tBukz0PrMkXOL5OrBS1vyJDcpWA02VbNbwKm8B cqiCYZdrQGEHv0cSJZQ6B/JzC9JIqwEGk6YNXcCCj2OVUoDl5BAHL1xJ61HYFm+EXnGBwMD1 /aJz5oCFezbZhV9W0zDHBxxi+lKpWlmJGjnvldrzUh7lHlW04Z0ei5p98UC27sDs81oOdvx1 X20DSDNkU8QXxe85kxEmh/E+LHcYDXjPnNBgINq8qj4r/njG+zNGuaRRqlnkc0YqgWv6jri/ fNlKhQtpUZaYnNd7DhyIClppmMO7ct6s8cldpqKiJe1bS0i7k4ItJfBFaBjWQoH7yZZaIeQj AL/cyMybLgJUAjCWBa16O5QAkXotsJaMfCUWBvvhj2Jrl3kcCWJ9yyaIGG9Z3HNxvFx4UJ0K pAiR9p5sObLz5v306CBpdZPiR04fg2Xjws+vnyRUODjhnT3HKtT6+UbHA4TZpnJFcM9N4iDI EQG95cm3S4ZwsmtXv1Ku7EKRrYpV9VodQAI0Mme0bvO0OvOedi/BfDOO4ffAcE7BI1qU1Ozi RWSjtqCUgup3fUiWP6RKV9S4IuHzQsbnUU8DJT5MoASGR9aqzn0GgEPkaQsjH4RZQfVuXoAO jdpTBJgy8f1+IiqUcFcoj9SwIOJyaEASZEqUQ2vuaRW7LOfmeIuEiKZWfh92OkxEdBmBU0JJ yiaS8wfO+2ddH4GCB4PpzixuY5KtCeC8njd2DFNmDmIklxFWY79//4N/As8wmq2YE0hLkuAT VGn7UhPMUUjKGfZ6X7czVnV7mvJkIepvyoucz53o0r0JYguv1xsSwOvZ7eI8hJnB1K3rStiO kT7sfQDhGAHxxXJ17QXeqR5bJncTI1KqUiMipEkeNXwR9n7//o28Yst4mskT8KI+vq5laE9D vtldY2C+uYb4ZqXRAMkP1sAeRgn6VnruPMsrWq4YDEd1UosHjqCSNOx5vrIZxP/O73Gcj9Qk iK4ljRZaNIDuXL8ceny/3yFDKsF3e6ig3owz5GSTejRouGN7OC5T4UJ+mZuAp25OA7Dr1KKa 9acDpZrq0n654UApJXvbZtGUGMEwLS/lyESRMLHi6hmfKdeUCOcwf9S4nHA1hiVgE1Jmf53+ Jwbh/XGUXF3fe7Nd5XELBLbPPEtVZxp1s2bxgJXM3eJpltxYa0283m+cy3sVc+7+AYWOlqkp 7spboSA27y3Q9IGlaqWkZvQRZU/Jeo+793kjL0X47Cnf9w1ea+Eep1FvF17wHqmid0xYlHYT qkeAR3eXSBN621dr8lQznLP+JtnhjZnQ2mtJt2PvNcefmVOmiLBrZrjCF4fmPU/1aYb5YNVE vHp5vd4oqvjz+eyO1fIj59SoCzdhwLSFuixtVTY43l0+0rI2DYZ9rYfGoCjEyZrrunCeJwx+ B02rL7jZ4Z3CS4kcX0vN50L9QTtcCiYReZw5hDxqX0NtiiJh0dlnAI8AWqOnkd6YHa/2Dp67 JvFgsQP9Entky9DvXY1L74KTOc7zQfOGIXFEieP0MnCwO/fIkWMMzGVQUKMX3DLzPkvItcLl WVPF4syWs16931jTciCTYMqIUcRHh47zjLFpWpnOvCbcQ3jJOr+8zgA1vsHO0M6TYVsD2Wef nW3tiuM8g+IesGFpDjTHxNe+8XD3xE+tfq+7cxTez9emSV1nemlHiEYUZ9wCUR0J1r+ARw7I 2+4CPcX1LU7lfd+p+OT9Y4i/S4nPmA4CyUxxpInAw1uvHuJ/fv0Cx5CVlwB8/54oTVVqTMzS SYI18Jz+OThpkr32B9bka9mquMbl1QTl03ytiCg1xJekMt+vV7ZUKZT0FrLnzvN1Jsk0wx1i sOO1VrhQtBz9yr5BRC8qbocMaNzxBgBTHleVBphurfkNkhFlGcmomUuLVvv/aruWJbltIAaS ojQb2///o17PSOIjBwDNWceVQ6oyl9RWZcs7EtkPNBqANAX4ALbxFpJNSvQ4D0ioB2+FJ2hQ u2HlA+bnInzaZAZTcWldWYWquTZwaDSDhDzwHEBG6w3pXpz4GK2KUOB9NgsI+1S3u8WB2/sR WDOwbDbehzMhhyLsOsz+nOvHElJyCxjDpbd0hLcZfx07Emyky7piiSCuQhICXDxAiUM7xDpS oi5F9iC6TF3EjuV5K9HHwcVNL4AYUn+9XoETWFx4w1y+opbG4Pi0BjvWfTf3u7gF4y9gAoHb nKTqdky+HCR8gR5N4p95ILeMXTqwa3dtQbikT1WYrOm2zkoWRVMon36+fG206uEZNsa2xAgN sVpBas0DUvzsg+386M7EOqt+TpgcEpEty5d7C9WsokJZXcoppBSrTF7x3b0PMPU8UxHBcypK ub0T6ufvu+jhiGKR7TEHXaWVEGuIlx4z3CkduLcdbudyiE7lnevY9d4PjLFaID9874tjklnq ApAry+LY7RTpfxwPVIvxl4Km0MzFQeLORcVY6x2zFBylRKg3xmBK8rK34MPq3dLhUs4Sc8eH wr8PH7yxKmGkFGHd4+EmOVS3k1tlPZK1rZoS0Jt/3xW8WtK0lKfy5MzbC5Umcjo6+NJRxmxB 0lCnEvWHTkRIuQ4gOxWMiR8/fiC87JUqNiorSrCm1ggFAEJdwaNKV4a+taUU5NQUNglieBZv Bq0pyoxWHePSi+/rdPuJuF3cK0VsW294Pp88tVFgyR0qEWzI8DyfBWgRDDvVln08PhSFgD5a hD7i1eOLnrvtutJbuI0ZuR98zaiGK3nHAnY1Bw46SjTiI3vIrGCKQJS4mQaJUkrIw9s5OSLC cbAwzKp1+hgki6jr4NzDqOrAGAlziGg5utgzv2nODC0dEH7Nodk2OtsCujMiCqitGPwQIrRt oc3iP3QpH7Ir8O1mOETIX7W7oeQ7emxDs9Q+Yxi7r3vhBEmz8MSchgnLxkcR5MmXU039WPN0 /rsTc7JFumUmYKDFN94v3UhZFHpOA0orjJA9oNGoBRShvOLkGmL55HifP+lGA6gVNu1znTHm wLHvsjFhTeGUFUz/OZE3IoVDOADyel/ni/ZehsIBkCPnnDsxqc2iGwdNf1I6FK5n+ItNMHR+ //4j5MbC3PYascHSRJDgxGmPPJRLxjYoytPvHq1ILnrh0lJ9fDyCXwYA93wrDhVJRlpiQSYA MhdvgcOvRQtp0yUqSPTWgQ3RIvnldlBnhuQOUq7Zgg4UIZSYU5LdMx6oFz73vcJiTYyO+Qu2 YRcn6+ZaRGmmGZ3THMAsMyp6F7keUgHU4atjF5V8BgBk6xMvonoyCgBbKhwQDAzhwaI76aWP OSPcOO84T3dx4vdjR1EREgcGRohygDztrdLOnTVBLglHOaJFSynh+XzC7NcmSpP10B/7AezH wrDbrcO5oWQLFsiLZY5Y/zGJ0QVn2ZbXuF+Mfd1sRbJtBVu1MHH+Mhr2IbK0p4vgfd/RW8ev 5y+SL3NByTQAPl+X6gTXBVq5xsDdb6Sxhje+nd6vf72ouHm4n495u8CrsCXLgN5F0LEHiaS9 0d5r88nwBkWsESlffH5+AgAexwPfvn2LVSM/OI8VbVqTS1Y+ZjjyLtvVr6BA8R9YfmfGCGJu 3loULu1ueI0T+UpvXYTFeFn8TePq5sDBvm3k43tRwtrp0HerW0UqKYYmNhgIYmhCqEZAOfLL J4Hj0bEo2SklEUIRhaQ7JA+AbPbjbZoFA0/h/Mt0MCWOYKP9nGTp+ueP8liaegJhfLEYXWt4 6tj3bTMPLvpz/XfdJM7aRxVveiy2a0LC8/wVRd5m2Sr94ddFRQcjbsfxQM4J53nh9XridZ74 69sH1So0dQLWCg+XAo+IHsQDBDaobWn9jpz5fktYEzQiVWk5KubIbzxwPz9/rs5DdcdDKpkA N2y9+Oj/x90KJieBU9HQ3919fO8d93mTgCHkzHTs+75x3xdeZ49awWHeUuYAuB+nqPDulGWT gZBDV5TNxZO8qYJaIM0oUXNtdasczp8UCXQT7wfhKIAEfP76VDFHJkkfPZikpVBp6pYO6ePx 4B7YvSQ5r+sKsj4NfzjZa5MYATdbazgY2UnJ8+NZJhcce4+QTDVo9kduqdhKcVBTlTLsu1IE 0boz8cch2zAv65T2j8Pk7R0zYLgfXqLFHK6uVcAdB1PRbQh7vC9WZGxbigvkMN2Tlz5neLAk weUTvxkFaZ9+Kp968OX2zIeWXcLB8H5eZ4RUvzw7JQypJ/qE+OH455RkruMvKzyb4ZchN6u9 Mho2Z47Q+E7e+K+fXZZdZp2aL2+4d9lW//njmTOwqmy3N+4o/s+PMQynh4i2ii4V9V9//7xO TdY8kBLT1l3EH/7+vwGiqpIJi5wa3AAAAABJRU5ErkJggg==" />
    <image
       id="FlashAICB_Patterns_New_Pattern_Swatch_1"
       x="0"
       y="0"
       width="125"
       height="125"
       xlink:href="data:image/png;base64,iVBORw0KGgoAAAANSUhEUgAAAH0AAAB9CAYAAACPgGwlAAAgAElEQVR4nN2dyZLjSpJlFQTA wT1zk///dyXdlZKdXZWvX9GdAwjUgnEMB9cRvehlQ8QlggRggw5Xr6oZwO7f/vl/lsPhUFVV y7JU13V1OBzqcDjUsiybf+d5rnmeq+/76vu+Xq9XvV6v6vu+7vd7HQ6Hulwudb1e6/l81t/+ 9rea57mez2dN01TTNFXf93U4HOr5fFbf9zWOY2vn4+Ojuq6r7+/vqqrq+76qqg6HQz0ej1qW pU6nU71er3o8HjWOY/V939ri/13X1el0Ko7v7++a57mOx2MNw1DTNNXr9aqu62ocx3o8Hu3+ x+PR5n+73dp4Gcs8z+3fx+NRn5+f1XVdTdNUwzC0+fZ93+TG9fM8V9d1rc15nuv1erX/c465 fn5+1vP5bGOvqrrf7zUMQ43jWPf7vaqqjsdjTdNUz+dz01/XddV1XZ3P55qmqY19OB6P9Xq9 6vl8tgboAIUyeBTddV0ty1LzPDeFMHj+7bqu/vzzz6ZUOnQ7FiITot/D4VDTNNXlcqllWWoc x2aQ0zS1/zM5JsV47/d7dV3X+hnHsc0L4WKsy7K0+7qua+O8XC41DEPd7/em1FRK3/dNHoyJ 6zAMlIRjcXRdV8MwVNd1zShsYB4r4+IcYz4ej61vn7MT5/lhGIbNRfM8byb/eDy4sP0ty/JD UOfzuYZhaAI5n8+1LEszJtpj4BgI7VRVTdPUBG4EsJd7AggL5eIRy7LU7XZrxocgn89nPZ/P er1edTwe2zi4zt6xKuB9L0aFkrquax7me+iP75gbzkJ/7/FXvV5zU4wdBiNgvsjGehqGoc3J cqQN+kydDnjEMAwbIdu6lmVpnVrAGEPf980YENbpdKrD4VB//PFH8yomwiDmea5xHBsk+X6E O01TPR6PjXfyN03TBoVoAwFYoRggRsh1eD8wOo5jUwDwO45jCwt937cQ45CFUdAnBn06nep+ v7c50BaOZk88Ho+bezESxm5Hw3Cv12tDaOSILEAx5sYxODa6Q8MQSjJcJHTcbrdmfcQ2rkMp xFJbPZPAgBAk0N33fV0ulzah1+tVwzC083yPskAmzwevA2ZtBDYKK4LxPZ/PJlBfg0HYkBkb 3sV1eB+OBMeZ57lOp1NDCBucFeyD8AZiAfHH47Hmed4gD+hphVf9iul4TloScINn0MmeUBz7 TbS4l3uYhCEIJSMwexoeQCwFcQyzbgslOy6aJA3D0DwbRMPoMSrGy7V8h4fCYTKGel6WZcZ5 FHM6nTb8yIqqqtaPw4JlhLG/jbKr5/O1CZEej+Ux4DW2DgZh1ojFcI0t3dBEKMDrmbjjnb02 BYagiVc2AKAZweGVWP80TZtx4D32SNokNHhsGA4KBmlMBpk3Y6QdGxXtMBfGydi593K5NMMz u6dviC1yNG8gO0E+z+fcDIT5Wta0WVU1ON1h4rZyznvwhkMmbo9G6Hi7lctAgH+87O1xQ71e K4NFcLBglMDk8TaU/nq96q9//WsdDlX3+5o2OQzZeDhvSMyUFaNwmrXHF2yAzgAYJ54PsmE4 7hd5HI9jPZ9TXa/XFi4Jj6SkyYVAZYdRiCZzaI7y9z++N0HDcRaSYg8gJhGPLHgLiQmR9zLJ 8/ncoPrxeNTpdGpxlnada9pT7S0ImvEZMjFWhMlkMTAT0eQr9g7PB6WZ3GXYAsqRhXNwjAUj Nm85Ho9tnGnY9/u9hUnQk89V1ebtDIz5Xi6XZmRONwcGyuSIizTAwcANUc7jbWnE+ufz2QZJ 5yZtFq4t1sQDo8EwbACMmwNy5jTFyrOB+nsrPNMl5usQ4fhutCLEoFCUQX/0STgkYzLyGeLH cWyFKo/Dxp9wbgek7XTI4f82WQ/WbBgFuKLkWOaUCQXaSwyHZrcmHNxPqmOh+WBCGJ9JGBbv OoC9EwO3h1pRjAehmp/Alo0oXOsYb4TAIDxPahDIw8gK0mJgtG3nc9tZS+GazLYGLMepli90 3oyQGdj9ft9U1vA0rN/phUuuxNRM7RzfkhQZJThMlkwOMxVkvP6Ofm2YNirmbDbsWgSGCDSb oxhZyMuNYAgfRHC4hCySkl0ul6ZYSDVjpG87ZpLxRMZ5nt9Ezlblmxg4QrJ12SOAchOY1+vV igPTNNU4jnU+nzfebegz1HIkgdpDoLzHSuF7wxwCddaRyGPi44qiPR1PPR7HmqZtqsScDfMJ vzjX5+e57vdhk+M7BI7j2IgZ895LWx1m7bjuv7WbaRYXZV6Y5AfLut/vjWDgCYZKM3uER3hw GmFv5/CCjtMlj8+pDmPiXtpzSElPNqTagGjXnmuhrpWy6Yds+APpELiVw/dfX1vlTNO0WUgB GYFv2sxwzPw9b2SNAbfMjIqQJ8YgDLFpbZ44RAs4RKD8S+7M9VnhQuAozzGY9tKjU4GMw6to Lo4gEK5HAM/nc5fVO82zUYKKNpK99Gsvo7GRugZRVRuG7n5dT/D4CaV2wL2UO1PNvu9rcDXO scQDN5ymd318fNTtdtvEXLzrfr+3jggDWGzXvUu3l8tl4yE2Kqc1acF7TNa8xKzY3m+hmSSa aHnOLtUSW+2ZZsp8xkgyJNjwLVuUx5hZt2CFj/Gb2RsFbdj8a6NkXE3pjuX+m+e5pUtmjClo PNe5rL3B1zIo2v38/NwoFCHY4zKtc4yycQJjXsqEQJqpO1sx47eS3Af5LQZbVZvvUIjzdcfv JMYZCmw8zs+T47iE7GzFDgmcEz7Mx+ysQ8KUO0TJDIwODYEuNboNe5UViLXRDwbgGGWDciqS 4Qf2am+yR1CMMOQasSyIDBV7nrqXYVApTKU7bO2FJXMZZOkDA8778v493aCX4/HYlphpc57n t6fbI1EKA3GumIQOUoFxoAwLh4F7INzn9Mq8ISfq7xzvQA0LGkuHdQPXWbSwwAhppJkW3O12 a/PLSplRz8JHwJnOWvhWoJdbnctnZmNmz/cOP0ZN0MiLXo2c28Izfhta0ktQpGNtttF1XUvb 7AlWJoK2xbsNo9DeOYTI5F2rr1pLr78T2Ol02swt5+I5gziugbu+n+mT55webz7gvpM8pi64 l/vNm9yfC0rp6d0//rxvsCfZ6l5neSREuQ1PLOEplyeJVc5XGShe48lZeHgeu2tYcTMBgzGb /V4ulx995VxzNZG2nBszNs8HY8k2/dk1BZM9iGUWzLjPXMVh00onfDo1fTweb/aOUB2LnNZY GHu164xpvs9Gkh6b4SKXEBMeM5ZBGqlkVa07YAzntOUwwZyu12udTqdNoYN5ALMI2k7A3JKo 2TAzlDhEmvsY7UAQQmEaX/bvEq0zlZSbUXigSJCWtJd+cFgwTvEyvhEvbdUwYreNIvns/NP3 7ZFJ1qNpE28G4tOzHO+xfO8/yz7MB1yn8DU24hyrsxrPJw3axk6/ZCTWh9GS2A0q2OF82Jlf r9eWyO3Bsw3BVsYkWbP1NWboucDiCWRebkaLFQPdFgRW/3q9t007j7WXP5/POp/PTXBZ1TNC JMNOOVB3ICTRD+N0pW1v0QXFJNEl5/7+/t6Et2V5b+7k/1b6XkaQTmkj8ve/+hx+FEzm+V38 z92eFoA3JfLnjvEmhO+9aRkL6duG5vZQeO6KcRihLZSMx1s49iLHwPSGJGCn06nBLuPKLVYZ Cs1NcqMJjB05Af1Z4Kp679kfx3Fj7K5ncG2mbvSbyHM8Ht+1d288QAlV68Z6HwkvbpTOPQAE wsLB4/FoE8UAcmCp8OQFtlq3tRdXbelOnYA6I5jvt0GblKWxJdvO9HCe56Y0hyUbN4fn4Ro/ WYNJqWv6RpUMPyahjHOYpql5B9DlbcGOdxxYEYJkEBa2OzXhSBiiuGFl2HszHPjIWA28Ot7l egHCqaoN3CZRtPfkjh7OG7JtVN5A6W1NSSidvSAjt8tYHSJSNv7eRpTOaNkN7GY1+/NFtkwG 57qxoRVrZUIsFz4ej/r+/m6CNOM0bNpC+df97TFwGG5OnvutLMfGjLE2HvMCX+fijjmNjcSG imN4376Nj772EMIhxlue6e9wONT5fG5hjMPGkAST64a9ootLi179sULSkiBdjnOgiL3ACpvn uc7ncxuYhcCAvTPF/budBlu/YJD+98Ztw/KYHJYcplCI95hZSQ4ThnSqYRj2siyNdOLhIFGi jNNn6g44l2Hd6wRW7F4IwzCrqgY2NvR93zrAkhGg2aDjhBWUsL7G1kPbqMAEDYPs/Tb5stCt pIyB3AcEvkPTWMuy7hnPYokNzu0gJCvTxozxm0CBBKCJjZfzjuWM3QaViuM8nzESDJpsZpqm RvL43jqhDTawvHXx61k2Ypa/9KQNvww6yYyNwTF1WZa631fhMzCTLT5zL5MG1lCYCQnfJbF6 e8m8GQcE0sL0ipsNgTEljDvu20Bs7BmikEnfr1W8jK1Wpo3R8kbBeD19oGgXehzijCAeU9Wv mM6igvebHQ6HDYn7HYt2fE94ZvkxvcoEj7a4Bhg1mXG+b9Lmz3m9ITgNxt5p+E8ixmITwrUH Ww7OVOh3nufNCpcNyR5sZRjtMKy93UXIPZdbc0XUCGSdDUAMDQEJ3t9lFsuAEQ4TYpsP5MbW xro523k57437TMg5vNGB722cIFTG1CSMRhgv0QK/cAfXJLjeNQzfw/ysDK5hsYc6ByzeaRfK MKn1PGwEjutkV0ZIh4qqdYft5XLZrGZ23bsOMxiibDV7/2I5dIah7G3St4XZiw3HSWTsnSiT KtqyrCVfWDsvFEh+YUNF0YzL5JO2KETZ4LjPijWCZAhwWuWw4L1tjuE2QKdyVvqel3osmVmY TzC/3Dw5juO6tIpynNJkXmwPMoS4soZ30KEhzdCDwRwOh/bk5v1+b4qtqs3bJJwSOU9FMY6D 7oOnaIBTBD8Mw2YHr5HCHCBJFkJ3yEhixr1eEEIJTgO5zqlohkqnbumIJrZck/vq7VAtE7El e7AmL54sHVjpFpoJRcbARADO+brX67XZTWOS6Ro30EfeuldSRQj0Zw80IQJF7ImOz/YUC3Ke 5x+lTgzRTNxHEleg2nDPvI2eDi82DmcTtLm304jzy7K84d1kyEq1kg1DxHzOuY7t/NREJYmR rfl6vTYo93NtvCsGQ3T48IMCucBjhCL87CEaf7kpwqiUxp+CzLb30OH7+3ujIJZNjRQYC/Pg yIqfQxlhw+Q29Zfh81c/P58p2/NyvCItP+MUcE1RAms1e7ZAUEpCqIshTrVcEs04aYbt/BfO geBcr88VsYR7x34bv2O2CacVQhuOu17hs5Izs2AOydwdThlbGo5lYcPl2cLtaoo8wR5qITpm +lHYPYE73eB7PJXB9H3fXibkCQHnDhcoDG+xYhlvemrm2l7f9/m9tizsNFaPP4sjvtcE2Ybm ncZcm6HRpNboZMP6+vra7HE3j6rabhereq9CDrZOQ4C9Ny3fMEMunu9y4TD0+H7OeWOfjer5 fNb1em3snUk59anaPpSYfYIMxDjHaRsHQvVcU9CkavTJOSvFcyQMZuhjLztr/SZ0yM+Gj5y9 GIaBJQ+gD4/vfr9vNqNO01Tdv//razEM2NOdGzMgrMewZ+bpci0lwNzV4TZRCsbg9Id4bciz 8dGWYc6xHePBUMwF6DtRgr7JQOzRVrAXqByiWBdnb5rlQSjyGO0oe1mCsxMjkwmoUQRyyX28 C28TOu25HpRjVw7K5MXWbWhCiBQ90sOSlHA/LJq6vCfsuGavdH5tT3VRIskq3+fOmQwvHluS IgzH7Sb6pBJtTB5rGjRGlUjmuSMnj90V0N9yM0560BZQkhcr0jtDGBADBo4ch/AMQxneQL8W AtcYRjP2QYggL1698sZG8w17H+0itOQb3JvZjRGG88fjsS6Xcy1L1e12a/OzEvZQK5Ejd+X4 QA+0AbJ43J4v7/PbeLpTJaw5l/uS1KAc/2G9lDXZT+bcmvb34mS2C2nztc637S1GC0+Y8WQs d+UxlWzh/K5AZcUn2Xy9tpVBO4wrfLTNvBxKk1Pt1Tky/8f5jE604z6r6k3k3LCF6DhkT7AX uEGEZ8ivqk0cM9wke2XwCXl7TNqkz1UoPrv9JKHuC+NhzIZE1xryMBum3cfjUX/88Uerwn1+ fv7YHuY5EH4oKdsQ8H4rOENkztVO4PmBgPQ7VG1fz+n80zHRg6Zj4g2dEFPMDUhNTC7yoQMP 2BNlHZ4+7NHJI6xUl2ghg7lbxyEFgRo9moBiXznHXqroTIOxcHgevpdzjHtvLSJlb9Lm+rrb QP5+M0jzdCyD9MJB3yVBx0pPGnJiL0Pg87y+C80v5EWAjucJ0b/zeCMDY3N89eKPizIpaCsr lWLDQiZ78bhq3WWEvFi8MXN2WgUi+r09jHOPABqFDfveam2CaIPzyiHXNKUbFuiYnJA3KwJB aXHk6JwnPWJvHAJgwI6bznv90B4K9KPGafEZ//yKL8dtjMykMZdGkytgNPZWhw8bh0kVxk+b fb++En2PiDKH30F5ZgVWunkKCl6Wpb2yzXrBCfVy592iXLO2YVjfp0p8er/xeV21cknRMMNO DwZmg3Fc67p1dwkI0HXbhx8tIIRqD8KKWUN2TR4yA2kFrunf7VFXsPdS9bpcLsWmEyqJznD2 0Aklgnj2RJRrj7YjZIZB37yODOVbZob3j4+P1p9fbjCk9XLg9efzqaUgt9utNfx4vBs7n8/1 eDzaS+5YRmRTBV5PwQLLd5/mDAjATD7H5s/plVb2NE318fGx4QQYx158XpZ1zR7vdPsYufel JUE0UeReoBWlEvbMAxLSM2Ox8TPHLIbR516ooq+qWlfZaNg3mHDxf5Sa70+jDT9ZwgAznrpe jSFZmVivi0P2HE8SYXot3+GF8aBMw6xjawrb9QSTTJM9b8+y59qQTQQhp4zL5Crza+5123u8 wsZhlDWpS6MaGEx2yOC/v7+bUoEVM2lbHBa8l9Zh5bZYlLCnSO7DOq1w/3lBgXBkQuqUy8aW 80yYx1C8W9dI87sSqomwjYCD0OE+smBFe85E8rxjutPt5AzWV1sO/x//8V+LGbStDgsBppym AXfEYi/lpcXTeb5pEmVmHWAvZbGCbARc492vVbXZgWOPza1LsN49pTNuzy0JoFHIxux+7Vgg E05Stb4vLsedqEN2kvKxwlNm3t/X2LtJyN7KE52ZOFhRPuxpVqxf1odRWAg5YLdnj8q+TGTs ESY3hmPmZMgjFED2EsHwzHmeG6rw2Yq2sfg7DBWY52kX2s75plc7M/C6AHPymyjcBod5VYP3 LP8x4D2odbEGxWVMZaBcl9DlIkeSjxy0hWYh7xU39sgW43L2wFySNZsMWvBmxe4/EcmhkfE5 neM7iCXxnbGYCCI3L7ok4XU/TkPTuB1Gm9LtGWbKVgL5JmkY1m7hZ3GFNr30563VGJuh3cKz sIA1lGADImbxvd8azRhtHHl4J44NirTv4+Njk/MjD3u0jdj8wgbBfjieP8tdsszHhS7QhXTP BTDm7pcjZXimbRetqlR7R2B0ZGhjzZv911gaivV7XvayATzFHgap8l47e7YRI4mSy8YuiPg7 5gGkOnSYWCX8J7G0l7iAhLxykYb2vE7B2J0Odt1ah+C97K6RQyIdl2mDPh+PR1tF8+/izfPc siKc2SuOA/8hvpkV8jC+88n8YTt7EIaAxfuhBgsPyHJchyxicFTkvBXIAgTecj2beXBdxl4b InNMY+A8KOK0zJ7oHJtxmr/YaI2c/GsOYhnguVnv91ycuSBvHMJjynlXqTiDQFGQFfcuxqy/ z+Z4hVW/3/J8qvv9sfFeYpMH5sngGU69gH/6xqCcEhkZHJ7MH7xdKQmeDchtGmkcGty/4y6H n+oxiWTODi0Z/21kHOYn3iJFe/4/YzFqE+JsdE3pX19fG+YOzBCLPz4+Wizu+76VXDEEarzv BxZOLfYzAD8xaehlYCBG3x9qWX7uP7NXmtRh+eyuSUW4lpDCNeIkCcOb81oM3gTQ95s/uEZh 3pPjt9ezGEWI5T4MyOjmFVC/LSTTzQy5G/buZ9DHcWxxATKD1RAfvUfcxMU7Valh87IcFwkY JJNil4kH5tUzhJ31ALzcCkgot2ARJl5PTE6lOzVyyEpkoE9KzlzrdoxcjNdpbxpmZiXJcxxq LBeHCxu9vZ+j4cnr9doU5fkuYdQCSebs9MdWNs/r6724j/Z46BHFmEVj1YZVcw7GkcTR0O0x O2UDzRgf33PYa0zKGKcFbC/2fVX1g2gm1Dsl86tKuA6y6zUDo6VffmjjQeHmDMxvsGXRqH9X hOfJHF8YVGtE6+I+58UW57kmXp+fnxso8yYMEykf/kx7TDaVlXUC/+uqmNtzOxxercv+CHc2 DEIbnpZ5Ptc4FNiYkQEPaWI8mX/n61fs2SaG1s+AcL2/ysSLgXKOjr3P3bGXzqpq8yosI4bf YnU6nZol20sJJdxL2/biqtrELNfWHWoSCRgfSkyESSOzjAhvNjhkYoJrpWVJ2J7ptQLLD6MZ x2Hz2jHmZo+302S9JXVYVTU4+cdqzHQdy5Jd56KD42iSl2TdkDivwiGoqu0Lc6z4LEX6tSCc J5SQjgHlJnl9v74W3Dk96ahRwXGVg++tTBv7aliHqlrLt85suM9yygLL87k6BIaH0v3iRsM7 c6QAZDJcVTV8f3//iG1WnOHVCwFYjmOWnzAFMTzJZK0IPfmC4RkFpLdwPZ7s+rMF6N0+e/CH J5o1u/+9+O000GzZXovTmKi5HRt0js+HnzHwSxzo37l4cqNEENoZEnYS2n9HioA8/wQVDWfa 5F8YtNKc+zNYBAoRdD3AgrYBuXDCGPK6jO3MjZq1vZb2PFe+5zPyMAM30sDi9xAOGWThZQ+e zQ1s6M4CzN49Py9+kYlV1fobLlxgZmgGaAu1kIkx3ufmUmNO1hCENXKt/2+v2cvxh2FoxRsb o63cRJB2vYOXuZjPZB/OHpiXjZI+vdPXVUyXnjmQS3KNDI12hAx1Vdtsw3zCTkIoM79qP9Fl AkcH3iGL8s0C6dgWaQFhOMRtD5iY/vFxrudz+3NaeNDpdKzH47mxfFfZ0qjMDTgsqOQHGLmV y5FeaQ9KtvxOtVaPY5Oow00q2l67l2oa+vfQivE7BTRa2Mi5lmOgYVehXAHCWsxIM0ZwjzcC GGoNRTn5+339IT/vpXOBAyUfj8eWQs7z3HL8TMX493A4bEIIwvPGQq6lT8furEHY0Gg/iZxZ tlGCwwbjhyAyc7DH5r1ZX7eMMR7CLoefcWu/tWqLSYLi+GJWjVCcMvhavCC934bDW6cdNxG8 X8m1Ehh2l677zGzpRiWUZZSw0VnBHFaCFZveYwPzixOq1poG92C8mW4iFyvdJHKapk393Io1 b6Etz2svBDT2Tof26LTmhAcbA7HTSjeBSKMC/jjvV5XkAgOP+1oIhnDGmIsqWPWyrMuWhtqq tcYPxFooKVDLJfNjF2BsIPmokpdlvTq2R/Row9mJMwJ7PqVkxo3uuJ+VUnOL7h9/3pd8XNcP PDimWAj+TCzOuG9rd9kz0cF710GS9FL6cphAuHsxl0kbApm8jRjBOnzRFgZpYsRczX2SK5hj wOa5HtmeTqc6nU5NaenN9HG5XNq6O2Nz3McACa92yNfr1dbbrd8BK7RyEUDGsYQPW36uB2M8 +eQJMdulW7NiG5DHkt5g9DCsOwsAWvc2SbqQYkZuNLNBYkTM0QrYQ0hXBKvWUrVTNcKC0YR0 j2oli1Fm8OZddkA7C7KCW/1Quq0jU609FmlLo2OHCMMphIuJe1OEMwbCBIdjblqqBezNGBkf EU4ikI3KnmwZoLgsxJhoMU48M4slJlz+y13BKdecj43MpNpGzDnzpnEc63q9bsZdVdtfYLTA 02JyopwHsinAGMoSNlludV7NYWi34fld9PkHfBolOOe9eQjapMqGa5LmeO6iBuN3zLUzmODm +jfGzZjYZ4hcOEcaS1jhHfn0Y16DjJM3uF5BGDX6VkWebuuiIW50R79Lk2wgXAdUWejkxkC/ Y749jc2EtJVFmjRWe4iNA86S1UaTo5wP/aEUBEoq5Eqcr8twaU83CUMWp9PW6zEajozz/r5q TUWdctMWRC7lNHgQmULYuy0MC5xKVP4SIPfBHsmXD4dDIxdm+w4lme8bOfp+fSLT/aRAEbTb xkvsyXm4TRTPo0gQKsZHSgn02tMcMjFwDAUDfG++eI+THUDIbxiG9gMJOE/W+7tufaOmQ6SN GHk5tg+2/swjkzDZEAxfwLorTMDV+TxW1diWJD8+Pmocx7rdbhvmaoNp+aQm4JiJ8Kw4e13m 9gjZcG5ySTv2SJTrJV+v2uHF9IPgHZ48BtridWIYCbUGp7HerfRuq2qef+4sttIhmDYuyxLZ VdX6Hrm9gRuiEtrNeL13jPyayfzrX3/W5+fnJp9FYewBzxjrz2wiMPtOCE6PNWlBgPw9Ho9m bLk0SXuG2Xme26PJINTX11dLu0zGzEmQjZeOvbfNC1Uo2tnNOI718fHxY+EGxHIO7zE4tXU4 tdK7//mf14UvGCSePU1TIx3uCGs3Kji3z2JGEgmHEteGaTcHabKU3MHjcY5vpEAYCIG2/Duk zJPQ4U0TTiVtaPkuGQwu/wzbfh2IDYx52gAxFK/1IzucgNCB3LjHRgkPIgwN3jBAI2bB+biM 82FgxZAGnLI+jeLwcntdVW1eRpD5OTwAWMXw/G52p4uMHQHQhmHf19OulYORoiCXQY1UVlDO aS8TagIffj5F6sNpH/fbObzJlO/dH4fRI8fcfnaTyadH+Dl0rAihGeYdAjxYQ2/GOwSc92Oh EBAEQTzPIodDSxI0hx57vbMJ2jCs25tQmusQyaRNnJIEO3ShOAwsN0Ny3jzGHu55LMvSHg33 fJ3Kmss0pfMGib3kv+u6zU90ZNHAjNJWZ3bplMaTd76eRR2uBdqopV8ul7ZdyFCelTJXB8nz c7+9YdrKMTm1MTKPVI5DAimmtyYbJWwk5GbnA0cAAA7xSURBVOT+KVGHD8do1yEIwVxr1LPH I2Pmy4bWql975AzBnqQnmqkOHbhY4O9dFHBMRPiO0QzSXIBB896UhM8UqD3Pc0BArsM7xXJb NgLzHFi2BcurViwrwon5jrOBJFle8zARNFqaE/GZdgifziiQKZ/hKi4zD1iAmaUt3HnlZqWm 2/6SEBZqS0vPtoU6/TKEOT2ET1wul6pa69lGEYzEbTFpV6eYuJ+vswAxLBuQP9MvfROTQafz +bwxahdsGENyB4cW5/jIiPGZ61RtX6FOfST5TWZLIGdVrb/hknERYWDhVhaTN5Pcg0AmYMsz 4WIwjqUmVmbMtOUCi+E4ma+Rxn2ZpNqAad8k1Z9Nrrhnz6gcR2nDWQjG7NIrbdiDbWB8ZzRj HhhByt3G7HBcpd9a9X4yxz4jAR14n7o9wamXOzbDfyu2q2laX6UBOcx1Ztp3Hd0W7L688Q+F +6lSrrFAbSxWMghD6mYF2CFSuDYOqpDcAzIQx5/PZyNh3Gf4t2y8K8ksflnWN1uYk9ngbZQN 3iFKpCe8K40H4/ywAh6J8F2By9iPZTm9IO3yJgTnj55w13WtDJnWz3iqqj1DxhgwWkIVhQ6X TqvWTY8Wlkuuy7Kupzt8mFX7s7MMkzorZU3vVu/McZvkoXQTOxun4dxI7AyL7AskrdLbpVxw wHMNKYZzHxQOfI8h9Xq9NmUhALfx+fnZhJYxkXaTCwCh5hxOB02KmBMKwct8v8fDd4zH6wQI 0u0iH4cMQ71TMowQOWAgJsFGFdrK0Ohr+IFiG1eSZhdymtKBMyAyb05YM9EBArMqZkNiAr7P MchW6z3dvM7M8OnUBUFwJB9A6H65Yebqhn7zBV63maw798eZaWMo/h04wyrGQpUviZ4NmPbt xQ4dJroOq1yPwtmd43kMvsmMm2IIXoJwXTABvrBAn+d+KwjBmSCRVjFAYI2FCTgF8d5pFeOl PcM1Y97LRBgb4zMUGl6H4VD3+7qg4VIzinFNwgjEPXAgrrWnepOFUdTIs/Kgn78by9wtf3s2 NQBnWVVaT3ccMUt03ZcBOfc28TK5MPFDEFzrx5/M2Bl0160vKjQDN/Fy5oAx2fM4vyzrRks+ ZzbAKhcw+Xq9Wuz368dBAQRsQvt+E8d5w9z3/vUqoUOGi1f2dFfvHPORM20xn0QyHBAjq/rF 3hG+46g9x97togSDIE55x8jr9Wo/eenJucDC9VSVECTe6J8Ac6aA4sx4/Z0/G7IRiPuiPwuc edHX6XRqCn08Hu3H9SxwKxRi7AzDOb89nrlmmGIOOII3lUJCQcLMAOBBRia3NziHyzzQZM6E xzHai/hmsAjEMdDKd3EijSHDQZIb5/dZbbLR+V4TRee1IBFECHQzWXMRxfyAuI/noWhv/fK9 mZ4aMdOTPVcbusMRh9O0cVwXi/bqDlW/KnJYoV8p5hTNlSwjAQ3CcL+/v5tQvR2XgRqa8TTX yj2BFAT3YTBO7ZiQx8sY8fzfFT7wTAzI/AWewRo3RkKF0Ez98XhsXm6M8bhtIyljcnqbMR4j NhpgeIzFsF1V9XyusR3iajlV6Se6Dof15zINxSZMGZvs4eM4tt8sMYy6fcdgcwIEz0AxCCbq BQz378WXvu9b2KEtV8gYg9+kAfxjoN5QYWTyOcIbTkJY83jsJIZWK5g2vZ3LhmonsdNYDhiO EYKCjzdfuuJZ9WvnDELLfVx4MZ1StCHNMzOkSPK79WcGmEzVg7eQgNys7yPARAG34w2XRiwT T4czM197kHfdON1zTpzkKfcP+LPhObMaxkchCRkSv5kPhuxVSowRo/ObKvxY2cbT03oypmbp 0aGAjQgswTJglxHNfI0YoIqVAS+w4Ax7Vo6Rh0m6D99jT8JjqurH+Hw4TzdHAUVAJRs1fdFf rqQZRZi/q205XtDIRkT7VmTGeeTrUNVSVsOPlz2TONGwiRjwBIOEUXrXjCt6CMuDM4zj3XiW CzVAutk1faTnu5jCNRm7yRher3Un78fHR3Vd1x7OcGGDeaMkjOvj46NBqtNBFEIKCBIgR2CZ 601GXS103m+j5Z6+X9/bC0eyPmwUjR9YcHsbDfx2o6q1sGGIoiPDpqEtJ2ule1KGfjNi+qUW byRx7o7Q7XEomfBEiviOudV+jsSkKiEXg3L8hdmP4wrfiRRWlGVqGST67WU16YB2HufxnGcu VEx/wDsvlTX8GhLMUJ2/eoIWtgeIssy4ncZB3AzrXmSh7730jTH6vTVJOCFuLkAxR/JY1x1y R46XPh0+7IXArw+HHRNHnMCpsYtYmbpirN7rQBsczlAsI+SQdYiqXw872Nu8P8wKRjlekMGL SAn2SEoWRhA+//d2Jlb1ECiKQwh+l4vHuVc/4B4/eYrCHSOZM3IwMhhGPQePK7lMog2wbYfx /+kXqHeJ1/WIPM9YnOI5xCS3YSy/5rt9OIE4R6Ehq145KTzA6OCBWUAoxvDmgWE8IAE5suO5 vdpEKa2fw+mWQ9A73z7X/f5o1zpVMjv3QgdGh2der9dNGdXE1/wAo7NMMN695/+8DuBrMSxz pORh5kj0beLX/e+vabHV78Vlp1H2mK7r6na7bRiqSZRhltSD71hv5v970MwE0/MYH7EdKya+ OXaTN5OvIxTaxlMzHhseHa8JCczndrvV5+dndV334wcGILXMAblhRKz1V607lHKzBMaITDA+ MifvvT8cDnW9XluNgHlQJGovGrLAsUQ6hOHSgL0WJfCUpVMkW9bGwtSO4S03K6Zx4a0oLRHH 95BKcc7Gaxj3OrZRibFZ+Uk+Gec8zxv0oD1vS/ZY7DiZxeCZe8TWyOb7MDKTT8sMzkRW1FI2 ExKXTh03EcTvlJZxlXsd15NVe3CO+27faGBB5H1V25+Z5npDasZq5sOLi3yksToum7cYRlEk BoExo4jkBDiVw9fhcNjs2jGs931X0zRvshnDtx3Iu5XQj/U3mB1jmYa6vcJBnqfDhGbHRytr 7xrHS0OcCy72Vq9Rozg81h7D9i/g1qmo557hJYmoS7s2Ms+Je4FyHtS0MVkW3G952Aiq1jw/ S8Vcm3MwB3ANxggx+NXbFgqeTFyzkpgYZMdw6MnlwbVO62D/hnQP1m9uMqn0GPeEjwHQlsuT Xsr9ndLtKT5PyOAhTf/iEgfjcThKx2DOHgNz9/gPh0N7YNL7AjBiIyzXu+BlnrVZT/djsk6/ uMFs0WTIxMPslUk4RXN8Aia9esXADUV73mfB8p1zf1v0PM/t9Rt7iIOQ3F/+eT3f83P6Z6Ez N+7JFNSZCor8nZyW5f0rydxvcltVm6dWzKUcXuAu5i3D+xeSt9tvaQRYw6PxGHsUMcZEMEuO KADYxQPNwg3bXjrMHBmjRLg+PHb+XG2zB9rDfWQ85zvupw8cxfvPki/s/WUuj2xd9bPDvV6v jeJzoSjRzUW0eZ43P4Pe7oNMGFod4xGu4WJZ1h/aZdJGA7flmI1SnYbBbp3SWOhu09+DOC5H WlG0Z4JI296NmmiSRoOBvquWVd/f9x/e7xzZn50r2zGS7OJMRhDmwE9nc3hrtBEKY8oVRraC YexVVd0/r88FmILiY2F7lTG+Z+eI81wXasze8QgmjkXzvcmjN3LkQgXjoIJnhHDW4RTSr0Xx faCUFZPwSRuZ995utxbPUa7HaNbv8WbGgSLcL+ENpwFp92Tw9fXVEMeptR0mUafq13YpclvH OMcZPJ6JoCSs03HSsd+1dr9WjMn6DxYOmuCJe+HDXuG6tz0lN1ymt2W42mPuzDc3auTLj4we /v14DIy6AOPLp4RtLKCaM5DfzcF8ILkExmGnaDE9Gaah2vBrEmevxrMzFnIer8XqjQDs5sy9 9k5LqrZ1AFfcXPdnfLBiv+nBbTFG18Dt5VY8DgGcJsv24VjvcGYjRnZ2JMfwDJOUgG0URoI0 Ujss50HijafbKl1vN7ljkni3vStjuYmbvSWFiscSr7gWC0eRbOFyH24PoVgAZqqgyJ5i6SeJ lmOzSSyG6phdtd0mjmK8LkC48xgwUN/r1M+GsZemcjjs+Dtk42yMdtqrv+kI73bJEkFzM7CF whiM/4/AUsiOu5fLZcMsTUZABFe9mKwXdEx6bKj2DHuXrzG08tlwShhKdLPQGSuKzHtox21a CSBIrqQxR29IcSqXKWMaPjr4y1/+siHCVb9q7wjNlglEAW0oGQticPZCT9ReaIhz5c0hw6zX e955a6IJFn34nSqO40YF1ucN6S6X5nYmGy7CNaxjsM4UvD/AynXxxvJxqmYjs+wct03s7OnM OZXNZy/aOPQOLuJjrSiSyg5e6t2bfGcLN0vGq7y/zbl4VpQMw3gd8Zu28KI98kgbaYQujjgu Mz+z3j0yZ0TZi8nMgwOh7y1toszkBs52Mq57yxb9JfnLOViPX19fP8LaAHzuWZFz7az2MJnL 5dIgz0TMcdnbh5NZQsYcq2l7mqb2ZIm9G4LjeL6nLG8lMnR6exjjtmAwLhsG9YsMFyABc/fD hQ4XMH+u8WYUK9/KTdKJMo0GLG2DcE7/jGSbmP/3P74Xw10y1nw+3fEFpdgo5nluv9aQ7xq3 l5GicR4UYSImMF4ccTzFOEACFGAUYE3be+xM9gzjDjl853MJlbRzOKyrY94J5NTOBsB5o1+m ZT7YaEGbOATfO0SZKGNsJpin02ndGJm7LbjBxRKUmPBt78Wi7b0oNZUFwz0c1gk7v8WwspTq uO1JOcY5pbQBoCyT1T3oRFmumiXx47xJkhVZtaZyyAPjzNXMPByykqs4HfXv2BsRGSsPMZow tj1ynrwn5QlxjS0qH9RLC/MDA1zDkyFfX19F7d/xHQPknoyBqSRQwQpD0Ht7Ahz/vr6+NsJ2 8eRw6Or53P4Agj0y08hEjddrfWCD7/yiIz8/l+E0+7BBO41kTp6b7zcpbO3/r/96LM6NDY0Y hGOal+28wuTJ2AOwMMOZUykG5q1GjmUevAkk3zmNw5uJqTZC73SxVxgObbAJ/1YM55yvA7Ee s0vFLhrBNThvpMr2L5fLjx8tdCbgVDdTO8+L/59Op/cWaOfAdMpkc8ttHmmtCN0esBcLud4o 8v9ybAhK1+1a+//PB2sL5lRGvb2No/8Nu3RAqgKiNzEAAAAASUVORK5CYII=" />
    <image
       id="FlashAICB_Layer_3__Image_"
       x="0"
       y="0"
       width="74"
       height="69"
       xlink:href="data:image/png;base64,iVBORw0KGgoAAAANSUhEUgAAAEoAAABFCAYAAADthnCkAAAgAElEQVR4nK1cWY8jZ9k9dpWX sstru7vd+zIzPd2Zmc6kk0xIIqGIKAIUJBBCXMAf4I4fgFguuUXilkVCQsoNF5AggRKiEJFk EjLJ7OnpmU6v3neXy1Xlcvm7mJyHsjP5AH2fJau73dX2+573Wc5znqc6MBqNRph4+F/yPA8A EAgEEAwGx67zPA+u6yIYDGI0GmE4HAIAgsEghsMhHMfBaDSC53kYDAbwPA+qqkJRFDiOA8uy EI1G5ZrhcIjhcAjP8+B5HkajERRFQSgUgqqqCAQCCAQCUFUVwWAQnuchHA7L5/Ja/zr5N4FA YGztfO0R238kFoF/B9RoNMJoNPrcB3IznuchGAwiEAjIRv2bNU0TiqJgOBzCsiwMBgMEg0GE QiEoigLbtjEYDOC6LjzPG9uQHxhFUQSMcDiMUCiEQCCAwWAATdOgqqoAFg6HEQ6HEQgE5CAn geKBTm5/8rr/GCg/WP43ohXQelzXlSetZzQaodfryYIGg8EYkMPhEIqiIBgMQlEUAXswGAhA tm1D0zREIpExC45EIgiHw5+z8lAohEgkIuuihU1eNwnKoyzuvwIqEAjIpv2v+cFzHAeDwQAA xM1oKf1+XwCkZQIYe82yLJimCcuyPmd1uVwOiqIgGo3KU1EU+RyCEolEEI1GBRC64eRBTILh X5MfoMlr1c/B/L+ANvmm3DCvoTVw447jyHXBYBC2baPT6aDRaKDZbKLf76PT6cB1XXEbALAs C+12G4ZhIJPJIBKJIB6PI5lMIp1OI5fLYXZ2FqlUSjbluq5YL92O78l1E0R/GGEMngTucwD+ J643aVF8zfM8CdiO4wg4/B1dstFooFAooFqtot1uw7IscdtIJAJN0xAKheRvaC2O40BVVUkU juPAcRwoioJEIoFkMolz584hl8sJaIqiQNM0CfKRSASqqkqcY7ziczgcjlmRPw7/V0DRxQjW ZIaybVvcp9/vy0n0ej20223cunULpmmi3+8LMPF4HLquQ9M0KIqCqakpxONxWJaFbrcroBuG gX6/L1/pTsPhEL1eD/1+H6qqYmlpCWfPnsXs7Cyi0ShCoRCi0ai4paqqCIVCY/GKgPmz+iRI /zVQBMlvKQzMdBsCNRwO0Wq1cOfOHdy+fRu6rkPXdWSzWWQyGcRiMfk5m80inU4jHA7Dtm00 m02JdZ1OB5VKBaPRCIZhoNVqod1uo9PpwLIsKIoi1nJ6eorRaITNzU1cuHAB2WxWMl8sFoOq qpIpaVUEyu9ifrA+B9xwOBRUHpX+VVVFr9eTLGRZlsQlulmv14PrurAsC7u7u3j//fdRKBQQ DAbx1a9+FfPz8+j3+0gkEshms1hYWEAsFoNhGOIesVgM7XYb/X5fYluj0ZBN9ft9saJ6vY6T kxO0Wi0Eg0Hkcjk4joNKpYJ4PI6trS1sbGwgm81iNBohHA6LhdEFaWF0Pb/1MPgzpg2HQwQ8 zxOj8pMwAuW6LjRNw2AwkGA5HA5hGAYcxxEQi8UiPv74YxQKBSQSCczNzUHXdayurkJVVUSj UczPzyOVSiEcDqPdbkvg5+n3+32EQiH0+30J9NwIX/M8D5ZlodPpwLZtnJ6eilvrui7cLZ/P Y3t7G/Pz85IdY7GYWGI0GgUACfz+MMNYR8A8z3uY9R5Fxvzouq4rQdt1XRiGAdM0JdDev38f N27cQKPRQD6fx+bmJqanp4U/aZqGlZUV6LqO4XAo5p5MJhEKheQQLMtCPB4Xi+XG+DeDwQCD wUA2GwwGcebMGTQaDbTbbUkQiqLg9PQU5XIZV65cwdraGgKBADqdDnRdRyQSkaRAcPwg+TGh VamTNN7/R57nQVEUdLtducYwDFiWJQF1d3cXN2/eRLFYxPr6OnZ2dpDP5xEIBKAoCmZmZmDb NgCMuXAkEkEoFILrurBtW+Ig+RfdxE9USQMGg4GEhH6/j5mZGcTjcVSrVViWJX/b7/fx0Ucf YTAY4OzZs3IIpmkK5yK5nQSHT+5b9QP0qADOwEme4jgOgsEg2u027t27h1u3biGXy+H8+fOY m5vD7OwsYrGYZDdVVWEYBprNpqRxf0Lg56ZSKQwGAxiGgcFggFAoBNu2ZTOj0WgsxVuWJbTB tm0EAgFMT0+j3W6j1WrJITWbTVy9ehW9Xg9PPfWUHAYJKPnVJMfyYxEIBMYJJxftr+MIGBm2 qqool8vY3d3FyckJzp49i83NTczOzorLMBM6joNkMolwOAzLslCv14XTOI4DwzAQi8UQCAQQ jUZlgYqiQFVVoRUsifzr5Oai0ajELlVVJYt2Oh1Uq1Vks1kMh0Ps7u4iEAhge3sb6XQalmWJ dT+qvuO+mR3VR/moP5gzPZumCQBot9v45JNPUCwWEY/HMTU1Bdd1UavVEAqFkE6nZdPhcFgs qFKpYG9vD47j4MyZM5KJCAJBCQQC0HUdsVhMYhPjEa2aRTSTCmOZaZoYjUbIZDKSFFzXRT6f R7lcxp07dyQrsk5UVVUOQVXVMbD8Xz9XwkwCx/orGAzCMAzs7u7i+PgYmqZhZmYGiqIgnU4j n88jkUggGo1KzEmlUnBdF9FoFKurqyiVSjAMAycnJ3AcB1NTU9B1XYK0ZVnCdZjZBoOB8CHS BFpdOByGpmmfsw66Yi6XQ61Wg+u6SCaT6Ha7+Pjjj6GqKi5evIherydklC7od8kxyuC6rlAC nqDjOGLyPDnXdXF0dITj42Mx+UgkgieeeAJra2tSxJqmiW63i1QqJRbCmmt6ehrXrl3Dn/70 J/R6Pdy6dQvVahXRaBS9Xg+lUgn9fh+2beOdd97ByckJACASiYgbxONxRKNRAaXX6yGRSIjl W5YlSSOZTGJtbQ29Xg+NRgPFYhG6ruP27dsol8twXRetVgvD4VD4G8syv9EMBgME/T46Gdh4 0qZpolQq4f79+wiFQpidnUUkEsGFCxcwNTWFZDKJWCwm8Y3kMxwOi1Ty5ptv4pVXXkG/38fO zg7a7TZ+8Ytf4N1334XjONA0TUhjpVKB67rodrtIJBLiJqwATNOE53mIRqPQNA2GYSCVSiES iWAwGEDXdTnwwWCAqakpKXOYxe/cuSMlkGmaQoGYof00JhgMPqQHfvQYl/iHLFLv3LmDVquF fD6P2dlZrK2tYWVlRdySJst4QUt88OAB/v73v8M0TVy8eBHdbhc///nPsbe3B0VR8Nvf/lYS wsLCAgKBAOLxOLLZrNAE27al1mPMcF0X/X4fuVwOzWZzjMGrqioZt9VqSQFNkILBIA4ODiRD +ykCLZcxi/tS/VIEC13HcYSvDIdDHB8fo1qtCrtdW1vDhQsX0Ol0oGmavCl1JE3TUCgUcHx8 jEAggBdffBHNZhOvvPIKXn/9ddTrdSSTSbiui08++QTvv/8+4vE4TNMUUOjKZP+9Xk8UAcZN 8qFoNIpKpYJYLIZMJoNKpSKHxjASi8WEzcfjcbRaLdy8eRPxeBzT09NSY1KmJmMXoMhmSa5o ruQ6zWYTN27cgKIo0HUdc3Nz2NjYgG3b4st8j16vJ2qAoijodDp4+umn8ctf/hJvvPEGDg8P RdUk1bAsC2+99ZboTPzMwWCARCIhci/dudfrwTRNWW+pVML8/LyAwGxKKafb7aLdbmNra0uI 8nA4hKqqqFQqODg4EApBUEhoqaYqivLQ9fzR3a8QOI6Dvb09qfdWVlZw+fJl4VKUZ/0ZhwsB AE3T8Otf/xqvvfYa+v0+IpEIDMOQEoTE9NatWwiHw5iZmUE4HBb3n5mZeZhxPrOuWCw2Rl1q tRqOjo7w3e9+F88++yyuXr2KVquFlZUVDIdD1Go1vPfeexiNRrh48aKUUJVKRQhxsVhEs9nE 9PQ0QqGQhCBWAjQClZvz8ybP82DbNtrtNj799FPouo5UKoWtrS1kMhnUajUBafRZp4QiGxm1 53lYWlrCr371K5RKJUxNTY11Ynq9HiqVCtLpNGzbxu3bt1EoFORnWkc8HhcakEqlEIvFEAqF 0Gw2JXvNzs7i5ZdfxvLyMtrtNmzbRiqVwsnJCdbW1qSkSafTopnx4EzTxMnJCdLpNCKRCCzL EhFgjDb8+Mc//pm/KcDvu90uarUa7t27h+FwiCeeeALnzp1Dq9WSzgd5iOd5wm8SiYTEkIWF BaTTabz33nuoVqtieeRMuq7LwljzaZomp2hZFprNJmzbFl5Vr9fRaDRwcHCAa9euQVVVfPDB BzBNE08++STK5TJu3bqFVCqFTqeDy5cvY319HcPhUKoAKhCMi4PBAMvLy2LN8Xh8rLujqupD wkl/BCDlgOd5uHv3LsLhMDY3NzE3NwdVVaHr+hh9YDClRdXrdWHlnU4Hi4uL+Pa3v43f/OY3 Uq8Nh0PE43EJnjRzZiDq6KFQCAsLC6KWEjBqYqlUSqzjL3/5CzY3N/HUU09hb29vjCYYhgHg ob5F6ZkHous6yuUyisUiMpmMSDrxeHys/g2SMzAusbHYbDZhGMaYQmmaJhKJBHq93ljGYyBn vFIUBblcTnp1V65cwaVLlyS7sksTDAZx/vx5PPfcc1hcXESn04FpmiLZhsNhpNNpqQqazSa6 3a4cKimCruuo1Wr4/e9/j36/j+effx4HBwfQdR0HBwc4OTlBs9kUq0okErJm8qVWqyUHwHX6 KYPKwEWiyJhVLBZhmiZisRjC4TCmp6fR7/dxeHiIUCiEZDIpQhsthZkwkUjAdV3U63X5INZr jGFLS0vY2dmRIvXatWv4xz/+AcMwhPnruo6joyMYhiH1GDMX07dt24hEIkgkErh37x7eeecd vPTSSzg6OkKr1cLi4qJkZxpBKBRCIpGA53kwDAOqqqLRaAhXm2zHAUDQ/wItwHEc1Go10Zoz mQy63S46nQ5ef/11tNttqKqKbrcLy7LQarWgqipqtZqQv263K5nwn//8JzqdjgTmSCSC+fl5 bG9vw7ZtHB4ewvM8nD17VorsTqeDvb093L17F+VyGQCQyWSQzWahadqYZkQSmUgkcP36dSST SXzrW9+C53niZqFQSGIe41M+n0c0GkU8HpfC39/GorUBeMijeOq0KurTiUQCqqpidnYWoVAI qVQK09PTQkgBiDwMQBZMk9Y0DXfv3sX169cFcH+XZn9/H5FIBHfv3kWr1UImk0Emk0EymYSq qgKuruvI5XIIhUI4Pj7GrVu3UK/XpduSTCYlEdTrddy/fx+bm5vIZDIolUpCguktrOmYXMLh sPCt2dlZKWH82IjMwhdZ27E8SKfTaLfbSCQSoj6+9dZb0HVd5NVsNgvDMBCPxxGJRGSDhmFg b28PlUoFMzMzSCaTyGQyuH//PiqVCg4PD6HrusQf13UxMzMjTU9/nReJRDAzMwNN01Aul1Eu l2UzLDWYtd59913s7+9DVVUJ2ryGoYbeQ73JdV1Uq1WcOXNmDKAxmYXuRpPr9/sSC3Rdl9gV DAaRTqdxeHiIcrkMz/Oke+I4DtLpNOLxuOjX3W4X9Xodo9FIypPl5WX5PMuyoKoqZmZmJKA2 m01Eo1GEw2EAD/UvhoGnnnoKS0tLWF5exoMHD2BZFlKplDQuVldXkclksLS0JG14Wi/7jwDE kkhVqHg2Go2xpEZPGY1GD4FiETyZlagALC4uiih24cIFLCwswLZtDIdD5PN5FIvFsSYEN2gY Bmq1mpQlrVYLCwsLAB5Kv3w9lUoJbWB3x3EcVKtVlMtl9Ho9OQBd11GpVGBZlvTvVlZWsLW1 hYWFBbEGRVFE/ej3+8KJ/F0W6lyO40jZ47cifz9BZcygy3CTjAmtVguxWAyNRkM6LwQjEomg XC7LYtrtNhYXFyXNFgoF6c3lcjmJIVRLv/zlL2M4HKLRaKDb7SISiSCTySAajeLk5ASnp6dw XRfz8/PQNA39fh9vv/02bt68ifPnz6Pb7WJ2dlZkHsYdFsK6rksWjkajYi30DnaI2Drzxy4S b4IrFkUE/YJ7JBLB/v4+Op2OpFL24Hq9HsrlMhKJxFjXmGmWC+71elhfX0ev10MymUSlUkG/ 30c+nxfRTlEUbGxsSCdYURSkUikYhiESCXWnTz/9FEtLS7AsC5lMRmas+v0+UqmUbNJfc/o7 N0z/1PcZzEmaKS1xrIgPiVHUYfxiVTQaRalUgmmaiMfjEhhpgZQnAoGApOBsNivlT71el/eu VqtQVRXFYlGENHZLGIMomvHz2fZyXRftdhuFQgG2bSOfzwMA0uk0Dg4Oxjo1/gKd9RpDAkFh q4zElnys2+3CNE1MTU3JexIsEe748APG3hjdLxaLwbZtqQX9SoM/xrBQ5qjP7du3hYmrqor1 9XXE43EBqNVqodvtQtd1rK+vAwAqlYpYTCAQQK1WkxjX6/Vw+fJlWQs3TstmJ9i2bZmSYbzi oZJ8kitxvX6SSeFQLMr/YNOTIFy6dEnkDgY7TdOkAUrkg8EgYrGY1EjVahX1eh3VahWlUgnZ bFYy19zcHAqFgowAjUYjRKNRZDIZpFIpVKtVFItF9Pt9Ge5g8ep5Ho6OjrCwsCCdoEwmI+WU 67oSHnhQ9AC2xWhl1LUACMdjLAMeTu9JlpwEim9KRLPZrEgTLFf8Q2Ls1vJE9/b2cHR0hOvX r+Nvf/ub/M4wDKTTaWxvbyMYDKJYLMrnsc2dyWSEpuTzeWm+JhIJxGIx+XltbQ2maaLT6Qjn ikajEqP84aHb7cqwLGMRgVIUBYqiSGMXwNj81NiALRfLB1ks0z01G8MwZDqEPfzp6WkcHx8L QT09PcVf//pXfPjhhwIgF9Zut6EoCqrVKtbX1zE1NYVutwvDMCR1M0uFQiHMzc3h+PhY+FYq lUKxWMRoNEI6nZb4wbqTpUo4HJaAzPX7dTM2KdhmGwwGKJVK0o2hoknvkuQ2mfHIL8hiSTa5 YA5PxGIx9Pt9TE9Pw3Vdqew7nY5U4jRjaju2beODDz6A4ziIx+PC1pPJJCKRiCgVsVgMMzMz WFxclJOlahkMBoU2aJqGqakpaRKwcqA7UfNiN4iFtGVZ4pLU4Ch1x+PxsaQmWY8BloCwg0EV MZFISBVOAtbpdNDpdKQmDAQC2N/fx7PPPouDgwN89NFHYxqXrutoNBoIBAI4Pj7GH/7wB9Gr WIjy2pmZGZw/fx6apmF+fh7nzp3D1772NVSrVbz55pvo9XowDAPr6+tSPtHlSJDJ6xjQWV6p qipqCGe6GPsqlQouXryIQCAgrurvLkmMojUxpSaTSfFdSr9+sZ9om6YpKffg4ACrq6tIpVLS CYlGo2i1WiKS9Xo9HB4eIpVKIRQKyXgiXaJer+PatWt49tln8dJLL+HKlStotVp4//33AUBc pNFoYHV1VQAgWKwqqMcbhoFIJCIyD5MU5xs8z0O73ZbyjPFrctxaYhSRZErN5XIolUpCBUzT FHWTLsnpEwA4f/48rl69ip2dHTz++ON4++23EQgEpHZjzcjGJRdPORh4WNaYpon9/X28++67 QkZfffVVvPHGG9KzIx/b2NgQt6X7+CeM/SPUdCt/kzccDuPo6Aj3799HLpfD9PS0yMUML1LC +Jk4g5iqqshms5LJqCGzzCC5Y9GcTqfRbDZx5swZ7O3t4YUXXsDdu3dxcHCATCYDANJwWF9f x8zMDDzPQyaTQTAYRLPZRKfTQTgcxsLCAhRFwf7+Pl5//XX8+c9/RrfbFWnXMAxEo1F0u13c vHkTy8vLSCaTaLVa0nFm3QZAhvL9rgT8q6bloc3Pz4vEwnKGNeZn+IxPyfIrA2uv15NhjUql Ij03WuDs7CwWFhZQr9elra2qKr7+9a+LqzabTYTDYbzwwgv43ve+h6efflqGuhjjPM9DvV4X zZ2UghmM442Li4si8dy+fRsfffQRms2mnDyLdaog7Az5pSSCxuGObDaLpaUlGW1kK40aFgAo P/nJT342qXCSrZqmiePjY/F34GEhrCjKmIm2223EYjGcnp5ifX0dhUIBTz75JHRdx927dzE3 N4evfOUreOmll7Czs4PV1VVks9kxVs/TZ4whQAwF6XRa2mLFYhGxWAzJZBK1Wg2Li4tIJpOI RqNoNBpSrjBLMrH4u0z9fh+NRgOnp6fQNA2XLl3C7OysEGf/DKdkPVoSAMkaqqoin89jf38f vV4Puq6LG/knYDgTzgq9XC4jm82iUqngG9/4BkKhEPL5PBYXF0UfWltbw/b2Ng4PD/Hmm2+i WCyiUqnAMAxRKkOhEBqNBlzXRSKRAIAxSZjdl29+85vY3NwUosqN0d0m4yP5EXuH3W4Xq6ur mJmZEc9iQCczHwvmBMo/tJ7JZJDP51EoFKQjw/qKZsoZJopePOFKpYKtrS185zvfQbvdRq/X k1YRmw75fB7PPfccCoWC6FXVahW2baPX68kIdrVaFS7m7zvu7OzgRz/6EYLBIF577TU0m02x fMdxpKHJ2Sr/LSitVguVSgWpVAoLCwtCpkkyAUj7DPhMj2Jw4wRcOByWBS0vL+P4+FiKXWY/ ZjOatWmaODo6EpKXyWRweno6JtOy25FKpdButyU2xONxnJycYGFhAaPRSObNO50OXn31VTQa DeFz7Al+//vfxw9+8ANUKhVcv34d1WpVXNN/9wLvv6FVsr4rl8uo1+uYn5/H2bNnx7ozo9EI yWRS5lUl6zHlUzlgDaSqKjKZDBYWFnBwcIButyslApk2eUkymRQX4AKbzabwHAZRBu5SqYTd 3V3pzCwvLyOXy4nONRqNMDs7C8uycP/+faEPly9fxg9/+EM8/vjjuHbtGt566y24riv6frPZ FBdstVqYmppCp9ORNhgH3SgoXrx4EVNTU2Oyiz/w07pUvy5MaSUUCiEcDguNP3PmDCqVCkql Eubm5mRCjpsn8olEYky2oO5O5s0uNFUGFqm0ONaQ29vbaDQaMh2zsbGBL33pS3jxxRdx+fJl lEol/O53v0OxWJRJYEostIxkMolGo4FGoyEhhVSImXt9fR3r6+uiPLB25L78D6GffiLmv8lm NBphenoaGxsbME1TPpi8hUMT/ntiSCmYwWzbHrsfj+3xbDYrJJYD+RT9aJmu62Jubg4vv/wy nnnmGbz33nv44x//iHA4jEuXLo3dNsvCmIonQSERPTk5wdHRERqNBnK5HJ555hmpR1m+0ZP4 nqIe+Adb/cST9J4/r6ysoFwuo1QqQVEUxONxOI6DZrMpJ0aGzLqN8Y6xAwDi8TgURZE6sV6v IxgMyvAWCWMymQQAXLlyBTs7OygWi7h9+zY0TcO5c+dg2zZKpZKMMTJg53I56fgMBgORYSzL Gpsx2NrakmFd3iBAHY5fqZkDgPLTn/70Z5OdB7oi8K8JNHKnSqUit3Jws/5Km2SUrksNiRNy ZMocan3ttdegaRp0XZduLlUKdp3ZlWZrnnrYYDDA/Pw80um0uAg/m9bAqZZWq4VarQZFUXDh wgU8/vjjUovycPwjif7sHwgE/nXTkD8tUhqhdTAG2LaNvb097O7uIpFISArmPb/++1b8A2FU Gzk1x7sUuDEy8EQiIWyeZNSvERE8DrdybIf3tlDuZQzl+1SrVVSrVTiOg83NTWxvb2N1dVUs kToWk4C/CTFW69Ei+KQlsfj1z0JubGzAcRzcuHFDhjF4Cix0uUE2ISnasYHgH4ZgE0PTNLG4 VColLS+aP0ExTVM2RlcHIE1TNl0//PBDFAoFnD9/XsohxqVcLgfbtkVZZUwi2SSRpnwsPIoA +aeCWW+x+OXsgWEYcrfSzZs3JWuNRiMZJOUHsP3jLyFisZh8z7l0/+Gws8vXyJANw5DakrGT XR62zPkeR0dH2N3dRTQaRSKRQL1ex/r6Op5//nmk02nhSeSB/psd+d7svkh9iC94+C2NG6Cs SjNVVRVXr14Vkkm3o49T1mUDghnQT0DpWgTG72b8LA5W+NM2E4qmaVIV0GI5/7m6uipj2xcv XkQ+nx9rUY3FoMDn71bwP8aAetRFzH4EjaKWX4a5efMmCoWC1EvdbleyULvdlrKCRJb1GJMB 3cifnqkp+adzeQCTM/C0PBbE8Xgci4uLCIfDWFpawhNPPCGs38/dJq3pUUCJ632RRfEiAsUT 4KwlY8ulS5egaZpMqHS7XczNzYlF0TJIYhnYeQ9yKpWSdOx3VQASr2gl1MH8gdZxHNGrut0u SqUSer0e0uk0NjY2hHkTVF3XpThnpeAHChifYhEsPM8b+V3tURcyYAKQ2yAobnFWqlKp4N69 ezg6OpJTjcfjQkj93Vmy38FggFqtJsGZIDB2MF4QNP+/AaA1mqaJer0u0ozneZidncWFCxfw 2GOPicVwDbQmqp/Av25k5N4f5WFjQPHxKKAm73DwD8nzhpvBYIBCoYAbN26gWCxKkRmNRmUk yL+I4XCIarUq1/AzmMGYdVnkUobxT8eUSiX5m1QqhbW1NTz22GMyrs2uCi2JMdR/EH71hHuc dMFH3lPsN0G/idKy/LoP+ROD9fLyMlKpFB48eIC9vT00Gg3ZGGe5eaKj0Wisy2tZlgRtWh4P wXVdlMtldDod0aIYO9PpNM6cOYOtrS3kcjmJPZxYZnwDxnV0crkvenzOoh4VxP1u6Dd/Ls4/ LcKJYMottJZarYYHDx7g8PAQlUpFTpDxioDzZkiWHv4eXKFQkMxoGIbwunA4jEQigXPnzmFx cVHGlGhdtB6WULQi7oVWxDU9yqLGgBpNRq3/BTA+/aN7BIys2D/cT/C63S4qlQoKhYJ0ZWkR fobuXxy/NptNaJomMS+ZTCKfz2NlZUVuh/MDMfk9k4cfjP+EDkw+/i1QfpAmASNoBMs/l0Sg /JmPAbndbqNer6PT6ci/GGH3llbA+SQOiaXTaWmd+/+ZFoGi9Ot/+tk/v+fDn+X+X4H6oq8E gS5JQCZBI3DMrv7hLl43eTOhv6Tg5giCyB+fATL5pJsxdBCYyRGC/1eg/OBMfk+A/L+jy/kZ NcHzi/z+BPFFy/CDRivyq7DsAE+SRv5MoD9+rx4AAAAwSURBVPxlmh+o/3D7//7/R/1fH5yX 8rvnJNPn41GLfpTr+IHyW+Bk7PlvgPh3j/8BVQ8uGutDh8wAAAAASUVORK5CYII=" />
    <pattern
       id="Pattern_1"
       patternUnits="userSpaceOnUse"
       patternTransform="matrix( -0.894927978515625, 0, 0, 0.9064483642578125, 1009.85,243) "
       width="125"
       height="125">
      <use
         xlink:href="#FlashAICB_Patterns_New_Pattern_Swatch_2"
         id="use10" />
    </pattern>
    <pattern
       id="Pattern_2"
       patternUnits="userSpaceOnUse"
       patternTransform="matrix( 1, 0, 0, 1, 794.85,127.9) "
       width="125"
       height="125">
      <use
         xlink:href="#FlashAICB_Patterns_New_Pattern_Swatch_1"
         id="use13" />
    </pattern>
    <g
       id="Layer1_0_FILL">
      <path
         d="m 67.85,142.1 q -3,-2.15 -8,-8.7 -5,-6.55 -23.5,-7.45 -9.25,-0.4 -17.5,0.45 -0.25,-5.6 -1.7,-8.8 -2.85,-6.4 -8.8,5.8 -6.9,14.2 -1.3,28.15 2.5,6.2 7,10.3 4.65,4.15 10.3,5.05 9.75,1.5 19.15,-3.2 9.35,-4.65 19.85,-16.3 3.4,-3.75 5.3,-4.5 0.193555,-0.0713 0.35,-0.15 -0.467383,-0.17227 -1.15,-0.65 z"
         id="path16"
         inkscape:connector-curvature="0"
         style="fill:#769eb5;stroke:none" />
    </g>
    <g
       id="Layer1_1_FILL">
      <path
         d="m 339.95,249.25 -9.2,11.55 q 7.4,38.15 3.7,59.4 -1.85,10.6 -5.2,13.6 -8.4,-1.9 -19.55,-1.65 -22.25,0.5 -35.85,11.35 -10,7.95 -15.1,19.05 -4.65,10 -4.2,19.85 0.5,9.55 5.6,15 5.4,5.75 14.05,4.5 8.05,-1.15 11.9,-7.55 1.9,-3.25 4.55,-13.15 2.35,-8.8 5.55,-12.45 4.85,-5.45 14.8,-5.35 17.65,0.25 24.5,12.45 6.65,11.85 -0.8,27 -3.75,7.6 -10.65,10.25 -3.7,1.4 -13,2.1 -8.35,0.6 -12.25,2.8 -6,3.4 -8.55,12.4 -2.1,7.55 4.2,14.1 5.9,6.05 16.85,9.35 11.05,3.25 22.5,2.35 12.45,-1 21.15,-6.8 14.55,-9.7 19.55,-33.55 1.6,-7.45 2.05,-15.45 l 0.1,-6.5 6.85,11.65 q 7,13.25 7.45,21.35 0.5,8.3 -2.6,13.05 -2.2,3.4 -7.15,5.75 -7.3,3.5 -7.45,3.65 -3.5,2.35 -3.55,6.55 -0.15,9.55 6.5,14.1 5.9,4.1 15.5,3.25 9.25,-0.85 17.85,-5.75 9.05,-5.2 13.3,-12.85 10.5,-18.75 2.2,-47.35 -2.6,-8.95 -6.75,-17.85 l -3.65,-7.05 2.7,0.05 q 3.45,0.35 7.35,1.85 12.45,4.75 24.5,19.1 2.8,3.4 3.6,12.2 0.45,5.05 1.05,15.9 1.05,9.1 4.55,13.1 4.5,5.2 14,3.8 5.85,-0.85 9.5,-9 3.5,-7.9 3.5,-19.25 0,-12.05 -4.1,-23.2 -4.6,-12.5 -13.4,-20.65 -19.4,-18.05 -44.2,-25.3 -7.75,-2.25 -15.1,-3.15 l -5.8,-0.45 q -2.05,-0.65 -5,-3 -5.85,-4.7 -10.15,-13.25 -13.7,-27.25 -6.55,-82.35 3.05,-23.6 -4.2,-27.1 -5.8,-2.8 -17.9,7.35 -8.65,7.25 -19.55,20.2 z"
         id="path19"
         inkscape:connector-curvature="0"
         style="fill:url(#Pattern_1);stroke:none" />
    </g>
    <g
       id="Layer1_2_FILL">
      <path
         d="M 408.25,178.4 Q 391.05,92 333.85,45.2 281.45,2.35 223.05,0.15 175.85,-1.65 126.15,23.1 90.35,40.95 54.7,71.95 36.35,87.85 20.1,104.55 9.55,113.5 5,123.9 q -4.05,9.4 -2.65,18.5 1.9,12.5 12.1,18.9 10.5,6.7 23.45,2.4 8.65,-2.85 21.25,-14.7 16.45,-15.5 24.9,-21.1 17.75,-11.9 40.7,-16.3 28.8,-5.5 68.7,-0.2 68.25,9.05 89.4,67.7 7.45,20.6 9.65,49.35 1.25,16.05 1.6,42.45 1.15,27.8 -10.8,41.6 -5.95,6.95 -12.15,8.3 l 5.1,0.95 q 6.25,1 12.35,1.2 19.4,0.7 29.35,-6.7 7,-5.2 10.85,-14 l 2.4,-7.75 0.4,3.65 q 0.7,4.5 2.15,9.05 4.65,14.5 15.1,23.55 6.9,5.95 23.15,12.65 8.1,3.35 14.85,5.5 -3.3,-4.75 -6.4,-11.8 -6.2,-14.05 -5.1,-25.4 1.1,-11.3 2.45,-18.1 l 1.1,-4.55 1.8,2.85 q 2.5,3.5 6.05,6.9 11.25,10.9 28.35,16.55 12.7,4.2 22.6,4.75 5,0.3 7.4,-0.25 -6.6,-3.4 -13.6,-10.85 -13.9,-14.95 -15.55,-35.35 -0.15,-18.5 -0.85,-35.2 -1.35,-32.35 -6.85,-60.05 z"
         id="path22"
         inkscape:connector-curvature="0"
         style="fill:url(#Pattern_2);stroke:none" />
    </g>
    <g
       id="Mask_FlashAICB_Layer_3__Clip_Group_0__0_2_MASK_0_FILL">
      <path
         d="M 45.95,30.45 Q 46.4,23.3 41.7,17.9 36.95,12.55 29.85,12.05 22.7,11.6 17.3,16.3 11.95,21 11.5,28.15 11,35.3 15.7,40.7 q 4.7,5.35 11.9,5.85 7.15,0.45 12.5,-4.25 5.35,-4.75 5.85,-11.85 z"
         id="path25"
         inkscape:connector-curvature="0"
         style="fill:#ffffff;stroke:none" />
    </g>
  </defs>
  <g
     transform="translate(-0.007901,-0.0279661)"
     id="g27">
    <use
       xlink:href="#Layer1_0_FILL"
       id="use29"
       x="0"
       y="0"
       width="485"
       height="473" />
  </g>
  <g
     transform="translate(-0.007901,-0.0279661)"
     id="g31">
    <use
       xlink:href="#Layer1_1_FILL"
       id="use33"
       x="0"
       y="0"
       width="485"
       height="473" />
  </g>
  <g
     transform="translate(-0.007901,-0.0279661)"
     id="g35">
    <use
       xlink:href="#Layer1_2_FILL"
       id="use37"
       x="0"
       y="0"
       width="485"
       height="473" />
  </g>
  <g
     transform="translate(-0.007901,108.77203)"
     id="g39">
    <mask
       id="Mask_Mask_1">
      <g
         id="g42">
        <use
           xlink:href="#Mask_FlashAICB_Layer_3__Clip_Group_0__0_2_MASK_0_FILL"
           id="use44"
           x="0"
           y="0"
           width="485"
           height="473" />
      </g>
    </mask>
    <g
       mask="url(#Mask_Mask_1)"
       id="g46">
      <g
         transform="matrix(0.3755188,0.42814636,-0.42814636,0.3755188,29.55,0)"
         id="g48">
        <use
           xlink:href="#FlashAICB_Layer_3__Image_"
           id="use50"
           x="0"
           y="0"
           width="485"
           height="473" />
      </g>
    </g>
  </g>
</svg>
