<?xml version="1.0" encoding="UTF-8" standalone="no"?>
<svg
   xmlns:dc="http://purl.org/dc/elements/1.1/"
   xmlns:cc="http://creativecommons.org/ns#"
   xmlns:rdf="http://www.w3.org/1999/02/22-rdf-syntax-ns#"
   xmlns:svg="http://www.w3.org/2000/svg"
   xmlns="http://www.w3.org/2000/svg"
   xmlns:xlink="http://www.w3.org/1999/xlink"
   xmlns:sodipodi="http://sodipodi.sourceforge.net/DTD/sodipodi-0.dtd"
   xmlns:inkscape="http://www.inkscape.org/namespaces/inkscape"
   version="1.1"
   preserveAspectRatio="none"
   x="0px"
   y="0px"
   width="1712.35"
   height="407.6619"
   viewBox="0 0 1712.35 407.6619"
   id="svg2"
   inkscape:version="0.48.5 r10040"
   sodipodi:docname="k03_background_snowhill_03.svg">
  <metadata
     id="metadata275">
    <rdf:RDF>
      <cc:Work
         rdf:about="">
        <dc:format>image/svg+xml</dc:format>
        <dc:type
           rdf:resource="http://purl.org/dc/dcmitype/StillImage" />
      </cc:Work>
    </rdf:RDF>
  </metadata>
  <sodipodi:namedview
     pagecolor="#ffffff"
     bordercolor="#666666"
     borderopacity="1"
     objecttolerance="10"
     gridtolerance="10"
     guidetolerance="10"
     inkscape:pageopacity="0"
     inkscape:pageshadow="2"
     inkscape:window-width="640"
     inkscape:window-height="480"
     id="namedview273"
     showgrid="false"
     inkscape:zoom="0.22546729"
     inkscape:cx="856"
     inkscape:cy="204.15"
     inkscape:window-x="0"
     inkscape:window-y="0"
     inkscape:window-maximized="0"
     inkscape:current-layer="svg2" />
  <defs
     id="defs4">
    <image
       id="FlashAICB_Patterns_New_Pattern_Swatch_9"
       x="0"
       y="0"
       width="125"
       height="125"
       xlink:href="data:image/png;base64,iVBORw0KGgoAAAANSUhEUgAAAH0AAAB9CAYAAACPgGwlAAAgAElEQVR4nGS9244kSZKm9+nR zNwjsqu7h0uQ7/9CBAgQvCCxIJdcLjHTVZUZ7m6mJ+GFiKpHgTno6ZmqyHA3NVU5/AdR9z/9 5/9TEIeIABCCJ6eACNTW2VPEhUBwji5CrZXgPSlGBOF5FgBKraQYue0bf/z6ovXO//hv/8R7 x6/Hi+d1AUKKCQFKqaQUOHJmiFBq5/O2453j5+OF9w7nwDtPjIHXWRgM7vvO6ypcpXLbMykE Hmfh2BMxRH49XoTg+dv9oA+hi/B8nXQRbjkRY6T1RikdgPuxcZZCCB7vHFdteOfwzvO8TsaA LSWOPdNa51UrW4p4HL//+uK//8dv+jy1ct83Suv8ep0cOXHVyp4SOKhtUFvHO9hzwjlH650+ hBQDtXUEiN5Rewdx3I+MiHBejR+3nRADf349ySlw23d+PV4AbDlxlbq+GyJcrRO9PtNtz/Qh jDEAiHtOXKVTawMHOUf2lHEeWh84HN45YgzIEBwgIvQx6L1z3zd+Pl60PsjJ4R1sOdPPi//2 rz/42/2gtA7OgUDwDu89fQxkQBsD7xxjDF7XBeg/i84z+uDHfWOIEKIn+2CbwQEwBGrv+OB5 nAVPJacAzvHzeRKD5/E6CT5w2xNH1odHIERP8p4/ny88jhiC/V793TlFtvyJ97oJH+fJLWdu W+J5Vrxz/Kd//EbwHhwICec83g22FEkxgsCv58nHsXPfNwRhDD1cAAnIOegz94EMIQRPCB4R cM4TvGPfwAVHHwPnYAyh905KkY9jp4/OEAGny1ybICLU3rnlDDi8B+/0s2KOCQTa6Iw2aH2s RY/e88fjRfSOPWe2nNhipMuAIXjv9IUEz2/bjS1GrtYYItz3DYCv88LhCN4x9K+RnG6O1jqt e3IMFi10tztgz5FSO12Ex+tFa537vutiRU8fugkrgxQjr/MEcXzeD0bv/DxfSNLTn1PAO8fz LDyviz4G933j2DbO0kj2+WMIMXgA+ujEEDjyRimVr/OiDyGniPcV5xwfx87zvIg+4BnU1hhA sqjhvSOnxECorWnk8oEco/4e5yit0XpnxICIkGMChNY7DhgiOB+4Sl0bRkQPxpETX6+Tq5QV pUXs832iFP3MIbLWFSBepeIcbDFS6bTeeb4u9hwJURdriFB7g4pukK4/N0RfQAoagrsIpTVi 8HweBzlF/vN//W/sW2ZPiedVqb0Tg8fhEWlE73CADx4H9D7w3pNDRAQuC+UiQm2daKfI43jV hkNPQ06ZMTpj6MYJPpDt+zvv6UND81XqeqY+Bj/uB30MXldBEPZtwwFXrVy10YdwbBttDJ7X RQiOz9tBa53zvCi1MkRWyvDekWKg9cYYwsdt4/G8eNQT7xz3Yyc4xyWDbgdnnuAUk4X6pi/R OZql3edZ6aOz50Qbg/rSqPivn78YXTiOjZwCYwy2GAkh8OVOrtq5avtLhIm/Xi+2nNlSIHhP 6d1O/kAagC5OOwfFd0Jw9KHhA+eIQXPkz68XvXf2LXPkjMjgKmW9gBAjXIVaOykEnIMQ9TNb H4gMtpR49UFtlatFrtI072/b+jutNnLSDelKw3uHCNz2RGuBx6tYNNBwfdrPBO+55cR9y5Ya hJ/PF/d9Y/D/Pw3eOXwIfD1P9t8SMXhkCEOE7DxlNP58nYw+iH3QR6fURgqR4D21d5xzxCGI gxACyQcc8Ot1cpZCLY1//PZpud4RfKA1fUkAPgd874i81zuFwNX0YF6lsqdMOgL3Q6PgWS7w GmWc1RpD5gvX/45bymwxEEPEBYgp0nvjKp1nvYgx2k7u9OHILpGChkPnobVGTgk2eFxaOD3O Cxmywur8MAFEBs5eCgJX7ZSq0cbljLNT2Hqn9kbOgfu+kWLkvC4eV2HIIMWAWA4D8Pa6am84 9LSJ6Elqo9P6YMuRHDWsvkqh9s5ZClvOHPtGa42rFNoQvHMctkHmSTmODY/jceoJCsEjaJqa YdcHj/MwqrBbvj5SxO8b0TaD1E6Oic/jYIgwZDCGo1hddZUGTr9D653gPT54sqUL5x2lanq7 HRs5RkJwnKVqihSoYVD7IAZdp+A8ghVy90PDmXNasAUHwUVq6wyE254YIpylMiNEG4PWOkMG 2OJ83A6cLeZplTEOYozIgDF3fggrh87d54AYA1tK+gKthqgWdfrojCqcpdF7p3kPbtDHIPpA jJHzKtTWV/jsIsQY2bPnqpWzNmrr6ySX1kGENoTYO2FGki50GXh7oVtKlFrBwZEyrTVK1ZO5 p8hLCjJYYX1P0X6XHgYHdOfW5hxjgIPblvhxv/Pr+dIT2RqldXIMHFviqo1fT63Oc0psKeBx 1DHAeX7cbzinXdcYg9KGfk/bpJRGToFkzxFjZHR9L7G1pi/ce/CeFAIxBLCK9izawoh+V1LU 9g3AUg+vq+gJHcKWEltMvGrleZ7c9h1Ew6fH4UPEh8DonT4GH7edlvQE3vYNb+3gbds0XMZI aY3zOumj42MgBkdvg9YaW4psUVu12ir/wz9/wzvHH18PjpysJYr6TE4LyfMqFrkGbgweV8Fb exi8Y4uJEKJ2KmhVnGJchWuKgc3aruADbeiGDiHozzn3LRQ3zqswRNhSpI1BKZWrFF5X47Zn gvc45xEZ5Lzxse98nSev82Lbkj5jStTeeTxPnHd87Bs5RXrreO8RiwhaAFeuptV9bQ0GyNA6 DMD9r//X/yNa1AjeQQqBEANjCKVW9pytz2z0rie7lIbwrrD3bC0KWuS9e07Pz+dTd1kbiBPu x86WEuellfR939ZnnKXS2yClYPmoczu29dnBe0sp2mUMEbasRd2zFIJ3/Ha/02VwXoUUgxah beCdnpjgtSbpQ6PI66or5jjn2OxZRPT5a++IRkVi1EJpWOoaou1rCgFBaH0Q7MQjGk1C8NTa aaId0b5pK1ftBbQu3PaMd46zFFp/p8U2Bs/nye22a1TqwpGjdgSWp2tr+BBorTGGrtFV9Xd/ 3nbE0u3HseO943UWohZanuC1ZSmt4+wLzdwKWlW3Lgh9Rm6rbBNjCGet5Kg7MobA1+viz+eD 3z7vxBjpvXOVpn26c+xbXi9F3jUGfQxGEXCCDHi+LnIKml9t87XRwcFmaaKPsXL6VSuC9qil aoqa37fUTowa8rS3NvjAPnsWP902brVT1On0bv8R0ZTk50bxZItUZ608XtcCRubLTyngu34/ a6e1eI6R2pt+Rh/fABSNGJt3/Pp60vtYABDAQNdmiL7kVhtXbRZtIEavm1PEgCaNUAxdl+iA GAIhKGBSa6N23dpzt03wInihD4dPfv27szZyDOwxrX/We2fLgS3dEcVC8N4ToqfUvnJiCH5t Kq0nHDF6ZGg4nUjcSsS63jj8+3QCAxSUQU9Xip49JR6WdqLzFtoVACGCw9FFn1cXR0GRCfzE qC9N269O76JRQsRCdWKMzuvSHOesQ4jBL5QtWR6NMTKi6Nq2WZiBD46vr+v9bAaOOacvuIuQ c2ZLUTuooMVYH9pJaKRQpK813dDBZ1Jw64X3oZupNj1wvQ/iaUWKc0krvBhxTvOdiIas6B0p 5LVjovc4x1+KNudABrxsN962RE6JP7+ehNbZctQes3WeZ6EiZCKtDXpXUCRGr7nXQ0r68947 7YlLQQSDgL097CBFr22UpZezNkKIJK8bbMtaWM3vPno3sKTTRiekCLXrS3DzNGrVvyUFP7AN mWIkWgT0zjFQGFfQ1ASwW8Xfu3YlM/KNMeheMQM3Ow3b/LNNnmvWRXieF7VU/vG3T1IIlNbW qdVTAjlGugjBNy4P0SsaKWBpaHBVjYxShD1HBZ2u0qilE2NdO3tuvD6E0QddvIIePiC9g/cz GpPtND6e3frhQEqB89LefYxB74PSEj/uh6WN94nzwa9Cb1j/P0RwDYqDgGN4D12hRmchLcVA 7wPnHG71odoSjt4R53DerReAvXjxnloqrXWcQzF6W3QXAr01zYmGZF2t40TRrhhncacRxvtg GHujWVXrrEg9S6PUSvTeQrJGOwWMtHWrY/Bvv/3g8TqpvRGDblwxACsfOzlFizR9YQetaWsX U2TzGqFSj4zRaa1Rqx7aIYMU4mqDZxqNs7ApVRGfLgpEeOcIMSDWygwReingHH4MglWuX9fJ kGF5LRGCs+ofcLK+gH5GX4sXvSPnjPRu/fsERxSiFWGBFDFG9i3TW6da1Z1iYEubRZ6OCwFE 2KIWOcVewlUaguB9WzlWRDS3R28bN+G9ppruQBhIh0uEz2NnWNQToPWmLVrWDfAqld47tqT0 UqhNfz7nxNU6/ht6KQRNK61pPy7DUEhnfXnjeSkCuefEWSq1Ns6iRFdOsorPZJuwC3jA+UAt FwM9GB4tHHsXrloJzmn383k7DFa1U9YHTTRHaqvj7QVUzWtBe24xgqKLEH3g83aQjMHyPhCD 1zZjDOvR9UsB75DXO802SO8dMVgyhrCwAREhOIeEsKLLanptqefp8iGQc6TUxlm01qjScaKo XWsKd8bg1yI/nhe3YyM5LQhbG3g8BCshxliVeZdKKYqVbz0Zlu7pTWugEPRzvHOEpLjDxMVB 9Dt0XY+zarX9+88HDseWE8eh7OYsPocMXfemp5YBXbyt+6AUrRE0rUS813eSQlyYR3SO7hVV jTGSWyduKa0WpbbG66rUpghZNqABoLSK2Fpr2Fc68u+fN75eF7+eL3JM5BQIXguRX6+LW87E FPHAWSu1NfaktOOv54vf7jec9wtbn+3KEKG1rrSgCOd5IQIxOJLXjfi6FD0LTqPVloSUM70P aq1sSdOVdw5BIw0DQlRMoVjUmKlM+9tmeIIWS1frthE9wU6WayyS6Ngyj/PiKg1neD8WuXo3 yNk7ZShtLQdC9I6YMt7vnKUwhtCqQsa3TYmiPSelinOAqns9x0j0nqtqBEtJd2cIYUXJWTVY p6lROWiXUVsjnrUQbIfgMAIArqtSSuXzflhFPlYRjQEZfQgdWXytDD15z+uiWr7Vn9WwHb2n Cvz5eBFj4O8/PhWkMXQvJf0epTWa9ZwLOzdCxntnYVa7gNY7OSXux8YYnZ/PF3uK3PZPnuel ESZ4WhuKh+OI6Emnae+NaCM6RIuhHDWllWYYRIg8zhNpzRbWk1JUXGGI/jOv6FgbA0S0DQ7B SKB32zhTWLCNPoZCpT4quDN6Nxi4IyMyZODFK4c/4W8UJBtD+Qpsfb1XQkdrqGas5ViY/jzc cfa3Yyhma22ohU6naBXaj+KM97VwhhOOnNfDVBlI12p8WNi5nIoxFIL13I+NY1PhhIzO66rW vll1PfTvax3Q8T5ocTgLIhEEXdR988Sw20nWzxljcBmEHILneRVc1Z0fQ1jf1eN0o9hnakUO eKfgku3w5Gf6UYzcOwVxHBpxnueliJzRxw5oBv7MwmmyaDNBdVsjcXDbFNrt1ibHEFa6epwn 3vl12MQApbVO9jneB0D0d9rPbilx2zK/nqe14103lLZs2r8Fr798S5bH7S9Xw6W3GBZF2eyl O6+nUkSBnYFCrSKiVblTEmEMPfVH3rhtGec853WtU5yjQqR6csd7A6LV+hh+IVBD3ifLoyE+ x6CgknN83LQaf54F56FPdDAGsp/w8YDIqsZfxdg/q6xnS3ZsmZ+vEwGuUogxEoKKO34+n7TW V5QMQdtNQZAOo4/FjI0+lBwypEzBFV3Drz449sSeMwMWhOrAUD8FOvxsGSzn6692vEojuG6t 7dD2zDbPlgLblg1i1so/KNegr8p7XYSJqwv6YaU2York4G1BAi2OhSw9rwK8kR/NYaxe9OV0 Qwha6LQxgEFpnVIqf/u8m3SoWcs2DCwKeOsaZOiGwGDiiZxpP6oo4mXyqy1FitOFCeIWxBuC x6OfLwxah9d1cds2PU2uA85OuCx0Ubsaxe83g0C7FWK6Zn7hB26mseDpAmJFYxNUeLKyo8OF gLc05ch/4SNkiJEp2m/LgIZ2FQ79nOAdwXm+XicpRpLzOO9wwzGsHexjcCRdd2Y07p147Gm9 IER4fzX7gk6r9SID5/y7cEYLhX3LGnbQ6lwj5HvjfITDHlR/fuLoXYQQglbtxt8779hjYst5 9belVqpV1Rra7MHtW2vvLwoTt87ruhhDCM5zv+2a/wwle5WCDG3rmgknjm3jtm8c+6bPb4sF 2rGkGHAWeqd0jBBwdSputOsprRNRCVaOEQmGavpA9NrSeU2+lkbl3T+L8PV6rROaU6L1znmp /KtjKUhLTjuYHoIsNDXFQArRajKluEfvPK5CGlan2JuPKUatHLuePBF5h3vbbXUCI/yVZZsn beYs76xgsZMuFg5mCBy9cxXDzVMg7BvP16Xh3xCmnBJxomdGBPWu6JI46FXD5ARozufJsSel I5sWfpp7vSpPeqMbHNmaFlVB3BJE/OvPXxzHxpGTFqfeEUQBkOdVCMYeBtOo9Ul09K6pDG1z 9WUGXIokA6m0KNWeetYlzjtt/wwZLCY+TTHSqnZPODGRabaNI0iz9lFEKe4hCIN9S2udkLa6 Len6rDIGwzm8j6YicsR58iaP7AQQJWC894Bi78OKhGF986wkr3Ktk+G88bU+aNgDaunguuHA soCViRTNyCHj3eY0ZKWE9+mb0UQjQJOhHPul2Pxt3zTHGXDhglP9WvCcXVsirfy1DRPj26+r ECYR9C3sOucMpXOkoKe39kawlsijebzUircCEQe1j8W2ee85r2pF7IAcceL1Ge0g9T5wCZL3 dKfRZYyBOzz3baOOgeudHAKViWbqWjGEGDdKKbxKW1iFUruaFll8yFibNZ5GGIidZGe7QV+I vtw447kVOM6ktTEE3O2tHJl/QlBwBoHgq+Hc+vJmuBWgNwVQXktuhDF52q7lqG1KGxd0LZpy 1h07kb5//LivB321rpRq1tN21ca+ZV7Glx95o/XOT5MOf9527lteTFsdAz800s0o1duwdk54 Pi8tCPNkx/IShSi+roBS6+9w7rxbKKDmYm+kje6Sz/tBrZXHrwfDagnvPU7g5+OlVCwm0nCB MRzdiRW6Y+kAhMZAcGjazDHgQ+C6irKQzml6FojHlnhdRbXYXj9olIG/39ZpDlZYzb6ytsbL qlPvVTUbvDPFiFtAyxiDaJruD+PFz1IX994tbN521Xd3EUW3nF+FVAie5+si+MDH/SAHFRyM PHhcl7Y3o1ONtPnn33/QDcpstRlmrYs9tXDJVDoft0Nbq2H07LdT3nrDoUXQfdt4mDx7gj17 zuwp8rwKZ6ncdu3dVUzZycl0h0HrD9XB+QVJ33aVOf16Pk04EpZayVm+B/jXzy9u276IHWXL LKo0JaOa9fp7ThqVMcJornNT/YN3usliDIHP+4HDKUEQI8Hkz701ov3FBUla/pgtGiKGkSs9 +dbF6R/V07sFC77OurRgCi0qlzxbEwGctWtDFKWam0tGpzkIDgNANIQH69PFfseQQfSe7VDz wfw2w4gVb2KMYsaGYQXsWHw5C6mLQVW+IuCjVcgaNekiOOcXVzGMFPm8HcRgbeQQkhEjINSm azZ6p2Ap1Ppj7z2MYZSvGiGcdySDxJ1TYUqzg6dQdVN5l4PoFUGdabG29n4mxaE1/dbWVm97 tU4Knttmu6o2Xtf1DbDR3lz1YBGHCveuMRbL1IeqQQVtU7QfFXOysHbwfMiv54mlQ5zx2U7g qhoJsB0arDUqta00VNtQStYWopSuDzoUJ/AuUg0KFYxtQ/vfucmnmlYFI2NtQIcxgKh+bXIM 8wBMg0ZtFe89rzIWK3mLGyLC67xWB+G91x4eVdG8TMc2kTyNHprOeteI6Frn2DKHHZhqtUht bdUK2CHxzmsqtrTarA5y1qPX2ukosRO/XifHlildtVtbSotN0qrdCof5ooDoFRuOBuj0IYuA mVhzKc2UspFXKfx8PO3NKlc+d2DvAx8cIWiuFlGkavRBNcdHzorKzTZGc5dDZPB52xUt7Iai 2ReVPmhuMFpHvAIuE6cPIS76k9lxuEmB6ikMIZBDUGGJAT8pKZ3bkQVg3Y2Fm+qX5oyBDAqM aCSsJhAxanaMJTIdtrYheLYQyMHTXPyLseGsldeXgkE562HLKXDfd+0ORAvc4BQiHgztgIyq dU4jRxud6AJxcrhY34zTE35Zq3E/DuTbC9IKXsNL+wZGxOBJKZHtREbveV2Of/z44N9//tIQ 2cYKP93y/ufHoZ6roFx9/VZpemPxgreUYYCHNP0ePgRepVk6gBwC2+1QKNRO5wRFJvCDexMi beY6P5/B4V1ALE1NYWHwXrV43nOOYnpCq/QdlNJUZLFlzqtwtc7uHPd9W1QpAp/BGyavAlTl Fqr17YPeGkXC4hX66HwcGoVbU0k4ZQLkzvh5A9QsTVXj2h2KWDarD7x3pkgKxB/3QwmEgOV2 /QLOp8XW+BA0jybdeb1r8dANMHHemZVnSpneL21LkVtOZn7sa7Fr07D7eT+sVRuU8RYKGI5B veq7RzcSxkdNCCl6rtYJy/OV1TMmgycgtS1FjYZsBZd6V7nxxMYNStPef3YnhlVIiISgDiAH FN8Q0aIvOnWg1N5xXv9/5x2jdHrQ4uq+7ybk7OpNC9qzTx4gTuOHdUQiY4V6UO1dAfKWSBIU wj4vzlIorfJ5u5GzyqNVFtVxnqXIxQpXZy2pydACZy2wmCKTApto8byK0ooT/nSmdxNBnKNJ 195zDKS2pTmbhdDjVMZtiwGfHaUpvj5h2YnlF9sIwXL0zGHzlE7tnXdeT7sWCMSlRtH8pgpW VcP2MbgfO+dVEAvB3qmMqhmgNDeXjEFpyj34CUq1pm2ORbeZOiZPgXfsIWp3EDzBcv6ek9U7 jRz35XgNTo0XRgFQu+rcZ9czDKcAhcSjc/x6Pk2KJdz3nRQjOQauWrUb6IPWdLNpcQe+O0Xx psoohCUc9c4Rr1r589cT553qqM1AkGLgeRb1qI0ZIhXc6EOM2BfDrZWW7LUzGEzqcMt+ERM5 HprrZrXcFb8/L/WMTYRrOj67CKOownOiab13FXHIOwVMMaOgwMbrsjRk9GaOUe1Vong1zvRj reOCB4NB2xhLdrVZZChVdfXz94sBKsEiAyh27tHQefVqnL9q+P749eS27wQF/xeC6Y12VYm0 CShlUK7K4ypI1zQ4dewvKUuxC8qPHzmvlOhD0NRlXYZi/9opTKyli6YyB8SzVN1pBoMKom1V a0vBEr32mz+t0r7lTHN6KnKMprWu/PxS0OPjthOjivlkwL/99oMxhN9/fem/P3ZGFP58PJep b3HRlu+vq5CTulcu848Hq0xvRuc+zkJtjVKqQr/+7ZyJXgvA0ho5Z/q4wBYrxsiXATS3Q921 Z2m03t5WausCnldRA4Ols+kN995Rqy6k8NYStNr4elUQTTdnqfzx64ub6ftb72xZ01Dvk+NW C1Ltin76lBZS+SxFfWqi65KAfduWWeOsbW3SGW1+PU9aa/z2cWOg5krn4OPI/MfPX8SZi+fu c4BsLE+UKcasB5aV/7AWJ0aopaj02LxbE2QI3plBQFug+74Z4xWgd7UumYV3SpiObVusUGua kydZc11FSRMHP46df/5t43mdqqgVeT+HVc8T/dpixO8arr/Lt7q5W+5b5n5stB7o4y3T2rKa KGc4Bmt3e8cPzeezQ9mzsm/XpVEommPnspemgJSwZaU6S61LJdvG4Lp0AwssgEhmJEXb37Fa Sy3yytQPTHp8SsodKz2nFJeSM3jPsXVi/4b+9K7i/uAdMTilM+eTzrbAq+xm9srdJFYAx65e 9+dVqFdbgExtzXTvcYkeNfdFLfT2jdo6r1J4XZfWD6BIHUpmeDF61FulK4L0zh4TNch6kZPo 8LY5H8+TbN1FqbqRgldN2lSWzF42hgjSaJa/dRiDX4MHXFRQp1vNMhW1jnetM+VSOQa2GHld hb/dDpyDWhohOGofvF6nFooxctVK6cYHhGhmBU1Tc2qFgjiy9IHftYPd/rkMlWI7NArrD+qB caKpJXhPnGJBMe42RhVMBO8BrQRFeJ92Vjpj6c5QkUIMKsN1aMFy1br6X+80H8bwDbETTFI0 FvmgFb6G85s5SUvry8+Vbee23vnzvPiw4Qfzz7DNMMPuVSpPrxXy1ari9ykTw1vL3sbgeb5h 1myQaO1KDk1K1E9e2lrYanr+1toShIYQuEUFf/oYZIt03jtD/VQkMgTO8+J+mCffQcpKKzsH r7PQWsfveR0CGV3/GzFFEaSkLaPzOuKktEo2enoMrYOWDduiW4xBi64+Bs20Y5M1SpNHdpjz dNBRNcxis5xj39KCCb0P3PbMWb3mWteJIdH74DwrIQ7u+1s0cJXCz9YRw6uPLXLWxlVUo4d1 HvrS35i9etFErVJRo5MMqH1ObLDqPqiWbW4CZwzeRD+dd4w2KF317RNbn6KLaEDO8nhbbh1D rU1nbW+0EuXYQ3AqYTLs4/evhyqPjAW8bYmPfeNfprlT730wd2qkD+HybwdqtgKtjcGQpoW1 qKRa2cVvVDYspe/gTYuPIauIjJpj3DolE9/ty6Qnf7HiarXulkTIYRYk61mdg2PbiCHwsEXK MdJc57QDPvMu3rOHQOsX3U/Ro+BEzYYxqOHOBWWMWu88L60fpsR6qlT9TE9OX2QIb97/LLZQ 1gm8rqKukf52ckbnccEQQQvtcyOrjr5bGhTGdPCmwON1rpfVhraerjn2rM/gnEqteg/mwNVh QIeFf23XVOc2XbFtCjhjWB74PqPhUKWvvuDM1+syxZI3XCRZ99CM0PJEnLXflS0H9bLNTD9h 0LraoYAbQkfnr9ws1Mw+OtnAAlB8WsWIUd2TznHbVaE680HK5tceXUEIr5bf72qS6QVfwoKu SFprjd40Rw8RyFmFiM6twscZDTxzOw5TgQayD9Q2Fv8+N+w0NYY4YUzHcG/yB2GdrGgy0iJ9 1Q05JfYciSHiRVY/jGPpE1TRonasMTKlNQzcwU0AACAASURBVJ7nZVO83r1YH1rBt9ZMm+jZ czLOopGw9qsnRHT9//XzF7dNtQTTQj3GUPOmCPdjIwedE+SA+7YTa2+rsHL2wX0IOSoMOZWf wYq4SabMMJJ84Hleqhkz7Lvboqu1ONCN/puSnameue2BV6nI6LpoBlPqxmv8/utL255LCYYY A8lOz6Qiz9KIoa/v5Rw4cUuZ8jorOUeOmAHt40GjD/HtBO1tQHCknAkTil52Z33hW0pv6tW0 ATerKdT7N2zNVJD5eF2GFKYVOXKM/HycPM7Cbx83q3sAE4nUriYGPXSeUptBsoMtBY4YiTaW bU4EScadI2qsvFqjmcr4LFWRVHTqx5467n/+P/5vcfYB86R342dT1JeymRjwmg5VExvOsWLD LLDB68IoA6ba9eTfStZZUQ/TcM3Fns4QNSKGFUGuohq1Zho5JTbc4vAVadSTNXP7ZkaKy6ZG nedl7VNeGITzSrBcpehmGYIzPHzWDVdtSxUTverOp469NmUke+tmWJweeDUq1KnGteg2N/tc 1xhtTl9VadckX7x/g1fNwKv7oW3fTKmlqiFkM4/6mowxfXtDK/6ZSr6eJymmNUMuBE9MUU3s 5aoaTlIk56xFVm2qchElBXMKhKAtRrPw09pY7Uk3wL9bmNtS4vm6qGOiacGIBqdKmq6Y9OZ0 qlJvqoNvfbBt2Vo5c5yoWUtbkDG4pogjeLZkEuqiPxuc/nztXfN98KtDEWv6fdC+9bZvpsHT lW/WtibLp1ivLGJWY9vkyss7npbTvTe61yhqBGJ+GyeUsxBarwSrSbx3MJSrmLUTUVWuDnWz XrVSm4pGnaWaYm6XOQItm0nkMs9bG4OPHaJN6JovfG6cOMeKfLfpig2ju2wK4sTHc9Li6GWn 4NjyMiQC+JknmnrcQ1eHiBR0EsUYhBTZciYNbYl89wZ12rTEmTtETGghK5w7JpOk4ETrnXva zDgZeZ0aTrNNhnwZb/Curp1h0YbvW5EpUYvAPsZyzupQgTfdO3HxWUckB94lTqd2rzGE2xb4 cT8QgcfrpLS2POo4NT0Ws0gLWn0He/G1Nfpo9KFO2JSiikQMQnarbR6MAa05+8zNNqJGmu8S dgd83ve1nHOjxrNUjj2Rze3ZuhIfvc8CrS8HyRiCeIP7ulbywb8rfw1vejq/XidnbSYLEhNU qOvUm9c6OMfHx4F0oYmQIsxuovXG4zQfmaGF8wXM7zPD1UwfOYUl8fLOrVTRjDjx3nFgbk+z R6nQQKld50C8waqo62foCi6DgVb2GHmjUq9ibtrWB7WoUsh9y7l1zLEkcenW2ui0s9vMGeXq +YaVp+DpzhGaeudBIwUmYlFzheIjzRRNijEc1uaqPGyPidK1yK594AWiqkzTovi8c1QaQ7rJ boWYzdtlEx1T8IQtqRsFxxjVlCWey7vVwwZ0eE5Mkc+ojFDtnVp1Hl3wntHF+khbfKuKnQ94 P0w2/N3SpJFpi4Fu+rPXVdYQAc3vikpNObAzGtQ5N+cfanTznqtUgherFawSFbd621KaiTPE LMtvlY/H8XE/+Nu2MWTweJ3813/9QW2Vz9ud/+7vP3i+Th0NIuB2tyjbNrpNzDQsPifGyEw9 vKpqm0WDYCG6LynbxFJKfRd9c/3menoXKP09/ULrNYg+BDXhi+am6SDRKN21TTEdWDd5b4yZ 4OGqlypUDAw4W+Pn46VgSk7kGPl6amuy5az+bIFXr7QG0anXeooKBs20b5oyPvZNJUgi5v5Q unBRqsZmldbUeJhUBKgVvSpRFrafVQLWS6GKkFJSZmpmE+u/p0BztjSzTx7Wxs4o4PtgBE+Y 2IONL4k+IMGipGkBndUSpb0j15Ez3ikVKhM8scKsj2F+uGEjyqYuz9yzPjBs8z7Pi33LBK9s 6GWFXfCO2x75eRYQuO82YqYPIqJ49Ojq7OgpLXx3y5qrX1dhs6q9dptm6JSqLH0wSiNlPWVt 9FWItN759XhasVXYsrYa3QYAiRknBC26BMXV17wUC+eWjlTKJODfS895VaQPCEHNAqWaQDFR zBs+Jz94Fo2w/o8pFdbwqSTGFGKmoIqZqQJ++/iHVghWPP18nHSzY31+aA4tpfPH40k2B8qa iVO7dQOJEJQXL7Wq72D0ZZyYf04wSPzND3igNrVbNSuSq8iyfk3GsrZG/yYMbfaOYzelBU4X /jK6cE+RY9t4nhfP1wnHzm/GkokoardtmfPXl4ZTr2CMY2fLOiTo63mx71kdMJg5MgZ6jgZ2 6ANcrSmcCWwxLWvO+TzJOSxCI3m/cu7UyHnvVyTpVjDlnNYEyImm4TSXB6+m/eAcVd68tXee C1XbqP1YcNGtImy2tSI66GdOp3heOkhZ6wFH74obh+DwEvh6vTi2nT0mOsJV+yoW58uoNhNP sAlX9pIRVQO3FNcY7yXyNNPl5OVVwCp83A5S8rxK43EVPm+7yb61iBwC7n/5L/9V5s5GbJZb 7xx75vN2sx2iYekqlcdZ+HE/+Nh3fj4f/PH1ZMvaXoVv/XmOkWPL/Pn1WDt1ToycRVj0Uweu cqNh7dCRE3jHz6/XQsq+q2jhLeESec8714G5G2e5eJ6VY0traGAxRc9UtfShKpzHeS02LYaI YOob0wLcj8x//PxiT5n/9PcfPM6Tf//jFylG/vHjg1Lbu5Cy1DgNww63xoeklIhRp1ZsOdpg xjkrX/VvKcQlWVu/dwj324bDLb/9/dhNw9AWTtINw5jrpPyBauFbV4PnVRv3fcP9b//t35eI tBlN2nsn5cR933Rgrgx+PV788fXAO/WYTzZIBL6eJ6XpcNq/fRyEoKDO4/Xix+2mgoOuTNaw YQXevdWlwJrl2sdg39TA+GWadnhDouObYAG07ghBKU0RluQZdAP/82+fiCjeXmon5wmM9OWJ T8YQ9t5tEoe2WseWllgjRZ1l97qKDu/fMvecwTkzWLblGRerFOcEiCGyJkntW1xz96IPfOwb pTfOq+G8U8wBq9QdCwXshlL2PpZYYub4/s0bN7tmpcfjAsHAFDdbJur04bfPbJrp+9BqVJ2d mdelTNX9UGvvz+fLBgmr1tq5jPOOp43E1KH1Wmhsm4I9w7RxOfrlTP3z8bRR4Ppie1eZUnNq 9BsLyrY5bWZUmKxZH10XYt9ABmepCjClxOM8Oa8LQSdD6jzbOcFqMETnsE7t+fx3s4vxRtp8 3nVDnmWSPRpuS2tresT34X8apgE3x4ZiAgnHnjde10VrneOWjaSy2zRY8ISOODemrBhUPjV4 pXRi1Kg1OfJskLlat5XqLbVy1spbOWtD/i+7hkOT/7ti1bDeqFdfXrX7trNlnZwgo3OWQQg6 g3wPkVobX89T55pEzbNtdEJrtsuUKPBec2UZSnZkm7sqTTV2r2LuzD7Ww/jgljDT+bDGB+7Z 5L5OrZY5T/+btlfPUvB4tTh7ZcaitS8TVKrG2WudEchOo8HrdfFhV4x0m88+E/E0IEppDKZo 8k22aDoz0AelpvGDs1yGpKkQ5fm6SCn8Be9QcWOnG7P4tjm/o15tA6Eq/Wsvc07Imp2ODN0Y kw4uTQGo+N0xEpzDW2ulucbzcRyqw4o6s/11aR667ztX6xw5mvr0ZI7RmkxPtYF6vQ/m/S5r IdY4D51YMaOQDj5Q9M6b4mXapmfYG60oxevtd4fA46WFzM20Z18miui9w2TjrMedGHpw82aF wRyWGIzJmiVEqdUqehtyFBO19uWumcOAJ2AiVlHLgIoWTsWUq4jj918PE41mHnb/TXbBbnR4 Xy4wodM9J6IpleqcIyMKdl2vwp50WvYTViT1XgvikDQNBKfqWEX9hDivrwBsMlRYY8RSGCbb HWRTrbSmm2RONvQ+gGni5jjsOVpM7bPDToUB/s4qcOk4vDJuvMdo5RQIwzPMedmslcPy1eAt 3vde5cwx8FbHeq2sER2ApDne07pD0Bd71ao51jfjDfSzrqLFU0XvPrnvmiK0oBpsaSOlqJvE hhB4k0OnoOIJPLjhvs2Q8dSmTBvA8zzx6OY7e1mdyowMemIdOI+MwdXq2zNo7WQyhU5DrVmz AwnGMXg/FcrCdV2qMA76H2jEnDO9N97jP+3mBjSUna0up0lrXW1Plv+Cd4upum1+ceJz+M19 t2nGc0Y4cNb3cD1tW0ziPDoeT94znsFwKq2qTRE8mUoYE0hMRCpbATgtzM1whPu+qbUoZ+0q TFTgrVboMpDu6CbCUMTOtPaTDZR5Z4tSnFqfqWChdveXCZfSYXNavU8/u3NK8e7GBXgHf//8 WKnmtmflvYddl4IesGhmC7EXfdmce1XEKFiUfGC/Zf74+cAH/+b0LRU1+3uDwVX1fej3hpic o1k1CyxZzRTKO+es51ZZ7efdRH59cORMReeZdaMC9RqNt/+8i+YWlSX1VW1vKS7IURDapaPB 55/WB96rAOIqTe06AiOoYhV7oD0nrto5UgSnVuvgA/dd5cfHlt9YhyFjymgNxAdrzWRx0vum +fy8Cj8fL/7x41MLKNHvlKPWAqnbMCSTbk1hyGbjxXU4cOBXKep87Q0fI7993nldl7VPOymY lMte/HTsTNXS57Hz59cTRIgxmbmz0nrj7jdut8389CwBijfsP6dAaQZ8nRfHphMoY2nv/PF4 nrTRue07e4o8zsJVC97rRTyft13lQKLhvTS9PuLj2JEgfJ0XrRQdM2bt3BReDjuxYwyiBPOI R369LhUFxjmNqlqkgdfVFg/tbZ6Nbgg9jcF5XqeKK2ZLl1KilsrXqVOneu+cTYWMDqB996I7 amlINKVo6EaphnVrUzX9v/MwuqwZrg7HeRXylhYoJEO7BO/B0yitklJiiPHdrfF472t+//UA 4B8/7jyvwvOlqKV2TpW///gA9CDtWW99Oksl50QOgZ+PFz/ux1IEBbOJ6TiysmbYOecgwNfz spQTg7JA0XHETVUbonLnj/uBe2pv+Xno5XZTSK+3AyV2A/id05loCmyoXWfLeondVSqvUha7 hRggYRjxVbWdSinxsas48rKbIablJzj3F6BmyrbUkvX+o22kf/epXV9kNAxgdijeTsTnx84U FU4f+rRUb3ZR4AzrIoNSQJLq8LYtaTFqGzh4x/MyYaY3rH4I3ekdLR2HJIye1U7B2/Ofl86p 994RYqRW3VRzRItz4MVZPldJdja7uCputf+vVfUIDp1mOQ0r81IEAPdf/vWHzFsHUwicrS13 yZ43E9PXFYq10FA48rR7QkrtOqFpS7yuyuO89KWntMZoNqNT3z2zghFjzAvotJia82w0rbol Lf4u3hR7aSlEfv/1UB6898V8OQ8eHSCwb5rTp4NzesWW4tcmT2mPPhbwMwWSoNZqAV7nteTM E317WUv4437gveePrwe9q/ZAySnjRUXtYBNQmc/j4G3utJcejTyZtceH1SeTVv4+8BhDAoco daqRUX/Pbc/koJapatJrgPgff37Zkdfqb1a25wWPUPj7x42zVM5SSCnxt/uhebQ0hMavL0Xj psHwaVaj3tUdoka7qSy1KyvmRIQQ2Q91h+SUlltD/WKa185i3i+rynvr75QxhN8+Dmu5pljx 3d7pvHpVz+B0RHgwrto5r/PW+ptp897TpS8vN2A3GNriRn2RYGyfaBs2sAsMbZdoqxmsEExL cNmGXiow1TnRe6vM1QoGemPjNSpb1O5IynjfHzP0Hph57cmWI1+vk5HmzZaTllYjhMNxfSui J7gT9USrcKG0qsXFPSya74/nE+88R94YDH49Th7Pi5wDn8fOFzaWQ8xbVispJw5zkPz560ne EocJGlsfxKTFXrQK9c+vF308FmrkPJzXoP56F32zty42lmOaEZ9Xf4/okhmItWAT2zzras/Z oYBWtVdZtcd79PZYbpNg4opmvby2Qw7QkWRzA9TWdXCv9zSxNrfr5my+4dcNTjoBpHdF7nx0 DNGUk4lrDpwMQx2rLE3AnKQZwryjddhhmLPsTP8W4nomhX/bN+haN2UstZOS9q5fjxchRu42 +EfHeOqJ633Qqy7WEHDNkSN/0ZJdRtZvcV48o/9/r52v2glRR1fuMZscq/Pn19dS3DoPV1VY 2Fv70/rAu3nJTacY4jS82nn2OdZ0Dh0Am2MHYhcHt3maRZU/05lzlboizJwFO8elhKDXbYGN L7WLd1QLN+97cQZB6ykek1a2tlfHeFZNP99C+WxX29C/32rh8bw4dlnjWOcYtfs+BzTp7J3e 53Vpih387X4o7Sxzzp/WFlOsOi8JOA2aBYhbjjZMALy9rMtUmvM+UX1BWvl9GKo2vWfBO7Lt 0H1j6dHm2Ot933hZSHPY+CthXfn19x8fZAMPSms8jJQ5Nq0Hfv962MLO9/YGaeiDEWxAcNAC aKpKprAT4RvEqUXR1E6EoAP3v/PXOrtFxZYpRJVLOe2Lc3wXRckKrrnQUzS5pci0c2/JG52p LtzJNgbvVySao9mU7+jv2x0MJt63rISWgTBnqetazrM09Q0ADDvZvTG6TpiaQxycaR/EwOs4 B+6ro0JBisvoUb0+02abHQrQJOcovenA/+jsEp5hF91o3i6t0preLnw7dkKoy0lSW+dV1Yly 5MyP+02JgevSi2piAPPE//l46bgvEbxdt6g9cNABhcHzulTSHHxgC56ck9KOgNggH/8++jop 0smSfL/OQojaCUx7lOc9DQPRfldn2UebE1cWi9Z6Y8/bijBz9KlHp1foJb6X8uhiDFkKy18A rMuI58ue7tXbvnHkrGokWDDvEMUvr1L588uwEc8aCKy/SF98tJmx3ju2kN4n/dfjpVMb9l2v kzKZUW16Qos5PeeOVKNep5RmA+8s7xgxo2MulPQodf6esYrFKGLCh6SX1poOzo2+BJqnWY8m nKk1hhocHUDSEHs/8tKGOcvJl2H+t2MjB0/pg1/PF7ct4bxulBg8X6/XEk7eP242VhO2PSkB wxym8kYk5dt3yVE0Gph7JNiNySEnRRLH4CMGRFR42sfgeRW7Mlvz+fsK7+mEVbRyjieZgssu wt/3jS0n/v0PBWg+77upawfSZ1dj+IKxbOmmV3tG59+3Pfz+87GsPiLgLmcD/FjFz5Tdfr/q Wr3kyfRohmKZr/u7NGj+LmDpwde/66dy30ElWddVyVnF/F2EakrdPjT/9zH0pmf0ez1el7pi rNKfnEFp3TZLxd92o3U7V9ErrprJqbzh1aXpFZdqtkhku9VowrYAbihb5rC7U0NYRdMctRIM Pq1Lr64Rrbe+JFnR61UhMQTDyGfqUf7gPWteD9Cvh87oc+590+VtT3o4nXtbki1KzD86G0D7 +ODe9QRALNPAZw/Q2rBcoOFU+Xa/oNY5iiQn/dIft32N27jMjpOiEjfeN0rV6zu89+vEB+9o XXi+Cl1U7SIiq9DL9iCvPgz9mjPQWNeCtjEownLcTquxghn6MrcYVgG152zf0yEmD/M4pR7t lDYjNKbaZTZzKXjAoFSvsHS0YksH/k3pk/7d8yoUM1OWqs+cYc3t8UFHh82OYTqFJvUJ0FQ6 obP9rGUrrRGb57btRFPDfB+zPiFtNZx69uD+4v1/PJ4W3lOEaM4T428n9t67aAtiLdJKjUNn uA7pZFgX0ZSmhH2pnRTVWTEvpZsjtGaV2Uygnwx4SVHZuS3G9UImaeHiHD7caF3wXj1b9zkY v1Wu4hbkmFJgT0rxXrUSc+J27DjHwvGr6eauqozaYaaB53m9C8Cg13mJ83TGkhKH8E5dOen4 leyC3tJ8XVyWDm+G6DnbeLPqn7zmLEincWN87z4MGdTaINBFRaDM34PZypqs+sJ5jdJ9KKGz Rb0Xb98y903rA4C4xk6OsYbyBe8YnVUxCkIX/cWb3RQ8i5xr6cIxwYO3IqPZ0CGPd9/v8Na/ G8wF+9vHna/zpPe+isjLrvD8OPalYdMZd1pjUMVuWQg2WSJwO+ICQeTbxmqtIxZOh/Wq8wqx ITrEP9t8HP1eHt+1vcxRTYHzcpzm3w7cIVqUxhjJzq+BTCF4biGvAQrP8yTiDRSKVHRDlaa2 a3X22l23eEJSynjq7p0BOBqtkg1+0ByfotLaYv8zmpiluROw4q4qWol/G1Pi7GN1MKAuyG50 IsC+JXO8jPdA3fAmP0A3wxwKBKw7x2RAG9qn+tLWXNWZMpyDr/PU66Sdx+2BUgrP18UZg928 WNm3ZJtgw2xkjN75qqppn9658U19MuuOX4+Xnuh904sCHHweu/IC27YQq18vZeeSoWkxato4 clpw8ZbStykaug69NS7e5v/gHTmmNWvH+8CwyU6637Wqbq1TrsJm9Yt3jpj8atmadVDRBC2z xhLRywr6UKDp2HX8qg4etLtyvNqntxit0BS9890K7YhjzRLvfdhtg2pc79uEIG2hh4agCXZM KXKcVKqYD87SQzOyQ0+/tihOKx6i0xz0+88vs0bHpf+em+fn86nhveoD78YujSE8W1u3MmO4 88BGmjodMpBTwIU5X13HoCoSqZDnnJSsqQackzfBYQTL95Q3rxGpVQ0Js+e/milqbSO3MXDd MHCrk1orCxwJNoAgpPgWMgZPCmpl1vvYlDzJaSeEqNM0e9fJ1lPl4x2f8fhL5FUq3LAKdMSo Xg8CN6tfoo6w0hnms5CJ04e+2YSnFEgEIC03RjdOeoaxYGkC58nJve/ulgkMaMh3QRWZc5Lj nBnXe+N1qhL3865TlP98aLUrToGIaZWetp/JjOnY67C+wwRKSuv89nFb11P9YkqKdGzJKYXX pZFEo9x71u2Wbdw5LLBqi296c/T3uO1aKjLrHYNEnbNTNubtkxVX9IXfdq1hbvazHrdGnuio dP5iAUsxIk67n1Z1ZMmkcs9S1900Q2TZaXprNEsJpTab5WM1w//+//677Ckt2G5Cn733ZT/W fKyqTezE60mZc1b1Ih4ZwrbpFdEiY72AaL3ws+hg3D2nhUWLzOrYbnn81iZNPXcbfdUSc9ZN CPqCb2b4X3z7bE+GFl4xzMEIza76sKKU97jwLcWFT89Bvw7VDEzDxNTsA+vku1mhyTd/nHsb EL0pZh82IiR4z/M66UP4cTu47TvP62RP2eTgogIL+54g3G8Hz9eFMFaf/f0ZdHafLGu3Pnu3 Nrfyzx+ff3HjAiqMFGFdMRG8X2CAoH2r+rW83efpwFgqZz3o1aeJfhBMaDnzUk7JYFJPtEEA tTX2nBXWROhd26Ajq8b+VVSjPnvgMVgjRKc+bje6c9qe5owVvWZjCv2VNtUZbX1tFm+nRBhm t37f1zb/TBlUtM6jy6DUutRB2ipqlJnKWHjr3K5Sl1tVxR3axeBYc2lf10UMOqumF+U0TrOB z3Evz/NaXdD0AGg3pO9gDjqa403nEKQhWhg+XudfWEeA2LoCJtNL5q2CDUAIcd3gq3+J9WDO KafufTAESWnGarPVvHdWYMHvX691VUXe8nKUnHbR+5wLE3b9oAlPbjGakUC/W5t3joozZNAp ODQvzGuDyiCh944G7wnWOjo358w464e16r1qw9mcO8DQsmlQaKZkMSo0xBW+JyWrHYIOJVwU MprXdaabUwep9edqb970DlRRd6mqX1W/7tDBf8h7UGCysa1iESww5wl0W3c9oM3UrgMhec9+ S+rGsfQ7w3v0syVw7xsL1s4Y3y6CsbCydrPobb7TJjztQq81hzXgfeAyODfnyH3fKK2aMFJP Vp4L3Dp/PJ8KfDpMch2IRJrXRW2Wx1sdPKQQ7HoMnzT0pvTOhxeVZtCs4+17HyKEoY5TfRa3 RpAZHrU8dqC3JqstKfLjdhCd41ELrauj9GzduhsVcWxdK+7W9TbKbcu0roxjfbwQhGPL+DRV PVEngRjQct93jn2j1Mrjdeo6efWrTVg8xkioOo1aFU19efbWbZebFoYTI0nB08UIl2CIkHU7 +mVRwb0Ot3kzV5YydUPY/9J71exCOqcmQxzGjHl+1cq2ZT7tLvDHeXKelX3XayFlqDKkmVZd ulqGvHNvNC8Eku5QhjFNvXWG0yjVgydFvSXKObvWsg2qnda8JTbek59SSmxz+E4pawLkcO8r LmPwZJIVWfo7fz5fZFP4ZKsx1AfoaE0375xrP2+IOItahX3wy+6sKqXIEHUGe2ykilGmR1bh xcu8a3PiV63try9A9LD1oQxlH1rvzKu/Qmh8HPl9YC2Cxqk2mTpyteWIqSvtHhDv8Ra+5p9Z lerl9aIjsswQ4WfbgvDPz08e58nX64Sn5sPPu/amr0uvzvpxVzZqetmOLSPA+bz+8pkxKsAR U+T1MjPDGOu0OjeM4w54bxMdt7QIoTpU4JCcbSAVwzHvn9ORpN6UPdpd7Dnx4+PgddX/r7Yv 23EkS648d3V3khFZ1Qtm/v+jBOhBUAMCpGmhW52ZEaS73830cMyuR2IwM08TQKOrsqpIBv0u ZsfOgn/8/EQV4Pf3O6IP+NgPrIliSwyh44Nq2YaXuXBzjByBClVEJJN0sle1379vhLMNA8kp 4nFbp2at9YamhE1y5LhAj1Jn/gxt3DgZtcWRQ8TRKs4v1Xs0s34mFzjAMa0ggGREC6OHmzmN 0+UgBvySOVIqcItcwedZIAAetw1LTvjHz0+cteLPv79jywu+P1+XarNx8J+VUx90cLJtC7Pa 5bIjzZEar64RH2YxWpWSnHUOLrh6e+FSnyPhUhq63rFrSpCEyQF0uMCdHKNSv9jGvquitHdB bYV8uxDgx9WqWa1hC40soogtEwgqzx3PvQAoOGqZqVSbQqVNgZTgA27LqimPQOtxVpp1Mmcc Pl/nJLakQJGlc3NT0xDRcI6F+EQ8K4XrPDE4MoyRiQaW6teVKmTGuLaQaBUChBh/UWkw8KfA e+Av//FX/I/fv+FxW9GfhBvP1hC9xx/f3/Djues0ir6tAuq06NaQ0OoVrd2PMntniLlYJpUe aQ+ufXwAICHQZ8Wxoo+IqI2edykEdVfLNwAAIABJREFU3COvCoMnrfU7C+1UsHIH/XjuiN7j D98ekCH424+PiSccZyHm3Yd6xmMKL7xXRivY3p61Tknyfc2TSEqHijpdsT+eO3KO+NO3d97R uBbTGKKy48oCLTiM5tBV35+VrGIdgiAzLzf4OVxy//Rv/y7M6uRKOpRCO9TW47fHDSEEPA8m LT706D1rw5rVMVKU4dq7CgSpTJkWnCHM5COHXz3rTjXyp5FBnHJpOJBX5wleVK2GLSHBPOot pbk1UqlYjHIx2jTuq5jBfNdKrThLIXExUjJsmvGzmVtExPMsRLIccJwM+llzQmtDWb+s6E1H 5pxp59nS5hSwH3UaDT+PgtaZwpQTF6UxZX/xlHMshs9S8NhWmLc7+3M/67AYArY1s6NQUKp2 +uYy2gS/XIcpBXrDTlxYBypLYt8rJ6aof0kBpfBetF0x9NjNkYheljCr5P08YYH2ADTTjc6L WStK5zAHDq03tNpQVDgAm8874K56dShgESOxZREN9PN0alxympYopbA3p/iwo7Ywaxbnqfu2 3tnKt2qMIDVo2M/K91Zmq/cdgkt7ZtTo4MJ8b/6uGo8phHPXhbImCF/bKwD03LkArGMyMojd 24R500yghgNu24YlJVgkSlVTYZu5Ww3ERUJWrfR+QdQNiEwa5N0dHDTPzFPbBaeDe+3do582 0ynQoCgHfnERZsh7iQshXDyGWBgBEo56Kwy6SIgTJU1Q7bIuSpws3I3eQRcj/2c+MRbzJYJZ C4QQ4L/QmrcloTTujKrgSowBeQ0IYWENNlhtF73mFu2Jd9Xa25BpedxJxmgNR2PQnfNex9AM wzNiogxBhyhX0HR26qoVPCHUTkWL+dQKcKlqFUZeMmcDXgEh78Pk6cM5LYaHatzIYorq5BUC 06Cip9XpGCRoRPNODQrQy1Bxnx7Fu4bPv902JO9wyIATz9FiqdgeNKVvbeisuk/mjBH9Y9Sq VAul3hv2QssNe4gWAWbz9y6CXT9wLbQb+3bb2IuXhrO1SSxsY9CbpQWlCJMLkBLpSxBgHxbr Ze7KLAgtaM+gTeiidT5g0QnkUIZsciRKWl+fUkIKVM4WzVhd8+CDdB4BThW6VmjK3ADeO9y2 Be+3bXYfTTdN8B7FgWpgRf3sBO1a6DGoOM6cV6JtxKCdOLbcqggO3mMLHkOi6tmVBWJHha1s i5oOkce7UXvMBMcgvdoHonrBNRlAJ1TLsV/CGhVn9079ZUnUb8Jhv4027ZceEIRqKUQN7/cN pXRVlLCqr4pU2elhhEAZgiRex5wA2kWd6q0jRK93adQRJ02OhkB3yEWTCrgUuq+j4HWQdQIR iAPWlPHYVgDs03cRFXuc0ymSERvaQ3faqdLBgkjafVnmKVVamyogkyuZeDNEHfeGgKHooQjU dEAXwzCQCMrn43s+bitiisiq5BEIovXErarJnBnmOypCwKHNvDs81ExeVCxYO3JU3F2P9K+9 tVfcupVB3L1Tlx69R1T77uC9zoJ50lQ1uF1SxhoT1pSVLHnibFdiUgx+zojpGsUvhzYgfNhk yjqEnLBkE3Z4Mn4r5cFOX897h94xH0oSi+7ok28ALdaG/nnRou++5TnkkEEwJ+igx7xkTYPn 2hWlXTU6+ygNVR2pYwrqniFYl4hSO16jIKo3gNU3VBPpyepIQRMMeBCNi4E1j2sNDnF61EU7 xq20tjvFfrnq2yQbWvXXG2fXa7KWg6Z/ImMa/hpOf5RzFnx29+Rslp9XxilAHptV9oR/qT/z ME53vwYnKv5bNDfVqvR5TEuYrtAOmFw5CD1czKpziQndDHlbV3EFP7v5uDo4LdRUN47rn/dO V8scWeGnGBWlJNdgr4VYgFcD38ia5awUddoXZfCvxZq0wVNvUfu1AVGbdB0S6QarvannjKel mZh4U23WW1f7szE/b+x6FKUUrwJMv6DoPUI2fTfhxCUnFFexn2ShDBDssMFNXDVcDu6aLQPY PAvErOrOqqwYc7OKIWDd8qQKC9iq7bVMYR5FkZoGNTjqveWE0TtaKThbg28slJZMjRyRQQfp DW0IGsxET6a2S3AxfeHooecAHK2R+//l96DNCFsy+6Ism87QzQrQlMi47htNgfdSkDTZSUTw +TowZCCFiHWJc6DT2jWE+XwdyBplcpyC0zaITge/fzwRopkX9xkOYNTqoEbKnMLRkyauKWEv Fa9ScFsy7roKn6/zMrbX6dFZylSkmhHufc3EvwcrRHNrtg8fIw1wRWyFN7x29vxZTX9YuXLi JaK+dc4jrVkxbma/7ufQ/DWeBr13fD+Lct7Zsw/hInz1AhHB8zjx/rhjyws+jwM/Xzv5aj7o VTM7RE2PSthLwXFW3NeMXYkbS0pqe2b6eA0aqB11aC6891iXBUeh1vx2M+n3pXTlZuLr9VV3 XghKq9JWMF6e9z9fOxYN1bXCtbQG2SlxSvFyujLlMSd+9OYzu5ghjCrLMSLWwR1Ly8uKcDjC jKOjVVbkX6W/ySRGwpMgBc6IXbssNt08K4CfOlYVlTxbjKXzQBuCx7Zc9F/F46syXYzNepSq 7soMBvQR7Je14BRP2NgePqAhwNpS7fsJbDx610QNfVE7zpd+WV9/jrNOM8Lf3h7TnktAnlz2 pHZ9PMlDN5+4Ilduytt9nbQvxoLyZNhPbpwUmJxR6gnvBWIJG4JJaxYR3YRk7kTFQ2TI9Jl7 21bOKXQiF3Vq6Ul2mIAWwxaVLlUUEo2OistDEbKgcqCzVHhQuJci59GGIgXlsidlpvpBHXQI Y1KFGX1Jp0QqTxrNgVW/LboKjYPmYwBA9cfHfnAXmomQ878crQZNfilJpqwZdDumKfF+oL0G 7osmUgiTDhclcnThKUPmDrnsb48Nm9qnmSZgCPC573OCJgPI+VLhmCro/b5hXTJaJ9ulDwH8 IHI4On3oHd+j9zFpNwKykLyOlwWUPA2dUZiVyuu8/t5qMosHNbZOqZ3a9i2rt58SYKCj1RAC 1uUy2TGv9BjD7LmDGtEWZbo6MIPlqA0hRuTo4ZBwVO4Sa4FuG92Xm1N340YItI6r6t7Pgt4H tjXjvtLT5nUUvErB27ZMN0krMvnliOaQc+zYle4VEWbLGBMZoWe5yIR8rQUxeqxfct6OWPE8 DsggrvDQmMzvn20SJXuvOAsD/IIPtEzRYjSZqqcxzD44ukflSJuWoexVGv4RyDrONiVRUSO+ aXlutDQupi3naYnCYJ8+826K+gBa0qKRQI1t433AEslonswZ2yU5xGkr2VTTDAFuy6p9Zp8U aGuzQgjIgwxYCIuJAbpE7oV5YjlFMjg7J3nOA8dRITp4mEYC0U1oN3lOi2IkY8SWs3nM2Tg1 eI4NAahbFK4xsfNzTn3byB0z2vV9NXPEjs/XgSUn8va8V/h44Mfnjn/gibfbpvc4j9/bmqeZ QGs0YRCHOSU7VStgGehJe27vLz/bt1tQYyLgLLyXc0pzugll3RodC8Y57OSwM+WJ3/PXqVrR 6A+GJHtN5aABY0wR3cwgXqViGQOwfDadaRvPaoDOiUXTC7clYVG1iLVKZx04zjatwp1wnr6f 5IidjUhTTkkLFOiHZzv1uG8z4IfMmjbHjc3kRQJ0cCLYB0MEROFNG2M6qI+Lu9oqc8RMIcz8 lSVdjpi79sZXnAl091LB8nQnbusyYzP288RTGS88ursWYm62nGdteJWimnUttkKA2YA451Rm pYXdF87bV/zce/4WrOY5CFuXjJvy9T+eO27rJe7Ic27SNbK8wfkwXTdPvQnjaB1diQNdGJFt P0wsZsoDiXYyJTRDBKc+oDEI5pdaiRGrlkxkzNEgMW6diYeApiNaSwqO6gTFcS755q7jF/sM gIvJRJFjyMVgwa+eLmZJYou39z5FGK3xShpCJmztHdB7k07RfEil0fZ0WzJ8cJAu+NwP7PuJ bVuRHn7WBWMIPg+mTr/2k/1z8KqwGdPz5tRRrHPpoma5y9SATpmXmMSQ0tL6DNyzRbouadLH Y+DCiTGgNa/WLw19FIyelVGkxzspy2SlnidpSCmzpxudjNYUI1I2+FULls6CJPiguZ6kBrVS sOaFyhD90Eu+TPQFJscBzlqw5HVyv7o+0KzxIVXdJkUslN4x3iOSJMksVOLZrY0J3ABXpFiK tC1BpA7/dKRCpzGmSUDvZlQcZu6Ldw5jDLzdV+a1HhxsBOexbfSLfR4Fjztz4Z/HSeMBPdoB 4G3L2EtDrwPe0ZDIyA+7QqK3dYFZvexnxRC2WkaSjAqfLqqRF+Hicg5Y1bWzVGIeEI6obWEs KeK5l4kamjjS/et//l2KmgG5wHQE5zHtuI5SATis2ZSTfIGosiOLcd6WBQLBx/PAgOCmacBm Nmzihr2cenQFHGeZfLj9PFF71xkwUToO/d2kINuHtrM7RWrFhnYSdoTyyxsa8RH02FQbL+8n k/ey2ZI5ZeOolGJAm8MfpeEsRYGbjFVTl4wUypE0R73m5/a4LfDe4/kiJmEj4tIaJdkpofaK 9/sd3tEn/+N1oI+OrA7ZJrCw5xEdPV6batIBagZ+PndujMj5uwya/b9v6xxMWVdyWzJdoPdS kUPAFsOcEXOcGvDHb+t0fDxLRa0FzQ1sHEjBkhA/XwdSCrjfViSn49Mx1FXBrgUKD4K2hCNe IXVDjEHLtnAIAwXWJQN6QlhBZ0WQwJIPAe+IjAfvsa0LmbzqVlFKRRuiqKNXKHZMG4/bmoEI 1L5PEElE8LEfqjrxgMsz8mTX7iXnRGtxuWxEDMKm+INEExoLfMEvnLZPw0/Dh9bNADlwhh8J dpmUefSOrgMbhCv/tbUxkdJtYTFYCgvnvVTc1kxUUqt3GcIMFwBzKACovad+vlL5xwkKwmif y2Ojqam/x36caGPg90TX4rPWOZMWAVoc05THx4A+rthrmgGo80JjoB5bJE7ailxWo9459VwD sh7tVnyiNwS11Ibnsd6hU6cxAO1CTMMNgD28au4s5tsKwVvm8Zm8nymUR2noMmamjVP823k/ xYZjsDaqg687BNM6fC7YIZDO4VLT+kTGgAu8aqd+zrkJXOUhGFEtSIbpCVnfmBbuvqqvD0hC ua15fqbpRWCYu925RWlHujlRI5Gt4Exp6rCon1o/WXitmVHZZir/KgWlNGwrp3BOgQYbcEAL LwHn9TkFPG439DHw9w+6TT2UQ3YUFoo+eCx6CsCRD1cbQwdMFMBVT+MAGxLVVnBbE5YUmMhc r9iMJdJD5nM/kGPEH9/fELzH535AIHjbNrJ4tXDyKmSoOiuIwePPv7/Ty21o8YkrXgOd1qld tfjTaCgEtWfpKoMWdCewKJCz9KmwMZ8ZgMG+vII4uKI2YMHnc2exF0iysADF10l1q43x7VSN QzVrgM2W6Z8mSie+rxkfrxO1VlT9wNu64LHSgam2S2NlrNVaSSxcJcEHwCvwIGQYI+gsO3xB 02xmbxwwOiQCYxDqXFPEbWFwkA8BpdapCoEM+OFgZZxp7BJEQ3I3BO/x3HnqbCt97uCAb48b wu6neNCSEdgZ8PivytCJUW1H9Mv7PE78KWeYA8TMWXdXAE9vHU5ojsSJIO08lxxnP82rgifd 6PSqMaVp0Nm50a+6CJywQ4mKpVd9rSECp6ojpk/0XyZ57BIE8eM48e0epvX1ti5G44aMji7Q UBvVQfehc+ioxw/ml89fRACXEMVkPswWt5TC2gY8ms6jB26rVf4cWLzfbhMvKL1NN2Q7iX6x BAmcZoniAjIEoq6cNiR6v29Igf7zRsCkqoTtmLFXAHqxV7P21GFNDgFtCEStU1Ik1eksjcc6 +NcWSGD5p3SccLjft7mu1yVNXxlCzYLnWdRgWW3KtbOBOlUNsBVugzP/1U5mdwFMKSUsun9a 64CTKU87TvIMWeh6jNIRpTPpb+gZnJQjx6oP2PeD4sJlmXfgUSpc5dB/XZlJYrGY8EDyce6Q +MUy8ywFTRRC1aJszQENrIRHirhvK2m+amMdgqdfnMhk6jp/WZO8zv3LEMfNnlw852frsqAo Jm6xGU2HQ02HQF7Hp1S1julijaZkDnfRuSisdPDBI4G4vofTgAQuVoO2exJdQFeaRWkNpRC7 IObQla2jeTjKVBrcYbNP70MQ1KKFwQCq8TOAJ3hNyxB4IZIneh0V1QqmyGFNXJY0hyjmE157 m8lKtzWrk1KYM3PnNbNbaTr7ObBmAiN9CLzGEp6Vb6bXsNKtrgxSBgb1q6JuHalenjCPdcHz PAGt9p0aD8IZl49ol9mOAJzvt0HSpUGvr+MEhPc/ADw1iPdP394mg8VGq0bbssgNAa4AnVZR Sof3SvjwHv/144Nu2EsmQok2la4C4HM/dfTcEX0jOULHyk6At9tKLzxdKDlEFCGPsA6liTkP 52UWmwDQVAq+6PtY2gTNiOP83oF49edQIcdf/vPvcvHixnQkbtombNvCNgHQHDDOtKNaUH+8 duWcmYr1AjzsIQTnJ/Jl40/GZUX0xh7WiZL59RSI0dPCU2sOw/0tKcKKKSv0OPsnyrYfhFa3 JeF1Mp+N6Q6c06+aWixD8OP5mowY+5m0KLipuw9aNRs9KSsE++Nzxx+/vcEBeO6MGE0pztPk OM5Zv0Q1dCItXPA6K8EZBboGwFoDmLQrTtry/GwxBOzK+nm/3XRM69H1hPl4HWQL+Yv7T6MD MmyWlClrGmNcx6OSFh0oK3pY6uLApB3PL0eELFk9RoyWO3rHAea3MD1Rdzj06BKSC7tahqwx zSlRqSRM9A4Mz1Ogg7FdliFKwyAgBEGMHmfh2FYG1LI86YkSIZrHtuY4r6iq1iV9KDXJk21r mahicmgRPdXipF3lqBFmOlB52BSxNx3bCsrO9jV4plRexotUEBlVfNE2lUodzgbI4NFRspoh 24YzY4RNUys+9gNLNLRzQOZpNyCNxd9jCyil4Xkc8D6g5E59eq1d78kwHyj9URO8yoG7Nrbe +/lgjTfHq5wolllsborBGskwhkgzXhnw4jC05en98nQ1rpxzyv9qHW83rvzKKxoWIS3AJP8x IQkIUXesATedi6SNjrNqsJ1yAGhzSiDHjj77/6+jW6dcvaGTNmXuM2Z0W9QGvaLpgnMgjgDB DNYzNK2JoI860bNFZwTO8SoJ6tYBgcLBZNjEGPDbg9frrv+cKps+0UuKMTFt2WjFzt+qWM+v J368mCbsnBkon/UOJk+sKXNjEiOUuCjCVORDo7ZC8Ehe5t2EL0J8I0sOISnf7Edcst60TvWM uS93LbRCoEvkliKy5oxVHa+KyIRyTWRQOj1W+hD8drth15it53HMydZ9WzR/9Bro2OTQgURK eE/HC6FrRCl9OjUajhGUPm7XgXOY/06OpF45dIhn+pKBP0Z4GMr/45QtItYO8UTYvHf42A94 72bCNCFXtsmld0TnubMVRl1yRE4Rm1NFkOPJOGKcEuto9x/pUp1pSMaDV49V00U75+CGPXwP uEgD/S8/YiE2nmpOGxU6tc32ouQARfaYyHRpsMzE0DnAS8CPj0/qzfQInH5wraLpqeCdm4nJ Q/9MQCZrylx8QMHrLPC1c5Srn9t2NmDtLK+OoRz8o15K1mTc+NbIRhlj8uTbGBhNZs9t3ATT /5fWVZ/GmsdGyEZscGA3YoHC5tKZosc/fn7i+89PLDrPiIHF2f46cNd5/9y42r3ExBSq6Y0D 1lHeN9KlcqRnehdhwq9qq0WPjCE8vlsbOKTBn2W2YST8Y1aVpWk/rQ9eOs37vFAaZAZEANTH nAH3xDQoVOjHObuDX4J15fpLp8ZC2tJjVy9W+sE4PeYH/v7jc/b6trvCly5lSoq0lTTyiD5/ nFPaxGN4QCY86kPEXhq8nhCUTQ8k0ZmCcgZab3OsbGoWerZ3LClPdNLEEVZTipCcUbZN7VVJ o3ICzdi58bNbjz4GaqMm3mzajlJmbk1rDcV7xNu60ExAH9pQbNg5Ilufr0PvCt7l56uiMmgS HhzC8LRjeqGhUtGTJdIMglUPtT4Il3rv1DeVdhpLCgiCWZSVUvXPyULt2lkwH43ol6F2oj00 p2bss9nGBTz3A2cJOgxhmkRV0j9Xf7kudEW8LG5MQB4/5HK5aI3H8W3JSDHiU3NdYmSvflbG nRl6Z26XWResDwECgjkeflLBah8Y4rB68hG4SEnSfGzrVMGchX67zjNduelndcKFF4NDbW6K MfaTerllSXhBgbZVw2+Nex7VYdCOHdGxpRnqcrhBGWyKER+vFyBAGKzIbTgQnAO8crlFaAWi /bfNh811ymbYTlGq1ni0dhkIIMplRD8btnRNWgCgKFuYLsdOv9ys33Q34Z4n03c/dob65MRT zNOAAVqQIth9yJYyJzpFpBDxeRwz/4xKVlKSXePnsFjs3Dn/tjbVwohI6owI4YvUSARdLpM/ 280hEMZNIUwyyW/3jXq2/URRgort0uCNkdPnIs+J+W9eGUzRe87T7UVH71gX8slO5Us/jxNm 4wVRId7gOPK2Lpy3O9pLD+ERYhMfiKAJj5nvn88Lc+5DXaQvscESWYB87gc+njt7a+1Jrf/m UINRnaUUhBRxU6eJ6R6R0gzsHUPw8/maWWtmm2ZX0UuzTqdQI4bpDWNYRBsdb7cN5sPhnSMq eRZsG3ntm3rZcb0EpXddYArDkMhMMnKnm91Nm9x1S07kycHv8HM/5ucXfV3vHWpt+P75xJI4 mEqqz7NFP0DfoNmV6BUEALGPMSdGosAJpbscQeZEbZjRqOz+p7NCw1lomC8GgWpV3Rxfg46M cWLk153sIJXMzVor8pLxh8dddymLkCVGLZj46ScaNbjrE7h6rRgzI4UtZzXPvVpQIxL0LogB ygCm0MM5fU+lIw29jy0g6LmfEwz6dtvUj1UAEWxrggzg4+Tm+KYOVKeygUwkcpTC946RJ5Ny 4iy0QAKtVMzurDaPFsdst3KS+f2lxAJ6W1e1eRHEmQfP39WMGVZ1yu7t8rqLvXdUdx2rUEFd 02LltmZEAZonGkfpkyYbKv6eYkIMnOBAgOBlzp6Pcl66cdCWeygoQrqVw+skp2xTo4HWGkph Re4dZuFnbpa1ErY0JwenRWftDb101NLQbitjQdXXLulKt9hNKD4hk1nrpwWpAKidUC8NDS9z xKG7lTxzPoThrrw3xm/R384qwt5Fuwx61hvC2UfHtiaYc7Y9A1LEGs5CDh28jaZ5EljB6vTk GX1AmYh8HT0RU4r4/nypoaKf8Hd0joXNftap4kh6RE6znOCRQkbt7JvPQrYIZjYqwZGuqpHW zaWCEdJJp3TeelMrokqdEy4iIlDbkqHJDyfebiuakENmbtTec6xo0yx+gYIx4gSJujJjql43 qw8IXkee+uDpZUtAyVnvHAIWYHLKQghYHFMSaq2kSGs1vGpIT04J3+5uglX7SXVM1oWx5gjn +XAtGrwqw9Vr0UbKNPEQu0ZcMDc7TIeK2vuUhHvnGOup7hrc6QIRp7VSQnB11k1WrEeuzgtt c47366JqCjoZ+EktBoCqdOj7kvFCgVlyAVwHxkBlz5qQQpyMEVsIS06431a83W9TFx40dsvE h0MpTq53eBcvOVXISniUSZiI3iFrwD20jRMYhBqJKwCzPuEsW9sof9G5A6g25dzfs+tQO26b /vV+2attycz5AlIkQsbThcMhMziwXRkUVwhaPNrksPWOoSzfpFdADAE/Xzu8dlNZP4dp3Zne VNBVEQM98aybqWPgf/7hN7TBBTXjPHal/uYccfME9q1osFiKvXf1bmUrlGKaA5FdV6cMHSro l+vFYc3rpCQbetYG+/QM+TJb5ujOBir3dZ3uxd81ZD4E7sgQ/SQeHIXjUvvv+NlonW3CgG+P m4oe6GtDKxEd4GCw6HNutmq92/RPVHVDU2ARhV6X5cvpQpiW9tpDqc3czVTlFpIoTZc/2S6c VbgQkPXhO4DmhY4FZVRJ2GNdJoIZg8dABL74x+f8JTUaQPcdLaiFaWt4nofyINr0yolj4BIi eI/SqoIrTEzKKaFA8Xk0JVTwAZRascSAs3GLL1pgFF1IFOi1KTUOwSMNzz5/0FrsUBZsG8qT UwQPwvvRWpUl0t+0lIamfLQrFlswPLEAMwY2Tt1NRQ4zeAAAslqJWuaMji9tYOEd4zeJtsUp SbLKO885NYUY+0kZNydxphenioXXCDl5IfIKMSzDQfVoAVqoiVrAsNaoY+C+rQRyhqAKCSxn bZNaBT3NgmP1H76Mwc9KQYT3RPFsscasBjZBoS3ro71zc6gQKr/sLgNQp8qKijGAP317g9eJ lbUNtZGYkWKgAlRVJLclX2iW3aXeo+trD/GKJdM4YC8F77eNXm/TQ5ZUJuqzNZpL44guqhNJ BVtMtPXoF2WYizZChN6qpTQgA0vkQvqaydZk4PU6EVRSTSuSEzWyzRIwS4WgD0+fV6Mx07Ys yDmjt0bGi7a4Nhp9Hee8Vimd9vAKDbeuDFgVa5zqlOUUqx8QePC6/f7BjJYlXZCrZcychd50 mFC4XsH//O//S75GSNg9ZBTbLU3C7DQDWNSYqHU2/lY9i67+H88XzfW2DZZrQiKBqlSHIAYm HkflgO2lTK7dz+cOOIFTsy+73yYrBhdm3o1Jo0G2toOCu4gPPz53LCni2/02YVZ61bSZW2PO F0Mw0xOMfWuo2pQ+aQ8so09K964L/64+t8ZEtSzUpi0TC+fLUWMaDWqRa7iyjMuXLoaIn88d fXS8P+44z4L9KHi7r/h4Hsg5TfKpos9aEDqY1XmpBLwe68IgYLoJ5vlhBUB0VEv+1+cTTjjI /+3tzoevAkdbLDQPomN09B7f7je0Tirztq7onUZ7NmBw3sOZStPxvo49wFKQW2vqAOXYpxZG VqZwec+KqB9qpAi/NwbZGjBDdWzBh5rgi0BbwystOUcK+1q/zIiG4u92iliv/xUAskXnVApt x7V5z4cQsCTWKRYSYNTpFMLJdWTqAAACR0lEQVQcm9qu/DpTEFtU+pl7G1jzgtuS8LE39Nbw 2FbOE4bg22NTHTzDla7NwKtry+y6St0n23lW70chCGLYO0KAgxD58mEmHwwdmIgel3977vCB yok1p4li7QV47jv20hADe+rbulDNUgqe+4HXfuL39/usQieNKgSdfbvpjeoAbdPCVKfAkZLV +0DX/rppXy4CjkLVXQKCOcXznq7WKUX8fFFvbkVOTixYs1qQ7KXymJXrhPgC1aPqe8UQMFRw 6Bz/vd4afjx3pjJ6j3XJ0+jodRx4nlWHNab/D6pJi1AtKF4nDQZ9CFhSnkOjVb1mrSuwypzX toNTf1ybT0SVruUY4P7lr38TgwnhML8UA2haq4iRvPHWiBBZcrJRq5YccV/Xueudo2NF0165 D3LnPfwU8ZvBr6UyP/dDLbkDSiG6ZJCv3cW2AHjNcCEclTKipL/cWWhEzEGNnz3983Wg1jq1 Z/SnpTrHAA176Ivml5kezoYvHtpFTMk0N4FFZ9liGOAVQfM/jkqN1nVbGXdSFccYWnSKw6Q3 2aLtnbboH8rpu+VMQ0I9VXOMOGu5LMYADfnzOrUkH8KDRbFAcF9WxJceu7VpyoKnHMiKiG1d sOgcOQZBUO2aOSEdZwFTOw+Yf2kMAZu6IsUYIa1htI4uHSjctj5Yfjr+rz+i21zo38fjT6M4 4MjuiYEGRqRRkepkxj0mXfo//dzUadqkR33ITGOyCJH/nz9Gqbapn50o3dgw/4+fz9cJc80W ERQrOvXOCCH+b//NfwNly9PUg2zOGgAAAABJRU5ErkJggg==" />
    <image
       id="FlashAICB_Patterns_New_Pattern_Swatch_10"
       x="0"
       y="0"
       width="125"
       height="125"
       xlink:href="data:image/png;base64,iVBORw0KGgoAAAANSUhEUgAAAH0AAAB9CAYAAACPgGwlAAAgAElEQVR4nFy9244ku5IsZu5O RmRWrz0zOP//EwIEfYYezpsgfYAAQZiZvbsrM4J0dz2Yk1lLNRjsXt1VWXEh/WJmbpT/5X// PxIQJBIAYCpoZgCAFMDUIEioGdIDY05YM5gZYk7c7lARXNdEa4qvrwd+/37hnhP/4z/+gWaK 9/vG+5pwd7RuUFHcY8JU8Dg7hgcyAl9fD2gCv983kAEzRSRwtIb3fSMj8fU4MebEdU+cZ4OI YsyJZgoRwXCHQvlvACIS73sgA3icDWb83R6AmaCJ4BoTZoqmimtMiApUBPeYCE8cR8fRFNMD HgFrBp+O65r493//4nOJwHl0hCde1w1TBQRAAmqC8IR78BmbQk2ATCABqGDcDjGgq2G4IyPx fByY0wEVPHsHRPB6X2im6L3jfd8AgN4M95iYHmimgAh8OiAKAfB8HvDp+/e3ozcMd/jgXxy9 43F0QIA5A6KAqKGpAGYQ5XUiA56JozW8roHMhKggZkBUICn4179eOM/GC0cCAqgozATmgkzA I4AEIoDXizfhPiFQRDh+fZ0QVTRXiAnEBDGwvzJ53fdwiAh6UwDAdQ8oBMMDIkDviqM1hAAC gUmiq+F138gEDECKQET5/dbQVHGcHb//XHhdcy+a13UDEPzHv39xU5hB6verJropF2wk7jmh 1nD2Bjn57EQEIgIAiBlIJNwCmdx4TRUwQE1xmO5n6/XvnglDojXDr7PDY72TuV/49ETGwON5 AOBnqfJ3tt4NicScXF0zEp6BpgZtiuu6gQTy7DhaQ+9ctYFEUwAKqAD90XEcHfc1IAC+vg5E Jq5rgvcnEPCXmggggnDHGAIzvqg5vRa+oneFB3fH9b4RkTh7AzKhJtBgFPB6qT750B9HQ0Ri zoBpQgWMTCJ43wP3cEQmelc0U6gouCkF4fH5cz2ohzXcbeDbJ4Y7DjOo8uee54n7HhBTiAI+ Ju+vGRSCEIeZAZkYPtFSYb2hN4NBIJIY9SKQWTuVUTaQEBFkBNIDr+FIASDYi+PRO77vifsa jCoCSALNDKIBnwAi98Jaz7+9rwkIV004v+GNiaMFtNkOCfc1GI7AB+2ZfBGNq7+ZIaYz/Jni 19cDBsH//f/+N3pr6F1x3wl3x9S6zxXqBEgTJIDwWuG9wSNx3wP3NQHhzZgHjmYMy5NLXAR8 uHVtAKCKvZgEAvfAmIE5J3dZGjwDj0cHMnHfE4HEYYYUgfuET+CfkTjPjumB657QQ/Dr64GI wOu6cI+Jng1jTIwZ0LrOqJdz9Ib3uDFvh6riyKxoCGQA2hSavOezN5gKpgfEEwqgYiSu4UAm zPjiXu8LeXT81z+/IQCOo6KJKPphEADf7xtjOmalxvXVxmAu7mZI42oLBGYAcjPTZyQiPi/U I7naRJAZkNpF7olmgqbMf6nCnKZgjoNjTIeq1MPhLovkSm+qmBoId1yDD6WZAQ/hz0AwI+rh KHK+uTNVcJjWi3UkhLmt0ocIAOHu7v2oawHG8NoVa7N9dh0qDL/HwNEbmiluEaaoZDpZuTeC i23Oyc1jyYecAuhahJ88/r5vzBlwD3z9OhHO6HU0IFMxKmKc2hBQSPAZZgjUFHME7jFwvQda azi74fk8kJ4YcwJpjAgV8SJW/McK7w296d4VzQB3x4iAjwmtv3cPZCogCd47X9g9A4+z8ebd mU/HRI6Jbvzl3G31PAUQ4e4WAYujyYVjxm/0CIgLIhK9dTx7R2uG+xp4XY7Ezc+uUIpkKIQo IlY6qS8RREYtPsFxNEAU933jHgx7Dcb7z8SMgAcgwiimZrjuwcV2NjQ1/H69MWegdYNnIj2w Qs5anJ4siiGKszVIA6w3xAxETFgXHGdj+M2A3+sBsSBD7VT3hCg3iJigHw2KiUz+3Nej43Ee UAHec+CeAY8bqgKPQGuKCIGpIOvBtKO32i0KBdCawEOR142ZiaPZ33b1+vIITK8doQe+nidE bniwPogI4EfYzXrzJgpTPhwfE+sjRQS9N5gHVATdDGMGIhJAIDxwTVbPqBSWDkAZIW7n97Bq r9rBFF0Fczg8klXydEROzBGIcKwa04whxyOYdioatKasSwAcR2cVHFykR2+IGPvmmtkOsR6T nYoqYgJiAk3AM5AZ6Gb4+jpxvW8WzQhMD3ZPqpgZeL8HEoneDK3qkvRE68YIWBHK3TEA3BUh ZiQkP/VBWqL3Vs8SaHOyXVGwgFJRqAHZW71chh44b8yUBVlqIJwv8r4GVzUAUeapHIn7muj1 OVE7TerhRPKFPh4nolq5Z+/wFjiicbG8L6gohk+MwepWFRBbkSerJVL4NRGZ+HqeaKJ4z4lu Cq5XRXPm0fCAewJIiCgyEnc4NBMKhp+mwvRRBW4zgzVDRGBGoDVDN2MXYMLdKAzh1huLrwrp EYHhE5hc2NMd1z1xS2BGsisCrxEZ7J56x/sa+Of1jeNoOA5GujkmrvuGmeI8D24MdwRYBJsZ ugmGT6bawzDduWGrpgGABmEv6z4xANhUqCnSeeGPswHCvRP1kO/pSASO1urPCesdBlRB5LBu 6GK474lUw3hd9ZIPQIFxO+Z0+JzojQvjn39eCCRMFMCAR+LsXM69V68oqBCcu2J9XxOJgKry MzUx7okb+SOvK45usN5wSmCa7HuRZGpK0Wq3mDLmdMxMpCeAG2b2WWwAMr3aQX5/BHBdN6QW zut1IyWRCYQnC97euEgjAWG3dDZDN2IE3983rsYF+/U88XrfjBzumM4I8Tg7W7jpiGR17x6A CmYyj68U18ww5oQ0w1+/Ol6vG03AUBvJanPMgAZXRASLHYBhKSILT2D57wn89etRQMWNbg3P R4dHw/frwus98OvrRFeuuOHOnSqCo3Xo49OvIiqfz4QzrOyHqwK0ZlCVfT1S+XOnDtRLvFmd j3DEzB/1i8OdReQGTvhLKhrw70XYuiUq1Aevg2E/6xkILFYnAxwPw3kY7tvxuu96wQz/IxIq 1S5JsuVULq7e+VyaKDyDIA4ECtYqpyr+fF91LYDPQFbEREUNqUXtkVBlAduaQhKFsSjgbAF9 teMQhsemipiBieoHM2HKwgvB3aeaDNMmvH4kXu+bIMbRYSCyFBloqvjreSIjIY1IE18Q2zAk L4gtlu+CUZUokipBinuyNhDIfoFSO369OakVjc9f8WfhUPk8pPDcva5ANg6QmdzdwhcSmZAU 5lE1uDu88rB7IJA4W0dk4BoTqoCKoDWFTkHGQt0UXbM+I3BPRi+VhHT++/v7jcxk+1YFG4Ad qXo3HM3gEYjqhlZbmgmkcEH6DEhraF0hpkDw+bK+AiInkAmfiTanAwn0Q3aFGNPhtfPdvcKS cRdMR28NooLv98VwXlX6nYkxHJnAcRi6NVagcaOZoXXDGBP3zd16HCxCAoqWhdgpoBAcZ8dh BhkDUfAvpFKMKJdPBiIUmfG33WsqUDNEZhWFjXVGsNjzzL17rfI+hNDrKnZMBdYb5phI8HNa b2idO66ZYjrw6+uBTOCa7KMfR0c2MHdfE4/HgWYCQGGh9dmKjMrDKrhuwtDWWhWHiata4L/+ eqJp7eqKilrg1mEGEaaUadxoABjuiVwx4nmAEZ01RrvuiamBezpX6n6gWe0TY68ZK0LPRP+x o4jC3bhuFnNmBjPBGIE/rz+Q5AUfveEpx86xzIFGyJZbjxccgFc0yMY8jQAcAWYdgSn44hdY FJ8XHgG4ZPW2qw1ztMkCEwH4nHu3PM9exbfy/mKFwYTFwKg2VEDIFMqLFDUIFIcZbnfMSjsq ikBiRGDeE2qCREMWDmHNCoBJRAT+7dcTrz4wZ+A4CM7cN4trUeb729l9mCoETF0Sied5MBU8 Tkzny53OYjMiWfLU811YSCLRTAln5nRkxoYYVbgij8Z85+710IGpgYYiKO6BELY2vRlEdKNs rJYTkawCVmt0dIMo+9dAQpK51wsGXYDQfX+QuH403lRdRBOBNkMCaP5pJScCGYkRRNgyic+7 JPF+EEKWIlukijcxtqp+jYogbFg+LWt9zuCDUydk/Lqivp8bZSSLqkTCmmEMtngA4WdrRqRx DIbsSITHxkmIRUygfv521kv3CLS2iCDu+sN9dwpSu9+zkL5KaWdv8OkYc+12QXucnYVCVesZ gEtAizQ4jw6AgIv7IJEAgipiCq8Q9Tg7C5fhMAGOs+M8Ou4xcR4EORhDgK+vB0wEMxKaq4KL XZyRrACGs49PTUjIzucrzCWD0P6SIijue2Im26Go/L+KIeZ72WH2mhOiDS0NMQNewIGoVNFV RW5wYU73avnqK1kkodC8TLaGpkQ5GfYFiUCIwmfAg8hkJvD7uqpQZVvpGawp6uPvezAqVXeg xmeU1Sl4AFb1D1CQ9NqAIAPnKoBM9IPQdjvOzlxnbFFGrT4X/q8eVQlWKMXCpQFYKv79H1/4 fl+4bkaC3tirjtvx+/uNx+NgSyOC95s3cHRW4t+vG19fJ6SQsKj331SBykVWxZ5LFLmiMCF+ kEH0aj2gFobeDQEg3BEo4An6qcBFmMKCnUqA9zmF/bRPXkTVnZsFFCUEaqF/gzWf54HXGLgr lHdj+E6w/jiLAIpgLmb2rDQoAjs+LWgmiz47tKKb4fViX47qANhhsI6BCEzZlopVARxR37cK XylAjAvBm6MtYEVqZ88MYKKw4XuHqhVWvVCjyEULElhZyJpHYLzu3R5lBDKUfbQAocDrfRcp c9bLi6Jd+WDui1Uuny1ftCA3asgNlrgHse/eG46mSLBlO0xxNOa5hc5Fooq0ZFtkBCxa5f2o MCAm0IKY3VnVL2BkF71d0a3hdiJgqHZpdTT3JLvXG3O5AjttAlWIge1bqgEIqLLgRAFImQGk YQa7qKNS52pa1u7v1hhZRCHKFzw9cN+zCtab9UgArWj0tguoavAzsBM+kmFdRBjuJCsHrV3P i4EwJUQm0ln8rYeoKog5uMpF8DwOzMZ8mACBg3UzSPaiICCS9XmtJ7pZhVm2WIRBDWYNVg9q 7VxE9d1GvECFEYpFDUOkKVuhiGQRtOBgCGsB5yJrzZCJTa5AqBWAMSL9ed8fZq+4/MyAJ4DJ RRHggg5JIAhnuwdSUEWxQCL/Rn96VfC2ciIAZCAKR1gbsBt/PqrNjkrTx9FgwutTBVJIvGRU y5aLghRBN0WY7BzlHuiNRRsKGVpokgh73XWRyKQQoR6sgEUHkg/wcTb0buggiTGGU1ShrN4X 87Sw/lWdZ6WbtdBW4dJEcN1sBxO8pkfrVShNZDqmzxJu6K7mfVKlYrVLxhUFt3K3ROXJw3Tn zTnJCZiRwHkNgjALJbQF+tQzSGfJCAHSE3NjC9VfB8NzKnB0w/Gg2OG+xoZOLaurUdkLiys4 9yL9rqjJyFStWmEpTUlRqwnaJAhkqmiRgETJpIogALBXxRSqSHpnTxheKSBYnb+v+bkW5cOV BADmcdxj98FIqj4ySJzM6Xg++m5zAMKaP1UeSO6MuXKVFJ4AIKWEFJGYPtlt9IYZwZYvEufR GVp3WCRAM93h78TzSao1td6KfKhg6w3zonRLRdAPQ2+GWbSqAJDGrWjKWgMiSFF4OrKudSaj xKo9AAInIiVTW+3mjLXX+N8VDjN9F9morkjBZ33dNxIKQ4V/icJXEhETUEHLdU2BSKA9jrY2 EPguawlVmBcRzHDEKEJCf1yUx86lgFbo466GYuu8ZP1csBrNigwilAB5LlZO0dsnNIVQjTJT qKph6Y7IhIlAMvCr5EB/XmT9vl9XMXaG3htJkPo9V+HYpov/dsQkM3f2VmE5Nw3rY8KMbWEW hCpA9dmALuFGsC9HI6vYANhBcYYZd1dEfhZFCVAW/YnkDq+kSk4+2VE1U7izHllCCE1BWABJ qrgVotpbgxijzPTAdCd41gzdwNqK7JsyHwapRuATqqQKDtKlox7Yh5tdBMxGuHeBn9BkSLJK ShK68XepG7NGUeIKVdaA1jpE2RbGJNjgBVMCydz64xrnnHi0hsfRKA4M4tNmRKAyAlOkQt9q S7Wq68Dv7zfOo+E4D3Ypa81nbAhY5dPmrfRKrDsKh4jakYkDzPWqxACWIKKp7Wg5I+GDhdaM QDeKQqbPAnkEvVNJsyJkIjY/EgmoJ0LZkmUkZvIzezINZ3LH71TSmMpEFG0M//TpW1LD3aAq yOTK8d0bMwwqBKqGa45NLa7ItJAjUcHY+qx66JFovfpIVViwbyUKWDi3+wZEIEBMoleyfwlz WkRgjIn2xbDe0jAKDnWn0JKtC79/tTo+Cz1Tw/AJnQGRUdQvig/n9aoAYhRZ+GoPd+HJaxBl TgV4v1MJ3ijI3wMCb5/uwD0LmAE1AUahBJz4R0ZCrKH3tnF8qMDhiJC99CIID9/hmDcLNVXW LkuOlfV90yeQvIc2CxLFDvL8X34gw5GIwH4mpLp4gwDauZpXoZLcxRT/cbeOOXfY5Gcpd3Px u7LCPZL5r6jJVpy1+10vjRU7gKq4E//214NUcADDg+CQMfdHBg5tBIEE6Ae1bNechVYpjnZ8 cmomVA3IhXKBRVkywtzXxD2d2EEEuhqLpNWbC4mSUXXOR/WawBQMmVQEYUUu4HmyBvn+vov4 EYgZkMD7feMocEyyNpNio3AL4bS0DRglSmmjitZJWGURYCoKMaA1U1KeJZ54vQdyTMjjQOuA huzclWAbNSPgL4blBblaUZ9rHY4ZLICaAQ48j1VVE8GjTJcPEB0gG892T/BBtFZIFRU8Hp0t IgQevpUiC55tIjh/PZhGSrPurRUwgo3eiZIR+3qeu4f1AoPYpDTkID7fVHCeBxUuwNb3HUfb 6h5W24ZDlegXmO97M/TGqHDPxR3w5TzOhmaG7/eqQRRjsHUUJX2bSY3BeTR8nQdElbn/B7l0 D4pHrPElqxCUWTkeQu3eSuO/ng+0Xrsygz25KXFoVWCMScBgvXDgE5bq7yKpKRseG6+3ZhvB u6+BFO5+eAD3wFzQabFa8bOARPXKkfDVLwNFvRJbFsm9k96TwxZU0bCvJ+espWopGlKAGZ96 QMHicBWMsYiWcJDyyb34lvSLeZr/r2An4k4eXIGtbTvP49NCeUHS1aGw5eVCvTdFmntBSUGs Wddjouhqm9fQg9jGzCwpeiB9qX/5fevL6/dFomRiCYzJnP58HmR97oCZ4DyqZ5wD1xy7bdov pYqoZgyJXgWXAHBL2C6YWKVCBM2cYbOIAal25F2DEj/DoUhiZMIv5qgFvUb4Fl+uPK3gzpvJ vL/6VEjuMLxw/xUC26KCi81aZAnbv0p3JaqIrA6iqm0tHB+rOHSHicGVQxoZwPkwwrzDYU9S 0ta4YFfNchWj18xKUUwgqKlhBgteTG6W4+zcHPCiKRhtmwqq9gaAamcr/QXVQFo1jQffkxyC do2J3q1gz+Klc3HOKKC/gIas/K6CXn2sj4k7PwKHZlZRgi2RNXLSr9fFYu8HiDEjMDOgG1NG rXyUSBEIK1DBFF58/QqRmcB5tvpPFp2ydk4ympO5E0QVMdwRBzIDr+nA9Co6sZm0CGLgZPwS Y6yf4yLQQr9MBXL0KuIAwIg3VDvaOnV1lFBR0VIrlqE+P1o/0UDvnSIKLW5BAhCyjRyxorp1 9fLHccLm3PpDFt5ZG2cxbQqZqNzOd9wWpUeSgbzmNR1R0tuzSP2E7tZKtUZsxkSiJlw6xYJH CSEvHbgU+MfXA/96vRGTFavCthyJOeaEFQkSGXuuTYRFy5wB6VIyJmrz8kd6mKtzSKpGe29c tMEWJxaqlxVaCv9mmuLvWri41e9UrR1W1KiW9Kk1q2kb7FwtnbNxCsHZDdOY4xsUz+MoUacj 4TDpMFXoEjxIpYTVJnpggrhIljzrPA6mv63pz1IAJSSBx3HAmrJoFuy2lNA5i2UxBUo3Z6Jo X88TS5NgetRIkMM6mSABKMERqd1ULNx03MVdbx376mUrpKtwdOjRGoYG5ixULj5h9tfzwRuO wH3HZ3UW9zt/9MBIYbOozLhqZNO0AJDj7Hi0hgDwvu6CVvl5hES5AzaU/IM5lOrHxQwqxagJ i8zF3okA0xSo9tGKa88kymfNkKMgVxNoU/w6H/jXnxd8Jh++BxfYyr2JwrX4O9d6bmZoBnQz 3D6gqjgPzvLdUergGLtos9YQ7rtLWvhCBApA4zxcM+M42hgTKR95MydAuerv6ZBAzbbxxUt+ MOUIQDUAKNsVTKwiNTPwugZmhdje9FNYFXTJF1CsUO3w1VuPmTUwyT97rHEg9giSvDMT+Qwr JNPKPVnVPo7O+TXHlnpP/2jXUVwBC8dAE9tqnTuJ24su/H/FRP4fN4vicR6wWqTojWyashZ4 9CeejxNzTKgq7rmSsGBMMoLWGzRZDM/5mYczFXy/rs29H51ikiaK3rlzl1IIzm4jPqUXJmoI BKUyEpJC7X0PXPegwrOacd5owO/YxVXmpJChELjFf6txl+xKvGJvM4Vpw3tMpHOkCPIRSIQn pgbm+8bM4E4Q4GhMFWMGp1crvy0Fjgo22yagXJnED0P6Gtl15/ceX40UbKWhRRKtUSIEPrs1 FZDY8Ogs6tVMMRZ+Lh8VLsAKvtd48Jhs+7oZpgf+vAeOs0OzokBFLGL71BSuRS4A/HZeaya0 iC6Rj26Pv5utmLUPLIy6f6qWsGuMzf6ZAmNtRKARTmR+WpXfcEeOzwCg1upegsb1oc/zM7x4 3YMz5ACej45ujSL/TPz6dSI98ed9AeBLNSium/3VeTYWLUj06qunB46D1exwjippUtF6doVZ LzUPx3Kps1uVIHZ+X+NIWj39cXZkJq6671YjXVwsqxytjwngdkdL3vMSUnKMSKldm4Go8JzO 0eTXm6PM59lwXQPX4Px8t4YE0JXP7OiJZsqfq5TDME/kcdTY9+PsbPeSdchxcNh0OBdJ74Ri rVRH3y+mtn/7x5P4e83fmzX89z+/Gd5RfetPM4JZQ+wsbKg8ofygcntggzqvcXNao3M1c4XN nZdFBNKEsikhJu1woCsLNQjEGLZ7t4JxmR76YcDNP98enIxJFpitt4/gItkyWhWjzRTWWMj0 heINEixLH0AtnVOv1xtMyXItHbmZFvDCJLmq5hkJRZAbmJQhdVNMSWAWTtBKhj2cQImRDDm1 QZSTNWaFEczAPbzm+LGThwjbx9VOrjZ1Rk3/1jsi9lDXVtdrNXHce9tgqSonWtuG0ASFkDFH uigSTuZNsOe2OQTY9zz4WkkJFFOVuIZjTjpFZHIBKQRNDWLEvzUFKg0qjq+vk6PApapdCpPj 7B8SxxRWVG8mH3hm4Dh79dFFJhS4JMLZsdccNR2rSEzeoxmOyv8AYFLa/+q9ZywtPDnthbS3 4hRiBhzYY88LS2ganF8XFsHH0TDdqVo1rfQADE+87ntD1jMK1UPx4EbtfdS/CwDLRAQVRNyZ zNHULAay8vZdLehxfNBMbliuXVUtIWkmRvBDetPNDWehQwBbn13s4sOurItdtiWBhAyvl1jT JgUqZCZsfqZaFm+9XiCkLD+q+n+gF5gRtAA5+4/pUtKGj/qsn9Eh/DOlMkfgpbSuGJPgU1cj qzYmjoOTpHcRNQL58NwVOawEJAAgNYA4q4ZoZntgc5E13XSraGzLe0trn6XfC+yd7VnTKc04 FFJo6PDAeVBSnp5IpWA1qxY4OjmM6027k+GBOShfO3or2VV+hJWyuiYBW6SFNNWNiijgE6Gl CHXSjaRIJxUxtQAI5ZK602Au09K+W0UJLzIkjAybVfHj0/HP68UHWHPgCV78t38cFI4DOMwQ yrxOKRIXyaret2a9Slipwm3ccy/YqFzZSFzBRHBX9yBFaWr98M9hS1qiVEv6g7W7h0OKLka9 dBWgpSKNhdif66rhSGwUjqYL7IJMKTw5jo7ebPfkSEqlm2tB3omsTZGggvZxnh+eLIEsdtSE EWDMj0Q7skwTFvHOrVg0YQKwhGWpYKribI0mQSvMq5CXXm3EzICY4Os4MDzwwgVZgr+cmEVW i34sR9rjgH+/AShatYy0H+HiW9EC4M54XTcHEUoiZPX53Ig101VhTyCALT8a5rDwxJ0T2bTy 4wV2oOyBVxTTLBsP40TszNyhdTGQpoqRiQb27OFLcYu9qK0p/H3X0C/nB6QIm8MXO8cUYkIh 6WI+l4ppLbJAtWhl0yIQfMe73gnf0WHcOKMGHonM8d9jOqHezIAktWFE3T69nogSWFStQg/V ngA2BL21jSjdyRVoZghJGArDr4UgwcJKlnLEycBxTvsD0IzJQuRo7He91dSJO17uuEahVd02 IbIG9aSUuqpt99dE1LhAMhPj/iBgCcALYlXjQjQpgchWpJauHTVNWxAsFy+VPiw+Ba6AVp+N quahWeqbgm2r5bzvH+PdhfXPoChjhteIOHWF6YGJElucgjFZrR8Hq/HzcWx9/tfjQIBdBJLF c68BC7xv/HqeaLPgVJrasHhgiGfYjuC4j3bqtNWKdWJsx3l2/Pl+4y5bEeYQ0rGtKXxyhRHu 5ITGwvkPAFe1SdpYbDXF9rr5/f3GebY9pttKOyfNCsak8qYFd/VWkxaX7nd8xpStsQ4oHZ7V 6p+JjR0ALBglUKoWyrKQBK7OGiN6X2MPRRxtbRhAkBvYImmSOxppCTF60nxpeMB638WgaSCd lmiznL44HkbcITzReqI9TvRGWFYqEhwLTJPEcTbc14RPFqLXPUsYkGWJlpD/7X/+XyUZwK5S URru3m1Xg0DldBEcvZdOjAWJ+9ycdTPdooZZLI8X7bkqXc5VY3+mldAxkpgA9eKfESb+jmIo ChxZu4QPx7AUQI/eMarmUJVd2PTSnc0Rm1xZ82cAasy3bUuy3bcXV/1ziOGeUb5svmnUNWr0 OBrGpDCTkcCwL1UYklcx6iV73gtO+Q5Y8LHwex7HHt7k8yq6tWYNxtLe15c7TRNWh/X7+43W W83YA9aELduCU1OzWDKqR8Z0NKUw0MP3tMOcggMAACAASURBVOQ9PnRo1steL+HDSbMNGpOr bnmh9VbjwskX7vPTX7tHSYXJ4x+HYdwTolkPo248ci+Crd5F0GhH5nq+RN02mSI1mlRjwdXG Hd1471WVj1mTs6Y4/j79vFFIUqEcH7rvsbEBPqfYhaSK/O2FE+/n6NKSY3N0ejGa2KglPDBB K7KZASHJyXelNWBaC3UVaiP8Y7UCqVGnJceueiQFDaiKUxkGAfxtelOVuXZRik0Ulw/4DFjR qL3/aPdF4XPW4EGJFIxqWmrtqiBsAnfQgKeKLmUkZT4EthBDIZuW9IgSOXJVH1+seM0DAx9r EGuBMUlUSH4evKmUyAOY4LUjagHWZ0dQgNFKuICsEefgC1IotPOG76xoIfTn+cfXE4HE9+tG RhBhrPm09oPbDk+gDAxnxG77TI3zAUeDBShxrheO0idQTse//PU4cN9AwMuI4NO6QhXPx7EX 1ypA25j0Zev9QP7YRZ5ZilBOp2SAQ/G1gkOormklxFsU5WEK1w7PmzdRoz2hue239jtQxV8n BRuesd2YVEtZMvjNViNXogrbnPpkq5kodyfmwMX0mQJoHP1dEyGt4M8lw3rX7Pvqr62q98XH pwdmfEQb9Ye6eC7z47CSW7H9up3kiAp/f2IZHH7aP6AWrnNypxWbeQ/ZUaab0XDAdDmEYUaU IBUftbIIoISoD+v0qcuSiINdwrIVU+XCaUsBuz7EtfJJiRhWyQ/9DDY2axBZMpxAxNjkPWog EpV7kCzAVvgOZBWCBEF8VRQBvvBC0wjFf7xOKSGKreBZsiwkc+xagOmBG3yRC9mTNd2CilrV kpkIvW1BOzOp0LoAjRm57U4AFu3rnWsZL/311wPL8O/1vvGf//kb7jQl/OuvJ673zbroB+Cz 1k4G8fPH0fE4TjyPhNd6os6PGkJdA4sJZMcWOS4Qhwted2G3nCtFFXOQvTRVjloJGN5HOHCx 3yaH3OD3hGq1QCZQEHlayJnUA0yvil8EOemqCBSc2Ayva1SRZNXiUQpEmlRwjeVDU1OXXi/U FM/zKP1aYBbIsCdXCy6+owSWqWUEVJV+M5gk/KZzRuuEQa/9kMjOKVGpGj5YyCPRySikbEXA rF20drpoQvmtFUUU3gy5WK6NpX++tjtG4+9HVhQNEiqrIGX7RjMnbVz4y8BIF4/vgTsChzXA iGwOn2VgINCImkBK2MN28dgyEzGBW7xcn5eSJveM2KhJj6OzL5f8DNc7SItq9e+zhIpmdEr+ ft0bjHiclPNGuTAwVH12IIs77AclnWnj5wz6ZtKwHuySN9XuuH3Pd0eN8Q6fUNe9UzMT1NSy 2Fm1zAzOnhO50hpl6j9g1zWYWdCIAr/fdM2S6lyOw3CAefp9j03udDO2u7PGr1rDVMrDRzje 3/cWnf68wzEDIr7lUNYbFMBdLFtGYsIR9bIls2xOo7CT1QEVIhqJtqZTpV7YCK60o/Db72tg 3I7zFDzKfhpgQZedNiFzBk6tWTihtLd32lG3wxCVm2Wt8MqbC8kbc2599qqEZwSu18VQVmM7 APniRQikaNmdWLlWAlMC3QTn0Xfr49M5AVp5lQ9Qq3Bi3kcCeQdGUioGi70gxRRdFKZRAsjY gdqXDaewuzBlTdIq/L6vAVNDO2hHehcLGR2Lsy5rNULOWgDQevERRaZU47y493CvzcbWeZYG 7jgbLVEmjQ/OowFC82C2oI52nn07G0HKHSoCEext/6N33HPCRHGPge/3wK9Hx/Hs7B8BnEfH 0WkklBo7NH09TvbvJwrlZbvUiuo8mlETh9Liga3hsif5LuelNd2Sa2wDzNfatF4aKVoA+Ldf D1p2DEqlzqMDR9/KnG7sNHw6ROn1RtEjd+KJhhtzO0ybBr5/37Bu+MfzxPsauC7y07+eB9wY lhdV+glIskmUDOB13z8KRmIVc/pCvylYbIbn2SFCw8QIwGokev2dv24cZ8fzcaB3po8xeC+r pXYv0+Tnucex/rwuTuL2kzahqM0z59yoVmbgvh3Pk94wv19vvF43i4NM/Hm9IaL4x9cT3+8b 368Lhzf849cTD1W83xf++18v/Pr1QDMKMF7XjXu+AbBOuEfx9Ak0XXuH5Y4ldmuFRGnlGPuY CRwow+Jl8M+cXeydUOv9PI8COpY8es2MV++PBFLKQJAjzl6qmmZWuZ71xqj5s9bLtrM3GGrE OrhZljpGAFhNlqZQlwflhM6qO1QFj+OAiNecmVS7uoivoqMVFfbJ6d/XYMQqB+nsoJ9ObQqX xREErhFbQ3geFGY2ARWSbkmzvY0SkfMdPnEcHdc94Rn4VdOY39fEcTaO25hCrEMg+PO+sKYy AY7mnL1hpRGgtF5FDPyrFs9q9D0SuCdmIX4LDVwyZYWgN9mF1T0dDjpDT2QJBzpUBdefC6/3 zQc1mK8X/g2wBe0V7ldrlfxle25+jU17ESG+RB9ShVpV+kuFypfDvGrApji9LMEOM7yddUgr cYoJtkfAQqCafixHwwMpTHO+7d4murIlbKLQRysj4qAbZzhiODsH5bMVlG7grimW7ZBUoZNk BOe3lqfoeXZKkEpztnxWmiqOAhneNVRvajVyGyVcYJGTWbqvmgpdVS/RO+al26MWQBSz9zE5 UFvSrioAc7ktMxH2rp/ePHNbgiGLcrTPRO4aNNiTscj6bDbGMwLPGiJccqX1YUuvviZ0UBFS kEvfwIjkZeEJKZEDNw/Ht3kMymo36zJ3X48xsZwgpT7fq5txBzxoSNBUYdK24TAl1LlTKFDO FtMhM9DGCAh8Fzd8aBVSlSqOMYLjvEenhVhSd3bfA89+4prM9QARrsfjwCj5j6rCfaI3I8+u SqWLc5BJK89lrXKVpQTJ7fywhiGi2LbYyJgsbQOum7//rJ31XnNuJaDkM5bdDrLlwjY1jgUV CyDGUetIYvB7CNAU2qS0+QBKciVYI0mfHn8tjCuXkzWj0+8/7xr4MOLzEKgwVQDlJlUI6AKm IGAaiY9FTCaHMNYiwZh7lHnhDbtwbexc7ouO081aVYsi9CVX7PmuPgPaFBE3Hr1TAJk3VFgg LbBlAS2ia3COJy/cJvR6dYeXflgTiFJtGpaTxdy52oqnX8bAKy3sPhlLuqUbFInywhGVzXBl UGTA6Q/mumURelfFLUqftaYKObQM+Nj2WOOY0bjnbtOksAeP+zOFW4tuK2wAuMpemIWfFk5A SbnV98/J+0GBRatkF1Fq8HKlHBr9enwMARVk7ug6aaXT589rbdrMxPd1ozuPHlmQcDtbK/6W oVRUNyIn+uF9x5xbEizG/rmZ4RoTXRXH2TZrtFLG88GQcy+OOYCX33vQINaNSs1lJ2rS0iBl Bz4KUdpI2NajsSWCL8Kmxqmcer1+kAreQwSVd5nb6vd7IpRm/YcqbAqmMPeaCBDreuZm/EQX FetlR8bPmyjIuDWqTcvvjXw+N4F2rfHvqu7FaHwAFqrpf5+3C6s59kWJ1gv/uci80MijOH0p SNw92McvSjWjLNkDTZsi35/5cdXYIMGauT664U/Jav/6OoGi9HhAAPPnJwSWl5sHXu9J6LRC K1Z+15VPs0gQ3S89EkCJCDCpJPVIeOnBzagVGyVS6CUHNmPv/5PijEw0+UznrNW/FLWCsjEX oAmRvp+07j0G/vHXEy0/ChZUivAa8JDakeL0osPyzy/J0o0JBOBC/eFfv564xsCcjvNxAO+b lYBH2XbXqU+FUD5aw4sn8DBiiRBoCdDupCTc4fTfV/346qkqWnHyy4R5ZqL5oJ1meOI1eMBL Pzi3dd/kjG8TnL3j61nnhAUx4bsKjefZ0YH935i8QFPmIUmuYHceQyHNSOM2w/seu1Ako0iH RYogfviy1E0whyUgzNX37XXqkhTXzgr7dQ3SpkiM667TDlioRvHkUNlQaagCEvt4rcUM3deg GXIQGh333NX+uCeaLfcKIB0Y4DwesxLbJRUqc99jwNzLjRL4/ecNFeD5OHCNifuaGxAaM/A8 6Q3fG8eV3TmJSrWQ4H0NauIDuO8baoqvkz4A74LDiUfwOW1gTUtarC3RhTtOK3weX4bX+8bR CaGGJ96Tx2X1OlLClICLGKHXCN+TojyVgNr0ITz2i8UV3Rq9FKRRShqY4WgKU6P4kudgMIfr Z/hCKp+Zfo6wWKIDFQUatvnOPoBO6LWWtcW5KBXSrcz8PuPYNNOVHT3IdbBumAjKokVx9GrR qmtIlD9+/V1WpRooqjNlgzgsVIlFjGWlVulDilqeEdjqlEiIJJaNKvV3VONISasWkuk75Qm+ Ho8duff0kajScWJBjjU84B6w1vE4DkRGVed1OoExT64H6pg424HneQC4cd8DEYLMMuiztZNZ eN1Of7d1vosItfSLw6YJPj9vlvPyFgmul6ss5NYYU1aBsDTvETQHZr/L0aJZVOkaUFyfCRSD F1rjzV6iD6YGwp9KL7v8OE5KGmYdSHB0klW/49qnOABR6l4u1FhEzlpUP7hvFb4HycIkgC2T Os+GdrTqFKS8eSdnA4O6hoX3R3HvVmjk4zxIWJVLNAC0f/1+7XEY4HN60gBwjYFfjweuSUWG qeJ5snVbxrjvi9j7mIHH0apPjwo5jruO41gF4NJ/rxm5o7MGWA4KM7KM9di7syb6MZGy7T74 Qs/zQJuf6LIox4w1TcrQKlYq2yiVqzDME0LljpQqDP82MXN0/pt/Ik2tvnLYYqaI4GEGTEOo KFE0aB2+N5PS7t1WldxZIDhPA6JOukrWFwvdWwf3UPEjuC+aHyzhZxUcxP0h0KwWVQXXVcdV 6nLzAFprug32fEyG7C9DljL1mnOvdCDxHjxf1SoFPI6OW+iZepV/aiuvFY/A9+umPq0lNGpc aLWJkE21ZrU/Wj11rpwoVN3aj4JxuT5lM+A9/+YgsXbVJpJU4D3IdGDRFmTLlt0KwXhUaC/I FMDySp/DsfoHwWICc8VtuCde14DNWcjbMiAGz2BN8gQtFBNOI4YalvQK+y1KHDqB2M8gdx0z JttQQ2Hwpcq54TsD/G00rXQKC8PP6lgAoC0+9x4Ddx0uexZvPKsIMGEj6YHPeHLnobuyXmK1 YFawJtuwZSUaiDu33r2X+GFG4nVd1Zdih3rRKn6UuDbSEUoVLTn9RKoghm9Jdm2+3QJK4boR iXH7hnmNHCzc6xSKvsItX+lC5cQK2UM5WRWiV1eJdaSXHg0YvrEEge65cBE6cgg+R5HxHLdq 8X66UyNxpu104CWa64UVrGJ3GxIlABGeRYuPuKNJqXND4eDhwOOeuEfsxdwILlBDlcncdtV5 aYnEV/9chG7Gh6H2Liuxo46LXIgUkmG4WaCdrPhZtBVQWYI7kcS///VFaFWkjq4khGhNcDQe B7IHCPet/eCcVaCZpWYsDdwWU5SVp/zQjUnuF6BW17JpJuwUseqLNWLVC7716u+RWQjdxzo0 C8BZX721ja6N8EIcsc9iyeQJzbkw/KizZGpXmirOx4Hv7zdPs64R6Fnz6mM4fpWnrCPLyYLd Ugb1AcfRSxdICggA2uM8SP5Hbpx2gQEL8JDitFEhyKfj8rkrYUwAzaBl0x3Omzh6w9eDdOTg XBShzepFj2b4epAFGzd3S2tUeCzxv6B6/AWvV36njUcdQa2oqRjjZKwqrje259sCRFAWKlGL iPgA4V6pl71wcC35UYbv05W7Ga4xMJYIsbTU3ajKoceOIiGIcLTe8Ki8OhcwpB+DJiRNjVtv SFnDiVnHYHMzHab4XsWkfaaKiCN8VErAx78GhWFECS4pfJUylQDaaYZ/vchbfz1PTpWIc1DP A++7Jk7t45iw9qyHI1MAC2Au4aRvEIRGvVU5ZtSYMvN2U6nzwaPyFy94uyMtrjnXhhZ49e8f eQ17WFHZp0CP2zH9RiLxLL7gHhPvMWpAYjle0Vq7WaOmrffKEeQPmK4rhemPh7o6G12dQsGi ZjChebI1xZisac5+4DgBC7o73XPuNOQROKXtYUcfE3e9uGWudBcjR/uRA2cnSaTDOXyZuR45 PrL03NNCrZP0UiiPHAXQ/uvPN08txnJtlF25irICDYDMl19YQ9qiwKkdI+j+BFme6ESeIKj+ 87XD3cRn8nUC+P19bcOeq4YHPLOO+uAq/fU8SVyUGSCvizXEfQ1q3RTImr2LAlE+Q4YM8+nY IswlGll2ZCMS973cKgRW1xJVLSMS1lph2oyIy09nwZ48MYoOkkupQxkVETRapRQxUw9QJTZ2 n7E8cNf5MQkMx4y5J4/uQf/3xYuvc2aB0vbFp7sIE1hBsxEf6hgAGmU6Hz/XKBUIp1xkM25r Uazc3KtPbv1AE7oyLFGf4DOVOm4vM36tNo9ExzqG6rpKLAGSKM0UvXdIPbTWGwAK/iGylbUL SNECz26n6d869mLRqNujrWOLJkKAdQabVaRY7lYZ2IftJPVXDIs+qdMHZWFNtKZGPmfOAhRe vq+xW8jrnkBSjWrK58Aitc5/E9mc+TrNAliTt/Tk0SYQr7TrPJpz4/r1LFERh00FWUIz4h9Z qWCJQlvv1Jj1ejExfecfr2JBrCZKayiCRQIF/F0Ed84NkghoIIgyuLcmOx8OrznuGoggvv9h jXrjVItW2H4G8701wwmwPUFAg8rd8zx4Q/fH/Zmhns4P/TCkJw796OFH2X8uaJckj/3t4cyo aU9RuNO6ayFaKooWgGuFT7TS/nOc6bpumgoZj8f0STtH1cUBYMOhq3aJSoMLMQM+16s1T5/K 71mUMKrQvuqIkVWw8lQK8ve985CCozcqiOqeG6rwXaKDFZISJDmIYuQeDzYY0KSQwXWCAiti HtbO3TXIRiIC9F5rPJ9k4dRmiuej46/nYxsGK+iw5HPUIfId4xrUwplCZgFHGmhBN+kRRL14 kKDuiRSmgDpVCoJDSSsyhCsna7vSk01zj1cB2EUaxRlRk6wEaBaItw7qtZblYsHPVBUc54HH QRfnSwb7ayMB41hDJBQuPntR1MmXbSY7pUBlqbsALGatKn8spq6g4lUXxcdLHoVfhFE+tnTx LbIUlxVWANlDfAngUW6SHPeJOv9EEPtIKoa23omOAdgC//VLr5I1/bTW1qrE/3y/qOio3neJ /FUEV5uIDHRnJHqcDVnSq4Tg+5vGRWvkRyIBfGzDzRq+v99Y7o0rTT2fB55qeCapY4AYPnGa wgnq3o7O+aU1JboWdb2j7SYxS13bGjmJ1mz723wmyeorlknDxNlsAz9NapQKgpnU0S3GjhRu gUql9EEkno+zbFrn5t6tUXX86CVezcDr+tDDjVKkGqh3FhatipalxFiVNVWy8vF+zwW42MbR c/HOVR+sti8De37LFFgVzPd1b3uvTN3yp0SdyVrbT5XTsq1wg9f7Im/fDeEfxInXCR4HztKR 0cs/duYZdYKikkr1DMSYQCh6Y/G65t9Ma4oHWcTMh9QAAE/FPe6tPFL5WKqskajhjpxR/D5b TX6flTSKj+PorZwospwmJ+zoWD73myOvwk4EOILvbJ9bp8vOrU7GWJrH/EjM2jKpQ5ft204J 8uc0BCuaFLAiDLCLntYNx4+zTLOEB81iuyI340jNOtVhHdyH5Bkq4/Y687vULI0y5feYO+Re dYrgqvZHDTkgl99N2xjCGqEWEfzji7ZazawO26Hofx9uEAx9GYk0IpFREOeaxF0mCrJOd5pz T8Raz1LBVhsrXKzHcaA36s8pd/4c0ndIQz86RH1vkuXg3NQwapffwxlpqqqf1VWsqGGqeF0T ZsvDj+E5BIwUxdlf77sK3/XSVTbZYegIQZntsXLWXLNnH6ZrHdG1Sar4nEHy8RlXWGf4o0iA JoLLCD+LDozpsN7wNM5hr3NCIQRJlr32Ueenv96jagLuVFSkWlFGzXA2K8cp7jZbg4P1tFaq WVg9RAtK5ks20TLf7fv6j9424TKKT1/Gv9Zrl8kCjfSj2qmXY6fskx6+/7zxfB746+uJ1/vC 0ahf8Az8fr1ZJwUP+nucRCUzuBnzqE6n1D1/3gNjsKJf59msTmC6cwzqcRB3WOF9Afk/T0Ra R2kjE1ozV1IhWwTQJluUuE5KWvg0GiCVJsZ0+pgV1UgXxsQdlPG2AiJS6G58HB2WuYfuVnoB ilZWbDBkoVNI1GmL5AUgss9hPYXOUSM47pRr4Qp2lDj6Sk2sE7T+lMkzUVpv0MZTHX2fkmAb bl19eFZlvfD5ewz4FbtiN7WNX0hx39egfZonVS9zOt4XSRtaklHPsGxdRBWS5UTVG0wE1yRh Q5CKaWWd5ihCI0EtdnPJ0pt7InNu3doaK1qSnQUsJMpvvDBqVyw9I9YBPRIkUYCJXicJuwd3 J+o0w8Wtl0BhRmDeN3x+EKN1IJD9/wYnC92tSZl1klRg2drPRZM2xZHMa9oM83ZYkzoDvs5Z SaYanqA8CdUmZU1r7GpGoK30VjLtVTmvQX+BbCZLjcdhify0Ka8PloTG8smv0zKSOdpH0oot qUu0Hyzb9EQzwdHY1y/QKSMwwZojstq+GfC5DiUmgvpf//Wbp26YYI3St7WLNlQmsouYKECE 2K5+VKEV3ni2Gpk5TmoIpciR0KY4jAwPMiGNFz692gjPLR5YUWa+740Ekrol2iZYD6AQNSff L0q3KFl8vNdpBsFuYQxCuSqCVvRxREAzYfVyAoGcoP1XhcBFUmDMsjKdNP05aGC0dOVr1Hqf SjkBt8/hAB8ap6ZgJu1DH2fjsIRTgTTf9+5YjrOhd4Jd72tUrcHjMr0UNmblz4/Asx8ld4vy p6lO6GE1NMlIZgJE7Y5G+pDuClwAXMpRN8PKfB21tYiPlQ/X6QqVCoSok1RvKypwlfJ4rcPt 4q4+MjaUqMrB+fueCASacOju9onTDph+zihr7TNvJ6h2M+sE4ZqbzyRpQYqdWrxeuS4ya6CQ Ie8aC7KNjZnscGwAOsWEPqkeas1wdoN2/jwmD7lN+yzKLU+KRMbcwAzHs0vqJIKA4HmegAg8 rn1P59kht2KOqIOOuRjXIjZgI5KPs++plhSHuCDB71UMfD04dMoNu8AZ4g8lFTZIVJ+756a5 29d8FoTYcoDwYe8KD+rXTX17r1HdomTZRjlNT4cJi6JE9f6j+uaTkyw85pNhnqccf9CJ1dLc 6njfN1CU6Uoxa1ejgBkg9hz6OqNFFOgKHsGRAXPCW7mjHHeNq0Ob4tk+Eex9jeo+DggoKOmN 7hZU9cxCzYAUWrXNHDyTrRk8P9QzxSMTr5sF39ej18Km5clxAJl1UpPotjelrq7Rfh2sCxZC KgAej2MfeQIFTutlv/4xV6icXiAAsAEIKDD1Z06qIiXJrkn16OTXkzy4s4ULDwIuAnwdXzia 4fv7xpwTX88Tx9nxet0lV6Zu+3kcLE4stl+baPtbJYrS0jXLPc6T5SE//XO019Eb7Gg1vckF 5EhoyarGcERZbvbW0HKNbLDIWgfZH2YMl7pMEnpByF4GAvPHPP/n8AKeA6uABUQ6HmfHeXZc t+P1vvC+mRLnmLhv50x7b+jWMTPwfl9EJM++xaRrCBOlO/AgmPV6XUUiUcxyHB0oI+QPaUbo +6wpmsa+L2vX8M+mur3dA7HdFyxk73rmBvbTR7k8UBghGBFkwJri//nPP/h60BAXrh8ErylM D7yvgYhylC7kKUtQePQOV0dOh98TEdxZWRCvGqdQrntiXFEjMnRZ1upX1+eaGqQLPG5cN3vb R7WJfDC5BSIeXobH3GH3pPfqrwedMf71/aZUvHPUesGoVKbIp0oHJcheh9VP57SMFWzbTh5A MCZHy0LJJo6y8+5/Pbdp8Uqfgdw8R290zP4JFs3JDXl7Scmr3zf9mATL//o//880UfSjHJyL 3crg6PL5OHCW4NFn7CH3pYVDtVXrYBgenyEsOoLWmkuuvELVgmAT+WOyhTt3epR3HbZFhy54 9v6c5Ua1DSMElL3/CnFSYggzw5gTmSwi1RRzkFCag/Qn9YGUa/fO+bw1791qqLI3potRAEsv h47rmpvmXSpdFFGzx7waHTlWRBjTS0LeqrCNjbZ51SC7mK2xMKbQOphAUTm6NqLpNmSgdq5s RDO3T3xXJdAlJM7a4+i1c/jLjtYq57BAOlurSQnFssNiLcLdvWbOjlK99t4gQiE+hmNZe3AW DdAW6K1T6gzu2JmkFqd/tPCJ3MdYPB8dXZVu0rnclyhXHj7RkmH6bLoBkHtOxJylsQPeJaYM ElCwbngoC0Mt4mIxcGICBV/IUVh6FpW1isPIT0ErhZn/kNDtql1F6thOtmiRgCjPeX9dnGvf 58dLzaQXcaQlSolAuVrXAUKd+EOCUmjU8yJFjn3O3KhpYY81gu6YKTyXDSJooGKzF/ihkYAO 9qA16N+Uojx3gvqzQuKKEhG5hXkr0201BxcoPdjqgaz5uZ6Ge9Gdwl231LjDHTqVpyE042Bh cfkLhKCxDtUh1thSLUbk7G0f0TkqqrRC7ezUmv3my3Mvk4MK8zGxqZJeVmSeZQdWHvdrgWYG xFqdCF3wbdBTXgtbj1CYJjQ/Z7kevf+Qc30k01F1igrKeIsLc7WVmbzu5cZda4bX3gVe57eG By3cF74QiXbdk7G+wo/XIF06BXbvao+eZ4fVqBOQyFT4cPRH23DpGDde0zewr4UJt/JFXUdJ RwauV8mlu+Ew3f7p64iN9EL0mmHeE9kMv74eOJrhnpP9P1h4ejjum2CKTYoil/1oPzry4uRs xhJOsAhqzXBV0ZZYZ7rox8ar3DGYIvgyMlanQEND03UGHa3VkMnDCYAqoASRjjn/v9q+ZEmS I1dSbfXIKnJE5v8/cuR1szLCbQHeQRXm2Ze+TR3YZLNYGYsbDFDo4gJ2VJZzRukZv3+/pIhz Nl9a3Ayf2MOO5Li3yuoKP1YqgGLHs7RsgTMnjdyT76mk5z6HgwLGYKjGeu6UMYQgXsZ9mTCs 85E5Y9d2V5CuHf5XSjxl8eFmdb1DbkOdDQAAHfFJREFUbpLrh+dKNHB70Tojy+pzLaY+TGHl cYJs7XPNxNVh2zD1nucygSeOz2fopEsJ0pi4kHKWwQ8h4ZKBlgssCfsvfmKvpm+Mz4b7OIBL bQUvZa6jAXOS7XKPhbmfB7/mfCIyo/zHlfiSq8fWVXZcvGhq90wGCScybHnEkXDBFQIHYuvA 0I6BW9ON3vp/UKvcgPpSG09rjU19VPrhqJATbcPM4IMXYkpUd4TTRCQzBKPDXEv7lM4M+1lT XaekwCWh1s4nX0TFE1AvEkTrFTUX9F88OXNO3oPbzmo29tmhJy8pwTLpv7bj5CTkLJvxrw4k OkCsvagSWBsJwtOX0qGgDNfEErmWwSPj1UV3quEyzXCdLQDFNq3WuoKDdChxkp6MSt7lIpRu Mnbm2khYuOtjkNwKPWvucOp2P2V+Gx/qyKE1HdjygwYGsDLlwoec6xFRdp57QS4Gqgb3XBQ2 uuwnq7hk29Eqy/JxKXb9QO1/IfzZ3I5Ir+SEWlmSHHSQjnGji3kT2agpy4pDC7JlYa4H1PJ4 3j2KFpcoQWqRxDUvzYQVhaEPYW3mp9ZCONb1WoMbf/YNBiRktJaeEAAtM6LElswK4uaomYEA cNdDYCeezM2RE9G8ORatR1I8EGGXpoRFvZeSMyAsJZrh3mnAFK+viNiykQ/lKswVuWV6eoxt yk/vraLlOOE4QrfSKl5XR82J6z139N4x7kHdNUg3mvbES9X2WIZFd5sto1cgXfUwScfeuO/B h0FKmloJvsTWKiEfJiwQtuIFpp0yx5VGpcxnyDGaH1QrBa/ejiXoFMzLjBiof9BdlShK9LX0 QNGfLuZlYVLHg46ddj6LnriHUybJc8yJz5jHtz2uT2auA1dr8G34vqcaS12FrfPhG8/WckX1 LYw5MW0SI4Hqc0/y6GpB1tiXoH+vvQaMPzMJTa1fvdNFSm/wr19fuG9mrHUAtTF0vmbOvGPQ t6Q1IV6NxIqmcpPEDgGIf+eUj7qjJmaxjXmfDz1244Dm/XtiGt0k/+oN6AAk65kyiEn64Mdc eN8rigzToQCsaRhG3f2chl+vjuvVsd833m/moNPR0uIeEshEPficC/ecuGRrmvR+u3CDwyco fGjm2hjv+2y27rmwF/PT5tyHph1hCgmUGznICWwlPPLZijV58pm5zAdxTiqcwpCI9OAyJR3h QwKXQMUKcpF3bErwD5OtasmoY4fLMUmE73sQQ45u9F5n05VyojdabNkcJ7AnOHRh1gOwc3+P W6tSR0p60+ri4Y7fv14ERMSMAWLMePhyc22MzfhPwsWZ8mfLZ1HCqUd+q7CDtQOOW8Z9rRas TneseK3bIEqy5mqV5LkW5jD89dd1qMcrkU6VsiIyP5sOKJtGBHMZmnFz+HoFTx4nSdF1d38+ 81w9bhQ7H0/amP91CCKq1KOZK0k2TFyStRdR0bW1Uk0kg9BSjF1+xKndK0gUguhySaehiJKV MpG1MLWJ7jloUCkrL7TXQ5IwA0wGRdG5A7FOjS0XJUixzj0MThn2rcTu88/3oNjfuRTKmUE4 R0joj4kQBGYEGgekIABijI3vzy3hpAgGOaO2gqtVbD1wcy6EB+vvrwutN2yjkQ8AVbrHL460 qtj98t/vTeVOl2q3KvA33utamzBwDh29MyF5B6oHIZYczwrSSby4WoGnrGqbRGtTwyxsoeRH KOLmeL0ufGTD7rFlyz/uqgmR7JxlPZYnSXSi4IVPWWy2VNjVG84dMxa3RwXybC0UBcy1MB0H 1w6SInzQW20LNOkNV+dCZspzxjubl2MHFtUgMf1oGx/YmRwlux4AO+kQe79x4rCCGlYy7c9a g3XDfU+8wzE5Z3x9dfSS8c8d4gzSr02VLDR10USWmgERR+KBjHn+vukrkwXtmvx2pthBRY1h ECADrHFEOoPoz8qrd+AsvGxTBNk7I8+3Kg4AOVvSJm7LqhwAasrcqJXEDVdEaceLv+RhsjUb m37YyVFJ1Fa55aPyvAcFe3VTNbk0orSWgcl7xmwRzWtKMYaLNcv14u9Xl4V3RhOcF2qWbVtS 4ofY4TDslZGb2LaeD6Uptkut1TPGwClB/p9/3nhdFder8z7+0C7sX3/e8A38+n2xqjk74pbr EQzaNnw+ZOx+9Yr26odmvFxhfTkfx4lUHnNjVgty7oNXmDJEv2bpMOA/RCK2+KBXQav3vdAl EwdiKlFAb050oViGS/8bXr71HqRK9UMH4qhgrFcUMR4nCnaFLy3m3R0+F95z4z0WmiTHngBb jil7rvBabblwLEmcxencmPHqhZJdizgNx9UrXrU9e2B3LAP5c+4KFsKx6wqsOxSnLo7AGPvJ Qnc2myURlpwCiIZm2/wDT/fNh+v9Gfh6dbyujrn5z+vWFrBWXVcJuVZcraBaxudeuNfksuQX x9MqAGoZiaAB3uB9o+mf2QolhH41+0PwmDqIVLJ2jG2450BpHWGY3FpBv0jmHHOzKqSMnhNw 1YMG1sBmF3hRxczMvS1zUXhXG3Ligr+IzDfHenLS3LGXvFjE7XYnJYgmOxwf2FCRNkVgz5Cr ssNWwjghARkl0Ws+CA7xNLNUZ/hguG0p1LvF3rjkgp3sOC23WmGVtqZLfuu08/ADT35k0+Gg QDFw+T8fRn7QvIBRou/PjevV2NXHOLUN34OGA5856UgBbvVyNriM+efagC3g1RFMZK5z/bH/ BptFBxQpEhiH5FGZ+3ozXidxIEuj7XdJ1LmtTS4gwJ4ggKza1Mw4wHRD8baS+w/wISTBrARj rZPrCUDjBzHhuTZ6VTSVSiltOnWCwLEiQdZg6vzvD9kdy+zESy9oL4yw1uC2L6zAlpNRi8LK QSCIP2PLsD+QzCLCx0wJ24EUD7ezE09JbtIQWGNsWGvLuDXCcR/kuK6GnGia9NUqcq0Yc+L+ lr8L2HQ2/bcH8w9GkQPbb2Liij+Zk6czMuJTIVcxepBaZK1uBoqMnY6YWkqNCaS5MNSfGRhL Pj4DE1TvhM6yXoIKiZU3eAvno4RSXUkOnCvpEcOM069XxypLWjbD69XxdTX8eQ/E+snMz5sK k905NpANV65YRfeN0UjY3fHSYmEZqVWvzjWsb27JEoAKQ1Uu6fsegPGE//7dYGvjHkNIFZu1 tQ3zwzXj769LLlcRPMtN37kPddohTltvlc2rkMDeCn4rJ/W+F/6ZN3KeBFBaxhoEmnpj4lJ4 4AIR1clTiM3rKu5yqlDoE5clbdKqEBGOENh7MF5DRWtbvZYnfO4319Ffndm0Mngcc+HqFJLW IbemWnjiw5kp9ut/f7GRKWoo3h/DypqnNX5tM3yU7PtLzhZIBAmG2LBuhEZTBmqmuUGK2X4/ SU1JfQE2NfEdwIq9taYj2w9LJXDtnHmFlFbxEhIVgT3ZgG2LmHki92/bJjAiepUXZ3k2vteg aVF1Q6mza/YPhDAXBh/Y+mHCK5hum8PHRCsFK/nZuHGk9HMa7xm+uOq4pdxt2uhFbqptQ2o0 EUxdV1VQviFAJ5NYstbmNTMmlzp4PGY3RIEmTG6nNP0k0QU7Orm+ILDJ+fjCXhuvF+Otx9gw o4wmUC2kfHxp1t4oO6OUigLD1op1TTuuSA4yYI7ozw1rA9D8H2BHYNuusmVa8sy5UYt2Mabk pi1BBahhXyJ+ujD092fJpkQmuy2fzWJXNlZBQusdez+edbkUvBo/ZNviq+fQueO8t6+rAyIx 7Gzn+gnKV/RQMS0JzORD5y56FLv35kRG4SZxx/ma2B+Iun3L0nwsJkER/AH2kFV4rxlbd6+J ShsNhYQ4VKAiQIN0GLDDJ8ypnDQbvNfGxHtz7Ls6c1K5SCN2nCCwQ6SLOTd6JTFw7o3P2nAk XCILxp1INFBOD2FHmpyBsls6L+ODUJ37/bVJqOyNeP89qB6ptbD81YL/9z/fuD8TrRX8/nWh 5IyPlKy/vi78+dwCPYBSGoru0JKop//1uvD9uem0KXYMlyb82zAoCPtvrp1jxmZWK8TfNy2N pm2MBVW3MEPiQ73yo0enTTunBcaDL2rwGtW4Y2yyHrXW3c4DUrfu3fAujQ84pXRm06BPhYNC KxXXpUfSmVbgVz3+MmvSH61B0dsPYRQn2zsBpTjSjA9CCQV8so50yO/Ju7SQRMGHL+NeU1ut jK37l5EHOEEA8I21yIdnKV5ntHk1NmN//b4wJ7PRo3eIiWPmrW2WYQw7Y1WsXD9jstdJGZ5M iyC9BmRYtmP+k0uift8Bd/nJgK8np4QqE6BIvnTy0glGFZxrjIwZaAwk+zUmmm2O7GQTs0+h mDJiwQLlq0OLe+Z8FJSWqLUyzupho3GV9lSDTdnSyVfV/rtL155blrnNwx0LK665DOZs/kzY cgJ5bSXnE6sNQHr4cubLvTb9Xf3hxn+/b0VK8ssJ0UZNGfniKWqVqtmsvqFkukSNuXC1enT1 Q26XQQK51zrYuqtEkg3E64oLkj8/uO4P6TMn0qJ6E6U8MTHJEg2FiMCx+sTSqYtDn+UwHWGC c6/jgtFbPf9/XAutVzTdxXsT7k6FE9f7pvtzrQXMdHVU9wjskUqkVQAJ09bhaZVa8KUX/Od9 SybMUplLxvtD56ZgmvSS4IlbuSwECYIxg8oUaOX11bDmPh7x19XONUM6NmDGk/W+iZbF+JVK xkcMVe5w+OHOtWGJs/yrNcZaTzJXK0RFni5n6HUeoKBsEe4tj+CvFIXvhN1XQi6AIeP7eyjF uDyQbBGBwdfJcnU3ceXD8TKAKN3zgfj1hLx5aAy6AiXLzpXwePADl6xiQsG6YQ/FSjP9JYJk LH3W3qgBToxJWWsTwf8zJ/1apI7MNQPLzsKCv9K5r3Kvh83BMs4VZyn0QCXAwr/kLM/XKMOA 8GKG5h1QpVdAlh81JVqG76VbJZGj1wKbfjzw3J3NHshs/YjWTSCFgshaCn59CSvX+wlfd1aZ x94sLL/ITSPQUUtBahn/WusRGQCyJBGRpPJBhWsiSs/9HIuo19Wenkl8uJUdexKUIRs5VtCi rKkK7r2RPMNTooNmMH1LPjRt09SlssCrM8x6TCXsfY8jMDQzeAe7cEGLkVnCvS/34yVztx1M j23+WHJb+LUFx45Q01gbPVGMEEsMM+C+OWPnBPUXwqUTR8Se66E455QQacfFHFctAonoMtVr xft9M2W58XTYMs2rLK//fL/J+BEsmsQ2yZlsm3su+IxwPS5eKN/OJ7u8B9qm3sAzx81lXORE j1JEsjg2anCNtzRP/v6+sZSAxUPguLHEMCaxdG2TQ0dCcCFSynDpAT5y8f7cC0i8y/+WDr7W iqtlmvzvH7wrpDDRB16vRkhSjVdD1X2DczrajzfhwFGh3sBZhiClM8dC60TgGVdaKTzV7kfE COm+6vkiw70q/Fu59PHMPTU9WMm9i4ap1oL7HVZjhe4PulP/3FyUjEnAJxYlJH2eA68qkx8n S6GSSw/r9WpAysotBxIc655iuIBzcnpIndsfaffxbc8ZteI0wc/PjmSpUPY66mYjvfbG9xhq DOVBI1tHUrVYka9eMdbCZyyUJXUN3Rr4m88SQD+wlXo6WjdZYefCfHWHbLxIRADkRZeBlCou LOwsFoc+NNc6NLnB5RkfQoGaQ/QI2WUZ5gYjshwIBUnKOC4PtRZUK4AvhDN0yQUZfjJbkioG 4WX6qy08fjrhrfq8cZw7mK9Vjhnm5/4MeLmmhuvV6Ja91wnOWRYHgk1cKHxYaYhoxrbN9Nlf JSMPuYA4FTBNnITWGE+6jLt4V1/DB1QLsi0kNQSVhb0AEkTW5MYyZ6CWHMwMjhpMLuIbSyUx f1XW14y4YpxUNoNPf+BMMVb45BpKq2j+dPa05WLF8JJRN9WtBVRkDK1jo3rw1HHkiATEXqsU NHg80UpGrvziQr/GTRzJm3/9fin2yhVCxD/ralVJVKaHDIeQQC1wBrbhukhruqW5O4jbNqTC n8nocJzrodaiLWDBZyz4WoAenGNRos3bvfhltVaQrqSDRBlWaZU8wvmALPfcZ0pZe6GW+sN/ jlUzRvCLYCruzzj3fCkF9aM5OCFh+sY2jh3LHPMjG5G59cKUJICQ53K9Gc1JlF5XQ0G9o4ao xPssuyjBlVxt0oikL9tSvAhWs8UyHA1Mq5n3J1xWJvzgj3Qq4VQkQNh/pczqLeH/KhTy9857 eVhIBPxAmq5K5mYooaIJsqgWLWMtjJl0su2YF5Ks8+zMMwDkRKWOsI9tBrsnVk7nz41dekSI lvYQMv583/jn/VE4cUYq2p1PO2aO0EHIibmzvWQ5VT0WKFO8hjrWQq+kO0VaYjA+wzDPHUCK eMmNuRYJE9vpqiDAJenN0cKLD4qBOHNGhoC4c0qDmZozm7QEeasL1kw/7tbINXE1Dwk4ZXYv OmKEaKEW5rKMbWzUUtJMLWeII5KwR4RpfrLasXF6lmgsaSjAAcZcm8NM16t4mUxx1kKxqFK8 Ol+fuveYcJamkFofyLRkPywmAPDtuK7OL3jxm00POwz9UpSEwK29HSsbxmdg14zuVdmxUtrs jQWngPGcLjw0pAQgZZ6QnESH0kwfmrCUcfbfvVcUy4dEWIIJsh1uCVudbqQvFkmZbDFeq2hl OrdhrCmmDKVDOSVh6+vHKVY10es1J4fekc/4ljONdiLdiNdEOgF7fMgMpwtNkHKUp8fxMF7D UJEHkw97qYXMGUmoLOHgEAB7gewAaoZrHMw5w10E0cyp4UildJeTr8AH393x69cLtgxDiQ4e V4CMHQEpXcHreWxex5ycyHLuVTN6zs9qdU7OxWGm5/osImQmmgmyalgia8mcQ8Gnb2ctCZz+ ozWzTG845iDLhoic3Bf9ETjURnAIa4tAqROdJFBYdJDaFjvrMNN13lU5YVs+d2srlbzsqBR4 TH/v+ahskJ7kQqhSmBH6zNr1l5zx168v5JTw/f5ghOBfZZNonSvM6JEU1dqlWuHPyYACD8kD CCv1DUZsmdg+KQcEnnHPjatnoGZUJyIXuXiknOtzyhSN9s7wpCoL8lq4BgcAe0uSlWvFF3DE 9aVS/jP14QdAMdfGtHW2cQaOU2nQMTJXZsDAHVfjetA2VZs1ZXzvzfCbSofHkoDSO7ZtjX0c Dd2A1QyvTBz+XhtXJUxsQq3m3piTWHirMjpIj8a9yxCo9wL7vk/W2lRtvuS39rkXUjYMRXKn 9FwZ0LxuRtOF+57Uplf65nzfA1VjW5Avckqo12MZAuDQrOaY2CCfoOZCoMkd7zGZVtk7NoC9 FqYp0K8U3HPAZJMa7NlSCpIljHugVJIfeynIF63Rukgxbsa0LQtrEr62CifY0HNhSUnc+Gzj KedoIA8yPX3xJj9zqrzsM+uGbHisxyigFjJIkgPN+AGvxBO/1sbnM1Faxt9fX3Sc3ukkOcb9 jyTAxgk/mvblZINICmSOmdmYhSd6nHz+NrWsujpKzU96kpQxKYVsiwZqYUG25YLx1TtDADSw hAnDGBupAF+tI8nzfY2Nndn0UeJN4cNuhmpBCI19xtOc2mZPNBL34uH97uo5UtDIe5VrleH2 hOIC1Izs2pzolk19oTFfHUCNcStoyhDyxS7OcfXGMr/VLSe+Sfq/LaztsJJU1glpxtaHlKqF JM02Lcbzseu478HFxljIg8TJ8DG30x09eECOnyu8PejBxrYd0zZ8+uOLLt+ZXBKSuXb00EaK nP4gFZJbp7vf6S7tYgwxIFj8PPH8cox30QS6A9OxinFjqUXKjuiOBG0vceJJtkauBPURTjzB 9obvxDV0oe0ZRzQiihHox2hO9ldhWhD+drnwwaBpcpKRs8ZcM8dW9OWajJqotUgBym0bF+8F eW+MsbSCVQUU/Zknkv1xjE6BvJVCqWzVh5ugpUXO+PXVj1CC7hOPA4WZPftyccSj+jBjVFy+ 5KDJKSgcyHwIOR0YbItMWAoSaHdGQ307Hnlh+0U8IQE9nQ1jKQ0pLezNOEvXawlbkjA9DIBo aLFU5bvbamWyA6SuLfnAqUlX5XY/+fFIjzuGgDYgUaQwk+RjWQ+emCWcdjzOqhQ0vKaT+pbD GA515HF01l1YVeqmUbzQZLiLBNhkAxFLA542nA7SfjSCtVa08nitz80H69Ur3Cp+vTp6rdzI lYwxuJlqQge54RLuLBZOLSJTmB1lZikJvTbSuJPMkAxYVUpZddcn78XkcvFzTQk/sWIQ6hXe Otxi+akOUe0uAUZViyoAHFcTQaBAD5HT2TjG/Z9Lpk2KPQhi7AGKmtN7TkRwX6yyzSlhpqPn +o/rD9sQSIVtw//9+xccEoWoetaA6mrNyCjnQ3HQfvokMuZ9XA9KUQJxqdi21Cj4MecxAzzb kQPR7JZvfms9ajIDGDEy6UWmnPBV22mAvj+3vuifEDGf5rE2g3EhUKSXo4dfRjP9r1enlhxy bdwLaGFk4KhXEosHJ4Q3yAZubNKCOpyTNm56UILVOxcJloevl9IzN+8NW49VNxcvPJ3mNAHa cNqTyr47ki0iMZHrWu44HPjhwsFVOAEgKNEBj23qfuLWwlXynPRcyH7JtcIWF/Z0VWBnvZOa DBEdjrTIDTUnLAfMueOumSgXwCaCScsK9OkZ1ipsTLo7L8qVkZ4ZMiEhvM/2YaE6DGGtSc+b Jn4ac9YITB7WqhqenJjtth2wtU7cN0BQaO6FvHTlJOLyT9yVIq50B2cklVilVqnqrrUx7sEU Bn9QPQbmBB3bz7WJRLFhnMZ+tfMl/dx2ItHI6ddXx2fQNGk6de1zc9ceI3WWSsgg0qO+8OWG z7/fHI9/TCY17pgmX/EhEmIIEzjLFpgpV9Sek7m34e/fX7j1JTZ5udLzjST8NQ3bhjhgwsgl Nphi4QYKx6B5vtkxNj5z4etqGDLIZ/PDXiGVeiDL4/zkfu7bMBeM4PigO2dVqJUYHbrmRqkE n04pFhpn5jQTLsrDcIb2uoiUfC9kmEYw7sRWhkwXEYLEypIT/fRAH/vY8d8f2ZiWglQKds7H 2SN62b0psMyCbVkR+ajcYyG8/6KHyqXAYNjTjkyauEJcmVJZGGheDzUoZrQZgeN03hEh1Ws9 uvNaCuovfnGPSgM6nUxSzEjyZdmnQuy18WqVwEotSGkKc0/4/txKQqK89qr5VKHX1U6zAufP ga6kUmNrxQbHTB4wY6G0jF8CKRxAK3RjHFtZsqJLm3F8cqMpQ6t+rrxIbI4wg3BwbL3SBtUZ cr+24T0HXq2hIqE1Innf75vWZXtjLwErCUd/loDojhH1+yP78bkp6KQjJCeYDzgGri2nLbi6 fHEScj4kVtsb7iSJVoCm9rUUdoeCA6skwn/+MFet94b/I/5aMDG6Z9wKl3M3/ZCCX7lT9psY zjPnxnsMKmISn7iqLVLsjEOQv8YSj1x8tL3xNkOWJWdEXUbagmlUdHDjVSSq8E0n6FtOygDw 7UMfZsJVC2qr+Pv6IrZtZOuY8N2c1QH3DujU/WTZJF2kVRIvJueo1+kZSeIId7o8DSl1S+Xy qLd0rgr8+LMdfO3MZF3wBFy90zfPn9fUGq/b9nUdLkIojEkd53Ll1+uiecM2mG2YF6Y1MS1J byyW44JfI/uLcySBAyosePf+8+eDlDK+rk4DwYAmzUk+/Pc6a71fr46UGRv1fg987kEdeKly mQDgjlzTo/Y8VCs+KFV75MhRXeH2bAu2n5LL2KtoPsN+FMfVIWsL9a9/3orwcE0b9ICN9eg9 J4GaQwOLZRQ3H0tja47hHZzfcylYe+H9PYinl4xeH0j0z+fG92cihXYvPYqcLrIHf984sHWr bB1rSkCpnPeN14dl/j2pXRkpmXYHGcULShHnsGTUVvmBr8+Ieq9NA5E56qKJj//7+4O1SIZs WQqM1pC0XFibOrcEaHNXsBe3PPwZbAS3GDFArBaX6MlZUGphmQ11jMqv7Yzb/ZgfpPLEhfDu ex6GIhYuOWX0cuOMzyvkc9P9wn5QZeIgr72PExbUjJE0k1A8qaexw5IthdBvghYnK6YDw+9f F4kMa2MNluDr6vSFc5xdhnGxAGCdLB0DcPV6FKshuR57ax9f8FnafZweQAejx50/+WDkhJIr vl4N9TOnVpMsvVuYtzvv3t4aBYmNrgwDCaUy+HUD+Efl38H0htNwGCsD6cUL497nz4wS2xp9 U//br1iHnvKakzZg1G61RsTwaaz4Z/daDjT8335V0aIXTFaa/hj8Ljt/7v+vX7RTIQYQYxyg VEYD0P/7fz/Gwsr7LKiaO9YPSlqYPv389b+dHCjmqQdWmgAAAABJRU5ErkJggg==" />
    <pattern
       id="Pattern_1"
       patternUnits="userSpaceOnUse"
       patternTransform="matrix( 1, 0, 0, 1, 549.95,-153.3) "
       width="125"
       height="125">
      <use
         xlink:href="#FlashAICB_Patterns_New_Pattern_Swatch_9"
         id="use9" />
    </pattern>
    <pattern
       id="Pattern_2"
       patternUnits="userSpaceOnUse"
       patternTransform="matrix( 1, 0, 0, 1, 298.45,-28.3) "
       width="125"
       height="125">
      <use
         xlink:href="#FlashAICB_Patterns_New_Pattern_Swatch_10"
         id="use12" />
    </pattern>
    <pattern
       id="Pattern_3"
       patternUnits="userSpaceOnUse"
       patternTransform="matrix( 1, 0, 0, 1, 423.45,-28.3) "
       width="125"
       height="125">
      <use
         xlink:href="#FlashAICB_Patterns_New_Pattern_Swatch_10"
         id="use15" />
    </pattern>
    <pattern
       id="Pattern_4"
       patternUnits="userSpaceOnUse"
       patternTransform="matrix( 1, 0, 0, 1, 298.45,-153.3) "
       width="125"
       height="125">
      <use
         xlink:href="#FlashAICB_Patterns_New_Pattern_Swatch_10"
         id="use18" />
    </pattern>
    <pattern
       id="Pattern_5"
       patternUnits="userSpaceOnUse"
       patternTransform="matrix( 1, 0, 0, 1, 798.45,-28.3) "
       width="125"
       height="125">
      <use
         xlink:href="#FlashAICB_Patterns_New_Pattern_Swatch_10"
         id="use21" />
    </pattern>
    <pattern
       id="Pattern_6"
       patternUnits="userSpaceOnUse"
       patternTransform="matrix( 1, 0, 0, 1, 923.45,-28.3) "
       width="125"
       height="125">
      <use
         xlink:href="#FlashAICB_Patterns_New_Pattern_Swatch_10"
         id="use24" />
    </pattern>
    <pattern
       id="Pattern_7"
       patternUnits="userSpaceOnUse"
       patternTransform="matrix( 1, 0, 0, 1, 1173.45,-28.3) "
       width="125"
       height="125">
      <use
         xlink:href="#FlashAICB_Patterns_New_Pattern_Swatch_10"
         id="use27" />
    </pattern>
    <pattern
       id="Pattern_8"
       patternUnits="userSpaceOnUse"
       patternTransform="matrix( 1, 0, 0, 1, 1048.45,-153.3) "
       width="125"
       height="125">
      <use
         xlink:href="#FlashAICB_Patterns_New_Pattern_Swatch_10"
         id="use30" />
    </pattern>
    <pattern
       id="Pattern_9"
       patternUnits="userSpaceOnUse"
       patternTransform="matrix( 1, 0, 0, 1, 923.45,-278.3) "
       width="125"
       height="125">
      <use
         xlink:href="#FlashAICB_Patterns_New_Pattern_Swatch_10"
         id="use33" />
    </pattern>
    <pattern
       id="Pattern_10"
       patternUnits="userSpaceOnUse"
       patternTransform="matrix( 1, 0, 0, 1, 923.45,-153.3) "
       width="125"
       height="125">
      <use
         xlink:href="#FlashAICB_Patterns_New_Pattern_Swatch_10"
         id="use36" />
    </pattern>
    <pattern
       id="Pattern_11"
       patternUnits="userSpaceOnUse"
       patternTransform="matrix( 1, 0, 0, 1, 1048.45,-28.3) "
       width="125"
       height="125">
      <use
         xlink:href="#FlashAICB_Patterns_New_Pattern_Swatch_10"
         id="use39" />
    </pattern>
    <pattern
       id="Pattern_12"
       patternUnits="userSpaceOnUse"
       patternTransform="matrix( 1, 0, 0, 1, 423.45,-153.3) "
       width="125"
       height="125">
      <use
         xlink:href="#FlashAICB_Patterns_New_Pattern_Swatch_10"
         id="use42" />
    </pattern>
    <pattern
       id="Pattern_13"
       patternUnits="userSpaceOnUse"
       patternTransform="matrix( 1, 0, 0, 1, 423.45,-278.3) "
       width="125"
       height="125">
      <use
         xlink:href="#FlashAICB_Patterns_New_Pattern_Swatch_10"
         id="use45" />
    </pattern>
    <pattern
       id="Pattern_14"
       patternUnits="userSpaceOnUse"
       patternTransform="matrix( 1, 0, 0, 1, 673.45,-278.3) "
       width="125"
       height="125">
      <use
         xlink:href="#FlashAICB_Patterns_New_Pattern_Swatch_10"
         id="use48" />
    </pattern>
    <pattern
       id="Pattern_15"
       patternUnits="userSpaceOnUse"
       patternTransform="matrix( 1, 0, 0, 1, 1298.45,-28.3) "
       width="125"
       height="125">
      <use
         xlink:href="#FlashAICB_Patterns_New_Pattern_Swatch_10"
         id="use51" />
    </pattern>
    <pattern
       id="Pattern_16"
       patternUnits="userSpaceOnUse"
       patternTransform="matrix( 1, 0, 0, 1, 1423.45,-28.3) "
       width="125"
       height="125">
      <use
         xlink:href="#FlashAICB_Patterns_New_Pattern_Swatch_10"
         id="use54" />
    </pattern>
    <g
       id="Layer0_0_FILL">
      <path
         d="M 1609.15,353.6 Q 1484.1,282.85 1374.9,199.65 1278.75,126.35 1247,104.1 1183.55,59.65 1133.6,36.9 1075.45,10.35 1015.15,3.05 950.75,-4.75 872,7.65 812.8,17 752.2,42.15 704.6,61.95 635.5,101 q -83.95,48.85 -133.45,76.65 -88.4,49.7 -170.05,88 -62.25,29.2 -203.35,88.55 Q 58.1,383.9 0,407.7 l 1712.35,0 q -40.7,-18.7 -103.2,-54.1 z"
         id="path57"
         inkscape:connector-curvature="0"
         style="fill:url(#Pattern_1);stroke:none" />
    </g>
    <g
       id="Layer0_1_FILL">
      <path
         d="m 432.4,361.45 -11.45,1.7 q -4.35,1.65 -7.6,4.65 -3.05,2.85 -3.65,5.5 -0.6,2.75 1.95,3.75 2.95,1.2 9.3,-0.4 26.3,-6.6 24,-13.5 -0.95,-2.8 -12.55,-1.7 z"
         id="path60"
         inkscape:connector-curvature="0"
         style="fill:url(#Pattern_2);stroke:none" />
    </g>
    <g
       id="Layer0_2_FILL">
      <path
         d="m 521.1,367.35 q -1,1.7 3.3,3.3 10.35,3.9 24,4.5 15,0.7 15,-4.5 0,-4.7 -3.75,-7.3 l -3.75,-1.7 q -17.75,0 -28.7,2.8 -5.15,1.35 -6.1,2.9 z"
         id="path63"
         inkscape:connector-curvature="0"
         style="fill:url(#Pattern_2);stroke:none" />
    </g>
    <g
       id="Layer0_3_FILL">
      <path
         d="m 649.85,367.65 q 2.45,-1.5 3.55,-3 l -10.5,-4.5 q -8.1,2.3 -10.1,6.4 -2.1,4.1 5.6,4.1 6.55,0 11.45,-3 z"
         id="path66"
         inkscape:connector-curvature="0"
         style="fill:url(#Pattern_3);stroke:none" />
    </g>
    <g
       id="Layer0_4_FILL">
      <path
         d="m 524.15,303.2 q -2.9,1.4 -4.85,1.15 -5.65,-0.8 -7.15,3.4 -0.6,1.55 0.1,2.6 0.75,1.15 2.4,0.65 2.35,-0.65 7.65,-1.75 4.1,-1.3 3.7,-4.25 -0.4,-2.55 -1.85,-1.8 z"
         id="path69"
         inkscape:connector-curvature="0"
         style="fill:url(#Pattern_2);stroke:none" />
    </g>
    <g
       id="Layer0_5_FILL">
      <path
         d="m 616.05,248.1 -5.4,2.25 q -5.55,4 -5.1,7.8 0.5,3.8 6.45,0.85 8.15,-4.1 10.25,-5.6 3.95,-2.85 1.75,-5.05 -2.1,-2.1 -7.95,-0.25 z"
         id="path72"
         inkscape:connector-curvature="0"
         style="fill:url(#Pattern_3);stroke:none" />
    </g>
    <g
       id="Layer0_6_FILL">
      <path
         d="m 584.4,189.7 -5.75,2.65 q -3,3 -2.65,6.15 0.3,3.2 3.3,1.15 5,-3.3 7.4,-5.3 4.35,-3.6 3.95,-5.35 -0.4,-1.65 -6.25,0.7 z"
         id="path75"
         inkscape:connector-curvature="0"
         style="fill:url(#Pattern_4);stroke:none" />
    </g>
    <g
       id="Layer0_7_FILL">
      <path
         d="m 613.3,311 q 0,-2.5 -4,-3.8 l -4,-0.85 q -6,1.15 -9.05,3.15 -3.7,2.35 0.4,4.15 4.6,2.05 10.6,1.2 6.05,-0.9 6.05,-3.85 z"
         id="path78"
         inkscape:connector-curvature="0"
         style="fill:url(#Pattern_2);stroke:none" />
    </g>
    <g
       id="Layer0_8_FILL">
      <path
         d="m 1088.2,349.65 -6.9,-2 q -9.6,0 -15.15,3.75 -2.15,1.5 -2.25,2.75 -0.1,1.25 2.1,1.5 3,0.35 16.3,2.25 11.9,1.1 12.35,-2.25 0.4,-3.3 -6.45,-6 z"
         id="path81"
         inkscape:connector-curvature="0"
         style="fill:url(#Pattern_5);stroke:none" />
    </g>
    <g
       id="Layer0_9_FILL">
      <path
         d="m 1178.65,311.65 q 2.5,-3.3 -3.8,-7.65 l -6.85,-3.65 q -7.45,0.5 -12.1,4.25 -4.6,3.7 -0.6,5.75 5.45,2.7 12.2,3.65 8.5,1.2 11.15,-2.35 z"
         id="path84"
         inkscape:connector-curvature="0"
         style="fill:url(#Pattern_6);stroke:none" />
    </g>
    <g
       id="Layer0_10_FILL">
      <path
         d="m 1388.2,341.4 q 3.3,2.45 6.45,4.25 9.85,5.35 14.5,6.75 8.2,2.5 9.5,-2.75 1.4,-5.6 -0.75,-7.65 -1.3,-1.25 -11.25,-5.65 -9.25,-4.1 -17.4,-5.1 -8.4,-1 -7.95,2.4 0.4,2.95 6.9,7.75 z"
         id="path87"
         inkscape:connector-curvature="0"
         style="fill:url(#Pattern_7);stroke:none" />
    </g>
    <g
       id="Layer0_11_FILL">
      <path
         d="m 1446.65,350.25 q -6.25,1.4 1.3,5.4 9.35,4.95 18.45,7.5 10.1,2.85 12.9,0.5 2.5,-2.05 -8.5,-7.9 l -11.5,-5.4 q -7.2,-1.3 -12.65,-0.1 z"
         id="path90"
         inkscape:connector-curvature="0"
         style="fill:url(#Pattern_7);stroke:none" />
    </g>
    <g
       id="Layer0_12_FILL">
      <path
         d="m 1326.95,237.35 q 2.5,3.15 5,5.65 6.15,7.85 10.7,11.75 5.25,4.6 6.65,2.25 1.5,-2.5 0.1,-6.75 -1.45,-4.25 -5.45,-9.25 -4.4,-5.55 -13,-11.15 -9,-5.9 -9,-2.2 0,3.35 5,9.7 z"
         id="path93"
         inkscape:connector-curvature="0"
         style="fill:url(#Pattern_8);stroke:none" />
    </g>
    <g
       id="Layer0_13_FILL">
      <path
         d="m 1299.95,243.15 q 5.1,-2.65 0.7,-8.8 -4.2,-5.85 -14.2,-8.5 l -9.15,-1.5 q -0.5,6.35 3.25,13.35 3.95,7.3 8.75,7.3 7.2,0 10.65,-1.85 z"
         id="path96"
         inkscape:connector-curvature="0"
         style="fill:url(#Pattern_8);stroke:none" />
    </g>
    <g
       id="Layer0_14_FILL">
      <path
         d="m 1173.95,82.35 q -2.15,6.5 -1.4,8.75 0.6,1.75 4.1,7.25 l 3.3,2.1 q 3.9,2.35 6.7,3.4 9,3.3 4,-7.5 -6.35,-13.75 -10.1,-17.25 -4.2,-3.95 -6.6,3.25 z"
         id="path99"
         inkscape:connector-curvature="0"
         style="fill:url(#Pattern_9);stroke:none" />
    </g>
    <g
       id="Layer0_15_FILL">
      <path
         d="m 1194.3,185.1 q 1.5,2.4 3,4.55 0.55,3.9 7.1,7.75 2.7,1.6 4.25,1.35 1.75,-0.3 1.3,-3.1 -0.45,-6 -1.15,-7.75 -0.85,-2.25 -6.15,-6.25 -5.4,-4.05 -8.65,-4.3 -2.7,-0.25 -2.7,1.65 0,1.25 3,6.1 z"
         id="path102"
         inkscape:connector-curvature="0"
         style="fill:url(#Pattern_10);stroke:none" />
    </g>
    <g
       id="Layer0_16_FILL">
      <path
         d="m 1293.95,260.25 -1.3,-3.9 q -6.85,-2.85 -9.1,-3.35 -3.7,-0.8 -1.6,4.65 2.65,6.85 5.95,10.05 3.5,3.35 5.4,-0.05 1.65,-2.9 0.65,-7.4 z"
         id="path105"
         inkscape:connector-curvature="0"
         style="fill:url(#Pattern_11);stroke:none" />
    </g>
    <g
       id="Layer0_17_FILL">
      <path
         d="m 478.05,217 -6.1,0.65 q -7,5.95 -10.65,9.85 -4.05,4.35 -2.65,4.85 1.7,0.55 10,-3.75 8.75,-4.55 12,-8.25 2.9,-3.35 -2.6,-3.35 z"
         id="path108"
         inkscape:connector-curvature="0"
         style="fill:url(#Pattern_4);stroke:none" />
    </g>
    <g
       id="Layer0_18_FILL">
      <path
         d="m 414.95,256.85 -9,1.5 q -5.05,1 -9.75,6.5 -1.95,2.3 -2.15,3.8 -0.25,1.7 1.9,1.7 5.35,0 12.25,-2.5 8.15,-2.95 11.75,-7.5 3.35,-4.2 -5,-3.5 z"
         id="path111"
         inkscape:connector-curvature="0"
         style="fill:url(#Pattern_2);stroke:none" />
    </g>
    <g
       id="Layer0_19_FILL">
      <path
         d="m 437.05,255.1 q -4.5,3.25 0.25,3.25 4.6,0 12.35,-3.25 7.2,-3 8.3,-4.75 0.85,-1.25 -4.8,-0.75 l -5.85,0.75 q -5.9,1.6 -10.25,4.75 z"
         id="path114"
         inkscape:connector-curvature="0"
         style="fill:url(#Pattern_2);stroke:none" />
    </g>
    <g
       id="Layer0_20_FILL">
      <path
         d="m 475.85,283.65 -5.9,-2.65 q -8.85,4.75 -13.25,8.85 -6.05,5.6 -0.75,7.8 5.9,2.45 15.45,-0.4 9.4,-2.85 9.9,-6.9 0.4,-3.35 -5.45,-6.7 z"
         id="path117"
         inkscape:connector-curvature="0"
         style="fill:url(#Pattern_2);stroke:none" />
    </g>
    <g
       id="Layer0_21_FILL">
      <path
         d="m 671.15,128.35 -3.85,-0.7 q -7.35,6.35 -9.4,8.45 -3.35,3.3 0.05,2.9 4,-0.5 9.5,-3.25 5.5,-2.75 6.5,-4.75 0.85,-1.65 -2.8,-2.65 z"
         id="path120"
         inkscape:connector-curvature="0"
         style="fill:url(#Pattern_12);stroke:none" />
    </g>
    <g
       id="Layer0_22_FILL">
      <path
         d="m 721.4,103.5 -4.1,0.85 q -5.25,3.95 -6.25,5.15 -1.75,2.15 2.25,2.15 5.1,0 8.85,-1.5 4.3,-1.7 3.8,-4.5 -0.4,-2.5 -4.55,-2.15 z"
         id="path123"
         inkscape:connector-curvature="0"
         style="fill:url(#Pattern_13);stroke:none" />
    </g>
    <g
       id="Layer0_23_FILL">
      <path
         d="m 698.65,143.65 q -5.35,0 -7.35,0.25 -3.05,0.4 -5.35,1.75 -3.55,2.2 -4.6,5.6 -1.1,3.6 3.95,1.75 6.35,-2.3 11.7,-5.65 5.8,-3.7 1.65,-3.7 z"
         id="path126"
         inkscape:connector-curvature="0"
         style="fill:url(#Pattern_12);stroke:none" />
    </g>
    <g
       id="Layer0_24_FILL">
      <path
         d="m 711.15,84.35 q -2.45,0 -7.2,1.3 -4.9,1.4 -6.45,4.7 -1.55,3.3 2.45,3.3 4.8,0 9.95,-1.8 5.85,-2.1 5.4,-4.85 -0.45,-2.65 -4.15,-2.65 z"
         id="path129"
         inkscape:connector-curvature="0"
         style="fill:url(#Pattern_13);stroke:none" />
    </g>
    <g
       id="Layer0_25_FILL">
      <path
         d="m 888.8,33.65 -6.8,0 q -6.45,2.15 -9.2,4.75 -2.9,2.8 1.85,3.25 7.7,0.8 14,0.25 8.85,-0.75 8,-4.25 -0.85,-3.3 -7.85,-4 z"
         id="path132"
         inkscape:connector-curvature="0"
         style="fill:url(#Pattern_14);stroke:none" />
    </g>
    <g
       id="Layer0_26_FILL">
      <path
         d="m 1280.8,174.6 -4.15,-2.95 q -7.7,-5.5 -12.9,-6.8 -5.7,-1.45 -2.45,4.15 3.5,5.95 12.6,10.75 9.1,4.75 10.1,1.25 0.8,-2.9 -3.2,-6.4 z"
         id="path135"
         inkscape:connector-curvature="0"
         style="fill:url(#Pattern_8);stroke:none" />
    </g>
    <g
       id="Layer0_27_FILL">
      <path
         d="m 1319.3,187.4 -6,-4.4 q -3.9,-2.45 -5.5,-0.1 -1.55,2.4 1.5,5.45 3.2,3.2 9.5,5.75 6.5,2.6 6.5,0.25 0,-2.1 -6,-6.95 z"
         id="path138"
         inkscape:connector-curvature="0"
         style="fill:url(#Pattern_8);stroke:none" />
    </g>
    <g
       id="Layer0_28_FILL">
      <path
         d="m 1518.55,325.4 -9.25,-5.75 q -4.85,-2.8 -9.9,-3.3 -5.85,-0.65 -1.4,4.65 5.35,6.4 16.9,12.6 11.95,6.35 12.4,2.05 0.45,-3.75 -8.75,-10.25 z"
         id="path141"
         inkscape:connector-curvature="0"
         style="fill:url(#Pattern_15);stroke:none" />
    </g>
    <g
       id="Layer0_29_FILL">
      <path
         d="m 1611.25,373 -9.25,-2.65 q -6.55,0.6 -8.45,4.25 -2.05,3.9 7.1,5.75 12.55,2.5 16.45,2.65 6.25,0.25 4.9,-3.35 -1.25,-3.3 -10.75,-6.65 z"
         id="path144"
         inkscape:connector-curvature="0"
         style="fill:url(#Pattern_16);stroke:none" />
    </g>
    <g
       id="Layer0_30_FILL">
      <path
         d="m 1400.05,273.35 q -0.9,2.2 2.6,5 7.35,5.9 15.25,7.75 7.7,1.8 8.75,-1.75 0.9,-3.2 -1.55,-6.35 -1.7,-2.1 -7.1,-6.35 -1.95,-1.5 -6.1,-1.85 -3.9,-0.3 -7.35,0.65 -3.7,1 -4.5,2.9 z"
         id="path147"
         inkscape:connector-curvature="0"
         style="fill:url(#Pattern_7);stroke:none" />
    </g>
  </defs>
  <g
     transform="translate(0,-0.03811881)"
     id="g149">
    <use
       xlink:href="#Layer0_0_FILL"
       id="use151"
       x="0"
       y="0"
       width="1712"
       height="407" />
  </g>
  <g
     transform="translate(0,-0.03811881)"
     id="g153">
    <use
       xlink:href="#Layer0_1_FILL"
       id="use155"
       x="0"
       y="0"
       width="1712"
       height="407" />
  </g>
  <g
     transform="translate(0,-0.03811881)"
     id="g157">
    <use
       xlink:href="#Layer0_2_FILL"
       id="use159"
       x="0"
       y="0"
       width="1712"
       height="407" />
  </g>
  <g
     transform="translate(0,-0.03811881)"
     id="g161">
    <use
       xlink:href="#Layer0_3_FILL"
       id="use163"
       x="0"
       y="0"
       width="1712"
       height="407" />
  </g>
  <g
     transform="translate(0,-0.03811881)"
     id="g165">
    <use
       xlink:href="#Layer0_4_FILL"
       id="use167"
       x="0"
       y="0"
       width="1712"
       height="407" />
  </g>
  <g
     transform="translate(0,-0.03811881)"
     id="g169">
    <use
       xlink:href="#Layer0_5_FILL"
       id="use171"
       x="0"
       y="0"
       width="1712"
       height="407" />
  </g>
  <g
     transform="translate(0,-0.03811881)"
     id="g173">
    <use
       xlink:href="#Layer0_6_FILL"
       id="use175"
       x="0"
       y="0"
       width="1712"
       height="407" />
  </g>
  <g
     transform="translate(0,-0.03811881)"
     id="g177">
    <use
       xlink:href="#Layer0_7_FILL"
       id="use179"
       x="0"
       y="0"
       width="1712"
       height="407" />
  </g>
  <g
     transform="translate(0,-0.03811881)"
     id="g181">
    <use
       xlink:href="#Layer0_8_FILL"
       id="use183"
       x="0"
       y="0"
       width="1712"
       height="407" />
  </g>
  <g
     transform="translate(0,-0.03811881)"
     id="g185">
    <use
       xlink:href="#Layer0_9_FILL"
       id="use187"
       x="0"
       y="0"
       width="1712"
       height="407" />
  </g>
  <g
     transform="translate(0,-0.03811881)"
     id="g189">
    <use
       xlink:href="#Layer0_10_FILL"
       id="use191"
       x="0"
       y="0"
       width="1712"
       height="407" />
  </g>
  <g
     transform="translate(0,-0.03811881)"
     id="g193">
    <use
       xlink:href="#Layer0_11_FILL"
       id="use195"
       x="0"
       y="0"
       width="1712"
       height="407" />
  </g>
  <g
     transform="translate(0,-0.03811881)"
     id="g197">
    <use
       xlink:href="#Layer0_12_FILL"
       id="use199"
       x="0"
       y="0"
       width="1712"
       height="407" />
  </g>
  <g
     transform="translate(0,-0.03811881)"
     id="g201">
    <use
       xlink:href="#Layer0_13_FILL"
       id="use203"
       x="0"
       y="0"
       width="1712"
       height="407" />
  </g>
  <g
     transform="translate(0,-0.03811881)"
     id="g205">
    <use
       xlink:href="#Layer0_14_FILL"
       id="use207"
       x="0"
       y="0"
       width="1712"
       height="407" />
  </g>
  <g
     transform="translate(0,-0.03811881)"
     id="g209">
    <use
       xlink:href="#Layer0_15_FILL"
       id="use211"
       x="0"
       y="0"
       width="1712"
       height="407" />
  </g>
  <g
     transform="translate(0,-0.03811881)"
     id="g213">
    <use
       xlink:href="#Layer0_16_FILL"
       id="use215"
       x="0"
       y="0"
       width="1712"
       height="407" />
  </g>
  <g
     transform="translate(0,-0.03811881)"
     id="g217">
    <use
       xlink:href="#Layer0_17_FILL"
       id="use219"
       x="0"
       y="0"
       width="1712"
       height="407" />
  </g>
  <g
     transform="translate(0,-0.03811881)"
     id="g221">
    <use
       xlink:href="#Layer0_18_FILL"
       id="use223"
       x="0"
       y="0"
       width="1712"
       height="407" />
  </g>
  <g
     transform="translate(0,-0.03811881)"
     id="g225">
    <use
       xlink:href="#Layer0_19_FILL"
       id="use227"
       x="0"
       y="0"
       width="1712"
       height="407" />
  </g>
  <g
     transform="translate(0,-0.03811881)"
     id="g229">
    <use
       xlink:href="#Layer0_20_FILL"
       id="use231"
       x="0"
       y="0"
       width="1712"
       height="407" />
  </g>
  <g
     transform="translate(0,-0.03811881)"
     id="g233">
    <use
       xlink:href="#Layer0_21_FILL"
       id="use235"
       x="0"
       y="0"
       width="1712"
       height="407" />
  </g>
  <g
     transform="translate(0,-0.03811881)"
     id="g237">
    <use
       xlink:href="#Layer0_22_FILL"
       id="use239"
       x="0"
       y="0"
       width="1712"
       height="407" />
  </g>
  <g
     transform="translate(0,-0.03811881)"
     id="g241">
    <use
       xlink:href="#Layer0_23_FILL"
       id="use243"
       x="0"
       y="0"
       width="1712"
       height="407" />
  </g>
  <g
     transform="translate(0,-0.03811881)"
     id="g245">
    <use
       xlink:href="#Layer0_24_FILL"
       id="use247"
       x="0"
       y="0"
       width="1712"
       height="407" />
  </g>
  <g
     transform="translate(0,-0.03811881)"
     id="g249">
    <use
       xlink:href="#Layer0_25_FILL"
       id="use251"
       x="0"
       y="0"
       width="1712"
       height="407" />
  </g>
  <g
     transform="translate(0,-0.03811881)"
     id="g253">
    <use
       xlink:href="#Layer0_26_FILL"
       id="use255"
       x="0"
       y="0"
       width="1712"
       height="407" />
  </g>
  <g
     transform="translate(0,-0.03811881)"
     id="g257">
    <use
       xlink:href="#Layer0_27_FILL"
       id="use259"
       x="0"
       y="0"
       width="1712"
       height="407" />
  </g>
  <g
     transform="translate(0,-0.03811881)"
     id="g261">
    <use
       xlink:href="#Layer0_28_FILL"
       id="use263"
       x="0"
       y="0"
       width="1712"
       height="407" />
  </g>
  <g
     transform="translate(0,-0.03811881)"
     id="g265">
    <use
       xlink:href="#Layer0_29_FILL"
       id="use267"
       x="0"
       y="0"
       width="1712"
       height="407" />
  </g>
  <g
     transform="translate(0,-0.03811881)"
     id="g269">
    <use
       xlink:href="#Layer0_30_FILL"
       id="use271"
       x="0"
       y="0"
       width="1712"
       height="407" />
  </g>
</svg>
