<?xml version="1.0" encoding="UTF-8" standalone="no"?>
<svg
   xmlns:dc="http://purl.org/dc/elements/1.1/"
   xmlns:cc="http://creativecommons.org/ns#"
   xmlns:rdf="http://www.w3.org/1999/02/22-rdf-syntax-ns#"
   xmlns:svg="http://www.w3.org/2000/svg"
   xmlns="http://www.w3.org/2000/svg"
   xmlns:xlink="http://www.w3.org/1999/xlink"
   xmlns:sodipodi="http://sodipodi.sourceforge.net/DTD/sodipodi-0.dtd"
   xmlns:inkscape="http://www.inkscape.org/namespaces/inkscape"
   version="1.1"
   preserveAspectRatio="none"
   x="0px"
   y="0px"
   width="38"
   height="39.549999"
   viewBox="0 0 38 39.549999"
   id="svg2"
   inkscape:version="0.48.5 r10040"
   sodipodi:docname="k03_snowball_01.svg">
  <metadata
     id="metadata30">
    <rdf:RDF>
      <cc:Work
         rdf:about="">
        <dc:format>image/svg+xml</dc:format>
        <dc:type
           rdf:resource="http://purl.org/dc/dcmitype/StillImage" />
      </cc:Work>
    </rdf:RDF>
  </metadata>
  <sodipodi:namedview
     pagecolor="#ffffff"
     bordercolor="#666666"
     borderopacity="1"
     objecttolerance="10"
     gridtolerance="10"
     guidetolerance="10"
     inkscape:pageopacity="0"
     inkscape:pageshadow="2"
     inkscape:window-width="640"
     inkscape:window-height="480"
     id="namedview28"
     showgrid="false"
     inkscape:zoom="6.0512821"
     inkscape:cx="19"
     inkscape:cy="20.05"
     inkscape:window-x="0"
     inkscape:window-y="0"
     inkscape:window-maximized="0"
     inkscape:current-layer="svg2" />
  <defs
     id="defs4">
    <image
       id="FlashAICB_Patterns_New_Pattern_Swatch_5"
       x="0"
       y="0"
       width="125"
       height="125"
       xlink:href="data:image/png;base64,iVBORw0KGgoAAAANSUhEUgAAAH0AAAB9CAYAAACPgGwlAAAgAElEQVR4nGy9/64kuY40FqSk rDo9d2Hg8/sDht/EgF/A8HPYa3w7M30qJZH+I0gqz9w9i7sz3dNdlSmJvyKClPxv/8f/5cgf cTRtaK0BAPbe6J3/3lRhbljL0JqiqWKbYa0NALg/N/ro+Hq/8Nff37jvif/1f/wvEBV85sT8 TGwzNFUAwJoLfXSMMbD3hpnh6/2CqOD37xvuBlWFiKA1xX1PuAOv18DehnstjNbQe8N9T7TW oKqYc0JE8bo6AMDh+P6ecHe8XhdaE6xl2NugKuij4f4s9N6gCtz3hqpAVfH53Hz3+B53x97G z3XDmgt//OsLAsEyQ1eFudfzmDlUBRDAzGHbIMLPExG4ezwj10MUGH1gzgWD49f7wt4ezz4A AN/fN1prGKPhvhdUBU0VaxvmnNDWILF3IgoR4P2+Yo25zf26BtbamPMGIOjvjmtwwZYCAomF b2jSoLLh7vE/YIyG7+8JAFBVuPNFRQT/88+/8PV+Yc0NM68/o6rY8ffNjAsAxz1XLCwXfm/D H3+8YdswxoAIoCKY7kAsWG7CnAsiUof0jl/nobyugTFaHG4e3N4U39833AGHwl0gAr6vCr6+ LvTW8X3fmHOi984DOCdUBH/864sbCOG7NQXM0EdHU4EZcN8TY3S8RgMG4AJImJkjNt0B25Kv VAeM7yOAcx8cXofFzdGa4PW6YNtpUHGYzCzWlkbr5hAImtbnK8wMAP+wbYfFB/C0T4gILgCt N/SmMM8HttrI8euN0Rrm4gn79esNd8f3N62FG4v48wKFYPuGbJ58uGDOBYdDRcsDrLXx+RxL RWx8eoy9NyCCtbgR13vAzTE/qyyW/xTMuXHfE9s3rj7QrlHeRCAwd2h8rrlDRdC7YuwWB9fQ e0OPxb0ueh0ROc8CoMWhV3W0RkPY5rRyUbTeoI0HbK/jaPc2tCaxF3Ewwjh2GESuJQBc48L9 mZhrh7FpGWgeeBGBwcOfxKZ/7lmna5tg7YXPDYxhUNE6MTOsUSBYbrBlcHeMq6N1Rdd8OVrR +31BIPh//vP/o4X0Bp8r3GocOQMkjp+o8Aw5D1FTAdAw58bnc5cVq9K19a647w33OARh4R7u kIuusQB0r3MuukARoAPmhtc14O61cOkpcsGA497nYhh4XYOhbW7MvdE0Q8YuTybCDaMb3vh8 vqGquOL71PneHh5QVDC0oWkL18xNtG0wd3w+NxyO3jrcN3acij//+hsAD2BrAoigK9/hGzfM HPdnhWHHpt/3jTEu9N6hZrR2M6wlUGXsMmOc2rtBVWDmcDdAhK5DBd+fG9sMvXW0JtiLC4DY lN4UawJzTS6KChr4eR7uuveGtTbWXtDF7+m94evXGxqbuM0xOhfWseqzLh31nLlRonnaUYfm uhgmuLFWFpduFqALTg92z4V3i40MN55WOcP6typj5t5ovddniQCqrfKT1ui2P/fC2gu+Ddfr qj97jQ6HY0XIUlGgAY44gE4vuRY91q0CbXyn9+uCu2PtFZ6LB3/tCY+DU5vODW+0rKZwOMwQ bvW7kjrbmycNHaICcS0X8roGvHfsm678vjfMGMtUzkJxNfiCTRtMrFy4qGCMAVXHnht771iM hvdroGnDPSfuz6qX5+byOaCA3btONENGOJT4vd47euMhuefCvBdabxhd0ZoCYIJn6YpVAG2w nX+/wR343BNr7TqwTytKS19rMakSxHvxmfbe+NwLKor2HpV0ZbyWbZiLB1dEwuqZzKoyDxER mBvcHO/3hdfokCa4PysOIqDK91ZReKPR5anu19UqWZOIRedFvNzRXEAYNx80kgX3+OJrAALs ZXWKVRUah4YbSDfcRoM4ECEQUFYHvSlUuaG9a7yAQ4SbkfEYk5uNcuO0WjPD63VVQtkaY/Xa FskNrcgmq469FuOqSCWfe1tYJp+7C6sUKDC0YZtjxUaMMTDn2SCRjjEaVAR7x/uIAmrlJdz5 /8boeL+u2uC9d4XG0QfW3vj9+5secHT0MCAH3+vX1wsQgThgDti9ykOsfXIlekR6TNux6WvF 5qhDTaFNoeFq8qSla8vTqF2rfBFhgiSCssCGhgXHvG+McDvuDAMdHU0E25ilv98XujEkjKvD tqM1QxOpE7s33baZQcNSuTn8XJWGtSb23viPf/2CNqEVt1bPbNBYIGf5FCc4Y33G4XTJLXIN C3fRINCm2LajrOWmrqVwtyqPWoQbfo7CzbEWP6XFO6+1w2gcmqHKmRpfvWNcHfdn4n/eN64x MAYrj0xqVRXX6PSWGY49StDWMfeGm/P5Yp0QVREPclj2WszGdRvLjVjQ3PwsBUQEd9S9LPdW lWm9Mea6O7o2SFPMmw/5HbH29X5VWWZGCx6d2ebff3+4sZlBm0FbB0DLOFmy/ShfPveEuZX7 NKd1zyjXdtTHTAAZ6/tu8d6L2XGUia01aFeYOdba4c2s8ottO+rvgc8jf+Dz8lnSxWflY0bP 6crETlWr1NxzY4yGph1zbXxHNq4q+PX1hb9//47qhO8yXgPjUSaaR3mWmyvCmj9CgCrgmx7v /b5w3wv9uCY5p/CR2Gxjup+blC49N2WM8XDfiBeImLkWrmvEYjHbzZ8eG50bnFa7tz0AkFPb 905XudyAjWNJ+d2xCDOy7jlnZbhVdazNTQ23n+XQM9sXFXjUvbYNEHqGtBIzA9xhLWtsQ2sD rekJQRXamHwx76hXL4vsvUfsZ5bu8XnECwQjXbI7HHwm/xjAJS8j3JshVUXR42DXd4nCJBK5 CHM9gQhtLJOWMUFwAAKvD874sM2gD8vfmwuZbi1LjN5boFL88xqJlbtHODi1rUPrM9PNZn2d JxyJYGXOFH9f4v/li5o7Wjzvsg0BF1iQoIVB0H88P9whTdEQGXq46cwzMhT13qJycW6IO+6Z SV+LDT5IXG8seYlmPpFABb8mAKkbgU88a2wDYBgXDwcA2D0j0bbyLAx/m9XS4DNLO4awzerw t/Awfa4F9A4Rry/ccTLczgePhGNdCoX6vm/Me8Vi9nCXuyxZu2LPU//2wZN7x8P3xjildiBX bcIT2zIRYqhZa9ehYf4gFQo8rCm9gyqink1Ui+WSRVgwABaJnwZ4oqJ1EB1+4E3n39GmdbAI Jzdgb7wuHqj0BHkYGDK8vlv8AC6svphUigrWTVCqX1f8fcN980D+69cX63U7IFD+jCEVSmiU J1k0cxgYvhINldF5eD/fN1ZbBFh6J5T4AHB4qmjhBDmA1tLEGBrue+LzmSxx4rTuTVCl4vbo +PrjXRtjMHjU6bTiWG4DXHb9uao5IdhukPhOVf4uHuGmPtsAUT/exLyg122Gfa+K81/vUyfz fRkfDYA34J53uMkG03QzBxnrrVfmXRvqwFwryq0XgEXPGR5JhQmhm+PX+4273TBDlZO+MlQS 1LKwVlVEzI7qoXVIo3dqTSI8njzlCYkz9gcekqXPnhvmQFvP06MV791RVpzhoDfF577L0jK+ M14DIoq1ucDmBt8OaRL/vaN3hftxyx75Q7pes7PBvSmkCWxluBGoMBmztH5uT5Rmhx+wvbDX IU0Sbm25YJEvmBvMdlhKHtZRh8rhRYCoWJSykwfFTh6SuY8KCaC9mXskdJzEFV2vn82JcPb5 zLDkjr125Uc9SaW1ImwpfC0eNjyS3EA1IeF5nhVKU/Svr3cssEcSgXKbTRWj80FnnB5aGBkj lTxlWoSGGQ9Fwp/DG17XBWlCoMYdbdCjuNHiKxPNWN6I9DFB2RjS4fKM58eqn9ZFrJzxsMAR OBSHNaTVHkz+ngsXCG7sjPE4li9NICZxIIC1VmT1x9pz7US0PE5rdLkrPs/N4JEsmwFzkjW8 9x0bPGrty8OJ4A73/GT4MuTNtYtNSzJJhN+dhtdbr8/sTbFbR7/G+c1lhnkvuvJt5W4KWAg4 zQww32iq+Hq/8Pv7gxknjtk4Mfy/f3/wfr0KRbonF6z3BtmGz33jdV2BHnlRr+IkZxIjoNVF UqmKFoSE2Xlph2ME4nbc4aFmc9E8SjsmlPx1Jkdr7sLcs6rYk2ihChPdHZiGRPxMkimBJoYr unBV4FKieOZaxgDsSoybXriDk9ibTB0BJiKIpFIVIj08Kj1WIodFGMlhRPPX5fvSc/eGbo5+ zxXJk5QFWHCzay+89lUAAJNnr5g7N0GZ13WxJIgTmpubZRHin/kwn+8PpPHAMOHhoWthfRvn VDOBeWb0WlnpClZudMXoXJR7khS5Ri+EKjd82YY4uGlyyJSn10gPlRbceytOYMcijyEYrTER y+TPgTJ0zzKR/Lq5P9zv4bXtcTD5PYlPpEM7O5eWW98VSGTvXA9t55+2DStK3xuBVdgug+jM hJnpFYhgURsGH1wnSY77SdeWBIZvJ0e+dlC0CYy0eGlu2vt1YY/BzxHgDoQpP3sH02bGPAAA RtfCvQuFU343wAQIAMtNjxo7Vuj5/E0EEhasquiDcWGb0/3ihIpEEFuhahuZL+biZ3iokBAb lL92b4CQSePheLxnhho9IeGfCeU9Z1nu88/UPvn5Ox4oYxIrvSmuq1d+YGGwZo4+564ML09U lj8AAtA4MWIHcJFZdD48s9E87VJZ5bzvSpxerwvXuNAaLXLPHW5HCzxZe/HQkf+IB/YqOwqw EYU2kjvP58i8Itm2ORfdau8/kD5RQXOWIfOe2GtBeytoM8mNTyh25qQapoW1fO6fdOWTReN3 OID9+PdDEm13eHkhJmxZEs+1sdaCiP4oQx1g2ItDnz/3PctbmJFl46Z39N4K7dSu5Uk7IUZF a8yIJZIzd6fKI+rc3nrERyJVqQC5Z8RyaUALgUSeXgXu7wl9PGR6ir035lr4er8qMYnjwmw6 kbr4f7kQ2mh9aZEA6rNUksc/bp08M3MThJWI0Hpv33gNqmEMrRhBhpKo07GR1Ggu4jaPRMyj xPUH3i4Aeh0IGtMuqwS4bhLZNaHTPNz24yBlWZmH4/mT3/X5LLTWC/VrqoUgEjHtfCYH8Rdz yqXyp2pliZX2jG3A9FXJQv5hc1qW+5EBPf+Mw/H1vs7nw4sMyJJmb8PGseDrGjydaRV7B5JF iBLefrjZZAmzAqmyMrxTizzAzAKiPZj9XAujk7xILtsAwBqgBGGYNHHjchOZEyh6D3frDtsb JjywvQm8JWIoZbG5Ngne5PvBUSKOZO+oadinzAxjcQEUB7lsjZVQa+3U+ZEUp76A4hMNTMPQ U+CY2SBwrDUNNk9Nupx/Q34SLQqmTaLm9E10LF92bw8tG0Lz1kqIkBvVmtSDm2fWfjDy7QsS WWxr5K1fr4HrGpRDzcUMXVvpw8yt3jFLKzODr42//vyN1/tFXaADClrtBkuijKZPjgBgOFM5 ZIqoAGsB6EXp8s/lmqK8ZYI5WaIRxhbMtU8N/hB85PtTY8AiFxah4eq1yQAR05NcRqhxQtPM 7hV9ZuJlVlmmiAIpimyMJc8aFIiNBTDvXZk2XahTEROZX2HnsVDmjtHOwmy1KAEN6gozYO9V p97ilO+9+UxRzi3bYb2MtaMT3ZszBAkw3PcqoCfhW3dU3qCtYWalUa6dluz7JHcUREro3OQg lgIYIgOP5VlrYe+gaZUU7ykbT419qGFUtSAisLUrBxpdChJ25//ESRen51ShfG2uhTuqi8zk 3RmGbVugiZG9r0XMT0ShckoLGODq4bKFL/UILIoQXYyOpQdQIM7OHCCpvaqxIYdUiLIrZU9u DhPDWsCRFym6KL6NzFqThhFY91obyzb++NcvtKIZ6WYlFbH3pFo0CJCMx/vzYSXxvnC9RkHO GV/Njjw5f38t6tTmI5lrbUDxk1yac8H2DUT5m0CWIUJaMG8eB+z9HqEX+LAO7x09sPnPvRg+ 41BkopiPlpuews7EHDKkqP6s51V5EPuT3hNRfH+T036/X2jaAaFSQ/0sbOrDEuiAHDHjkz1L Ram7RVZNcaEqfjz86B0keRHeRguEEAjgd2T/g38WLEnmUmi8/Fpk83798UXYMRQpaeHlNZwA UO8d1xhVFiY7eHISLbDo9Rq47wM+pcCxmD07h3TvFH/EO1xUCa214UCpV15XR2utOHkRxbb4 DigErO///PNTGjgAFEUkFxH1eCaUT4yBh7xDZMXz8L3e10BvTdAbP3CGmDG57nvtqoGRhl61 sj3iDADsevHWTl05i32ipHlOUqupFil51gPAqFzxoXDRlofOfrji52fxOcLrRBXwbxlwZs5I +TQKTDFPqNfrM7RrCRSOuoahK3OE/MnK4LquKqFsUSQyRoOBcjJS16e8oiAkdX3JnXtJzsYY 6L1D4AHtrqBeUeSKyJGon+cJbN8cqekHQi71fl0FXbbW8LqYyc65MWcCDVmCaD1gxstSsEKw HxSfxctBBH3p4++fTfv+/iT5C9HDZ7sZttFxJ1LojnrZzGifiNiyDWwvhW4+Q7rFShijrk2F SmLblFEdvEG1AQbMgHs14GQPsMnMsWxDoT+YrZJR70UhaTy/mGG7Y9vGPeldMkEUYVKmQGHz Gyho2QNAoxtHhay1U/tA6854nuBWlqqZd0GAfs9ZHPDemzw0SE+yHOEiZPKgkll2tjYdqyYf rhBQnLf2whgd8174XdChVlKTSh3W3i109rEBDrgf76Ga0OshOxyO9+tV//7MOdxY3hgMDWfT k2hJ5un5Q2Qr/o63qHmZJKUu7ll/qwIvvX56rDiISbsCp9umPw5Neo9UwjZVDGRL2a5DzsNj uH9/YG6Em+N5X6+BtuLPKfOsehcVah4BeDu8ejCWyrrcD/V3P6TE13WEjf8dswQgYhwRrMSy 51qY2vDr64W/5cMyZW9AHO6tYMQ//vgqYIGZ+y5iRSWFmaEw9WPhWV2Urh2MYSV0yOx4JZL3 E+DIBU/fmAQI840QPnbF3uzvG4O/d89sKSKxlChlQr1rhXfpEnmM4zMn4A59v/gdckLonKsS SS75rsQXODhIGohHiZj5xzX6KZGjXy73iALSTUUuTjLYv+JBXL0ktnuHcqQlTk3uOhcrk7n8 8qfMp6wOiRppiAGl1C+lyuyNIn1wIaf/TJae8KrjwTvHsyTokp5ndGb3vg0fUBJ8MPuI7XFg d7qysIp8VtXDWJHccTRmvBA4VtPIK46OPbPoash4UKCvV0dy8ypsMcr3yzWAIJQ7h0wpbULr DBNRIYgAnw9D6t9/f8PeF2XlhcQdMUca5/WSWq/WFD1JeSAs3amMUeHDpOQWzY6kyB/WYw6P E0VPsOtgwKk82SELSveYBpdZPGHUf2DOcg7HibkZlwgBno2iwMLdsddpoKAOfjwaAOgA907R 408iYxuDeYvDv9aukqhiqufn8P9661A5bJnISX7NKXF+XaMYObfIXwSFuKW+kN6Qq9NCNvb9 uavH73VdAZe38nBmDtkOt8RbjjfOsJPvpxqag3sufH8+cHj1QGlrUDn8My1FIHJIj3TvmdEe l3o6TLRphYrjNR7xXARmsxJBgKXMSPWsHfSMwA7jFlU2J7QA0WRhDiA1e+mtGuY64BFLt1Uo WvaSWfTnwTs7fTLH6T0Spqe4AT9+UqWSkiQR5h+/vz+PVm8p3j4bMBd2HVyu31M/2KFq5c34 AgfWfer0AYQCB9DmxSFkOMuwnb/u6fNFUKrLOReW+yPOhQgiakqN9qfrGnVK73sxEwdwRZdJ qk9/fb1gbvj7+4Y4QsPONiWAGWoLICMTtizFxmh1+iVe/jUupMz5SVM+w0v2cDM51aKLx6Bg ctvNvruLXmLdm90qQRpRFoXCrrPO762RxADZsmcMJZ6/ywpf11WdsuPq1KtLSL2ijh991AHL JDA3jb/neL9fQVez4B69k9V0iitVwkN3/vMz2b/29fUuj5XEy1+/v0MC3bQehiciRQPHvaWF lzu07HABbAaG3BVwOTKo6HbJTPJ9XWEZTFoo9T2ZqsQBYLIzsbZh9AGVjW2COVkGqbHbdIw3 ZvS9/bvYQkqLTpCCWXCWMQqt5PL1unBd7YfCxiJZ23ZEmolR2DZ4yL1XKIxSVYu1CQAJ8Yo5 ueAtSsj+YBD7w6Pcix2wcEeT9J6ZY/x0LZnfmAFrbqhGrhPsaLJ4ZqeRRITl+DUGem5jKikP 2ULwwJxKk/xJnNsq0WI5QIuNvre5sPfRomdsZExJUMZrAV4vskr3vYIi5UtmGzEQtXro1TL+ SrB8hHrj4MYipczrsx4s0yLOn5q+fG6R7BA1mEkIJtjP1rQdsgXJBxh8IXoAQroNwCMfGd6D 9erYm1MkFBQyZHI6IwdqjSLJNRcQpdvpmNkQ6f++4UY2MAGj/DF37HUaHiVykwSuUszRPWKz uUN2ZMKDXSBqTzTOT1auAgTwki1GrGMFFnX72iduns8AWvN6GIWw2zTVOgAtNzxMJmG0kMY+ r+hPy/j3+roAQ2XdjJsOD55nrgW9HwgcmBFrWMAY1MOXLuAfXH32ziUHke/BcSIOvbj55odb IMhyyJIkZwqHdysNwOs63EBrIaYQrsNaG9c1wmBaeMNjzdlPl0xeNmVyrEtWLfm/QFHh6ETP GiTcl6pWsx5hy8fIi21YsiH3kUNni06LDk1RxnqZgr0XWMsGGHLf2NFPXajdMvz5+4btXTNo sFBtSdlB03tD64c7dyfgMT9n3oyF630KEZoqs9/CGLy6dPhrCVHEikNwRCCnbg/1S0K2gVmI APPDGTf5U3CqOmTzIP7+/vwoQdvIfMNqDVVHtISx2WFOuvq1+OcRMuvlpyw7ypjc2AdqCgEk mifD0ksRlD1iac3pGt28ZpTkf2sxc4WLQQAlXUkuojbF1TKe8QNGp4hwPhaa1CvQtBdcqxqU rpBvb03x/fv7cNMhqFibPHc+S5Y329ikIKIVpkRSOhUeyDb8Znwzd9j3z6w8rTml2FniFYyJ rPk1+PzNEjdk2wexO3A0DWQXVvESYSPiCE8QHoLkklVyqIGUSmxcCUX2AXSqqzjed1wXEceo sBIFzb/fmqK7Ax6jLkjMn4w0T3laDBv1WuG87Hm2IivcvNqejso00KEm1WMNJLFP9/Tr6wWz UUKHPMW9KdboUeKFujMy09S8aciT0wUX0xS/Tm66pNSfG/uBHGYiWZ8V7+xA1dS5kdUtUu1J qWIlYmjqMDuS5KzrW2/hRc/hnfOIUYAMS2w5Zq/9QQKBxNo1QugV+YDgr79+Y4wLimzaiDaw TfDpGswvslx9XQOdmSprcPNT3PdQcxA25SI2aXVqAITCo2OueYiZKOcSvOCBYHdLEh0rJEIY IZ4omDCkvs5M+8+/f2P0zjo+BJpNFdCkEalGTUlU8uECqYFJOVWiN8UqEi+8kwMrNuP5Tgl6 JN+P8Cop4yLw43U4M5fgnwtxiHlQ1hKDiZiMjt44fmSxDy67bFUFBm54cgKtteiePQ2U13Wh t9PHJw9mU0UDl5iVI33uhevijBt2yShLtqoPlQrT0mPhaLB5+iLudab+Kft5xvcqHYSAyQE2 wlJU0ELBsTal0k/GLlWorQmugCJToFAtwI8yJg9SjenQ7C0nujfnpOYszLdF+TYnASEBmaqU KJ2kiBsDBXrM1kvEb4Wsae+N1/UqdE0y+dwb9+cDUUVHB6IHboXXuS4mWanL57sdTzJGLwBq tAsLB9z6/X1H51ELLXsP76hYvmCfGfD2KIDIP1Zx/vszKV1IhEw1VSCJmrEVJlm3PPVzb9yh 5cqkqBIzP3Ll3PAdtavK6Y8DAItDU4iUBXwa/HPmAvzPGuhgiiTLM/5g7Z7Q45n29Mjs4dCE cCX19KnBwzk8jxCVn5djTPa28BYN876hUVEkhblD8jT+KWN2so/0rP+A9XBKMFWyT9uocSj5 NxIjOPlFkjr5vmsu7N2A6JJheccRLvmVPbPQJ5yaX5BzzZ6Znyow51Fqpst6Yr1rW9S6YXmy 2QzxEFpAAdksC5ntAmocPgSJLlY5ODKBo0xIHGac5vR6v9BHC7BIkCrYvTmzJluSstzJvnMS I4gmStQ7ZqdOihWfIo8q4woCFUwshhRn88XX1wWY4/fdawSIucNFoJGBc5MyHKQX2+HCjYrg Rqo5MQOIlPjCo00bAF7XK5pEPVmWOkACxfvrVUlf/vRtFvNLzpC700GRo8VO9qcFzR5Xm82I 2cOt6wz2UcXJlD1HlhERU1GMdyR8xpoX0gNftxJM5GFLYGdb1pyBbnku4KOKCIlyqn3T87xa LwsGEhkMOZEwzj9VpPYja4/ILUfIeF2juIFE83JCY6l9IovmIWIXR65xqnrzJyuP3jo0VLwt AJotBrFDMuVzpGGUlNsPJj9a4/QOAJ6DhmwbvB/SQLaFPFeqqE9PkCAKrS5GidZclgejY4/S z1N0cRVbxlyBeUQuaok0EGjallrYfIGcr5IWkmEhD0eLUJQ5BuvXoD2T+cpN0eTC7cf38LuO gvap5g07qyRVRPDr1wtNOXv1+zPxn//5X9jb8H5f+I9//eJc3JB9Y4wfn0X4mH13r9HZ+RLP tveO0MbDwvdWuJ5mD757MqTH+FL3p1FS7m0lCAGA/lyknuxNfInIrnS/BRZssekpN075dLJh 359PPATd9vecUCU/nOgRiZIIBetIsLhTFi6YaFm6tBRYHBcr5RoptsyyLLJmpddZe3MahHCI wR1IYRuUYkngBWnZeFg6cMqt6q3bsfWSOMCp63PaBt/jNDIclS1p5UTtEn9IpVBi+Skw2Zu4 PR6lXVMt3UPmCL0fKnpvRw47VuGwI4ejXVetXXdzLCzKonxAH0lC76GVu3fVzSXej+Rtb8d2 Qw9QZc8gaRpBl79/fzOrHQuvN6VN2wy+DdIbuhxFabkldwANxwn/+09aJicmG9TPoCQzQ+8I OXX037UTRwFUN87PxoTQ5lf+opXIblPo5tCeJ5jz+zenbUBIh76uC9dguff9uctd50BjDkpU jNbQrjMFKydu+rY4hAfYSR4hq5MsG1ckjGuLq2QAACAASURBVLIFbNs+yZqZsoU6JO5k5KLP De4x8oP1s0+64Gz3/dwLn88H7/cLX+8Xsr0nZ7R9Poa5F3RodGRoHZB7LtKAj2aI/rCO0c9k hdygA4CwuyXBFsbc09J0DuZzqgU/IwETANWy+/nMmP8iGH3UUKR8F+GOlNyJ3ynR4sUJyoKG /TigTP6YUDKW7IrPyWF/vj/MgxrBokwYgaNEWnthZ/7yyDcyBHRrFY5OI0NyFI3l5VzYTs1g erj7nni9X5F79AoFfbyucnPujuk7YjLnnfzRO6cTgjztvBfeX+TLZTP+vtsrSr0U5BONohQK oX33MrRUliSQkJuXpUeCIOmaot6q3IHwLd2XjuckKcfX18U6egaYMeieOSHK67v3Zv/8515Q PcDPQcA47GeMge/PB711fH0RCfv+/qD19uiv3z8OLMJQa6oWgM/3XRh9UsqZ48AJnrfe8X5z IkW1RrcYSaaCvXh4Rxhk04OHiCiu+GrO6G14jTOZ6vf3JzgMRb9GK+RsLTsomnEc5vsaMOPA 3+/fjNdrnkL56/3C5zM5pdgHacSYNfP7+1Mw4FwLn8/EfXvh9TmqC4HFl8qVp4YL6CRl6vfj hzQ3XVpSp/YQX2ij6ONff3wFIhiTFfPv20/9vAhKvHFmsvVIBLVcM0NHJ0cemIMqCoDyR47j KvUZHJBsGK8BW6SRKTcniDL/UTJnvqB6mLVcg7k3WuAeqgI0JwsnIV971PUJQKUgpYmgJ27N hMlg0Rm398bn+wj6ckzn6/X6oZ1roRKVYHqyEyQ7XP6ZgaeqJbVhc+ZU6FODJzSZMYo1O04L TxwQB9WunBhBSdfBDzgE6Z6LrNW9quVJnM/BufI9Pg9RiyfwopW3qB7rS+Stni9VNnb4B5aq dOFXkCapcb9ax22LN1NoagueI9EQXvBMrsqkjdLtaJhogtHYJNqips+wmHX73k+dIQ1nK6iR qy+M+tIDvdrmuP/6XS7i9XoVAkRs+qd6lbHzjtpSIFEyJLhSs84jPpmz7s95cSwTd8R3D6tq JYd+Aki0UoGnSjQw8z5aXT0Cw4+SS5oGpKq1sIyxXmVftiAD/Lvv9wVsq5so8mdvImbux7L+ G5CtvGZu6Fyc6aPIEacb/+wELp0d9o+u11g04ieTLVLaBM156BEVQE6sAo6ESjK7N0E/uHlk mXJmsJo5px6ZI+84SU12Drtpo8ECj3bwzw0ZB2XyFaXHwOvq0JAN52guiXfx2kzCrcfFnQ3P xc5FeUqJP6Efvy7y0Tl24yn5UpEfC6yiNbKkOkKEjRfpYUqOFfX+iAF8SVP+RDRzlluO5dxV 6yc/8InmydYVnzlDXcvvBE7i6W6YOD1xAIJ4iRZn5zy81ju2RIu2ea1NCwnXGW5EL0zRZTtU YHLr1RIU2e22GGQrCrMULYS1WSZXVMKMMWqg8FpBrASU+E+8OV1kEg9w8tI5UpTe47QRHz39 6Z/fOxYgWpQEvZShHNN1pkq6J3Z+YOW8JaI9gAx6gdMzngetx+0JuZFp+dmq9VT8Zs6Qm5AY fzFo2rAXeX4HjsJop8fIqVohGV88wEnRdu1wpcxKA9VLBDDDD5yNK72zKSLDQ2+jwaPxnyWK n43Eaarfe7MeDmEBHDUG9GlxuTm0igaVUTHa3GDzOYgn/vxDfJD1LC1R4J6q2vg9/enm87C0 wP9TqpxjShWtBgPu/dNbEFgKVq+HECHIFIkQ17vW4QRQSRFkw3yD40rJM2QYay1m3IC940+h iapWPvGSbADxo0soxlPK2+x1Oo5K1dMETanzS+VvC1SV1coxtjnthFABugKYzr7up4t6nhiN 8mmbleDeov3V44uyJKvQkDi0n3KGIkpaZO+RGT9wfY8Ei9lqijsEe6OG6ROrPvKfLPXSkj73 DRViBjAA7Wes5L9bADoppWro8b09NmWGWPGPX2/ilk+UrgmaBVKXfEJYI0CLUgDSBJhhwGbo 18DX4EZR6Xug5NMCvgptBBiuvj+bOsDYODOHrwXNa1gCQV2R+D7zHlHFvG/cs9Xh7e7H5O41 AXOMcSFHeyQidI0RqtVDUiTkl3eg/RgOGHGO1OvpxTI3csxgOLkfDYmqWnNZk/HqkQOwQe8n tp7yo8TVkxJde+Hz8dB6K+7QjyfYZ5GwQkDECudAtChrEuqce6NrXtGRmTtLM2ri2UuGqADu OQvhy154SrrJ+i3JzhTDJ26Uer8uNinOWYzgXAvv11Wq2qbpcS28gOL372+83hfcHL9/82Kg ry/e5fa57xCTMF7MuPcNAOfIZYy89NGHFQ/zEU5DyAb++74LE6aE+XDOvbdScY4Q/13omNEx OQY3zS27KJ9tRrsuoWlNMJdgxyhN4si9BBO58E0JNZqfMWcqgtEGUvdulpTqGf2d79e0QR6j xlJlWlO1GufQHJ05J2VoNCtcr6sqnurpn7OUsTkarRoOkSXg6RGkOiaG+JpDOli+hnt+Jq5p GGnJvbOLCAK0xkR0rjPDr7WG1+vfG1B7ad7CWjJbZdzgTYbbHM+rvBK1ym7NuTder4FXsEhz 7gCZDoya2b8ZWNZFN2q683FdP2Q/71eoP/YGEIJ9nPqcc+QUPleJMVLYIPHd6XV6kEasGg7o oXJiIEUQISjMob+poUf8ec1Dy0MxoqcMAlxXj0SXNCuv2jpuOg/VUdKeTtkMc30kfwcgJkWb RQ9bJ4WcUqxUCfuj2VTseO0WCp3RaaxP9q3/9dc3eXA711tkEiDCmShzzkgYOt5fF0aABmtN 3PeM5oYXrmvg+5tyZrOOWxyjjx+w6XYmhIhTz1ByerlL/QIhMyYP5i+UoHs7thCV4jWcWrIu 6vqOUsUdJQpUUUg7c+0tlKd58CoJepRomZ8mgFKcOlCew43JaDJEKgf7T3g3sf5nT1wqfhIb hyPApOhHM4FHW1bOr1cBPDgCVam2q/QCT8pZIAVzP3+6qiKh2G28I+Qd6T5pUA7cbbEpn+8b Uw91+aRi75vzZHvrUc8a/v77N0un3pDiga4tpM4aOLkBuJEUq4jA5xmrkejdfrg8VcKcK/jx dIMZap4e4Vk+0T1ahKpzzVaGjSwxAUBqINLPa7jwY+OZBH9/6E6ZAwF7J6IY+IA09sxtQw4x FmnIC3yach6cbi1horsXdr/WKjTziZUgMvzMoVpIqpP7f+reM7T15JLXtsp8X68BF5S+XJvQ 3UT8ZHxmTOQwurhuwndpy1iTzsi+d8U5lhfZtMdDQUlTauGlZrImAwcA3kI6vDd854vEzYuS CN+DOq0qwoKz5+Kww4Zo27x5KfA/23tdEFeCKPJWiazr8+eIGAVLMnteP2BiALjjYqM8Jjnm RXBGnO298fFs0RJIa8U3jBhsnA0bOZzY4+//ChatkuFoOskcZHRe0bLm4ngWgJMoJPxaZp05 OcoddZuvW95m1OtL0lVVjRg3ypASDHTuNbDu/ViQE9tEgP/4jz9qLMeOjJibQ0HCc8abh5WV wQUmLThQcJY1XkzV2Sx3AFHycIH+naqlYjfHq0j99xzis3+4Zw5rSAHnPw9GDS0IZC8BmKaH BqaLZ5jI8eAIroGJGENm8uJmzMjN6YW/vq5Dku0c4RqJp3uJLp65Re9NYzie11BaTljUM10h 4lJhwsaCn6CE1QeeC334peM18B4XbtzQlfWy163EYwy8rw4LK8nNzp/n7U5AbK7ooRujFMks uHdeZCcgaTP9iCHyu3Mx0iqs5FKPg6OnXRjilbw2bZhzFtiEOPypAXSXqpndSeNeo4degGha tWBZIn+C1ka56Cwp4Y8rxYT5Rn/U9azp86rvIwO3Cg1RMj54iVzbPnrDdzTCv8aACmCukAD7 772hpdUK1CpeLuvutMIEycoyt2O3g7NXqSLp5hssUbkAWxLKTJjzCd3miwAogeCIrDk1YkxE +X056y35dc0biwOIuj832uiwvfEOVQ+AGObjVY6hebVfO3L0mBUvkeEorIgJ694wOLpqzcJh Z8v+scHPCuLZQ0AYWIvZA3Jubg/vc8c8IPzY6OQu+F0Lv371Wtc06v7X7w9nomskHjiJARAZ qvBu8Wc/FxDxZq1i4XKsFseH8JLdbDrI01lyXveiZ0VOqcghPw0O9p19xcTH5z1rTM4cqy7r ZSdq86Mb8+C009W7G2xzQejeLQ0Z25jP5GdXL9hDNOl64uYI6XdWA4kkNqUWL9uKzOy0VlXp d2p0qxOfrOLPhAsA9h2G5dTAZynW2ru8yjGKrMVbJN8HJCNrF3U6TxE10kCC+gfffrrHJAB4 Ehn3Xq9RsWvOw5er8vSstfF68dfMJE9f2edzA48MNQGemsQYXD70gTnraWGi2IHffdsEltSF 9CktzoSn9xzGCwBxIDSv55Z6pswFUp+e79NcsXEy5BpCEKVfurq5diGTqlJ5SPYIJKZOlI4J SXLxKTLlxp2Bwb31uox4GydhpCcueFgeHtZ/tj5n/nV/B9bCcRytWKVtrdxFDdOLWjc/v9Cp HVdkhwtKuJR/P5inSIBI9J9Ol230HDl3LpvzMiZLIH7snlXIAOaiaxZhg8XrNaL21TNgQHMz taZUSgA+jPXPEoxWmXeZpvLm2aeWU5kPP+DQ1qvmTvy8d2IX91y416zxomQQU17NlEsQyVpY +eEpUF5Awu2rKvrVYOtM2iohZyR0qFL0ULsp1PzMhatToZPXhdRdqxQdnGQtFRhM4Pjf5B/J BJTJ1j8ZMnOHrVMBzEfs53vS3WVHyFqbVt1iJIid+a3TZungES4QYujRLGFilQw9VUCip3lS tkAHQxQQAA60um6tkW6FpMaN3ifj9D8H8cIpWc4OoC6cW2PBtL3GhWvkpMe8BCE8pkWiHOTT dZ1bHdODpvrVndMlYTmrJrpjY7hANnp4hYWjC8ikmsqb01QKRFuTmcXkhl2uUKOU66FmJcCB cq0AgpLN1uJOVAkk6++4+YC/Zr1OF34AGBHhZOVJUqBHOMgrKnokWTl6+xqdV3YD1Zz35Kyt GTAPeaIq+B3Dj8Y8nR+va+AKbiCTpARqUnWapWVOdADOSI/Yd0iQTjcW5dEe/d+dpM32U4s/ f7I2n3Oidf2x4c+uV07y0B86AvO4Xz64hpRjZXdravpG7zUO3Z3ytupv+FnOBNzYteQ8/N/j Mj19dKRsr3tPNHV2WYNDjtxJnglUXk/FTf/+5p3oLS4IzVrX4fj+/V1sl8iFMZQKE7dipU42 65DsFfMz0BBCKHPbji5aznVLTL13xNUek9x6kjphFYIzcz7r7Owfz8M3589uWtsGhNc6Ce1G dRFBaoiAF2YQWvgWkyjW5AXFY8QapEbv5Brc3GyDVhjOvJkfDaUROlpm77RsrZdzj/ZfHMK/ S2TGcUw9DgnUC0RpqoVjj+h83XFdNblu1rgiJHGST886du8zGuz1dfF+mMdYbM6aO5cMncmI UkAK7zfn/Nisxf/19a7O1w8msu88r7vIULLd0atiiTtS9RE7jTNmDbwGxIMwGtGOdLp8olwU 5icrWpqLDm7KCU9NIdEHd6Rc1Mf7CqDqM2O0CyJW72LQIAJXXtCb3jeT1gSgzDZGb7jj38Ur pkdmC6m4WzcjZ/+XB0Eiz1+jFClwp/7KY7F6Q4fAOxdIlNdlZjnCmeWzRoacu8+4aIhkmG1L x/qBA9gkR10yYaGnUchjwDG7R1rLq3wQrnyW98lycgQ6x2w91C1RlSS0nIfgCVQBqIsCCuQR KavOZx2Dv16L8/be7xde1+A9cu3c9PT9PUtNwz/DhhN3Qx8d6K28igvw+69vwB3juh7oaQhX N0evvd9XHRoA6BzMtwL4OG7Z3eEtLn3Np49Y3ILqVBDISUutckOkpklkySBNoJuSZwu8nrLl Q4GO3pHDCrLWfv7EIS42CWihXBGYxqwWP8xWkjTEADL5CbcXz/p6cTM9KoXEJ7J043Ol3CrH jZJJQ7pVsx+GQNRx1YEBDrX8bCR8XniQCeznvrEXDeH1Gvj+nLtsM7HUwCUAYIe36L1Vt+8z MaQnQHisqEr48lLNe6UUjTq9BAHwupUg57nscK+pr6uRniv72qOn6/uuF89Bt6rnhiUKFY9n SZWstvbDlWf4Ob1mHDMiyodhIpOLT3ffNbPjA1eyDt/BEXBIQLlIPyPPVpRvyfHn9CyPdUke Pvlt4gwow0ljALKG1iBpnro9R17qK3I0eBIKmm1pIGe6NcCqJSnj7BnIkEVoWHENxX/911/R VnVaujtPvf9wdf/MUDOxsWjGyhlp5o77c0NU8b5GtSIBKJeYF+lky9Dehwat+j+UI3Odi4My GXmOF0khQAo5ExTScebIpxZ9rg086trrOgvNjFYgckaQ53y7VPgk6pezWomEManKeTb887uY M65lL3bu+UNYOebfvi5oXGzfm+KzDfO+IRHvXy/FWuwA9m11t83ehu1xqUCgbdfolelTNZMT qgMbiX14DjXqqnzADPIHDowJR72htxBBPuDZPBRmDo0rNBRaAECWfEs2E5d+huAs29V0oCrQ zhLl87lhsEe/WdabDzLEHWvG0N8oZZKxS2vKd6DX4TA9oGNX86VWw+OcqI07mnsu1AWHBUee bVrUCpBZY+IU8d7C/fum1zG2Um1Y3UZptpGBnutOEUjiInst4EIAVOyCSch6rkWZtwjQjtJn jIEWmMpaqS/0Gvz0fv/E58vSBaiZcPwwILtN3PKyvOMFDDlRwmsSwz0XmsU9bBCsGMb3fl+4 P5NIVXRzvK+rIN29gfeLdTMtxaLfmpfDPy+qyYRnNv23a0aenDhDTdS+MZw4w5NI4PTR227N f3xOZuA5KHlcLRKuie/vm3X+4GX1n8/9o5kgVT3MpKPDZ26MJnF/WqCdmnX6hmAiFUp759Vl jt47vl4nG9/LYP2ENT5rXMmNMxPo9dJDHUdF8LlnJXEAOFLM3dACG2YNCQjOeOnj5hEZeJZK 3AgL2Y47R3ebe2XI7/dAHx2/v2/MOfHHH78wRsP3d3R7SN6/HpfA69HrSY+R1pbjvQRd4tLb nl6nVen1TOK0Md7VzYrbsCXh44Nojei2dW8VU/MmZGrgVlHLX19xIY8D+55YK6uK7BfD8XKx lhkWRu+h0jXMz8QEsOaKWyAJbF1XjCyNK0SvQZEoAOzuBd1m0icQ/P58AKex9hbdrJF4UluA gnNT29gzi5XtjNSF43rF3afQPrVlqewsdikmNkiCEdF58f/+55/4el+HtHGSLr03/PHHL/z+ /V0xMRkpCzapd+IDnzmx42bFZ3h5Nuiz02Wj4XToiCcpk4yT4bM37sn69/3W0oqfZBQ16kwl hgbEHeZf7xccjr/+/l1eLhNBeyRz2RSZn5Uy8rycOBsnU15FiZahNX+MCh/446vxYEmwr1GW 5oUILCNbJc/ZBpUecy16zRW1/OhMouV//z//b8+5ZFlqZHIz58SvX1/IEdY5Nzxj0FMaNEMW xKslD1PFGPrA65HqFJIOCdEmK7ZjkRCiyoQRc4AuJzVIKWQyucoesB+HIl24eUGcmUiuvXB/ JsZggySb+TVuqFqVGObipoVBOAzQzEisSENKpPOHyWjCufpAJk/3b3L9PzDzzL4FnAAZZFYf cbXmowTM6Req7ENPWReQd8B5DBumN1p7H87/Fe4v4yFdQIjv3GpAQLp1Tmk4L5gfSoDnXCTz +UzOmnu4pNyIZ82Zc2XOvTARY+0gcq/XRcYrWKXnBT3ugIujdS3Gq5Ias7oKw0yxthRH3luH vs+cNx7UM6Aw9QUjxnZ7UKcHakaRIpyw9fNg53ryGU8czkya1HKIJB+Zdc62ew4Tyg3P9Uqi CDi3Wp9ENv7Oth8H1s2xPcGZACSIQOm5R0w4g+Z8qJQFZ3OEGcmQ9BLmXnPbRA4rVu42QsK5 boKewcVh0RAhgmppnnOVJ+ij4+od9sj607jMABGHdA1XeEiYEcLH7KL1He3RvXEYsWcil/Jr K+597glYAyJ3GXIo1b2PtLjoTeDHjVV52D3AKvMEhzIPWTGy5axHIn9puc9myMqx7Agt51o/ NptrcyEHJ9L7nYMKAP3zuRlfxtGd54uICL5/fwONdGHFoOj9NjcMOQIETis8LbwqCun/cO+a o0BWhItdbj3dF8vDoAFHiwH4wK9fbzRhJ2lehJPPnAODe2eNmyM0S7ToHGCIyGjzBqY7Jl3l wT7EyQkP7pRMPVWm7GNniFlrY90Tu20gbl8sijfLMTveMTentQtfrwHkfLx9hh2yA+jkUinC cHh10gJxFUrTChN5eLI6YrlLjiCB1d4auzvdOff0eRth4s/5xarRiPh4gbUoxjc8QRdu8nWN GnkBoCYp5QavzWmLHneiWxEKV7zcxK+vr3JTxP6PyuR5u+CzJMmpSya8pLaYN9Vqx6LAc1dI ydrd7CR1uZhzTnxuq3tgIKyPn6ExF/ozZ8XPLB+f3/HMh66LbZPwbDJxqAMSlUfi8SJHn2i1 kUwe2wj4FRkeabDLNmzxztxU++Sz9uvKy/N2vewze0/fl1lq1swiYI+0p7wncetHfErMNyDC ea86fYnYJfBiRhCDSZHVBnGCxRvZrfEUFqJyjJMr8HCeYf9ZanZlHnDF/La5JvZ6JF9CCzM1 7Enrzucy8x9iESZ59qO96P1OLd/ixkDC6zwgVkkJ+GmqEDkS6Rr51dgqZdvQQ9FzZz0YeD9R yoX9e/8Doo3yrA2OPwPKMxWf/k+UTTuvr86fO0T2lYlri7Ykuqi1Hc8OkJyAwLj6sLrYhBQZ ZM1/iJq4tCeyclHB5YQYVeh15twVw1LowYOVbvjo6XnF1ekLr8OKnDf3tD4PDD1gzHj31KyL Ms/g4ThCkFLmCuq259akRpl4WN/z9uXeNUIWS7MzdDjJGK/73eFHQZzPB3dc4+QBXPcjJvWH 2KWg16KMQ/Cy1sY18i40D+aMZVHqvAAUAtY0B/7GYdiG22bFo947uh70zhEX2EmDCr8nZ9Hc Mfc8k44chIt4hjylv+fh1dnTZbEgqLth81ZCkXOtdUp+q5Y3w7Ib2Yqkz+c0xzSrRC4nYnLD jpvlMICfWXp+hsAPhDpZEiaBkolk74rRWILdcxaTx+vOBrJRJPVvObq8N3YTcfAv6t2+46oQ zp1l0+RpbzoZ/Y9mh/ebd4d97hujd7yvK1qcJqydq5lFMnZ6lWhmxgQBZ/y2yEHUuAnAXNFG 3BubEL7vH6Ek+4NTtZljP/94XwAWHJzG8Lw6k5bomDMkU8APi2J/HPlrdtR23Gvhr7++Se12 SrHUHpz64MGccSBHzLRX5bSKlHonOJXJ2t4bnzXLi81Fj5QXIIjk3NrQyjXB4NzG8n7PkWq9 PWKwc5iQuyNlhmtuMopI5bFUA0ayiDKY+FVjBlDz83tasIB/+HutmHM2IcrukWS+nm4jNzjH fidv/QQpkqWycEufcNsJ9cJaCSPvwIdTZcLhAnnTATtjVSTgYoXJT5o1nw2SkimrBOq+OSiw Rf/7fc8z3TlhVAFknTk3Odzv/b5q2hYrEpxmhkqczujuDBlf7VUuOw8jwHD5vGV5B2P4pGuf oFdrrSjt43Xi0UXQXwcMy9wmDc5TtBKIYHLwveauJahx//zLO2rF3h+/9+CIUyjRVLFkF6KW tzzkg2bi4ubQLoHcSeHq7ii3DJBH/uvvb6JW5uUmUxGaL5QS6nweVWAL4zRj+sDnvmHfVjcm AKiulDFGPdsMzFub4v3uNRdWA2HjtWMnU3fHjw1doXf/+nqT8twbPS70yZ+9Nz73DCz/HZM0 jniF5/AAM+T52eWa2PkdezSuXuBXIn4c6GDYm7hHTrU0PwMZeurLZLRHhnlq2TN+mptxr1X9 Y2MMWmXEqWs47nUstSkJD6JtCaeSInRjgpS9bb4N7XVRqXp1fH/f0Xt9PeLS6alj2aaV5Z7u mxYWRvozw1B1ngZ0m3q0vF92tnWaJ1VxXcz2788sq8vkL9cpNWnij/Go/kjiIp95Xs1JTaHD t9W1oQlLP3sA8jNyzHpNrQgACdBSJ/XIXyofWKRwXwFRZ9t4/vRaUFW066HmcAoBOcZyo2at +4ESVSNWmcOUcZJJFV/GO62FNf+xivueWHEz4jW4kZkzZwn09X7ViNHes0xMMX9ItVvOgYvF 3idxec5pzeH3WVVkUpvdKGMQv2aTP8vKVPukrDtZudbOsN/ssuWfGzEgIcCtzQt7n7JpyqXa Aw9Ib9GrczfDH5DZfsdu+3Sk+tEO3nP98DR7c7Rrzrq5rl7JY/IOANBZNhy8N7/MgqoEeOPP nDPGkVy4xmHMzCzczZNdUmQDnchRfKZKFgC2U0ghgponW+3PcFy9o784jiwX/UCgcS1ID0i3 KwBi/n2cMaAQYK5ZjQbE4A3SwipCuOE+aBUBgHiQMju6e15XxzUubNv4/r7x2WfNkjVTkdK7 f4IyNTvcRX7/k6d3d9wawsgeFyIKe/PoCQV5T1uuw+gN/TUqD2o6qrLoPS/0sSLI+HdiBKYE DpBWk5MTUjUDoMqpHYcgMXRVzkNZ22oiFZyTmjS8QKsSYxdZkfG0NQX2qdOfbpi0oUPFoH5K xfw5/V7RjBDwZI3+gLDbZOegQAcaYeOsDFrkDmxRIgPlN2FWeMbHhm2NNKe3Wvz7c+P3943r Gvj16136NUdIq9yrGbPQS3W0yLbXMkAMIz1HuHazHIWyjhAVOM2Qe9esPHbpeukNtzlUPcia DrUjBj2s3UMY+aT4Pp87PrwX+JADZzNLBI5CZE3qtcYrR5N8MOcq+JUatDMQP3+eGWY+NOYs hCulRHkdFhCJV1c0Yeljmxx6DiNOrDlFgSkBTj2cNkVzLikpUoQap3Fmjm+gnWRQIDDIj+uw eXh5DVdm+SOEDnPuuhocYIZ/XaPUrYkYrr0D3/DIi1rNc83O3CSmaq3cKwRkDgQgiBnmBpnR j7EL6u19YO+Jdf8E4Dob9/gLSp9STQ9GOQAAEq5JREFUSHfmxIlwvpp4ypIkYtAo1q03Rf/X F+O5P654bBpTCnlKc/DNGD+15Hdk9gkGWUiNszGCgxIY+UdXoBOooUSYBzNvYc5hPT1wBuL4 LPlyckMJNwTo7arJDg6KPJggeog5UaTPuHjtds5qWzG/jVOsek21ZqgLqXSoX36MHQsFTzWa JGFljn51iCQk7YUT5J0szx72VMGyylD89ddvmBm+vl7RkhUTwOasDuNOzJfJ0zVaIVx04xKX zUltGJOw06xIqzJ8wqpy4F0+cEKS2znkL7s5GCoeY61FgCAaBJyAfN8WCxzWfqgAepDquMZ5 5qa40B8cQXZ7EOR43iubXugaDVow52mWWOuGZePmg6L93F5SqE9sYHXaPEQO7nHB38aPkASg sv61rJ5RmmLEtOycXMk5cwEx22l5PtegcX2vHleixganODIT0fp+c/A4OqKx4MyHY9MCoJub pUhdeLj9m00Lr6AS55qQzRJNBdiR6eeDbeXkJPLpWWYFVq6CHMOdiwCn/MmsYdmKRoyQYxWj RuEG3b1hQfBozSieO5nDpGTzx53WWpRuJFG5KXkffAv+PRk3Czw9ry9Ztgscyg304OdfL61D mu1RnmAMsi/t3ASdYFjq9IAnT0CxCP4bpQ6iRs/Qk6DMD5HKaQxVNL3KpSbP7TiJzf7c5wsE GC1q37kxuoUbYU/a5574IBK00Ys8ED3txzmtOIUSyefbNnzfN63vGtELxuZDwakOMjncZiUV SlCouT4OEJOZHFHy+dxYe9XI094GhRqfGy2uLVHVGpR4Xb10/OmdREbVxr11vP7jimGIXvkD cjOd5WtudjaEaPPA4+l94HIAJ3gZSg1pflDxKWTN3oDWGptA14ZFRZEjV+57nksHRGBxortF fAVQV26pCkuHh04rZ6i2kCqp9ChDaBE507S47UioJLLp9MPSDjbPjZE6rQleANlDLjUqe1wd X1d2x+RUixgEaD9vNUyYN0Uf2Yl6R+Y7xsA1LogCv75e1QSYMTJdYY0+3xseh4lxmrCzz4Wv fj08x0/3nX832bIkcrrH6PSZz3oS3VL2IsPFozX88WzESKJJslt5F7e4ulPY+ZIs6aF1gf75 faN9vSp5S6EhcFp28vQ8myCgySzhuOiuUDvig4RvU7ZjZthz/7i1KAmbtVfw0ufCOouDw0gj dVkdcLL2J/VLbv+UlXCLbhKtxRDhXDx21FAAkj3vc80qa/KzS/myOTo8hw2uwN4T6XtC19ki JWI1wCj1h16byjXIwb25xi1m9sETYALWOlXNczQ618iKcQPo/ZIQ6q3hc99R2p5RcJ1DAmNg 7YMXTpw5m+lyPAfp0FWnkl0r66GZZ8mTiFOOFXGP6Y7rcO8O3uhEtowu+4rBgikoyLFf/O5T TYyYcjnnmTSZ8OU2jk1BeLEEdVKftpdhWkK3vZhECiPPLc8H9OjH+h+NBGjKm5ua/tC6afQN uJ/qIT3HsyzNVq0dfXU5UQqa+c7R7m1j2ZcXJvL3GPOprGlV62sYoIgD14U5ZyWAUR30iK0W 7oQnkVAqtd2q0Y2JI67joJ4ceQnkvHVz5s0Zr3l6z0BfUq9n6A6P7Zm5kg9mxjtg556FNpGx PvPgcyHSglmvozR8xZMHY3YGGVuQKhQQZuafkOkT4TLzQCrbTzSw8dD9uXaEi87kbHshgOaU ayUSWLPaBbji/a/rFY0hCWs3YAMLvKuNUyTZ0JitYWkwqYgBDv+eudhT/TQfntvd0XNYT25o wndZnnjAafechTSdB+x0HzhTJlUVFvNU/LGZZ/Mp5Ljvies14PNJYuCH+nabVT0P0FJGy1HZ x1pODznd6rxTXdPw9+9Puc6c1ZqYPgB8z7uy7iRSTvwLtQ52fXZ+BiDlISsnulfBrStYru8Y f9KGQkLhksohlmmC1+vCfU/8/n1jXzyAKxo//Y7uo1IiMSy5O17XwGeeuUCqgs/vD+y6ah1V FV+vC3NxQEG7hDCs2WlbqkRMgPf7VaCAmwMDcZ3HIT9Sg85FahXz0qKOpv6QIO5RsjwORG8Z V9m9ka5aRWP6cypjjgY91as5kXGMUaUUhMngPSf2/m+4/3VuQT4Wg7IIuNfvZaMEcEic9EZf X2+uW5Vp9vhMruGP0BP/TXuUrwDBq95Cr7/KmzZtP7wPDwknhxAcmtGTkMZFiyJPQdLs/Xph bcP39wcrRsH0ZGZyURAP0eLXeXJz41KEnzGbSU647agxMzuvVuLUvdXVmFIIHeA1NL88i1AJ k/qyLDvSA+ThaSrISway6uDaSjzfmcNqZkBPQiXFglIIYP5kkpTxNN852ccnpNxHx7h6bPQq 6JT5yJnnnuGRBBUPbMO5qE+EqiIRqSGGlDYTsTzjXNjnxrXN8vBBkAX2PnpnsrgOUfWs+7qq xLiuSOe7QjtnvtRg/Kz1NEsWRaw1Ui1KwCDwYmgkHYKtUhaZVsRMGnVAGHdPA/+VGvwgDtLt ZncHcMqpkkbLieGrpkYYvt6visW8nTEaKsLFP2N6erBEfJgZ81Cs2+oQAng0dgiWpSCTf78H 4zeiY9Rd4XqEIqrZlkV9+xOmXusp3SJmsM2rEbPUwMrOYFZVD6589LpRw19c64kstZnBd7bf crPOlCTW3/nfMjuvk9uiHAPQ9KpFS9/r7gB5fv62Si0I3GDhEbKMSv35QcaOG82ecM0TH9Ol LBYe+2dPHRCSO5xELw9nvsfrNWoBsj8NkQQham0ijw5NftxSZRpjxGJYAQJqzsOj0gLuPQkh q5GDKJqTH8jEtK7xEHnA22cz//zzb4bS14CGgsh2hsFHp8+2mic7emdGLwYNbD5HtvZkxVpv wVw97gr1/CdzZuK5N24594y9rlHCCghqJrzA2ZxPk4Urh+MaThfN3BuYqyS6ycNnK1RE0TrF XOSjQtFaRMP65DTHCCVgP9dff3+fPMDBPvyHSKHGfeJcDGBAhZQ7IOBsMljreSkApUs1y9XZ QCHCSwzMPZRDcfecHxg5E90cicabMNuplMJ4Uu405wzZFur7UpadJ50X7TJBtIu0MxtSeZi3 c858//rKG5EV8F4KGXo5TjYSSPWvp8QnfzJLBBAjvQ7DpiIxqzDm1USZla1PO2TJHBKgQVEa Voy0zp6zBDv2dsyoS5MhcxwCZu+N5oCO9Eit6uhnu9IygwU9+YQ4c6Fz/s4pD0/XaYWgi2PB vj8TOWeWBFM2RWRZqgDHyjFXgoANjYacYpGJGMvBVirbLJO/vi68rl4DmPYmLJ3drAA/y2LE m9kKFlFq1l7eHCmi6Nfo2Dii/A4CEfZ4YRHBFSVXghQ5w+Veqxbo2W7bO0qeZGa8kcEPM6Sd tefo53L6kkP5DsbmbEbi7WYMPTnlGeCwwxwDlj+tK15ylYfIvMIduB9zceg1jswqCgOSTWFx vQ+8Y07M7993VRH5Q4FJ9uul6MTRhhbIBDDaJWaRaplkz/Jy3qdn643re/UONI5eebcBR2ds t2w+lUo4r+An8lrz0Xv93ifxBxHBpVkuRCzoDYhGRZ5iFEOVD2fWcF2KtRnjE+d297olaNsu iPZgxjzp4uTKlxl6ETGJLw+M9+EDjhInLhnYvFyoCcePZxxORUx1gLQDpjzHeSd6lkqXVAU1 zalOZxRJWvmcE7IkSivD39/fuPqo/54A0ddXYPGRZ1y9x9rt8lY5CtSiv6B3avTIjXtA0gJz xX3vGFiQXTVnGubvv38XF8JmylGHBQhcY2RLtxfc3B3clCEDecHsU5acFpQxrqkSaBAqYxmf GwQH9DcD5l41kkuEnRjueOjoBBvAnAvfMIw28OtXcve0Pl4l/YjhUdZxNqqjv1r9d3MqbPem pXDj/9GJ8iR9Ii/5/GAQz7gVUp68hCiZvt463q8LV2+ADyRE657jVoD3i1TzcoPNjSUoefVe G210XN4jnHo8OxfNPdvANvZuWGpnfeWQLmg0xBEQazaNiliFJ1ZGMR7GE0nlZ3Qzj+6RcycL Exq6uSyfTA8alXV6Tl0yM1g7hIy7Yi8vdq6PXvquXtm0Y943IMD3Z+KWUHYq6rKep/sETiPC XAcKzUzbDdHey47NaluOOC/yGGKwHVsC348EJof7V2np536alF6VVlAOG5hxP5PTPTi0gdJp VEgRCLTzEgBVqoksYNbM4quPPlVCWeWE5Nnc495VElEZCRL5rAMbaliVgd+/73qvDGHdna57 zlVaqz5agQMesaKBgwrm2vh8EirVEgRU1i3HlT+nTySt+P83dy3LkdwwDHp1t73J/39pPNMP UTmAoDSbyimX9M1VrhlbLVEkCIDrSXoKbT9SzjGByW5z3jZ/T8ZF6k8r+lTXZev3dMcaDBma /GAxKCAleanRpltedKkWJN9QanGWprltnoxW9tF77zhjZLWFz06rBcexM+pkQqikHpfFJqXE WuTEu544TfKX5lMpF8lUSpQg68kp4RmTAp4ANwVUXuIVFyQMUZk9DQ38pS/m9Y6atdbIQ0u0 9eruqR4SWTMn/s0JimtGLz0470neN0K4xKlrtSDtO46jhQV3TgkPfFaJd9sUPsUpy2XgKLvn CdP2s5QSgEaEQQC9c8NJ353AMo2TEkQNdjzGBmzF3zHFBFqw7gxhetCTtCA279NZ6Uw3R2e7 +pGMphO8511nM2g1+w2njFZwvhgN5eAxnDSi8u7j8c+XEe4YA3/8+vKQbwFoVZEUai3InuBI PHff3UEAhtN930gCcDMhjX+KTeMJlxnlxcVRp7Vh0t0SdPUoT6o/Pcve94atVk+YzvkPjzFP ZZLdJyL0J+TY+eo6sc5l2dgfbsbizaXu9ikJkzMHjCUaGZKreQGCTC3XyEt8nYk3eAUzhDlA DJ/CMss0l256umeAxoKJ39n9M3V1FbAZMzBiTt0EpJzNW6cVGvkPU0bFEnf6zOkgVMX/D79S DIoYT/K7U+ZdJglTYMzDIDlPSgaZ8V93B2y4ugVRV5ZSUMc0FHruB1ee3asIQ+DQC8Kwd/xz /Edmna9HL6inhH49sQmRXNLzcGKUTIaH5wKPiyIJ2MwrIhocENMUwRdQyCSPTQLLHjmQvldd PZ3iMRDednwBsg8pqHWCRbrCAG6ibasR9kOEIY6gU73VFCMiByCnyLkkZY4RITzgNei7AHBf Pe5k5EnblR1Jfyzgx947fv364i7t3rgfjsp1niJ1jQZGSGWjjvRdOoGJya0XVn7se3iyD0y7 TKDF3/Y7nUjkjRoAkBM3htg83IzZIUtiCi4kkOYpGbIR3y7UMvl3EPbMcSqBbvNnQcnb1pYm Db9TmT3tTFbLNUbPWmqE4ci4xzJUwBHPgWlW8H6fRFRt0dBnybXv2c5Oy53OcO0L6rXkFOs3 dmsSk6duhmGcRyaeWgboV+bZriy7sISqqeMWTYjD/nbXl2kEd/Hk5fU+ox7tfTYfuhk3zj+c GOY8VnHWiU8brqfjOi/UWnDsE6wpOeH7+4iKRDmLZqONIdfqGgu55gviH+SUsLfqjRXmIxo1 cuwb2iI10viRvmxMhmvA7IlSdUUJOd2h4n3Ry2bzev6WcmhM5q0S2ueR7n0d3je95WrcIV5O 3KkHRpxyxc/PG2MAx9Hw/f3FWtiIBrXmvLVOnlp2duZxNDwPw/Hui3D3HokOAFqKeAsXKcMK w6jI/IRRczBaBZ78rlyVkzOAaWfmobcbXaoFSZ6Xl4IJnOFSK/YtR3QQRMw1mcTE2YRZ3kbi JcSehUU0I+ZRAkK9H15tinjanGoq1ZoDP5ifPalSTGZZ6nZPgrdW0QYFF+XrWIYxjLBa6cbP lYjx/TaYQ8QV8JGXmH1r1pUDqSe836zzeAW4IZ+kRinh5+cFiRymgrLCjNLf67rpJF05Dz3n jPd54fV64/068eefv1Byis+MU+tMGClwlDiujNWkZPO3u5AeKpgy6tSgeaZrvZoT8NfPyxdX EaNSCZKZHUuxEy81kk5+h8Jt5BhjOIrJMux8nV4C5hjDKZo1R5BPp4+wOpN2H5yY0c0+rtqc M6c0g1Ss7IITdfFozsAeusaRE2Rz5o581i5NIBS7heko6lbQSkMpfFm323s1J/9/IGyPuRGQ JiJVV28Ssbr8hZoN1FY9fJNezPmr0zNVnHEtdM4ZVqYv6vD7+b7JHoFpfAe7UaV6T7s2v0cl GEj+s3gCn4dMTZMHUwBoYw4o1J2vjXdjSo0BZ9Ak4RSG/dij9821y1FDm83BhIHG5RQgGZ0w WoxKEZCz+t3ez/N5WKXi8T04SRd84fvWUM/roSDxmbNRpE4dznZdbT3NSozKMIwAaoRU3ffj 7Ur4i/lc0Oh5Y2aT/+XZ9g0J0/NGd1jdyodS898enVAxgYLcufDw/s/Pdd2cDi00r1t0JQFA LtLr8ze52OdIU9BzjwAAAABJRU5ErkJggg==" />
    <image
       id="FlashAICB_Patterns_New_Pattern_Swatch_2"
       x="0"
       y="0"
       width="125"
       height="125"
       xlink:href="data:image/png;base64,iVBORw0KGgoAAAANSUhEUgAAAH0AAAB9CAYAAACPgGwlAAAgAElEQVR4nN1925LkSo6cIy5k VvVZmWSm//872a6tVjPamdNdScYFegAcEaw+etGj0mzmdFdnZZLBCFwcDof8j3//n5pSBgCo KkQEkgRZEhRAEoGqIpeM0QeGTpSU4+99DpSUcd0XUsr4+Hjh58+fuHrHf/+v/w1TJ9rd0MdA Hx05ZUhK6L0hp4xaCvqcmKPj8/MTIoKvrzcAIGe7riSCuzWoTpzHiT4HWmsopaKkhNY7Uk4o KaP1DojgdR7g6+vrjakTRz1QS0brA2MMQATnUXFdN3LOKCXjuu64//d9xfWWlAAAQ6et1VS8 W8O/fHwg5YS7NRy1YvQR16MKZP7enNA5ISLIOSOJYKpijAFJAp0KiKCkhLvdUAA/Pj/RWseY E6+jAgDe142SM+pR8b4uAMB5HOito/UO8e/jd0EEH68TvXVMVQBAOeqBPid6bwCAWivOwxZs 9IFcMqAKSQnpSMhzQmyHYKoii91wGxNnyphzIqUMkYl//vlP1HpgjIE5BwDEAk6RxyLyhmyB BpIk9N7x8fECVFG1+IIltDHszylhqN3c6B2aFDlnTJ14XzdEgDns80spOHzhBCMe8vt9QXXa 740J+HXlkvEhL5Ra8L4u9DFQckZJOTbgv3x8IJcMEUFJGeK/pwCKH4q73cil4PTv5vXYdQAl 2++32aFzQlNCyuX5npTWdeV1QEvKOI4D6muQsj9we7ZxiFUVKSck/8xSaoG2jg5gTEWZar/l X3Ld9iCOWpFTQk5mAVQVpdhCiQg+Xy/UkvG+G1QVH+cBVaA1+32RBOjwL83oI2PMAe0zbnKM 7ic7hQWwhVunXGGXln2R1X/QxkRWxXkemEPwvi8kSWG5Sspod0PrHWMO1FqRUvVNWCAApipE 7Pu54ZOYBbn6hZEER6mQLhCxBR/DLEvKCWNMW1wRCOAPwu6t9xGbwjasPbyp0+9D0ee03/XN rKp2vwB667ERYv1rQR8d190A1dgQIsDwDS9i751+bQBQeCJKLhAZGHPgfTeUZAvGnUPzJX4D PKFHrciaUX2H65yQlPA6TyRJ+M9//gM5ZaScMNVM3Bh2Q31MnL6ZgGLWYw57ELVA+kAbA+92 QyQhjYHiOxwJaGO4FRJUv6Hpn21m2cw0d3vrHVe3xStqi0GzebUGnYpaSjyA0SZ6H6i1IM+C 0Ttmynidh63B6Gh9oBRbH50KmfadvQ8ogNd54H3duNplFkGLuQHf4BDxjSx4HbYJ55zQbg87 bdeu6gfE3cJ5HvjHnz8BmIlPm5UqMMupClx3g84JND/p133bwmdbpDkm4DuMdkLnxNSJyw2A KsIazGE79et9YepEzgU1Z3u4omY9ip2WATtlfdqDKDmFOYabuu4nvrWEMSdKSvh8vZDFHmqf EzVnZPej9GG1Hpg6cTe7s5STLf6ccXpLKailrE3QOpKfUvVNAH8AIkAWixeOo9pnYb1n6ES/ fRNP/negoECz+XDbXOrWy059koTrbhijo4+J13mEP085AarofWDqREoViqdLyMnc3kWLlROO euA4KqYqeut2/f5+fs/+KudxoKSEUjIUGTPN2OlzdESQB9jfczHLLxKLcp6HmaM+7aKmmeRa 3De5TxFJGKOjAn4KC4YHeEkEkk/b+b6T5xwYUnAeB3LKuO97nZBvD0dEMNXiARHB8mAWdA2x DVSqXVNr3fxtyqgoKMkeap8jvBvfO+eEAsi5QAG87xZrEaaQ15QkYh7GCTkl1Hyav1dFf3eI W4EkCV07dA7cfhKHW6N727R0Q7XQrc3Y7MdRbW3bjT4GcNtpt82WUDMecULhqYHvDgZuo01M VRzuJ7o/BLcg0Klo2sMnnceB7hH/6BYpFhTUnOwh9rFON0+t+63YxXk9qJozWrf1HH1As5k4 ++5JS4UkCblYcDV6R601Mg/x6Lz3gTGnbcxm1zx6N5/pAanvY3cPE9nNfCkZvVssch4WnU/f eDVnuw4PmHLKywXOieoLj82fDv+sXAo+Xx+479sszVwRfC4FOhWXx0M5l3C3w2Oo8zh9vynm nHaip2UkdE05JYCWsGQMBrWtd0y1SFbgdy6Co5qvY/rBV5JkNyXTd3NB8xuZOpEkIaXsO/dG KcUW8ttDGt38cS0FSc3851wgaSLnhOQWg2nQm+4jZbMGbk6zR7+jd7Qx8S9/fECSoLWGlGzD 1ZJRYPc3xsQYdjU5ZahO9N4jvbHAryBLCrPKNJUxTsrFgtqcwjIAtDwS75OUoHPae8YwazIn 7t6Rp+CXr0eShOHreR4VJReM0fHnr18o7i5zySstE0EtJQ6JwixUloRSV0paTmYaQBpiMRCA woiPuzmJWITpF3S8VvCm2X5uG2Xi9HSPFmIOM80WLZv/utvtfsxyytdxxkm4WoMkwVkrIIL3 dWFM36FYi6m+gEWYg66HNnWitQ6RhLNmM//DAqvYoH6ztZQwe1OzH0KPYXjaPfiz96gHn4p7 NKQ5zFXMAZGC922ml3GJZSvmqkpK+Hpflu0oPMYxa1FSimtiQFZhD+u6G0YacZqv+/LsZEDn tLikLlNNH85rbn2gu0VkKsmH/ToPXPeNMnWGOTQTqGYm4K7KXSiDFZ5o+IMrnsL1PuxmS0ZG xnU33P1GziVMbO89TnzNGfn1Wg/VF3iODp3LshAsOY+1+TpGpGKqwIQDJqq4/GHrVHR1d6Bm acY9kLsFrHF/fOD+eUk8XZoarmfqRBsTVRP6oH/n7wKpCGo1gKSPge64hgjcOiUMvx+muOd5 IHukTosQ2Y0AR6nIIvj5foOPeOo0MMf/Ptyydt8QxEAkWUA4+kDOCdPvEarQqSg0twIzAdzd dpLW4peUoCmZ2fAodMyJ7iezFjO7ow8HDhJyOlYUW7JtqjHi8/kZ6B7dSoJ6wFGSXdd1maXg a0UAiGucOrcIHIB4JuA7PHAA9+NZ7H67motQVbNwnq8DPPE5fHrOtsGPikDIxpjh/sQ3fHfL IQKUlCMuoHk1YAkofu1vz7H9aHqenyKCrzlZNqSKOWxj76ggslmRu3ccpUByjvcD5s643uKW uHDnlFpQavE8WgIYoLllJBvm383xHBPDN8yeT9ZqeWOfE5fn/TzxBGxQ/PtUMf2UrfTKffxp p5u+aX/NMZGKbYgsCRAEwEFkjBtOAIy0LYbaw0mSwlLsm8r8YwlQJNZAFWlIgFfneVg07RH+ edTACvocng4XQEbAoARjuLat3ZiqOI8TtVoAeXmG8PnxYbHJnACOxzWWM8cmtc2dHgEjYV4L wBNU7ICUqzXLnYcHRdvN09wCJfLNqYocF47A0XtvK9ARswjX6BhT0cfAWQteOAP5AoDkvw// LD6IAfq7iVwc528zTgTNs0DCl64Lt2g8bRaruyXJjpq13mMhjlof+fl0kz0wAQ+c+G9EILkG gIFaY461OZiWsdYgKdJQbsYU36P4/HihuTUptXhQuiJ8BnWdkDgQWEROlqphuzZmKjotCzFI 3IGxdQiSX6QtRPLoOCdPrUoJc7MDDhNmgq92o0/FkZOnOXYqEqPhYX5uTN0Wr0IEEZnvmyxy QlhE2m8r6JzVzGl3XH5/iNN9MrCw6d5Xvj3GwAw/7hsuZZScwzQTsNHGtFDRMQyhiwPgkfjU QMr4QGhyR7N4YE6LcfoYDqk6fAyzQL11DDWYmYUtEUFvPYLeox4Yc+DydDSrZRWjd3+QCp39 AbGOMVaMIlbQmqqWofjZKGc94qIY1Fh0Yia2SImLGR6Zc/FyydBbUZIFMqxgJRGUWvyhZBxu 6nO2oO+VLdjgxaXM9Mii7eI7unVY8CcL799fKw1clcAMRMrCqJrXzABVwpUIrrtZkOgnLApA Dj1KQJALw769kkfkcnjsAAeL4Ogb4w1G7/B7ZuqlOvH2tPD0FHnqwtvhm0OV4NgEsm1YIor7 QdzTzuqbP5eM7K7EYo6CUjyHNVBlREFChpkMBlh8ZS9GMHL88fmJr68vdE/jzHxUzDnxfl9R 8sw5rR3r1uPX+40fr1eYzJWumWnvXiok5BnHRWxx2nWHZaBPrQwY5ypZ8vTz4Ugyt9D7XPWF OdGG4elJUrgdK1dKxBlDLYrPKa1U1a1ApE6CeHBHNR8/3frRqhhMXPDxkQMbZ6591sMeVkoR DwEW/yRJkGyxy76xafozLRkPkq9ZToZ9lJRQrGCQoyrE/805Il2KnQoELAhYkDeb1alpLUpK kZ7JtmGIBqWUDTgRwX/540fU5He3sJvL2ATb38X/PqYFoSkbpj504n0bNn8eFdfdIk7pc70/ O4YAAx8DhBFW75i6EecvGa31AKFyKVZ7vxsKWNmyU/4Ifh0FY0YkSBFg8Z4ysq1nssORsr9n TCRmJuKp2KOsuvgOSfwaAMvhVcPatY5w21NtjYpg3XSfFukxcscc0Ikwhf6NmLt/DvzZ/q1v xQeeKmBF2FKMRDCmnY673RFHjDkjn2Ug0ns3QMLTEPWvypKQ6hHuQGH+FHAT2UcQEsSvn+VM +GLVUh8PhdfLoFJkg6XnOjVubFA85SJhIclWSXSwJ2KV7UXAB3huuOd7FDfBeK4J3QxWQSd5 XMKfzz6QsqXQx1Hx9b6wk2R0Kkp3Bgm/NOUSpQoRy21TTn9ZVs2SAu2Zo/vOS2BRXwA0jzSN AFHwOqqdjW6bLKW8TuMYsVnWjZoZQ171Z1qPYNRwEXSVRhl132OiJJZaDbSYY6LDsP6UE66v LyOB1OouYcaGfr8tqBpz2GeIs2auOyyHbZYSKObExJwDfXc9OqGsoc8R8Yg2u+aynVBaScYi O67x2EB+nzKXZeJzIF6/kzeCW0D4MaUcwVZ8JoAbBjIkN7OlWAQKeHH/JhjhPsurZ3zQ132F f6P5443MMQMajR3v1/IdNSO9KTIDbGVOZ/5YAPkysMKxgLOUADwsbZFIN6/WrO6fCyp6fF9Q xnICuQtJkjFnPHdvHg2zvm0xlPjPElQX5jA8DdwDUd7n/jNahZ3HsD9gprI8pMlpalkzkFk2 sUM3R0ebFg8RouVJl//43/94hMQ0FQQY9n+k3//+2vPc75/BiJ1/5/uHP/QHxUct6CK6Zw97 BsgAIKzC/l0GFN2Yoxu7xvNkAifmGy3a3WHn1m58fnz89l3f75VpGkQeSByDKN4Xg9Z9TaK4 BDJp0uPvrPDtsQDzeLq2Pe+230uxkcmxI2+RqSeRUdK1GIhe140SYALzcE9HGDAxaIoih5P6 Yuf4xYoACR54+I0MXQ+V72cgmCUhlfTgzzFAIpjBItCYvgF1xnvpFtp143UeHrghgBer+0uA NYNkSAAjeS6tij9//TIkrJhvVC8Bq2pApr7Si1wCM9EQWZi5Xx8KoiK33wPTWAEgBQ6z2mZm xWy2ieYxSCnGsEk5QbqVQJTVSp3QKcYRyDmqbLNppLvgc8OW9NC8EyTYCww0U0wDtMNKf/5K OcXuJFxoMJ8HJ8lOE1kisWYOWuRHtWtiQ0Ef6dv6vRl1e/j38uG/WwvrQEhTYb9z3ffC97cH xypUThnvdiP3jZixfQdz65IScjXUTBxVww3fUHO5JLEUsc3+TCV18QB50juLV3NANUcg2Bwo k5RQz2MDWp7ugHiKZOMajm48x9bMEuwvndOKQGJMpwjkmNRzbfgA1kZYPoakQQHwOipaT7Fg CoumiRdLX358yHTfv3hrWawCNVWRHAXjzjxqDdONYZAi2Th9Wlrzx+sVu3tMh0iDZt3xOk4M v36ieuO2AOz1OuPzvhdy7J4l/q33geu+ttxYgwCZS4niCoNRPiyr2SOIH5kbRchqcUr31xvq fIGSbbHf7ytOcpKEmSagskC0x7UmIMy/hBvc2cZmNQSF1ShScd/3Fdyt08uFAjxAhz4n+uU3 5gxZcs34an7Cs+ez51HNTKmboM305VJQo4bthZC01QEclDjPI0x2ygld7OQRngWsXj881dNv i0OfnegTU4LHnEHWpN9V94lQRT0Pr9lL0KHIue8wksj02v2cA31YdSx86VbxI0LHqPq6m61f SX7Njkz6hvv5fuOs1cgmkiPjsWIWXUeCJkRWo4ooomVdrCXACkQllxwn5fL06vDd/77ugPP4 2s2LumnuJNaPFV1HENS9lJjNn93tjhudzkgBUsQFwMYz8+95BI97oIWFmDEQjCoZc/9tpwdI kjyadwJIpE/+fdPLmtzQ/M60WSmRVSDaLUJKGecGwY45A+bdy6KLtbsOiqQEUX+fb56SV9Yg ALJmD9CaU9ZGOG0in/taMVYTAZLfR7lbw8d52oIMMy+nd4dcd4s8fH8ZaOE1ao8su/PGdKMV 8eJFxAo6Yz78jTFrWgRCtllsUTvGQv88sGTUyxcXMIgP7q9JmsjZTiEhVd48u1Xu1iKSf2Dk wONUkx4t6Xntw++bgS3z75yLM3qaF5dkVd9uT6ewiKZc05oXItfHQhuL/676wyViF4EqS6dp wcekmkeqPFfKV3rvmMfh8OAMggFhUy7Cni5IXlWuNAR9O4j80jmMs3aUgne7ga+vCHiIrvU5 cXm+W75F+dypkNUGRD/OF1uVxN8bjQPrg+yeCDfx89ii1Tt0C47sNK64oEj2Spixgnl6p5KB ax1B3ASkkNNfE61kQFkieFWI1wr2EijSgsLhB4CATWu3AUjefSQp4eN1ot0Nulnj3Xox4Jbh HTQ86U9o0hZnhxYZ6ARbQ7ngZgaJQqWSol4MAKNnpDHw8TqBX3jUc/l5Oic+zuPRkPAoQ0ra QJBksPA3SHN3C+TcA1tFba7nvb/U70E3v2iYe4E49SiXDO1mvQrboFj4yQisnN0rJWU0RTBa rEtnRHxRyme0dKWcUJwCTuBmqgKsRfhmeL0+VkYzZvDYFYtdJLZjwSqgrUUKq5ByAvoKTMvr dYb5eXllps8BpBQLmHKywkKkPOOR5jFajEBuC6DSRlQglYhEheI9Xizyt7s9HnguOeBU84EI HBm80Tkh3jRRSl61gPu2oOcvuOlj4wYAHh8k+msATjcWWNUuiQQZMTtljAs7xgxQJecE2dix OSfUWvDL3QbXOY0cboVNJiRxAgvDILAEWExUcoEkQR83euv4CQvySl4NpTw0BH36GKjOsmO1 sYhIRNrFAYqCZRqu1pDc3zJIYDPBkAmdAyLZS5XLN/LB3774xc3jmIuzVYqlPphGRAhOW7I0 hQwR9YuPTkzYyUjJzOC+YFMnppdJoYZrt62kmiRFI8ceIKoXe3h6yELJJQequDNmaYKzrxk3 Dqnjy8TmQPHIS4jN51kTa+lBCMFi+ryvy9wQECVXwIJtSQlzdHQRI29sm4tkCrOMJa4JAEq7 G97O1CijxOJkzzkBYGBgbCmCLbr9l2QBEhn4wCGCknMgZKR0Mt+fo0dHxx5AFUfl9mBlLySI rijbCjuLqNCvhZLRT+aSvXpohEg+YObZ069VdQJjAro6enrvG3a9iiRZnhFybDivHNICvO8L P3xjZTKUprGDgkTJRYFzBBxcSuI5dc5ozJiA3yHfrdzaPeOIvTytEMQaAq+/KBAlx73adc9V 8iQkS6J9zk4mIDsjJ+dsW5Meg6vu8OmPHz+gc+LX15ft0npgSAkKT62HFyVWJ2yfM/rRhq7G PcCYrvDrAZ4VJI2Cift3B4BU1AO/6ptkRlCZRNB6twzEA6nh8cPoMyhjxO2r07Eng1y/huQP 9u27+XCc4253MIsse8iRDrK61h0mZuHKNtFAUyNMMv0rR8VZyI5dxAv6eADR3/758YG7NYs5 PBN535fV0wnesw0n8lbfxSxnTp2BrzPtMFGA4X4tx8lkW/PAOsUEK+geLKXqD+xaRHAcR/jk elQUj3QJ+Y4kOI8D9ai477Y4+broStkBGAWCcEgMPknClITh/IHzOI2H3t1NkdTh3TnAqoF3 mdajL/Lg+0fdXVcPYBKjPdt9iz+YHKe+8nd8k7NUK8kh2+/Vxs260H8zA9mFJABEGZwlcRl2 jWVOO+l87f3VQ8Qj2wRCJbvf6mTEbFWmUiw/Hb1jDs/lfReTSrT7UePSW7FkqtWoW+sYwo6M M94rcI778JxzIwtIt35sBn9bBon33fA6zRd277UvKaOUEsUNfr7BqukZW6TVyjXSAlZsI9ih yL5m6gAJyrqWPgde5xmWIfL1xl58pqI9vjNSw7k4+nzqYVH8Rwxsk6RwSazC7ddKdDGnZLx3 ANENIsMLDCkB+nu9Nx7+2nT2MxE3S979OSbUa9SSDL81gEMePpEnAFiR8U3Ga14Fm+INFaWs FOb6+sJRj3iQixG6ysJse+YCiEfZHg5FX/3lvHrrEBH/jrmqjSIosvwnq4s1Z0+lZvDOj/yM xPcXzTK7dWutxq7108qTeTX7/p3KpqoRTBvsbVaDcDb75A6v0H0vj7OBosAhRag80SgAMwkE iwbUx4Sgo/X06JdiUEGJi6kFSRZlav1+R9aMXFbgN1Xx8+fPYK7UUoAh6L3h19fXgiLTYVi5 Fx56MxMaejOSo3rF+7CNlDdMG8ZT8wfE/La3HvEF0vHAsleAugVTzFCwhBFsVfEQQuAm/Pp6 x8/ZX3+eB+bXiEIK3Str/3wRNQScF9hWqlyKMfS4IQKilgVjM03eA9/VqoztJMvvlZwkKdIE 7jySCMJP+c9f54npnS3q1NvREfShnfZcckLvCTnpKu/B8lLLK++IA+acuNoVFsMsyMKce18P gEGguF9l+VbnRFNTjLCI/44IfK/BG6omISJEEgVhT55Mo5OVSEfp92teGjTv+0KaAk3ZYWng VUvwB8YGnMxt3XPK5srSSoPnHGhjHc6dUQQRf0YSShgicFKksX+zp+S/vZ6wpEfMZaNT+QUe Rw2CI7+kOHuD3Ou54dUsgpC4mH1nU0xor5axRj5mCUBnOn+sjYkjp5UubvhB3habwQz7tKdX 36BAFhNXoMnfP2uOGaIGBIXgCwgRJAeqsljvHQ8OewHD9cGrXXmlwknt8++7Pdqh1e//gUo6 I4abQQBIKai6MpGf3s4MIBizkRrCqnnJD+oXgI/zROFi7qCKVWy2PnK/+KDjTGvwn6pIXgiJ 9CkqZ4jfY3/6Ti0GLKJkXgvfUPxza96fXepi1mQLwHJeRoF8+52bT7IA897sPq53B3X8/kQE ugekOgG4Po4zW1iwSCkHKkfiifjnACuOoHXofeB23j83YikZWoH3+0JrNz48pQKW799zcfGO U+IUaSOWjiERR7EsznJxbz1Amvf7Ml2gbJ0xo1bIv/3t7yzePHyH7Zy/DuQqU6A5HywQcr2J Rt2t4awVjRoqshg3fLWNw7XzxefGQ9vbpJmP759FTIA5cHDqxGKDUqpZHdVooLANs/rvoqKV VhQcUiYeVO6njjQv/g7JKDVbP/h13zi+kzI9UCQf/tES7g9h83BQtcobW7l4n+wSZhrLtWda yVLs6CO08B6uM0W+qtDkF+UPm6gVI0D68t5Wn/ke4SoQvVksQLCrhShTEPr8QVqzof+Cn8zp CkyvfEQ9ngUFVbUavq5AMmfmu4b88dRPatmI+fjuZdw0vXYtgkLmDGOxuSFenoJGIEpcffO7 vTcgl7BGDZYxML7ZLRAc5dwbRkiZVjz1c1h0obwJ6Wrk1HPt97ZkkyxpG+dwlWT3NLYAnlJt xSvWdIdXm5ie5JRQ/qI9iaAOo+Lup7+QrCAJcw5MmK9MZi8xVK2QQL8vgt/4Xb4wbBPlbmYJ NEiNIujTfGCpBXPmUKOwDUBrtHj20PxwRTvrNUcpNLvJ9d59eJOlurXZ0qKjHoEtvC+TS6HW S5IMFV2FKn/IkeYO5yo6JawkU9raqeG8/4TlIknJJpxcvgXlL2rv7Q892Jh1KUownyPCFAun E4ocDzIKHbJKeMUj4HHdkZ4YPDnDX5FaFNIjfpEyBMkhzjFmsFH3LlXACIpdBOI3vvzp4nfD N0t1M0c+nhSJXnu9N4ClmPbalK0at1Gi40BwU4rHL05RFq+2EV0UYCNo6GLDupKGkUQVKotq pn1ZmZQS8kx4a3tIjbLPbmfccFPUTZCAadsulBRuO9iYiR2jSwHJcj+xapYDJ8NhR0bMfVof 9yD12dMamnzAEbAjB12JJnOHDR87evM/ewVtD3IYkQuw1B1Y397QLqg+cvI9595jAQ01jOXO +lhI2fcXLdL5qqhSoGoas3//xz8xxsDHUfHjxw/cd0Pz1q1oy/KbHnNAZsLrqKi1YB6L/apz RuYRWLwg2LkM3Pa+eK4TCTA8jCET499b4DdH7THxHYnWMTFXSjQmZhKvAVuuR2AierPHiCoR zejtQsHFU7DerVAydIEre2WIBQTW98M6qFoJ2M3YHkeQqrzTi0VMt+VqDcUjbwWivZcuhd9L Rsxu1WwxS1QF91OfsKhfkaIW8+23b4odJNpRvP1AxGZ2PP173GDpJH2zbXaWfnmvxAQYHBKq zcjeEq3IR41evwI4gxP0n1uUV4yMx3ZZS3sWgYAXSIACIridl5Wzmb2vuwFoOGtB1Ro7vE/F AQTJYSdkjDStQLBRqJg6cd1Z8YpNphLdspQeI6jSMZBnelgQPqy/glb3jRXqEyn9lkUAi2XE 9TqPE4fnyV+esnHTi4jRsQGr1DWLE+I6Xbkjs14PQPy7uUGJg+ykFOvdW80cwb9vVjlkCktR QgvkZPmMvpHzX4edlOu+geNATRVJvGZcjP1xzRvX3fE6rER6luJynCYO/Doq2mBOm0Nk9wQe eW8fSzHKiA4jUjb63Iz8G54sYv6PWi9W2MlRfh3JrvetDdXZNVVWyrk/QKtc6eqQAR44RUkJ Q1b9n+XZJXOyNPeykxSv9uTHNa/Rlx3adZky+v3YhPqMKZLfq+nOLV3cnfL9Ok5rX2rmVmqt 9v21BCYg//a3vz8ilV0x8aSP8W3WWg9QoeSC+77xdb2NRLiRH0g8KLWErhoDJuaoqhq5JLBl DDo3Xbn7kcbYCWeQttDBnZGyNxjuLVjMiS56Y+YAACAASURBVHeWyv5zupTpASQlumrO+PPr C0cp+Ph4obWOn+83ak74/PhYOMVmHdZDkrXQm5UhtSvoTX7KqTgJrDhF9cmRBxDCwfT7O68w /DZr9f7d1IYHgMLgh34zNNmmlf/OLQX59X4jO67LB/U6TueyXxiz4nUeqP4QyJvng7hbi53P ejSJjXk7vQsTWCXDvYVZFRi+MDrnI/fnw87ZCi2fnx+GOTT1f1/9cfEQPDAiIES9+eLFj+pN kmQM05ox/hFH70h04MoPRuWKULgI8YS3WQV23ezAjLk534g1x2HkQ2WckrODYWPB5QNOm8Kq 6BFYomUtjGwJXkRq5awN+nn6zsrS391WOpVLpE/sDGUwYg/Bg0GnR0W/uwjG+9roQr7rnV2q U12gGL5j/dSndZPX6BA1eczZ5hLjrwV3u41sCQSFmBLh3FiVFGpfJGwIHPlo4lJeDJKikcO7 XvbeOxZFzO3Ikh/x/rTDiR9dO6qUsDi0EFFscUupHuDxZwMz4hQ+u5xTZF8MCA19ND8/b78e v/dC5gdPELCEBabOMGUC4FVrKEJFt6YXKqgNc90XuqkSBg2LBEMqNRGPB1YXrOWpxsdj2XbM gSL1+cC3dFEADC0xVSGJsXHYNmUPap1othoRbqY5n7r4gHtx5nICBl0STZES/cOTq7cXqPji 5/NFYWJasNZaVAS5GZnSsuuVMQ1gqWXXDh2Ky3P4JILsv8tMIGDfnDFceydczb/+x980hHjm c9fR9FKsp5QlMCteoTLOmT6krLgYe/MB5UL31IIbjEFOtEvrqv+yhLlLme6bICzRxn4FEGaa 32G/I0EXZjDaWw92LLAoSrRUJeeHz+Z9AwhlC14Qze/+Wdy8vIa7d1PCTvnRos1Y42ptkyRZ UylYOu4byzXQSnAzrp8RwNl7/enaCkRiZzHpD3aGp00UtgulKU8dbjw1Ubio3wsKvXvVh08L q7jzvbHv0duFdVKf58dPtaNN1pJlNCFe75wjOHh7ELWL80vvhh/kDE1pETB0VRktnSKLxaxK C5245IDPEklSVQxZenpTJ2QuKtlsE6ri7Bx9pMh0LcolUA1T3jagiMMCAPYbuovFUr/gi4N+ 2AsHAIVVJT408q+42yLw6dYJtaNx1JwxTD6HeRleLiWc2DbTNRy983uyz96CHxZ1AKcNd4RE GE/Td67d9BRTBFHXp0wpvNbNjAGgzrx1hxJsEhELyFJ6mFPjA5pvpK+XabWKHUQZqoC7qowU 8iVjiBeBTDRxZ9UiKE0LSl79djlqAdTPjwKO6pKLSaZZRysam3uwQGT5fNmscOFpYXFl75Lw zRcjuNqwFuaChSdz7fe0IUl+pBKA7XoK8VNFYuh8aLxF/r2hfEnElKl9l5dcXEkCmPcVgvjM y6lWRaXE/SR9txaABXhjlkDJdrZM7x0/Pj6WWD9W9VCX1fQ6hdfq86pJMIJWtUzjlW22TR99 jfSSEe8zbThL3abYKa+l4LoZb3gn7uiudV9QSo3mzl0Aiv/V5H2FfSvSMA3hgk3V+CCS/Ts6 ci7441ilOrI4dSrqaaNAWNViCqgT4QvH1qyPaY39rD1zd6Ukz8h/9ojUWUBgKzFgPjPQQH+l lEPytFbDGai0HHTiLbhrY+KQJWVW4uGvQIocAXaS5pKBYbPhODWKrzmmVdMAzHvJroqYv859 TYHieLDPjw9zSf7AVa3EfB6nEUu8f19gsQof/nXf+Hy9wA7ZJGLYgTdaMJoXkTXIAN7WBD+h uRTIcFEAEbxeZ0Cw9ajRsDBVUT2S308QiX+zGXvmddQAdcYYj6kMO5mBTXk1J0uhBDErrrAP Kz17vlgnYIq4y3sWh4Qtul/tzssce7SdktGjv5FHmGGUbDm1DEO9drjaINHqDJUUdXnjAyAW PIHfaZfnDTThxiSVCNBomVIS6HRq9B756xqwJ2JAk8HE4qntjB4EWyPbLA9WFNy8J12iuO1u 0ZkiYmpKvY8QsuMHJQcrWPA/a8V5npD7fpzenDKGmCAvyRm3Fy8yEOyUmBgFljkzcGxY/8bI 4aIlD0JJVxZsDY6ehjHrWOCKRgQfgSXjibEpMwFhGbihp5/+vc+dNbgjMpMRujoy5mPqw24N 4J8flUZuVr4cLBracXgP2+iAlNXdy8FAKSekaXNgQnMuZdfFs2vGBn6VX79+4btE1ZgDvStw X/jx+fkYmfl6nTGR4H2b5PfVOsbRY/xEGxNaCvS+UDdeOtufQrYrJXzU6pnBOvURCKaEXBBN FjTtC4qdwbzlBox8dn944px8p2iTKDi/LUZIg5PWLBbFB3PXI3DfUyYPzvTSK31ccJIgGMDx YVsOzetfeEOM1bwpgGAneurq0JFq9zGmZSAiMB25svUgSoLKag0fra8GSz50Rn6ARei1FHy4 AB9nikgSA0lUcbkIL3d6OU63EtZLTiGCWgr6GPj1fuNw2HK66Ql2qNjCf72v3zhiLAmu3Bq/ 4dxT4No3qwAibYEkNONcWNYEpBqKxhmrcwuA2JYEeHNmpIU+lEiWaiMrg3fvkMvSMObkVPaY YmVpdr92z8P3nkBVuEYs9WUX1sFonZ8nJIXMacxXv47IbEIfACso/6YmEvaE6km7SEFwqn33 0AoAXi8/s88JWT3gJa8eMrMOZnLudi/yoV/sGAN/3r8eD6YQFvYmP461ZOr2kCOFt1TLQqPU 6US2gC63taFnyDD2yjQd9VNWk8c+4SHai7wbZc4RMp9c4L1Xntw9AiO/Vd56LFGki9w4fRiO UYkW+v0MNUraPoyH5E5+/ufHR7g9bqbkVkFVkck02sCqsmMD9qEzZpsCiPlfRILYRmQccp+C 5D5yWwGLev0BU2bLoEo8kLV/+fgM/0olRmvfMdLF13uRCPna/8qTJykhIz1Aks6mSvpmXSfI rvtJdLDn6SO6NsYKsJiytDS7rGotK0WN+jyAXFKc5GC0bpvFrltM5hNPPoOlf4bUve+Gu3fU nAKzGNPHhXi8Ak8XdXMfwzOP78pfhWIB+Vi02uh5SqvhHgB0o++OYcI1zE21reSfX1o5Tsqo JIFQcYZLLgXneYIzS2MRXOTgfS8hIV7DngIBWKmI+18ih611S4HKFi/4AxggF60Ekkf2znfg B1iNFzkXC1Q7zb9bm5QgYhaGvQJsRqipRnA84RKleSGQNWcgLV4b12+qqVLlXCDSDLp1S9B9 w4ze8Xb/vzOM6d6slWytFzOMUmuJOu1xVCQAUlek27f5ZpTwtLFPeTObcE07Dd8XGwVLeosP kK2153EEs2MLMvzG6fM3HNpdDB+YCAJrD2vRBy4/Vcxze18zzYFVS+DQ2zkHXl4Msnr+Eder AODNGryWOKVi/jV5UyTxA7ZX83759wgSsUg8e0vZXwEsY/SYMsXJ1q13Yx7V4wFjGxbBexy4 e8fHWSIGohUpv95XkP738mAUEObiXPd7FTt2UTzyzXgCgq7c5yN9e8h1YqkucarTHD3afNUL F0c9rBr1rYCyq1exNl8icrdUMOrZ8GLElIfsdp+Ks2RcowcwlUTW+NBNFj2rRgTENDCJIDn3 ToFoQKS1HDpRHF6lTAknLwjC24Q/3jV4R5omjz7W9V7ORKreRBGlXwauGwag6VhCDvJ0ayUi Vfc3ZM4Q1GdHJYsffD97uKhVPif98URJzv6YlspQ2HZv4bHRXT6bnSmHpKBUaesYA6u1ynN+ piV2Inqc1DkHemdNekYgtpg55VmzFrHZM75pJIkBU0As/h60jjQXsdBRuDlnyKGyPYupLIUJ ms+MJ+cvxl17esiXKV2tWjxUnBBh3ak6rajU+xozzrJrtF9hbSLBirVUrazKQ1ko6r/P8wx2 q/sITav6FRov3n2RUzKfNcyc5CTBaIUDPizyk1CQPZodXmLcZ6QsZunqRedURxIIR7KNJK5/ 16d8K0eW8O+kex3JwZO5auhDDGljFYrlxygx+3gsonkxZTrh0bYFkdj4l2MX2fH/fRYrX8lp XrtwQPDlv8UU5BZOeQo2A8vV+Q+3ztmVEs7WUYqLGdlZRFkThRaYwYiY4D90DdXZVRMBRDlS N26bqlWyAMufr63HOipoJePAgY+Pl3eSOkbv6VRJGcdxoGObjEQumdrI71JLmMxc0m+oHReU ffP8ObVfs2P3KEb5fix2iCcsC8Eqy6otWKep9fYlKCzTqLXirNYtirYKMfuD5n1Sbk0VEUw+ sIAdzNlMut33E+1brWKetmLVC3ZJ8GIfjCjDBRjisOPeQDg8ldrNSOzGcgQHq3mTv332xByW AzPKZvpi721BvTpqjea/wo7NDUo9zwMvpy6NMfG+rucCeUixgy33linQX57nYWK5ZU2UuFv7 rXNkF1PS7d7FF10cH0db5po0JyJnu6g//HctKLR8e439/p45UC93SxvFuYxjSY+dta4YYpg4 Erl4JEYCS+oUgAkN8bQzsoiWZKyocG5+jhfeGUix8cBRo+EnnxU7wts70sWd8+UFnJyMlKFz Rj/Wr/c7/iywqHjBtXdMPlg7fTwyCORV3kxuJZgp7BbHd58vrCF9/B5G/4HmiUR6aZvBN8xY DRvSB+APO5ccxI1dyuS5AWaQQphz99Ywht3fjjtQhWuXTONnwZFRNmcCT7oY8YpCp0/u29D5 XBTPK1n3BnaWy3P8BsuuZKKQCxYX7ebx5Y3yVq0rYeoYRHJ4391a4N19TnSX8QhAxq+H7b/i NQEqYKgiypalZOBaESyb/ijgB+zkRFYdHdL0Da8ZIajPSL/6OHECNmMMtNmR8hGVyWhkEFmn sNjIrEhJsWoEDOramLA0nmO7nl02skHJvHCmtlMV/bapF6xy8lfLLoGZjoTqC6J9BFizZn8u XBfbonAReRqYe2bkaGwkhckw+oEky/SVWlCkOF+Neaf5wQhMUnKf360BctuUHKbL4gIVGk2X dd0HxBSz2HkCtwJWUUsxFSr7hi1YzX9RrUOOlI4n9YF2sYLnFuVRQRMjQLzvCydOfJwn7rvF hrU6eg9Xe/i9vK/b0z7TmNlJGr1buplzMR2brRmE5ryWvNYAgPz73/9T98GxwKIv8UYZDEUp 0ncl0wV2qLAzhAUcRrfcOGSG2CKuFuXg5dEibBH0Pg6DuMFfaaYR2hVZFT3g2d/F79pfZYOQ d4Vpxje7+kbk3tvn85pZ5YvGTvexJFbSGi3NvY0X4N85hkHgYxqEfZ5HEC32MZ6MG0QEX+/L dX3Kb4d0n9QErBiscIqiepHddE8RCE5opm0cM94cN8PQ6ZFpicWJERtjxsDYXEoUZ8jNI00q zaWryr1FyFECM/eLd1Mb0Wlg6xYFT/Gpx0yl7iW4AKyMg38ebQkPmNtaQWairq1HzjKYLq22 4lB7TBJyYlTTonUbYrm6AE9W8LbBLc5dyNmOmZTN9Qx4WxQQAo37Brf1zThLxZ+/foE6+rHR GWTtyeTe572zY/cb5b+z1EqWzHXf7m/z4sjDAA5KkYwxHgEGYE2Q77HkPtkFQxIH/ep0NgkV nsYcKKlELmsFCdvIgEfEXGhakntlElANFQ6xaDQKKWNOH4jTI+/eAzsAUO+ysbZjCTydsQxb lOeYeHtGc+II4f5SMsZlFb+SE456RH7/db3DMvGAcKjA2+OOs9YQOHowZmtyUYg17Dce+l50 j52kK9+zKQVLhuThq7gxsFCgMCfb+4LznhLGbOijo/h8VEKUvXubswLZZTLbGMFUTbBoXJIA HkgpOXexWSUaFbhBmmcQ6CtSDpEh5ZjQYWM0sDUriIsIpSPc0rhHjM4qWD15SClUo3bJkEXN FrdKXrmszMlndAxRKqyUieM4gQY0NN8wpsDZ4tA5bgGbaimuqzdlgWdWDs4xp27HLiKR24X2 Fd4AP8ynDv4dMG3YvtSoSjGh+n2CMkt88BPWWjeLAHtolMRgNamIVeO48WKsdJsPkSLDtiua 97VDtlr49vCZcUAEWVZTBHl5ua52X3Sgb8pqbFPCxsQ5RHDf1oGquiTCWr9AXdgCROMED8OY LkuSLcpPebkVypOn1twSncjuSgTGlnnpGddk2vVPfr2IrDEqqrb2m3UFLGbYcRMAKH0L2vKW EwMZXUYAGN9Lf8TqGYjc7cYcQHKolQN1/vj8BGBB3dU7/ni9UH3w63UbUb87BBulXDdFdA8A nHduO9vGV7t099aNE/fB3LVbbs9FjoBvC7oI8e4/o1xJPap1w7o/P+FcNbcwwylSHIizgyxD gAPFIWXb1GPaePHWrav27j3Ur15HDZy8Nev/23GJ6vQnYv7dsyJWSNnIeeZV/has+jw7cAGg 0IxDBOgLKKBm686D3yFCCvGo78odnQtWSq34z3/8Az9+/HAe+vRUwqLXz9cLrZk2jYwVHHLj EZDRu+GeN9ARypQAAl79PtBnj8/b3R4KG9dtoE5OGWc+opmD0GXCktYsaq7t/fUV/ECo4tev X1CY6L71hi9Wj0hCLilGe/RudLM0U0TmzO9pJQlVl7TkyM5a8fnxiveHOwW+CRAgQLO5Ret9 UtN+MY+jdflf/9ff9TddMl3cr9d5xMWQlMAqGTcBgNBfZQRP8GQfjsfXLh1CEsQ+nIcNEQRN mI6F0D8W+4QpFyPogMWA0I77PsOUn/W+Ow439Wc9opm/d+P51+xc/o00Sl9PIQA2e+7pYxRN CJQQ/5elnMEWqUdBhhaDVtXzeqKOxCv4mfDPIcDFnvZ9EgTTNjKDAaC8jvpw8vuYqLkVUQDr NGbKwLVlbswZKPTHlOUoW4MBocN9NMjhqFW04XCu+DQ1aMD8XcoZb6+hv5wuTb67DJuUQGSQ C2DSHgZsqG+8mHWeCz7OxZixhgD7fo7Mbr0/pj4Pj/b3zp3vTZbcpHwJAA75AVYNQKfi6he+ v5ILPHDrivfFjWGCxUc29rDOGZW+38p4sKAxSV9talvQW9rWCsv/klg31MwOESDuIlKmmdNS VYHoE/9D8Z59ASRtlaYxUdnm7D1dEPFJBtblcY+J5I2GOZeAfqm/xpPBLtQkAs0JiOE6ayLE XoE6SjHxnbECL/L9uehNV/CTy6pNW3PC+jfjlQvY2Mk1CFxjc11JEiQv88tuIgCPgJVFFPak M4XlfTBzeF93HBTAhZRrQsozpNSHzCCSAEC57stGSGLji/siJkmPER2ci6o6oWrslZIOsAYe Ij/OfOEs712wj4oPRMlYRmV6Q9pxUkXvCWdJoYL4+fGBnAv66EEgABbYQiBllw9hnm8dJKvF mM2Vj/HZ5jeCSDjcklBubB8KLCLIXrdvHpANEeimIc+CCzdKbBK4i6sV53GEz2awmbyGEBMy xEQXuHGujUZ9HkcAXTudC7oGCZs4wrE2BnVTefL2hna4PwaWxksf3lfNwsVYNzbngKjl06y9 U+mZUSdhSAIaHD+t6ilcb7gcMLp7xx8fH/Gg1qC/tSAkdJDl0rFciWL1e7OTZod/OaI71DC5 +VQB9t47r62NDr03ylExqRUQ524z3MnYyIhsidqRPqJ3u3AikUxL15a1pPwZYeqgXGUL4KhA 3bvFBqH4NUfMzCUbic+ssLOCESGb4PnwSQXvc0QhgFe016jpJ/niiRe3HiQnsjRrgVoJUz1V MX3HM1M4nWb1UV52jc4q5RsIwhgHYH1WU0Cdr85ry54OnodZpna337BpkhtZeAEPgccSNJEi CXnOyMtLSvjwal7va347AzU+QFo6m2ujT9ey9RSEoKHXGQgVx0lNGQkJbd647hFcuJA9ydZb l5PGYUq6lChihstOPFjjLnKMuVgTkZJh4eqlRJkPWVFGiIvsPwJCnNPYKtRUi4Fxcw3K2SVG xH8/lCocGTNpLQkO3158scgX0Q4dptrzcBZPIhiTFfAHDu4/YGApknCUb9RokQBiRAQpJRxH igxk16QN0WF4GuowK7EMfl7A3x57KIAsS2cvxJYKU2e764RV+uahzJLWzBmd1uQ4wqcbw5JA iIgs8Rs/GQCWZJdXiui/dU40Pwk5rdQrybPSJTkjn4crOZnydPOpCiQ3UJZMsVKSoRPtzVkw KUiChn4KalmWinx6PvC6ceQARES/F1b2uJexAcmSY2h04+z4xUPUcEtFiaSlaaDJ7RE3LVnv HUetOI4DaXS835dZUjHJ8OxWd5cZGcPTx1KcHdsj2Jta0ZqxjvYZ8sRQMhbBIqWFkpbTBQLJ Qvk8P9D9goqWqLUTdGFQY7t1NfWxw4eLwuiz1BILnWHUq3sbydHZwsyF9xuGiM1pbfTTGlU0 PxgATF6DGjF7+ZUI3t2aIWJHBfbBg7k8xP7oO8tRo5+dJzKJVQC5cNbKlYLuPOeMWSvF+wiG 07fvdgeIZLWMFBMemAGxSZIROTMFxhPWWTNCo8bayxYBsqS8BIlSCiFGQrCWlSHAmcK0QFMO hoeZuYHZll9UdSL9sxxtm4JpjKch2XfX0Inr16/AoW1XrsaGhIwfn58rr/bWXAI6lkatER4C 63VLkqBD0dTyzxiv4QFjh/vHYX6/9W74eC2oDqrs1KrIAlBsoO60qUdjDqsT+IOW4t0snie3 jfRBbRgFNfMPh4tLuIUsyTbUxgm8XPKMKe/0bIHgFVupDGYtyFtVVETwqtbQcb+vALngB7Rd qwKIe9UMQvqb6A9Jimuw3gq8GH2GymJKaK1by0/J6LdtEub7JWWoD+QpunwSza/vJq+Y+a4t RzRKfn29H6yUTJkyB0m4EHzFKA1PfcyVFLTW8H5fVtWbuiZAOX8PMPxhjA6dliV8vl5BIGGq ZvHJkx8Xbl6WLAjRvd4thaR5Yjzxbi6qmLKXQpeFAhDNJYyRCO8SOLvu5nhGDWILZclKsTl1 JLWcxwkzXHNx5PgLRRXQHNBqKuY3SF+mz6DAf0oZ5cy4rtv8RzJ91ss58ACCovxk5bgV8Uhz +sljenEcFaoF7+tG76bLgmIs5WiE0K33HMsXN8DuA0S2rCrHlmLWwNk6TQRPRNDTppicTOQv 54zmClpj87MxogNbECmATotVGCewoZH4fvK45fQgjTGGeOFmB7YAQCGOD5SghUWbsltMBrok oHCaI2BDB3JOKFoeCpmF7bi7H1mDdPOiO7GW664gVCOohuD0YeLV8eDLSv+yS1hfDhrUDBTx 6RA8+B49v46K4bh6doYDQQz6Pd40N1PSiSGrQZ/p4nkuAOlRLfS0q9aC47AFet8NYwx8ve1+ CVOrf2aRHL6RNDF1///xOsFpk1wr3w/2d8+KSvlYJFQeur1ZNJ66Ggo5qR235MChpqVT0uqU YbZBggmrhLWYskekbK3dSLmgAqtx3n+5+S5iYEIm5+s8YiPYSZ3BXDWo1dC6ew6InIu7VpZA L0WHBebbwoRuwr7HcYDzUOBI4S4QQLeCDotURGLHz2Gbp7ce8CxnnvGhUO0KAOTYCiQeNI45 8FbF67QxHWNaBax9vS2TSCmCKwI/yV1eTHR0E7wL+DK+oFVikMjXYi6tPH7vDSCJtPWO4lBy yj75kbWH3o3gqrpmsLNIxQXtc6DfzzYZRokzhIDWv8Xv9FXEv9+uhphLVNso5aGQR81ap0SL UpFtM8CjXF/0vgU4wWPzpkrptpGY5vFUhYARf3cszIAROxcgZStv3vc6kUzZpto81uFUZKgF o1/vG/Wo+DiPoCKpp56MuOmHF5PYroODe0jfImlix9P3Tp3Rn4AUAZ69Y4UIYi45hIqts9Vx hrZwBwDGhuUpuNuNPlZlbQz6uPxouYkSpQcLHx/Wc/Z1vdHGwMdxBhWKfnc3rfSvo3cbo+0w KID4M/FrypLaTl1+jQvxXRb0UbJ0fTmmLzwx/CyFS4x2MnTX/DT7TEv7iOXzxRNIwmIpOfR3 dgDnqEdkCkQEY4brNnc+hh059rGXjmnq+T1MhbFd5/u9y3ovlavzOINhtONKhTXvJFZTznmj EXtDHIhyudmhb7IF0KA6//H5GSVVqyAthQlix9z5Ru1xxgxyNCish2h8dU5foj+DbyBKihOa zTmH2+Fnsfer94HpuvOEnbkZ7XtKQKH8N25A+s+bpMZa8XqZT77bjZ/3jMAQueBqDdUJjjsl WnUiS4EmQPuIgkgpxeFeS636NL47rSmfe3Qced3Bju5S2FJ/hhRkfh3HKvbMTQABQOEobGqP k/AHX5SP1xnEAII2TPMYjY45AySh2YIubDnMT07PYGWrPOWUMDdkqfeB923TGGKExtqskeZ9 rySLpzL7ZEd7/zSZTj/h9K/AAi3GRWICgZEOTUcUR9gSTQZwygUYtz8wS4nYdm3kUh+mB0Cn gN0nOxOXlCuz3oKz5EcNn1r5RBZLLaHSNcZYoodeODOLZ5u+t+5jQ/qqmQA+jE87dK4l3dMb DohPmwjPnAN3c4mMatDqdV+QaYtDaU+eHkaca4zl8jGJN1NMBI8mFf5gNKUliMeglkWeeNDO kesrVyfCtU6aY+tYMQIAb1Hyzpyt+AK4PAkLR0UwNT8KKmzq4KbM7J9TrxqOjnRUIICgTUTQ QZPisdMeEAKILCrNFO5FAdSy4p79QYo8O45sfWcoYpjKFCuEJQM4HLla8B6rSZeuwTRMeyxI U9zNcOHXUTFmNXDHfTC7LgjIyJjQ6RUg2WFXb9Jzn/7++tr6vUoIIRj3rATixo1p5c+NBiUI tYc+J9SzCta96V+ZMXyNGUrKn5+fEFmjL17ngeu+wxWEXOhcHSo/Pj5wXZctKhD5O5/Hdd1R 5mSAyWBTyE30DYbtulk1ew+KFy/4le9jQHrdl20S70VP+QhcITawpAB9yoheryVzDSxBn/Ow eWO7IC8Hu9NEpcSeK3atmvoRg4pdb50gg90dcI8Zp05ARQzZsGcWekpMN8wuqEuTmLNptbHb dBfEb6PHw2rOx2PRA3D3dW+qVFiWBGqs3zGNBs60NuTN2sTnNm1qpmcDB7Dq2sDGDUzOx7vX z3amMX323sq0Zy576bbUEkEr02h2rWvcFwAADiRJREFU4+zMp51gUe52I5ePeCCpLPTNOiUn OBOFu2yfBgEgaFIxz1wEOXmJzyNcxg5DJ+CzWocHbgrLz3NOVmTZXkz9uIBQ21hMuahbE8QP 2cAQkQio4C4mw6wNlZjPusgQgaX7ve1iCqG8wSrdNPP7lhRpK6sKPO1Wki04K9w0r3iFr2C3 EKARiYYNAja310AkmXYAtg5iyruszxtQpsZ+bbs2AODNDvtD3MmFCmfGJBtfWdUGuDKAoKns 3i3KAQCRY5LuUzJG8xpxn9CUQ/DndRj5gIJE1atykd96r9ZU06jhvHPi0LM1KEdleiRLXr/6 51Epi6eKMiaqigstFm0fZLefjpKStV7PFTnbBkLQyYpDpeEKXCaUaVasJ11oX/36bUwUTZHN aF+qk+oHb3r0X+pqCx99RNzCVDjiE6/ssfAFbOBM9tLoGFbqLE78Jw7Npnguop2mNYrK2nEk 0CWWKANwAJDGsgrWNC+o+YgHxUJE8x1P0/06DzQf00WX0mREEMOy6ffX2EwZVGNDEVLtN1O8 E7eLHQFL0J+5MocPxkgM7/OOERvngZ+/fhkxxE8lETcRK5++vbNnzoFEqhmAnI6N5r3iBuPO LXXr4hhJhm300Mh1q1lkzbhnTFFqMWmVOeLAWXDpAfDf//yp/BBbI43gSfFsKWZhYwdqfr3f i+tFXBiI4Iungtru9Aqj9yDrRYS/maC9fScYpgx0HJyhJj18s/AhtXabaa31MZ+NtfFa1uLt s9/2F3NsWgVWqAgoVSeT/Hq/8V/++AGB0b5pFQkEMRCsbj2M2mWbYt+0VOaigPJDn52iCR6b UErkdR7hggg0/fPrC6+Nti5i2AKbTwCgcBY6y6HWNOAcay8RxjntgG4RqAI4j+PRektqUlcO BJjRaryjQooljcG5L3bzI6LUlJcMSvdTFmVVVWvYS6YfO5pz1nOOsVtWQBlhscKM94GhK8uA CDqWn41UqHnG4ifbLhbrOufEeRyriuhB2LjuiEOIbu6kSJ7QvWxsaN1q3eaCkd0z1SRMON++ Y8Qmoyu14bsLA+CgAzsIm+YMAyymY4HupNU84CsRAREfGgkWOx2ZOzLeM9eQ3rz9LnvhVH0H p286rW6WiaAt5Uj/P5UYVnfdcAu0ervVwaGllLUmNNBNiQDnt8ARWL34zIJ30YbVAyDWa+Z0 5dlXBwmtz8peOM/FGyb8IZ8lx2y3o9hoj3vrgGGmY+vn0iZU99zm3rI+AhTrBvbOnpBamdOz KbccnD7E11nrw9QxCAJWVLyDAGOsvipD2VZjgAAoWGL6e2FkH5sJ1QWnprRM3hgB1rBJYC9r whf/dR7xZyJtzHU5KnNM06JhMHf6A+NGo7WDp4tEFKmBN/xk09UFQ0hMSmxfHxIa2KiJZCll kDZlzYuhCWevHalitErUlKlVnU/ouMeUGGUSh0U1BgZlLHRzNpuawWsvFn0umc8+l5APheRJ mqBYAGC0oVrWKdhfjIC/vwICVQ08PaeMMfpSh0hbnu1FIGIGNa9qXBRunK/GiJb/JmIl0pyy Jdg+J1ZnepQydxryjpVHx86YMeiOqFd33L01L6psgAngtXyxAb4iz06fkFLrA4IlE8LmzF22 bAyzXn9+/YL+BF5HibWwtqiOV2AgydnGJeoW5PSxSSU4DlfveNXDy536EPJhwz0fFCZwT7tZ zhUnFMmIlVMWdhMZ0tOyDa1Xq9dfuqJnISS5gREiCz/fYceHkO5YJVzq5MC7OH/++hXESTYW sn9eVR9dsNRoix59nRjzOXCAKReDsr5ZuRBykDUuk7NUo6zpD5lNhkc9jLugI2BqCiepKj7O M+jPj0GBAF5b14q5Ztt7rd8ADtSCQEi5KQCgfJyv6JIAFnBApOvypvkQ0GkGNx6w6Jylyv2E DJ3IeLJGSCzcxXrIhTOJUDfbXvwHEOVIasEOFjaAB67O19gWlib03RqK+3qekj0G+V6w2bt7 +GJWwt4wYBE/rpvqGVYw0s6q5NroKaeoMRDRm16itoAzBwZQ84o7csmYc+L1MnJmjyD39z49 +GeVlNAm4xhBaw211oC0Ae9waX1guu+MuaK8YZL9gwJsC/I6D0AkbppVrVAyznikWldrS9VY FfAHUFyPPXRhAWhb1TNVxFBZVZsvCqyUkEhWzfnxoIylcyJ5gYQLA3cZ9gBKBHT71EIGi4Rg i+f0kgTvr/e6h4BpN+vkJ0p1DQtan7t0bzkrfWUKFnfEeHCHt7+uK3oPAIRs2D5nBg48QY0i tVvXUmp09XSvuxfAUCtquOWcQty2d0pfc3z2iFSg9YHXecaU4zXlEA+BXTbxAYgJQ0S1WNBg 3syTxwrWbkpZwGe+zUW0ZklqwUkEUIyw2xiRepJTz41GqtjolrB9N5/TB/PYQejAQARbP99v exi6d9EitF65Y2MtW8OYi7sAbIoSvhEKcsitGBnV94NzAaj2ld09/fl+R9s2W7Wt0LUk0ooH odTXA5wulT39KA687GzTndECN0WhsjRMMJAKDtz9Q2fMSTHlw4E3Zb6zdbh0Afptvv9rXOCM tFJsJLbAIGGqRNE0DmeY9DFxpvyoJHHOijQJfdYdG+AxXuzeI0QCooDkD4vWIWVrXmBH7es8 cLqVEzEXpHCpUGYSIs5hM5FE0soW9bpE3s/8mtF9iPpiRoA4xN/jr+Rr8fIaP38vMmoGtOnJ GYwOl+6+lrjwdNCCpoPASxp2wgh6MHiKMZG6oD6BlzpdBcoK/Cl8N6tFb2eZXHeHuM6bmcSO CwslC1Cmw3Xi7f0550CuqM6kXuUrbIEe07poaSrcKgQGzoV0ppAAGGlC1Nqsl97dqpsbt+2v 4wmFF2/2kR9KiNVcRtxXH6uG4A2ScEBrms98zGqbOjccfg9wvdHUWT5kw3LK466KAThdir1p l0OBh4v8hcZ7SqgpIU8L7Pr1RK8Y2YdAve9g5vclJcOaIyVyYZ/WNih20XjbmBCZULHYIZog vbqVc/JOF4kAECKoWOgiO07GHOE6WG7k4Z+OPDJDoDWRIZiyVJhNlPjwXP+O+IKB5Fkrphq/ nuQH4+vVuH/JXhb2vJ8atmT57OPIAWwuYARfjoSXORDuLqDuzaRFfaPYoQir5O8t3EF2cQKR 8htkKRgRlCVJuMYVZUsueJgUkYA3Wd4jktfngG5Vux944ThqVMI4RfmsNRoHSSs2/2c3+8pH VKF4q1zYvblQ4QFmWh2nR63x50dhhpuqr4xDxNk9vsEGDLOgntuB4q6u4OXXKL5xZYNe9/yf m4vFlRhc4HV3dvGw0ne3G3OONfddfUy3P9h9mLkIoCBMbRnOHz9+RCk4EEb6xJQXEkbkjKJD fXSkJqHOTHHbUvKD5cEdZh+YcKQ1VAeqkGHMUzYX2vzSGWkNefQlZxxHxZgTv95fwcDlRXPH chgPg9ijrDGTjEuiPs+UR1ctnsUTbnydNoFqx/eJxsEfUk4Han2qPpCbT4o3/KG2djt4M6B+ 4nYGbMxJFZ7uZVl5z0c1VhPFHfae95RNwHmfEKGqYFGzjYHk5duHT2dNnPqnRsVlT3kPLdc2 JlKyHccH2/uI3HVPn3hRrETtpD5eDFt30+a399mm0x8ScezsHamcWsysgvGHYmUYfIAQQU11 QbPkonl6e4+JlLe5b5vfUyX/XkLCPMz/BhaNbvJpfJEBxfFf9jN3B2mJKDNFzsWiDVK+n+CQ 4jwq7tvlRrBmvXCwjwJRN+fDjwF8o+Ona8MSowCAwtIpT+NqtPfabDJtlDIX0ZGvjmHjOJqE dkzKCcPnrYq4b2UbU1l6cxQCLMVoWnMO1Hw8Cia9d7yOc82EAdC1o/WJIxtnjhcbIgD7A885 EMJdtJiyIiOnpXOTlsoU6+JsYMiag/BIsf4YwOP1at77dRs9qdaMMazSCLFyqjGFLeu57mYd O35vxU/yDi8rVjVS54SMFBspJ2tqeF9vjFkfCtHmBqzzluXUPY0J6W9gNRYwYu0uqWW/s+al 07/creHjPBHDfNwkcloD5UAfDwML4SJNCVg8d4jg/b4eAQwpwUSl9hdTSaKKwSTxBWNN+/Be M2AVV8Z4QsX8/VDG+LaQO4q3q2iyBw5qfXO0UJxStX8X15EqXQxEv2eW+4uih+QgEMbNxTpy GTCGn8OKqXaaW3TUjjlRkR8BEy+iFOtKZV324zyjCR9wGc8o6yEa9c/jtHRu95/fOIPqJ5BD b/iypkADIyRZ+nY3hXgAuIsejD6CfxcnqpYwg1aDtwlS6iRBuoN9xknEAFt3rYitARs4ATyQ SnuPhKZbBLJYXDhgwdqhvMXOlrqs2l+99rJoAUIG3YYFVgx3o/sc+532RvnUWgvEGy37mMh5 Lo4cgFjI/ab24XW8mL2KxmAvZ/NN7CwpDtJQV4V6c+LQbWsNf351fOorWqJponfRoHLkeBAh 6+Xmb5cD15QjGt9VLBkL2LVv9Xh/QL++3s8H6Y0NZmqNoLG3Wu+PSf1+x9jmpPu6ETlsraHk EpQnSqS31gPQ8cVea7R/R8dmUXyEKNeB/4ZlvaKZJLqMvckiWepZUoL87Z9/6i6xSV/O6JQP mIpT5KnTF3OROTS+OUkye3MDx3zs5owgQ+TPyVIT8t1Z4dpLtvskpVCNSks8h1E8+8lIQmAQ xpPGNJOBYwSS9JtuElkN2xEuPpj4ty1fP7fTxhcHEBy1WtwyZlgYqm/srWN/9fkfHy/cXtSi BdnJkJHqAjEa5aEl65sSWIFhIRmfuWdJq497TI02nf/bq2271YCeDukWuNC8JyzRwahi4ZHe /z+/nqAEomizF1D+f35d9xVECvVK5JpQuWTU99f/AQRXX4udB5mCAAAAAElFTkSuQmCC" />
    <pattern
       id="Pattern_1"
       patternUnits="userSpaceOnUse"
       patternTransform="matrix( 1, 0, 0, 1, 371.5,-102.5) "
       width="125"
       height="125">
      <use
         xlink:href="#FlashAICB_Patterns_New_Pattern_Swatch_5"
         id="use9" />
    </pattern>
    <pattern
       id="Pattern_2"
       patternUnits="userSpaceOnUse"
       patternTransform="matrix( 1, 0, 0, 1, 371.5,-102.5) "
       width="125"
       height="125">
      <use
         xlink:href="#FlashAICB_Patterns_New_Pattern_Swatch_2"
         id="use12" />
    </pattern>
    <g
       id="Layer0_0_FILL">
      <path
         d="m 1,21.3 q 0,5.75 4.55,11.5 5.35,6.75 12.9,6.75 8,0 13.9,-5.35 Q 38,29.1 38,22.9 38,14.15 35.5,9.5 31.5,2 20.9,2 10.95,2 5.45,8.7 1,14.15 1,21.3 z"
         id="path15"
         inkscape:connector-curvature="0"
         style="fill:url(#Pattern_1);stroke:none" />
    </g>
    <g
       id="Layer0_1_FILL">
      <path
         d="m 0,19.3 q 0,5.75 4.55,11.5 5.35,6.75 12.9,6.75 8,0 13.9,-5.35 Q 37,27.1 37,20.9 37,12.15 34.5,7.5 30.5,0 19.9,0 9.95,0 4.45,6.7 0,12.15 0,19.3 z"
         id="path18"
         inkscape:connector-curvature="0"
         style="fill:url(#Pattern_2);stroke:none" />
    </g>
  </defs>
  <g
     id="g20">
    <use
       xlink:href="#Layer0_0_FILL"
       id="use22"
       x="0"
       y="0"
       width="38"
       height="39" />
  </g>
  <g
     id="g24">
    <use
       xlink:href="#Layer0_1_FILL"
       id="use26"
       x="0"
       y="0"
       width="38"
       height="39" />
  </g>
</svg>
