<?xml version="1.0" encoding="UTF-8" standalone="no"?>
<svg
   xmlns:dc="http://purl.org/dc/elements/1.1/"
   xmlns:cc="http://creativecommons.org/ns#"
   xmlns:rdf="http://www.w3.org/1999/02/22-rdf-syntax-ns#"
   xmlns:svg="http://www.w3.org/2000/svg"
   xmlns="http://www.w3.org/2000/svg"
   xmlns:xlink="http://www.w3.org/1999/xlink"
   xmlns:sodipodi="http://sodipodi.sourceforge.net/DTD/sodipodi-0.dtd"
   xmlns:inkscape="http://www.inkscape.org/namespaces/inkscape"
   version="1.1"
   preserveAspectRatio="none"
   x="0px"
   y="0px"
   width="400"
   height="50"
   viewBox="0 0 400 50"
   id="svg2"
   inkscape:version="0.48.5 r10040"
   sodipodi:docname="k03_snowpatch_01.svg">
  <metadata
     id="metadata137">
    <rdf:RDF>
      <cc:Work
         rdf:about="">
        <dc:format>image/svg+xml</dc:format>
        <dc:type
           rdf:resource="http://purl.org/dc/dcmitype/StillImage" />
      </cc:Work>
    </rdf:RDF>
  </metadata>
  <sodipodi:namedview
     pagecolor="#ffffff"
     bordercolor="#666666"
     borderopacity="1"
     objecttolerance="10"
     gridtolerance="10"
     guidetolerance="10"
     inkscape:pageopacity="0"
     inkscape:pageshadow="2"
     inkscape:window-width="640"
     inkscape:window-height="480"
     id="namedview135"
     showgrid="false"
     inkscape:zoom="0.965"
     inkscape:cx="200"
     inkscape:cy="25"
     inkscape:window-x="0"
     inkscape:window-y="0"
     inkscape:window-maximized="0"
     inkscape:current-layer="svg2" />
  <defs
     id="defs4">
    <image
       id="FlashAICB_Patterns_New_Pattern_Swatch_3"
       x="0"
       y="0"
       width="125"
       height="125"
       xlink:href="data:image/png;base64,iVBORw0KGgoAAAANSUhEUgAAAH0AAAB9CAYAAACPgGwlAAAgAElEQVR4nGS9244kSZKm9+nR zNwjsqu7h0uQ7/9CBAgQvCCxIJdcLjHTVZUZ7m6mJ+GFiKpHgTno6ZmqyHA3NVU5/AdR9z/9 5/9TEIeIABCCJ6eACNTW2VPEhUBwji5CrZXgPSlGBOF5FgBKraQYue0bf/z6ovXO//hv/8R7 x6/Hi+d1AUKKCQFKqaQUOHJmiFBq5/O2453j5+OF9w7nwDtPjIHXWRgM7vvO6ypcpXLbMykE Hmfh2BMxRH49XoTg+dv9oA+hi/B8nXQRbjkRY6T1RikdgPuxcZZCCB7vHFdteOfwzvO8TsaA LSWOPdNa51UrW4p4HL//+uK//8dv+jy1ct83Suv8ep0cOXHVyp4SOKhtUFvHO9hzwjlH650+ hBQDtXUEiN5Rewdx3I+MiHBejR+3nRADf349ySlw23d+PV4AbDlxlbq+GyJcrRO9PtNtz/Qh jDEAiHtOXKVTawMHOUf2lHEeWh84HN45YgzIEBwgIvQx6L1z3zd+Pl60PsjJ4R1sOdPPi//2 rz/42/2gtA7OgUDwDu89fQxkQBsD7xxjDF7XBeg/i84z+uDHfWOIEKIn+2CbwQEwBGrv+OB5 nAVPJacAzvHzeRKD5/E6CT5w2xNH1odHIERP8p4/ny88jhiC/V793TlFtvyJ97oJH+fJLWdu W+J5Vrxz/Kd//EbwHhwICec83g22FEkxgsCv58nHsXPfNwRhDD1cAAnIOegz94EMIQRPCB4R cM4TvGPfwAVHHwPnYAyh905KkY9jp4/OEAGny1ybICLU3rnlDDi8B+/0s2KOCQTa6Iw2aH2s RY/e88fjRfSOPWe2nNhipMuAIXjv9IUEz2/bjS1GrtYYItz3DYCv88LhCN4x9K+RnG6O1jqt e3IMFi10tztgz5FSO12Ex+tFa537vutiRU8fugkrgxQjr/MEcXzeD0bv/DxfSNLTn1PAO8fz LDyviz4G933j2DbO0kj2+WMIMXgA+ujEEDjyRimVr/OiDyGniPcV5xwfx87zvIg+4BnU1hhA sqjhvSOnxECorWnk8oEco/4e5yit0XpnxICIkGMChNY7DhgiOB+4Sl0bRkQPxpETX6+Tq5QV pUXs832iFP3MIbLWFSBepeIcbDFS6bTeeb4u9hwJURdriFB7g4pukK4/N0RfQAoagrsIpTVi 8HweBzlF/vN//W/sW2ZPiedVqb0Tg8fhEWlE73CADx4H9D7w3pNDRAQuC+UiQm2daKfI43jV hkNPQ06ZMTpj6MYJPpDt+zvv6UND81XqeqY+Bj/uB30MXldBEPZtwwFXrVy10YdwbBttDJ7X RQiOz9tBa53zvCi1MkRWyvDekWKg9cYYwsdt4/G8eNQT7xz3Yyc4xyWDbgdnnuAUk4X6pi/R OZql3edZ6aOz50Qbg/rSqPivn78YXTiOjZwCYwy2GAkh8OVOrtq5avtLhIm/Xi+2nNlSIHhP 6d1O/kAagC5OOwfFd0Jw9KHhA+eIQXPkz68XvXf2LXPkjMjgKmW9gBAjXIVaOykEnIMQ9TNb H4gMtpR49UFtlatFrtI072/b+jutNnLSDelKw3uHCNz2RGuBx6tYNNBwfdrPBO+55cR9y5Ya hJ/PF/d9Y/D/Pw3eOXwIfD1P9t8SMXhkCEOE7DxlNP58nYw+iH3QR6fURgqR4D21d5xzxCGI gxACyQcc8Ot1cpZCLY1//PZpud4RfKA1fUkAPgd874i81zuFwNX0YF6lsqdMOgL3Q6PgWS7w GmWc1RpD5gvX/45bymwxEEPEBYgp0nvjKp1nvYgx2k7u9OHILpGChkPnobVGTgk2eFxaOD3O Cxmywur8MAFEBs5eCgJX7ZSq0cbljLNT2Hqn9kbOgfu+kWLkvC4eV2HIIMWAWA4D8Pa6am84 9LSJ6Elqo9P6YMuRHDWsvkqh9s5ZClvOHPtGa42rFNoQvHMctkHmSTmODY/jceoJCsEjaJqa YdcHj/MwqrBbvj5SxO8b0TaD1E6Oic/jYIgwZDCGo1hddZUGTr9D653gPT54sqUL5x2lanq7 HRs5RkJwnKVqihSoYVD7IAZdp+A8ghVy90PDmXNasAUHwUVq6wyE254YIpylMiNEG4PWOkMG 2OJ83A6cLeZplTEOYozIgDF3fggrh87d54AYA1tK+gKthqgWdfrojCqcpdF7p3kPbtDHIPpA jJHzKtTWV/jsIsQY2bPnqpWzNmrr6ySX1kGENoTYO2FGki50GXh7oVtKlFrBwZEyrTVK1ZO5 p8hLCjJYYX1P0X6XHgYHdOfW5hxjgIPblvhxv/Pr+dIT2RqldXIMHFviqo1fT63Oc0psKeBx 1DHAeX7cbzinXdcYg9KGfk/bpJRGToFkzxFjZHR9L7G1pi/ce/CeFAIxBLCK9izawoh+V1LU 9g3AUg+vq+gJHcKWEltMvGrleZ7c9h1Ew6fH4UPEh8DonT4GH7edlvQE3vYNb+3gbds0XMZI aY3zOumj42MgBkdvg9YaW4psUVu12ir/wz9/wzvHH18PjpysJYr6TE4LyfMqFrkGbgweV8Fb exi8Y4uJEKJ2KmhVnGJchWuKgc3aruADbeiGDiHozzn3LRQ3zqswRNhSpI1BKZWrFF5X47Zn gvc45xEZ5Lzxse98nSev82Lbkj5jStTeeTxPnHd87Bs5RXrreO8RiwhaAFeuptV9bQ0GyNA6 DMD9r//X/yNa1AjeQQqBEANjCKVW9pytz2z0rie7lIbwrrD3bC0KWuS9e07Pz+dTd1kbiBPu x86WEuellfR939ZnnKXS2yClYPmoczu29dnBe0sp2mUMEbasRd2zFIJ3/Ha/02VwXoUUgxah beCdnpjgtSbpQ6PI66or5jjn2OxZRPT5a++IRkVi1EJpWOoaou1rCgFBaH0Q7MQjGk1C8NTa aaId0b5pK1ftBbQu3PaMd46zFFp/p8U2Bs/nye22a1TqwpGjdgSWp2tr+BBorTGGrtFV9Xd/ 3nbE0u3HseO943UWohZanuC1ZSmt4+wLzdwKWlW3Lgh9Rm6rbBNjCGet5Kg7MobA1+viz+eD 3z7vxBjpvXOVpn26c+xbXi9F3jUGfQxGEXCCDHi+LnIKml9t87XRwcFmaaKPsXL6VSuC9qil aoqa37fUTowa8rS3NvjAPnsWP902brVT1On0bv8R0ZTk50bxZItUZ608XtcCRubLTyngu34/ a6e1eI6R2pt+Rh/fABSNGJt3/Pp60vtYABDAQNdmiL7kVhtXbRZtIEavm1PEgCaNUAxdl+iA GAIhKGBSa6N23dpzt03wInihD4dPfv27szZyDOwxrX/We2fLgS3dEcVC8N4ToqfUvnJiCH5t Kq0nHDF6ZGg4nUjcSsS63jj8+3QCAxSUQU9Xip49JR6WdqLzFtoVACGCw9FFn1cXR0GRCfzE qC9N269O76JRQsRCdWKMzuvSHOesQ4jBL5QtWR6NMTKi6Nq2WZiBD46vr+v9bAaOOacvuIuQ c2ZLUTuooMVYH9pJaKRQpK813dDBZ1Jw64X3oZupNj1wvQ/iaUWKc0krvBhxTvOdiIas6B0p 5LVjovc4x1+KNudABrxsN962RE6JP7+ehNbZctQes3WeZ6EiZCKtDXpXUCRGr7nXQ0r68947 7YlLQQSDgL097CBFr22UpZezNkKIJK8bbMtaWM3vPno3sKTTRiekCLXrS3DzNGrVvyUFP7AN mWIkWgT0zjFQGFfQ1ASwW8Xfu3YlM/KNMeheMQM3Ow3b/LNNnmvWRXieF7VU/vG3T1IIlNbW qdVTAjlGugjBNy4P0SsaKWBpaHBVjYxShD1HBZ2u0qilE2NdO3tuvD6E0QddvIIePiC9g/cz GpPtND6e3frhQEqB89LefYxB74PSEj/uh6WN94nzwa9Cb1j/P0RwDYqDgGN4D12hRmchLcVA 7wPnHG71odoSjt4R53DerReAvXjxnloqrXWcQzF6W3QXAr01zYmGZF2t40TRrhhncacRxvtg GHujWVXrrEg9S6PUSvTeQrJGOwWMtHWrY/Bvv/3g8TqpvRGDblwxACsfOzlFizR9YQetaWsX U2TzGqFSj4zRaa1Rqx7aIYMU4mqDZxqNs7ApVRGfLgpEeOcIMSDWygwReingHH4MglWuX9fJ kGF5LRGCs+ofcLK+gH5GX4sXvSPnjPRu/fsERxSiFWGBFDFG9i3TW6da1Z1iYEubRZ6OCwFE 2KIWOcVewlUaguB9WzlWRDS3R28bN+G9ppruQBhIh0uEz2NnWNQToPWmLVrWDfAqld47tqT0 UqhNfz7nxNU6/ht6KQRNK61pPy7DUEhnfXnjeSkCuefEWSq1Ns6iRFdOsorPZJuwC3jA+UAt FwM9GB4tHHsXrloJzmn383k7DFa1U9YHTTRHaqvj7QVUzWtBe24xgqKLEH3g83aQjMHyPhCD 1zZjDOvR9UsB75DXO802SO8dMVgyhrCwAREhOIeEsKLLanptqefp8iGQc6TUxlm01qjScaKo XWsKd8bg1yI/nhe3YyM5LQhbG3g8BCshxliVeZdKKYqVbz0Zlu7pTWugEPRzvHOEpLjDxMVB 9Dt0XY+zarX9+88HDseWE8eh7OYsPocMXfemp5YBXbyt+6AUrRE0rUS813eSQlyYR3SO7hVV jTGSWyduKa0WpbbG66rUpghZNqABoLSK2Fpr2Fc68u+fN75eF7+eL3JM5BQIXguRX6+LW87E FPHAWSu1NfaktOOv54vf7jec9wtbn+3KEKG1rrSgCOd5IQIxOJLXjfi6FD0LTqPVloSUM70P aq1sSdOVdw5BIw0DQlRMoVjUmKlM+9tmeIIWS1frthE9wU6WayyS6Ngyj/PiKg1neD8WuXo3 yNk7ZShtLQdC9I6YMt7vnKUwhtCqQsa3TYmiPSelinOAqns9x0j0nqtqBEtJd2cIYUXJWTVY p6lROWiXUVsjnrUQbIfgMAIArqtSSuXzflhFPlYRjQEZfQgdWXytDD15z+uiWr7Vn9WwHb2n Cvz5eBFj4O8/PhWkMXQvJf0epTWa9ZwLOzdCxntnYVa7gNY7OSXux8YYnZ/PF3uK3PZPnuel ESZ4WhuKh+OI6Emnae+NaCM6RIuhHDWllWYYRIg8zhNpzRbWk1JUXGGI/jOv6FgbA0S0DQ7B SKB32zhTWLCNPoZCpT4quDN6Nxi4IyMyZODFK4c/4W8UJBtD+Qpsfb1XQkdrqGas5ViY/jzc cfa3Yyhma22ohU6naBXaj+KM97VwhhOOnNfDVBlI12p8WNi5nIoxFIL13I+NY1PhhIzO66rW vll1PfTvax3Q8T5ocTgLIhEEXdR988Sw20nWzxljcBmEHILneRVc1Z0fQ1jf1eN0o9hnakUO eKfgku3w5Gf6UYzcOwVxHBpxnueliJzRxw5oBv7MwmmyaDNBdVsjcXDbFNrt1ibHEFa6epwn 3vl12MQApbVO9jneB0D0d9rPbilx2zK/nqe14103lLZs2r8Fr798S5bH7S9Xw6W3GBZF2eyl O6+nUkSBnYFCrSKiVblTEmEMPfVH3rhtGec853WtU5yjQqR6csd7A6LV+hh+IVBD3ifLoyE+ x6CgknN83LQaf54F56FPdDAGsp/w8YDIqsZfxdg/q6xnS3ZsmZ+vEwGuUogxEoKKO34+n7TW V5QMQdtNQZAOo4/FjI0+lBwypEzBFV3Drz449sSeMwMWhOrAUD8FOvxsGSzn6692vEojuG6t 7dD2zDbPlgLblg1i1so/KNegr8p7XYSJqwv6YaU2York4G1BAi2OhSw9rwK8kR/NYaxe9OV0 Qwha6LQxgEFpnVIqf/u8m3SoWcs2DCwKeOsaZOiGwGDiiZxpP6oo4mXyqy1FitOFCeIWxBuC x6OfLwxah9d1cds2PU2uA85OuCx0Ubsaxe83g0C7FWK6Zn7hB26mseDpAmJFYxNUeLKyo8OF gLc05ch/4SNkiJEp2m/LgIZ2FQ79nOAdwXm+XicpRpLzOO9wwzGsHexjcCRdd2Y07p147Gm9 IER4fzX7gk6r9SID5/y7cEYLhX3LGnbQ6lwj5HvjfITDHlR/fuLoXYQQglbtxt8779hjYst5 9belVqpV1Rra7MHtW2vvLwoTt87ruhhDCM5zv+2a/wwle5WCDG3rmgknjm3jtm8c+6bPb4sF 2rGkGHAWeqd0jBBwdSputOsprRNRCVaOEQmGavpA9NrSeU2+lkbl3T+L8PV6rROaU6L1znmp /KtjKUhLTjuYHoIsNDXFQArRajKluEfvPK5CGlan2JuPKUatHLuePBF5h3vbbXUCI/yVZZsn beYs76xgsZMuFg5mCBy9cxXDzVMg7BvP16Xh3xCmnBJxomdGBPWu6JI46FXD5ARozufJsSel I5sWfpp7vSpPeqMbHNmaFlVB3BJE/OvPXxzHxpGTFqfeEUQBkOdVCMYeBtOo9Ul09K6pDG1z 9WUGXIokA6m0KNWeetYlzjtt/wwZLCY+TTHSqnZPODGRabaNI0iz9lFEKe4hCIN9S2udkLa6 Len6rDIGwzm8j6YicsR58iaP7AQQJWC894Bi78OKhGF986wkr3Ktk+G88bU+aNgDaunguuHA soCViRTNyCHj3eY0ZKWE9+mb0UQjQJOhHPul2Pxt3zTHGXDhglP9WvCcXVsirfy1DRPj26+r ECYR9C3sOucMpXOkoKe39kawlsijebzUircCEQe1j8W2ee85r2pF7IAcceL1Ge0g9T5wCZL3 dKfRZYyBOzz3baOOgeudHAKViWbqWjGEGDdKKbxKW1iFUruaFll8yFibNZ5GGIidZGe7QV+I vtw447kVOM6ktTEE3O2tHJl/QlBwBoHgq+Hc+vJmuBWgNwVQXktuhDF52q7lqG1KGxd0LZpy 1h07kb5//LivB321rpRq1tN21ca+ZV7Glx95o/XOT5MOf9527lteTFsdAz800s0o1duwdk54 Pi8tCPNkx/IShSi+roBS6+9w7rxbKKDmYm+kje6Sz/tBrZXHrwfDagnvPU7g5+OlVCwm0nCB MRzdiRW6Y+kAhMZAcGjazDHgQ+C6irKQzml6FojHlnhdRbXYXj9olIG/39ZpDlZYzb6ytsbL qlPvVTUbvDPFiFtAyxiDaJruD+PFz1IX994tbN521Xd3EUW3nF+FVAie5+si+MDH/SAHFRyM PHhcl7Y3o1ONtPnn33/QDcpstRlmrYs9tXDJVDoft0Nbq2H07LdT3nrDoUXQfdt4mDx7gj17 zuwp8rwKZ6ncdu3dVUzZycl0h0HrD9XB+QVJ33aVOf16Pk04EpZayVm+B/jXzy9u276IHWXL LKo0JaOa9fp7ThqVMcJornNT/YN3usliDIHP+4HDKUEQI8Hkz701ov3FBUla/pgtGiKGkSs9 +dbF6R/V07sFC77OurRgCi0qlzxbEwGctWtDFKWam0tGpzkIDgNANIQH69PFfseQQfSe7VDz wfw2w4gVb2KMYsaGYQXsWHw5C6mLQVW+IuCjVcgaNekiOOcXVzGMFPm8HcRgbeQQkhEjINSm azZ6p2Ap1Ppj7z2MYZSvGiGcdySDxJ1TYUqzg6dQdVN5l4PoFUGdabG29n4mxaE1/dbWVm97 tU4Knttmu6o2Xtf1DbDR3lz1YBGHCveuMRbL1IeqQQVtU7QfFXOysHbwfMiv54mlQ5zx2U7g qhoJsB0arDUqta00VNtQStYWopSuDzoUJ/AuUg0KFYxtQ/vfucmnmlYFI2NtQIcxgKh+bXIM 8wBMg0ZtFe89rzIWK3mLGyLC67xWB+G91x4eVdG8TMc2kTyNHprOeteI6Frn2DKHHZhqtUht bdUK2CHxzmsqtrTarA5y1qPX2ukosRO/XifHlildtVtbSotN0qrdCof5ooDoFRuOBuj0IYuA mVhzKc2UspFXKfx8PO3NKlc+d2DvAx8cIWiuFlGkavRBNcdHzorKzTZGc5dDZPB52xUt7Iai 2ReVPmhuMFpHvAIuE6cPIS76k9lxuEmB6ikMIZBDUGGJAT8pKZ3bkQVg3Y2Fm+qX5oyBDAqM aCSsJhAxanaMJTIdtrYheLYQyMHTXPyLseGsldeXgkE562HLKXDfd+0ORAvc4BQiHgztgIyq dU4jRxud6AJxcrhY34zTE35Zq3E/DuTbC9IKXsNL+wZGxOBJKZHtREbveV2Of/z44N9//tIQ 2cYKP93y/ufHoZ6roFx9/VZpemPxgreUYYCHNP0ePgRepVk6gBwC2+1QKNRO5wRFJvCDexMi beY6P5/B4V1ALE1NYWHwXrV43nOOYnpCq/QdlNJUZLFlzqtwtc7uHPd9W1QpAp/BGyavAlTl Fqr17YPeGkXC4hX66HwcGoVbU0k4ZQLkzvh5A9QsTVXj2h2KWDarD7x3pkgKxB/3QwmEgOV2 /QLOp8XW+BA0jybdeb1r8dANMHHemZVnSpneL21LkVtOZn7sa7Fr07D7eT+sVRuU8RYKGI5B veq7RzcSxkdNCCl6rtYJy/OV1TMmgycgtS1FjYZsBZd6V7nxxMYNStPef3YnhlVIiISgDiAH FN8Q0aIvOnWg1N5xXv9/5x2jdHrQ4uq+7ybk7OpNC9qzTx4gTuOHdUQiY4V6UO1dAfKWSBIU wj4vzlIorfJ5u5GzyqNVFtVxnqXIxQpXZy2pydACZy2wmCKTApto8byK0ooT/nSmdxNBnKNJ 195zDKS2pTmbhdDjVMZtiwGfHaUpvj5h2YnlF9sIwXL0zGHzlE7tnXdeT7sWCMSlRtH8pgpW VcP2MbgfO+dVEAvB3qmMqhmgNDeXjEFpyj34CUq1pm2ORbeZOiZPgXfsIWp3EDzBcv6ek9U7 jRz35XgNTo0XRgFQu+rcZ9czDKcAhcSjc/x6Pk2KJdz3nRQjOQauWrUb6IPWdLNpcQe+O0Xx psoohCUc9c4Rr1r589cT553qqM1AkGLgeRb1qI0ZIhXc6EOM2BfDrZWW7LUzGEzqcMt+ERM5 HprrZrXcFb8/L/WMTYRrOj67CKOownOiab13FXHIOwVMMaOgwMbrsjRk9GaOUe1Vong1zvRj reOCB4NB2xhLdrVZZChVdfXz94sBKsEiAyh27tHQefVqnL9q+P749eS27wQF/xeC6Y12VYm0 CShlUK7K4ypI1zQ4dewvKUuxC8qPHzmvlOhD0NRlXYZi/9opTKyli6YyB8SzVN1pBoMKom1V a0vBEr32mz+t0r7lTHN6KnKMprWu/PxS0OPjthOjivlkwL/99oMxhN9/fem/P3ZGFP58PJep b3HRlu+vq5CTulcu848Hq0xvRuc+zkJtjVKqQr/+7ZyJXgvA0ho5Z/q4wBYrxsiXATS3Q921 Z2m03t5WausCnldRA4Ols+kN995Rqy6k8NYStNr4elUQTTdnqfzx64ub6ftb72xZ01Dvk+NW C1Ltin76lBZS+SxFfWqi65KAfduWWeOsbW3SGW1+PU9aa/z2cWOg5krn4OPI/MfPX8SZi+fu c4BsLE+UKcasB5aV/7AWJ0aopaj02LxbE2QI3plBQFug+74Z4xWgd7UumYV3SpiObVusUGua kydZc11FSRMHP46df/5t43mdqqgVeT+HVc8T/dpixO8arr/Lt7q5W+5b5n5stB7o4y3T2rKa KGc4Bmt3e8cPzeezQ9mzsm/XpVEommPnspemgJSwZaU6S61LJdvG4Lp0AwssgEhmJEXb37Fa Sy3yytQPTHp8SsodKz2nFJeSM3jPsXVi/4b+9K7i/uAdMTilM+eTzrbAq+xm9srdJFYAx65e 9+dVqFdbgExtzXTvcYkeNfdFLfT2jdo6r1J4XZfWD6BIHUpmeDF61FulK4L0zh4TNch6kZPo 8LY5H8+TbN1FqbqRgldN2lSWzF42hgjSaJa/dRiDX4MHXFRQp1vNMhW1jnetM+VSOQa2GHld hb/dDpyDWhohOGofvF6nFooxctVK6cYHhGhmBU1Tc2qFgjiy9IHftYPd/rkMlWI7NArrD+qB caKpJXhPnGJBMe42RhVMBO8BrQRFeJ92Vjpj6c5QkUIMKsN1aMFy1br6X+80H8bwDbETTFI0 FvmgFb6G85s5SUvry8+Vbee23vnzvPiw4Qfzz7DNMMPuVSpPrxXy1ari9ykTw1vL3sbgeb5h 1myQaO1KDk1K1E9e2lrYanr+1toShIYQuEUFf/oYZIt03jtD/VQkMgTO8+J+mCffQcpKKzsH r7PQWsfveR0CGV3/GzFFEaSkLaPzOuKktEo2enoMrYOWDduiW4xBi64+Bs20Y5M1SpNHdpjz dNBRNcxis5xj39KCCb0P3PbMWb3mWteJIdH74DwrIQ7u+1s0cJXCz9YRw6uPLXLWxlVUo4d1 HvrS35i9etFErVJRo5MMqH1ObLDqPqiWbW4CZwzeRD+dd4w2KF317RNbn6KLaEDO8nhbbh1D rU1nbW+0EuXYQ3AqYTLs4/evhyqPjAW8bYmPfeNfprlT730wd2qkD+HybwdqtgKtjcGQpoW1 qKRa2cVvVDYspe/gTYuPIauIjJpj3DolE9/ty6Qnf7HiarXulkTIYRYk61mdg2PbiCHwsEXK MdJc57QDPvMu3rOHQOsX3U/Ro+BEzYYxqOHOBWWMWu88L60fpsR6qlT9TE9OX2QIb97/LLZQ 1gm8rqKukf52ckbnccEQQQvtcyOrjr5bGhTGdPCmwON1rpfVhraerjn2rM/gnEqteg/mwNVh QIeFf23XVOc2XbFtCjhjWB74PqPhUKWvvuDM1+syxZI3XCRZ99CM0PJEnLXflS0H9bLNTD9h 0LraoYAbQkfnr9ws1Mw+OtnAAlB8WsWIUd2TznHbVaE680HK5tceXUEIr5bf72qS6QVfwoKu SFprjd40Rw8RyFmFiM6twscZDTxzOw5TgQayD9Q2Fv8+N+w0NYY4YUzHcG/yB2GdrGgy0iJ9 1Q05JfYciSHiRVY/jGPpE1TRonasMTKlNQzcwU0AACAASURBVJ7nZVO83r1YH1rBt9ZMm+jZ czLOopGw9qsnRHT9//XzF7dNtQTTQj3GUPOmCPdjIwedE+SA+7YTa2+rsHL2wX0IOSoMOZWf wYq4SabMMJJ84Hleqhkz7Lvboqu1ONCN/puSnameue2BV6nI6LpoBlPqxmv8/utL255LCYYY A8lOz6Qiz9KIoa/v5Rw4cUuZ8jorOUeOmAHt40GjD/HtBO1tQHCknAkTil52Z33hW0pv6tW0 ATerKdT7N2zNVJD5eF2GFKYVOXKM/HycPM7Cbx83q3sAE4nUriYGPXSeUptBsoMtBY4YiTaW bU4EScadI2qsvFqjmcr4LFWRVHTqx5467n/+P/5vcfYB86R342dT1JeymRjwmg5VExvOsWLD LLDB68IoA6ba9eTfStZZUQ/TcM3Fns4QNSKGFUGuohq1Zho5JTbc4vAVadSTNXP7ZkaKy6ZG nedl7VNeGITzSrBcpehmGYIzPHzWDVdtSxUTverOp469NmUke+tmWJweeDUq1KnGteg2N/tc 1xhtTl9VadckX7x/g1fNwKv7oW3fTKmlqiFkM4/6mowxfXtDK/6ZSr6eJymmNUMuBE9MUU3s 5aoaTlIk56xFVm2qchElBXMKhKAtRrPw09pY7Uk3wL9bmNtS4vm6qGOiacGIBqdKmq6Y9OZ0 qlJvqoNvfbBt2Vo5c5yoWUtbkDG4pogjeLZkEuqiPxuc/nztXfN98KtDEWv6fdC+9bZvpsHT lW/WtibLp1ivLGJWY9vkyss7npbTvTe61yhqBGJ+GyeUsxBarwSrSbx3MJSrmLUTUVWuDnWz XrVSm4pGnaWaYm6XOQItm0nkMs9bG4OPHaJN6JovfG6cOMeKfLfpig2ju2wK4sTHc9Li6GWn 4NjyMiQC+JknmnrcQ1eHiBR0EsUYhBTZciYNbYl89wZ12rTEmTtETGghK5w7JpOk4ETrnXva zDgZeZ0aTrNNhnwZb/Curp1h0YbvW5EpUYvAPsZyzupQgTfdO3HxWUckB94lTqd2rzGE2xb4 cT8QgcfrpLS2POo4NT0Ws0gLWn0He/G1Nfpo9KFO2JSiikQMQnarbR6MAa05+8zNNqJGmu8S dgd83ve1nHOjxrNUjj2Rze3ZuhIfvc8CrS8HyRiCeIP7ulbywb8rfw1vejq/XidnbSYLEhNU qOvUm9c6OMfHx4F0oYmQIsxuovXG4zQfmaGF8wXM7zPD1UwfOYUl8fLOrVTRjDjx3nFgbk+z R6nQQKld50C8waqo62foCi6DgVb2GHmjUq9ibtrWB7WoUsh9y7l1zLEkcenW2ui0s9vMGeXq +YaVp+DpzhGaeudBIwUmYlFzheIjzRRNijEc1uaqPGyPidK1yK594AWiqkzTovi8c1QaQ7rJ boWYzdtlEx1T8IQtqRsFxxjVlCWey7vVwwZ0eE5Mkc+ojFDtnVp1Hl3wntHF+khbfKuKnQ94 P0w2/N3SpJFpi4Fu+rPXVdYQAc3vikpNObAzGtQ5N+cfanTznqtUgherFawSFbd621KaiTPE LMtvlY/H8XE/+Nu2MWTweJ3813/9QW2Vz9ud/+7vP3i+Th0NIuB2tyjbNrpNzDQsPifGyEw9 vKpqm0WDYCG6LynbxFJKfRd9c/3menoXKP09/ULrNYg+BDXhi+am6SDRKN21TTEdWDd5b4yZ 4OGqlypUDAw4W+Pn46VgSk7kGPl6amuy5az+bIFXr7QG0anXeooKBs20b5oyPvZNJUgi5v5Q unBRqsZmldbUeJhUBKgVvSpRFrafVQLWS6GKkFJSZmpmE+u/p0BztjSzTx7Wxs4o4PtgBE+Y 2IONL4k+IMGipGkBndUSpb0j15Ez3ikVKhM8scKsj2F+uGEjyqYuz9yzPjBs8z7Pi33LBK9s 6GWFXfCO2x75eRYQuO82YqYPIqJ49Ojq7OgpLXx3y5qrX1dhs6q9dptm6JSqLH0wSiNlPWVt 9FWItN759XhasVXYsrYa3QYAiRknBC26BMXV17wUC+eWjlTKJODfS895VaQPCEHNAqWaQDFR zBs+Jz94Fo2w/o8pFdbwqSTGFGKmoIqZqQJ++/iHVghWPP18nHSzY31+aA4tpfPH40k2B8qa iVO7dQOJEJQXL7Wq72D0ZZyYf04wSPzND3igNrVbNSuSq8iyfk3GsrZG/yYMbfaOYzelBU4X /jK6cE+RY9t4nhfP1wnHzm/GkokoardtmfPXl4ZTr2CMY2fLOiTo63mx71kdMJg5MgZ6jgZ2 6ANcrSmcCWwxLWvO+TzJOSxCI3m/cu7UyHnvVyTpVjDlnNYEyImm4TSXB6+m/eAcVd68tXee C1XbqP1YcNGtImy2tSI66GdOp3heOkhZ6wFH74obh+DwEvh6vTi2nT0mOsJV+yoW58uoNhNP sAlX9pIRVQO3FNcY7yXyNNPl5OVVwCp83A5S8rxK43EVPm+7yb61iBwC7n/5L/9V5s5GbJZb 7xx75vN2sx2iYekqlcdZ+HE/+Nh3fj4f/PH1ZMvaXoVv/XmOkWPL/Pn1WDt1ToycRVj0Uweu cqNh7dCRE3jHz6/XQsq+q2jhLeESec8714G5G2e5eJ6VY0traGAxRc9UtfShKpzHeS02LYaI YOob0wLcj8x//PxiT5n/9PcfPM6Tf//jFylG/vHjg1Lbu5Cy1DgNww63xoeklIhRp1ZsOdpg xjkrX/VvKcQlWVu/dwj324bDLb/9/dhNw9AWTtINw5jrpPyBauFbV4PnVRv3fcP9b//t35eI tBlN2nsn5cR933Rgrgx+PV788fXAO/WYTzZIBL6eJ6XpcNq/fRyEoKDO4/Xix+2mgoOuTNaw YQXevdWlwJrl2sdg39TA+GWadnhDouObYAG07ghBKU0RluQZdAP/82+fiCjeXmon5wmM9OWJ T8YQ9t5tEoe2WseWllgjRZ1l97qKDu/fMvecwTkzWLblGRerFOcEiCGyJkntW1xz96IPfOwb pTfOq+G8U8wBq9QdCwXshlL2PpZYYub4/s0bN7tmpcfjAsHAFDdbJur04bfPbJrp+9BqVJ2d mdelTNX9UGvvz+fLBgmr1tq5jPOOp43E1KH1Wmhsm4I9w7RxOfrlTP3z8bRR4Ppie1eZUnNq 9BsLyrY5bWZUmKxZH10XYt9ABmepCjClxOM8Oa8LQSdD6jzbOcFqMETnsE7t+fx3s4vxRtp8 3nVDnmWSPRpuS2tresT34X8apgE3x4ZiAgnHnjde10VrneOWjaSy2zRY8ISOODemrBhUPjV4 pXRi1Kg1OfJskLlat5XqLbVy1spbOWtD/i+7hkOT/7ti1bDeqFdfXrX7trNlnZwgo3OWQQg6 g3wPkVobX89T55pEzbNtdEJrtsuUKPBec2UZSnZkm7sqTTV2r2LuzD7Ww/jgljDT+bDGB+7Z 5L5OrZY5T/+btlfPUvB4tTh7ZcaitS8TVKrG2WudEchOo8HrdfFhV4x0m88+E/E0IEppDKZo 8k22aDoz0AelpvGDs1yGpKkQ5fm6SCn8Be9QcWOnG7P4tjm/o15tA6Eq/Wsvc07Imp2ODN0Y kw4uTQGo+N0xEpzDW2ulucbzcRyqw4o6s/11aR667ztX6xw5mvr0ZI7RmkxPtYF6vQ/m/S5r IdY4D51YMaOQDj5Q9M6b4mXapmfYG60oxevtd4fA46WFzM20Z18miui9w2TjrMedGHpw82aF wRyWGIzJmiVEqdUqehtyFBO19uWumcOAJ2AiVlHLgIoWTsWUq4jj918PE41mHnb/TXbBbnR4 Xy4wodM9J6IpleqcIyMKdl2vwp50WvYTViT1XgvikDQNBKfqWEX9hDivrwBsMlRYY8RSGCbb HWRTrbSmm2RONvQ+gGni5jjsOVpM7bPDToUB/s4qcOk4vDJuvMdo5RQIwzPMedmslcPy1eAt 3vde5cwx8FbHeq2sER2ApDne07pD0Bd71ao51jfjDfSzrqLFU0XvPrnvmiK0oBpsaSOlqJvE hhB4k0OnoOIJPLjhvs2Q8dSmTBvA8zzx6OY7e1mdyowMemIdOI+MwdXq2zNo7WQyhU5DrVmz AwnGMXg/FcrCdV2qMA76H2jEnDO9N97jP+3mBjSUna0up0lrXW1Plv+Cd4upum1+ceJz+M19 t2nGc0Y4cNb3cD1tW0ziPDoeT94znsFwKq2qTRE8mUoYE0hMRCpbATgtzM1whPu+qbUoZ+0q TFTgrVboMpDu6CbCUMTOtPaTDZR5Z4tSnFqfqWChdveXCZfSYXNavU8/u3NK8e7GBXgHf//8 WKnmtmflvYddl4IesGhmC7EXfdmce1XEKFiUfGC/Zf74+cAH/+b0LRU1+3uDwVX1fej3hpic o1k1CyxZzRTKO+es51ZZ7efdRH59cORMReeZdaMC9RqNt/+8i+YWlSX1VW1vKS7IURDapaPB 55/WB96rAOIqTe06AiOoYhV7oD0nrto5UgSnVuvgA/dd5cfHlt9YhyFjymgNxAdrzWRx0vum +fy8Cj8fL/7x41MLKNHvlKPWAqnbMCSTbk1hyGbjxXU4cOBXKep87Q0fI7993nldl7VPOymY lMte/HTsTNXS57Hz59cTRIgxmbmz0nrj7jdut8389CwBijfsP6dAaQZ8nRfHphMoY2nv/PF4 nrTRue07e4o8zsJVC97rRTyft13lQKLhvTS9PuLj2JEgfJ0XrRQdM2bt3BReDjuxYwyiBPOI R369LhUFxjmNqlqkgdfVFg/tbZ6Nbgg9jcF5XqeKK2ZLl1KilsrXqVOneu+cTYWMDqB996I7 amlINKVo6EaphnVrUzX9v/MwuqwZrg7HeRXylhYoJEO7BO/B0yitklJiiPHdrfF472t+//UA 4B8/7jyvwvOlqKV2TpW///gA9CDtWW99Oksl50QOgZ+PFz/ux1IEBbOJ6TiysmbYOecgwNfz spQTg7JA0XHETVUbonLnj/uBe2pv+Xno5XZTSK+3AyV2A/id05loCmyoXWfLeondVSqvUha7 hRggYRjxVbWdSinxsas48rKbIablJzj3F6BmyrbUkvX+o22kf/epXV9kNAxgdijeTsTnx84U FU4f+rRUb3ZR4AzrIoNSQJLq8LYtaTFqGzh4x/MyYaY3rH4I3ekdLR2HJIye1U7B2/Ofl86p 994RYqRW3VRzRItz4MVZPldJdja7uCputf+vVfUIDp1mOQ0r81IEAPdf/vWHzFsHUwicrS13 yZ43E9PXFYq10FA48rR7QkrtOqFpS7yuyuO89KWntMZoNqNT3z2zghFjzAvotJia82w0rbol Lf4u3hR7aSlEfv/1UB6898V8OQ8eHSCwb5rTp4NzesWW4tcmT2mPPhbwMwWSoNZqAV7nteTM E317WUv4437gveePrwe9q/ZAySnjRUXtYBNQmc/j4G3utJcejTyZtceH1SeTVv4+8BhDAoco daqRUX/Pbc/koJapatJrgPgff37Zkdfqb1a25wWPUPj7x42zVM5SSCnxt/uhebQ0hMavL0Xj psHwaVaj3tUdoka7qSy1KyvmRIQQ2Q91h+SUlltD/WKa185i3i+rynvr75QxhN8+Dmu5pljx 3d7pvHpVz+B0RHgwrto5r/PW+ptp897TpS8vN2A3GNriRn2RYGyfaBs2sAsMbZdoqxmsEExL cNmGXiow1TnRe6vM1QoGemPjNSpb1O5IynjfHzP0Hph57cmWI1+vk5HmzZaTllYjhMNxfSui J7gT9USrcKG0qsXFPSya74/nE+88R94YDH49Th7Pi5wDn8fOFzaWQ8xbVispJw5zkPz560ne EocJGlsfxKTFXrQK9c+vF308FmrkPJzXoP56F32zty42lmOaEZ9Xf4/okhmItWAT2zzras/Z oYBWtVdZtcd79PZYbpNg4opmvby2Qw7QkWRzA9TWdXCv9zSxNrfr5my+4dcNTjoBpHdF7nx0 DNGUk4lrDpwMQx2rLE3AnKQZwryjddhhmLPsTP8W4nomhX/bN+haN2UstZOS9q5fjxchRu42 +EfHeOqJ633Qqy7WEHDNkSN/0ZJdRtZvcV48o/9/r52v2glRR1fuMZscq/Pn19dS3DoPV1VY 2Fv70/rAu3nJTacY4jS82nn2OdZ0Dh0Am2MHYhcHt3maRZU/05lzlboizJwFO8elhKDXbYGN L7WLd1QLN+97cQZB6ykek1a2tlfHeFZNP99C+WxX29C/32rh8bw4dlnjWOcYtfs+BzTp7J3e 53Vpih387X4o7Sxzzp/WFlOsOi8JOA2aBYhbjjZMALy9rMtUmvM+UX1BWvl9GKo2vWfBO7Lt 0H1j6dHm2Ot933hZSHPY+CthXfn19x8fZAMPSms8jJQ5Nq0Hfv962MLO9/YGaeiDEWxAcNAC aKpKprAT4RvEqUXR1E6EoAP3v/PXOrtFxZYpRJVLOe2Lc3wXRckKrrnQUzS5pci0c2/JG52p LtzJNgbvVySao9mU7+jv2x0MJt63rISWgTBnqetazrM09Q0ADDvZvTG6TpiaQxycaR/EwOs4 B+6ro0JBisvoUb0+02abHQrQJOcovenA/+jsEp5hF91o3i6t0preLnw7dkKoy0lSW+dV1Yly 5MyP+02JgevSi2piAPPE//l46bgvEbxdt6g9cNABhcHzulTSHHxgC56ck9KOgNggH/8++jop 0smSfL/OQojaCUx7lOc9DQPRfldn2UebE1cWi9Z6Y8/bijBz9KlHp1foJb6X8uhiDFkKy18A rMuI58ue7tXbvnHkrGokWDDvEMUvr1L588uwEc8aCKy/SF98tJmx3ju2kN4n/dfjpVMb9l2v kzKZUW16Qos5PeeOVKNep5RmA+8s7xgxo2MulPQodf6esYrFKGLCh6SX1poOzo2+BJqnWY8m nKk1hhocHUDSEHs/8tKGOcvJl2H+t2MjB0/pg1/PF7ct4bxulBg8X6/XEk7eP242VhO2PSkB wxym8kYk5dt3yVE0Gph7JNiNySEnRRLH4CMGRFR42sfgeRW7Mlvz+fsK7+mEVbRyjieZgssu wt/3jS0n/v0PBWg+77upawfSZ1dj+IKxbOmmV3tG59+3Pfz+87GsPiLgLmcD/FjFz5Tdfr/q Wr3kyfRohmKZr/u7NGj+LmDpwde/66dy30ElWddVyVnF/F2EakrdPjT/9zH0pmf0ez1el7pi rNKfnEFp3TZLxd92o3U7V9ErrprJqbzh1aXpFZdqtkhku9VowrYAbihb5rC7U0NYRdMctRIM Pq1Lr64Rrbe+JFnR61UhMQTDyGfqUf7gPWteD9Cvh87oc+590+VtT3o4nXtbki1KzD86G0D7 +ODe9QRALNPAZw/Q2rBcoOFU+Xa/oNY5iiQn/dIft32N27jMjpOiEjfeN0rV6zu89+vEB+9o XXi+Cl1U7SIiq9DL9iCvPgz9mjPQWNeCtjEownLcTquxghn6MrcYVgG152zf0yEmD/M4pR7t lDYjNKbaZTZzKXjAoFSvsHS0YksH/k3pk/7d8yoUM1OWqs+cYc3t8UFHh82OYTqFJvUJ0FQ6 obP9rGUrrRGb57btRFPDfB+zPiFtNZx69uD+4v1/PJ4W3lOEaM4T428n9t67aAtiLdJKjUNn uA7pZFgX0ZSmhH2pnRTVWTEvpZsjtGaV2Uygnwx4SVHZuS3G9UImaeHiHD7caF3wXj1b9zkY v1Wu4hbkmFJgT0rxXrUSc+J27DjHwvGr6eauqozaYaaB53m9C8Cg13mJ83TGkhKH8E5dOen4 leyC3tJ8XVyWDm+G6DnbeLPqn7zmLEincWN87z4MGdTaINBFRaDM34PZypqs+sJ5jdJ9KKGz Rb0Xb98y903rA4C4xk6OsYbyBe8YnVUxCkIX/cWb3RQ8i5xr6cIxwYO3IqPZ0CGPd9/v8Na/ G8wF+9vHna/zpPe+isjLrvD8OPalYdMZd1pjUMVuWQg2WSJwO+ICQeTbxmqtIxZOh/Wq8wqx ITrEP9t8HP1eHt+1vcxRTYHzcpzm3w7cIVqUxhjJzq+BTCF4biGvAQrP8yTiDRSKVHRDlaa2 a3X22l23eEJSynjq7p0BOBqtkg1+0ByfotLaYv8zmpiluROw4q4qWol/G1Pi7GN1MKAuyG50 IsC+JXO8jPdA3fAmP0A3wxwKBKw7x2RAG9qn+tLWXNWZMpyDr/PU66Sdx+2BUgrP18UZg928 WNm3ZJtgw2xkjN75qqppn9658U19MuuOX4+Xnuh904sCHHweu/IC27YQq18vZeeSoWkxato4 clpw8ZbStykaug69NS7e5v/gHTmmNWvH+8CwyU6637Wqbq1TrsJm9Yt3jpj8atmadVDRBC2z xhLRywr6UKDp2HX8qg4etLtyvNqntxit0BS9890K7YhjzRLvfdhtg2pc79uEIG2hh4agCXZM KXKcVKqYD87SQzOyQ0+/tihOKx6i0xz0+88vs0bHpf+em+fn86nhveoD78YujSE8W1u3MmO4 88BGmjodMpBTwIU5X13HoCoSqZDnnJSsqQackzfBYQTL95Q3rxGpVQ0Js+e/milqbSO3MXDd MHCrk1orCxwJNoAgpPgWMgZPCmpl1vvYlDzJaSeEqNM0e9fJ1lPl4x2f8fhL5FUq3LAKdMSo Xg8CN6tfoo6w0hnms5CJ04e+2YSnFEgEIC03RjdOeoaxYGkC58nJve/ulgkMaMh3QRWZc5Lj nBnXe+N1qhL3865TlP98aLUrToGIaZWetp/JjOnY67C+wwRKSuv89nFb11P9YkqKdGzJKYXX pZFEo9x71u2Wbdw5LLBqi296c/T3uO1aKjLrHYNEnbNTNubtkxVX9IXfdq1hbvazHrdGnuio dP5iAUsxIk67n1Z1ZMmkcs9S1900Q2TZaXprNEsJpTab5WM1w//+//677Ckt2G5Cn733ZT/W fKyqTezE60mZc1b1Ih4ZwrbpFdEiY72AaL3ws+hg3D2nhUWLzOrYbnn81iZNPXcbfdUSc9ZN CPqCb2b4X3z7bE+GFl4xzMEIza76sKKU97jwLcWFT89Bvw7VDEzDxNTsA+vku1mhyTd/nHsb EL0pZh82IiR4z/M66UP4cTu47TvP62RP2eTgogIL+54g3G8Hz9eFMFaf/f0ZdHafLGu3Pnu3 Nrfyzx+ff3HjAiqMFGFdMRG8X2CAoH2r+rW83efpwFgqZz3o1aeJfhBMaDnzUk7JYFJPtEEA tTX2nBXWROhd26Ajq8b+VVSjPnvgMVgjRKc+bje6c9qe5owVvWZjCv2VNtUZbX1tFm+nRBhm t37f1zb/TBlUtM6jy6DUutRB2ipqlJnKWHjr3K5Sl1tVxR3axeBYc2lf10UMOqumF+U0TrOB z3Evz/NaXdD0AGg3pO9gDjqa403nEKQhWhg+XudfWEeA2LoCJtNL5q2CDUAIcd3gq3+J9WDO KafufTAESWnGarPVvHdWYMHvX691VUXe8nKUnHbR+5wLE3b9oAlPbjGakUC/W5t3joozZNAp ODQvzGuDyiCh944G7wnWOjo358w464e16r1qw9mcO8DQsmlQaKZkMSo0xBW+JyWrHYIOJVwU MprXdaabUwep9edqb970DlRRd6mqX1W/7tDBf8h7UGCysa1iESww5wl0W3c9oM3UrgMhec9+ S+rGsfQ7w3v0syVw7xsL1s4Y3y6CsbCydrPobb7TJjztQq81hzXgfeAyODfnyH3fKK2aMFJP Vp4L3Dp/PJ8KfDpMch2IRJrXRW2Wx1sdPKQQ7HoMnzT0pvTOhxeVZtCs4+17HyKEoY5TfRa3 RpAZHrU8dqC3JqstKfLjdhCd41ELrauj9GzduhsVcWxdK+7W9TbKbcu0roxjfbwQhGPL+DRV PVEngRjQct93jn2j1Mrjdeo6efWrTVg8xkioOo1aFU19efbWbZebFoYTI0nB08UIl2CIkHU7 +mVRwb0Ot3kzV5YydUPY/9J71exCOqcmQxzGjHl+1cq2ZT7tLvDHeXKelX3XayFlqDKkmVZd ulqGvHNvNC8Eku5QhjFNvXWG0yjVgydFvSXKObvWsg2qnda8JTbek59SSmxz+E4pawLkcO8r LmPwZJIVWfo7fz5fZFP4ZKsx1AfoaE0375xrP2+IOItahX3wy+6sKqXIEHUGe2ykilGmR1bh xcu8a3PiV63try9A9LD1oQxlH1rvzKu/Qmh8HPl9YC2Cxqk2mTpyteWIqSvtHhDv8Ra+5p9Z lerl9aIjsswQ4WfbgvDPz08e58nX64Sn5sPPu/amr0uvzvpxVzZqetmOLSPA+bz+8pkxKsAR U+T1MjPDGOu0OjeM4w54bxMdt7QIoTpU4JCcbSAVwzHvn9ORpN6UPdpd7Dnx4+PgddX/r7Yv 23EkS648d3V3khFZ1Qtm/v+jBOhBUAMCpGmhW52ZEaS73830cMyuR2IwM08TQKOrsqpIBv0u ZsfOgn/8/EQV4Pf3O6IP+NgPrIliSwyh44Nq2YaXuXBzjByBClVEJJN0sle1379vhLMNA8kp 4nFbp2at9YamhE1y5LhAj1Jn/gxt3DgZtcWRQ8TRKs4v1Xs0s34mFzjAMa0ggGREC6OHmzmN 0+UgBvySOVIqcItcwedZIAAetw1LTvjHz0+cteLPv79jywu+P1+XarNx8J+VUx90cLJtC7Pa 5bIjzZEar64RH2YxWpWSnHUOLrh6e+FSnyPhUhq63rFrSpCEyQF0uMCdHKNSv9jGvquitHdB bYV8uxDgx9WqWa1hC40soogtEwgqzx3PvQAoOGqZqVSbQqVNgZTgA27LqimPQOtxVpp1Mmcc Pl/nJLakQJGlc3NT0xDRcI6F+EQ8K4XrPDE4MoyRiQaW6teVKmTGuLaQaBUChBh/UWkw8KfA e+Av//FX/I/fv+FxW9GfhBvP1hC9xx/f3/Djues0ir6tAuq06NaQ0OoVrd2PMntniLlYJpUe aQ+ufXwAICHQZ8Wxoo+IqI2edykEdVfLNwAAIABJREFU3COvCoMnrfU7C+1UsHIH/XjuiN7j D98ekCH424+PiSccZyHm3Yd6xmMKL7xXRivY3p61Tknyfc2TSEqHijpdsT+eO3KO+NO3d97R uBbTGKKy48oCLTiM5tBV35+VrGIdgiAzLzf4OVxy//Rv/y7M6uRKOpRCO9TW47fHDSEEPA8m LT706D1rw5rVMVKU4dq7CgSpTJkWnCHM5COHXz3rTjXyp5FBnHJpOJBX5wleVK2GLSHBPOot pbk1UqlYjHIx2jTuq5jBfNdKrThLIXExUjJsmvGzmVtExPMsRLIccJwM+llzQmtDWb+s6E1H 5pxp59nS5hSwH3UaDT+PgtaZwpQTF6UxZX/xlHMshs9S8NhWmLc7+3M/67AYArY1s6NQUKp2 +uYy2gS/XIcpBXrDTlxYBypLYt8rJ6aof0kBpfBetF0x9NjNkYheljCr5P08YYH2ADTTjc6L WStK5zAHDq03tNpQVDgAm8874K56dShgESOxZREN9PN0alxympYopbA3p/iwo7Ywaxbnqfu2 3tnKt2qMIDVo2M/K91Zmq/cdgkt7ZtTo4MJ8b/6uGo8phHPXhbImCF/bKwD03LkArGMyMojd 24R500yghgNu24YlJVgkSlVTYZu5Ww3ERUJWrfR+QdQNiEwa5N0dHDTPzFPbBaeDe+3do582 0ynQoCgHfnERZsh7iQshXDyGWBgBEo56Kwy6SIgTJU1Q7bIuSpws3I3eQRcj/2c+MRbzJYJZ C4QQ4L/QmrcloTTujKrgSowBeQ0IYWENNlhtF73mFu2Jd9Xa25BpedxJxmgNR2PQnfNex9AM wzNiogxBhyhX0HR26qoVPCHUTkWL+dQKcKlqFUZeMmcDXgEh78Pk6cM5LYaHatzIYorq5BUC 06Cip9XpGCRoRPNODQrQy1Bxnx7Fu4bPv902JO9wyIATz9FiqdgeNKVvbeisuk/mjBH9Y9Sq VAul3hv2QssNe4gWAWbz9y6CXT9wLbQb+3bb2IuXhrO1SSxsY9CbpQWlCJMLkBLpSxBgHxbr Ze7KLAgtaM+gTeiidT5g0QnkUIZsciRKWl+fUkIKVM4WzVhd8+CDdB4BThW6VmjK3ADeO9y2 Be+3bXYfTTdN8B7FgWpgRf3sBO1a6DGoOM6cV6JtxKCdOLbcqggO3mMLHkOi6tmVBWJHha1s i5oOkce7UXvMBMcgvdoHonrBNRlAJ1TLsV/CGhVn9079ZUnUb8Jhv4027ZceEIRqKUQN7/cN pXRVlLCqr4pU2elhhEAZgiRex5wA2kWd6q0jRK93adQRJ02OhkB3yEWTCrgUuq+j4HWQdQIR iAPWlPHYVgDs03cRFXuc0ymSERvaQ3faqdLBgkjafVnmKVVamyogkyuZeDNEHfeGgKHooQjU dEAXwzCQCMrn43s+bitiisiq5BEIovXErarJnBnmOypCwKHNvDs81ExeVCxYO3JU3F2P9K+9 tVfcupVB3L1Tlx69R1T77uC9zoJ50lQ1uF1SxhoT1pSVLHnibFdiUgx+zojpGsUvhzYgfNhk yjqEnLBkE3Z4Mn4r5cFOX897h94xH0oSi+7ok28ALdaG/nnRou++5TnkkEEwJ+igx7xkTYPn 2hWlXTU6+ygNVR2pYwrqniFYl4hSO16jIKo3gNU3VBPpyepIQRMMeBCNi4E1j2sNDnF61EU7 xq20tjvFfrnq2yQbWvXXG2fXa7KWg6Z/ImMa/hpOf5RzFnx29+Rslp9XxilAHptV9oR/qT/z ME53vwYnKv5bNDfVqvR5TEuYrtAOmFw5CD1czKpziQndDHlbV3EFP7v5uDo4LdRUN47rn/dO V8scWeGnGBWlJNdgr4VYgFcD38ia5awUddoXZfCvxZq0wVNvUfu1AVGbdB0S6QarvannjKel mZh4U23WW1f7szE/b+x6FKUUrwJMv6DoPUI2fTfhxCUnFFexn2ShDBDssMFNXDVcDu6aLQPY PAvErOrOqqwYc7OKIWDd8qQKC9iq7bVMYR5FkZoGNTjqveWE0TtaKThbg28slJZMjRyRQQfp DW0IGsxET6a2S3AxfeHooecAHK2R+//l96DNCFsy+6Ism87QzQrQlMi47htNgfdSkDTZSUTw +TowZCCFiHWJc6DT2jWE+XwdyBplcpyC0zaITge/fzwRopkX9xkOYNTqoEbKnMLRkyauKWEv Fa9ScFsy7roKn6/zMrbX6dFZylSkmhHufc3EvwcrRHNrtg8fIw1wRWyFN7x29vxZTX9YuXLi JaK+dc4jrVkxbma/7ufQ/DWeBr13fD+Lct7Zsw/hInz1AhHB8zjx/rhjyws+jwM/Xzv5aj7o VTM7RE2PSthLwXFW3NeMXYkbS0pqe2b6eA0aqB11aC6891iXBUeh1vx2M+n3pXTlZuLr9VV3 XghKq9JWMF6e9z9fOxYN1bXCtbQG2SlxSvFyujLlMSd+9OYzu5ghjCrLMSLWwR1Ly8uKcDjC jKOjVVbkX6W/ySRGwpMgBc6IXbssNt08K4CfOlYVlTxbjKXzQBuCx7Zc9F/F46syXYzNepSq 7soMBvQR7Je14BRP2NgePqAhwNpS7fsJbDx610QNfVE7zpd+WV9/jrNOM8Lf3h7TnktAnlz2 pHZ9PMlDN5+4Ilduytt9nbQvxoLyZNhPbpwUmJxR6gnvBWIJG4JJaxYR3YRk7kTFQ2TI9Jl7 21bOKXQiF3Vq6Ul2mIAWwxaVLlUUEo2OistDEbKgcqCzVHhQuJci59GGIgXlsidlpvpBHXQI Y1KFGX1Jp0QqTxrNgVW/LboKjYPmYwBA9cfHfnAXmomQ878crQZNfilJpqwZdDumKfF+oL0G 7osmUgiTDhclcnThKUPmDrnsb48Nm9qnmSZgCPC573OCJgPI+VLhmCro/b5hXTJaJ9ulDwH8 IHI4On3oHd+j9zFpNwKykLyOlwWUPA2dUZiVyuu8/t5qMosHNbZOqZ3a9i2rt58SYKCj1RAC 1uUy2TGv9BjD7LmDGtEWZbo6MIPlqA0hRuTo4ZBwVO4Sa4FuG92Xm1N340YItI6r6t7Pgt4H tjXjvtLT5nUUvErB27ZMN0krMvnliOaQc+zYle4VEWbLGBMZoWe5yIR8rQUxeqxfct6OWPE8 DsggrvDQmMzvn20SJXuvOAsD/IIPtEzRYjSZqqcxzD44ukflSJuWoexVGv4RyDrONiVRUSO+ aXlutDQupi3naYnCYJ8+826K+gBa0qKRQI1t433AEslonswZ2yU5xGkr2VTTDAFuy6p9Zp8U aGuzQgjIgwxYCIuJAbpE7oV5YjlFMjg7J3nOA8dRITp4mEYC0U1oN3lOi2IkY8SWs3nM2Tg1 eI4NAahbFK4xsfNzTn3byB0z2vV9NXPEjs/XgSUn8va8V/h44Mfnjn/gibfbpvc4j9/bmqeZ QGs0YRCHOSU7VStgGehJe27vLz/bt1tQYyLgLLyXc0pzugll3RodC8Y57OSwM+WJ3/PXqVrR 6A+GJHtN5aABY0wR3cwgXqViGQOwfDadaRvPaoDOiUXTC7clYVG1iLVKZx04zjatwp1wnr6f 5IidjUhTTkkLFOiHZzv1uG8z4IfMmjbHjc3kRQJ0cCLYB0MEROFNG2M6qI+Lu9oqc8RMIcz8 lSVdjpi79sZXnAl091LB8nQnbusyYzP288RTGS88ursWYm62nGdteJWimnUttkKA2YA451Rm pYXdF87bV/zce/4WrOY5CFuXjJvy9T+eO27rJe7Ic27SNbK8wfkwXTdPvQnjaB1diQNdGJFt P0wsZsoDiXYyJTRDBKc+oDEI5pdaiRGrlkxkzNEgMW6diYeApiNaSwqO6gTFcS755q7jF/sM gIvJRJFjyMVgwa+eLmZJYou39z5FGK3xShpCJmztHdB7k07RfEil0fZ0WzJ8cJAu+NwP7PuJ bVuRHn7WBWMIPg+mTr/2k/1z8KqwGdPz5tRRrHPpoma5y9SATpmXmMSQ0tL6DNyzRbouadLH Y+DCiTGgNa/WLw19FIyelVGkxzspy2SlnidpSCmzpxudjNYUI1I2+FULls6CJPiguZ6kBrVS sOaFyhD90Eu+TPQFJscBzlqw5HVyv7o+0KzxIVXdJkUslN4x3iOSJMksVOLZrY0J3ABXpFiK tC1BpA7/dKRCpzGmSUDvZlQcZu6Ldw5jDLzdV+a1HhxsBOexbfSLfR4Fjztz4Z/HSeMBPdoB 4G3L2EtDrwPe0ZDIyA+7QqK3dYFZvexnxRC2WkaSjAqfLqqRF+Hicg5Y1bWzVGIeEI6obWEs KeK5l4kamjjS/et//l2KmgG5wHQE5zHtuI5SATis2ZSTfIGosiOLcd6WBQLBx/PAgOCmacBm Nmzihr2cenQFHGeZfLj9PFF71xkwUToO/d2kINuHtrM7RWrFhnYSdoTyyxsa8RH02FQbL+8n k/ey2ZI5ZeOolGJAm8MfpeEsRYGbjFVTl4wUypE0R73m5/a4LfDe4/kiJmEj4tIaJdkpofaK 9/sd3tEn/+N1oI+OrA7ZJrCw5xEdPV6batIBagZ+PndujMj5uwya/b9v6xxMWVdyWzJdoPdS kUPAFsOcEXOcGvDHb+t0fDxLRa0FzQ1sHEjBkhA/XwdSCrjfViSn49Mx1FXBrgUKD4K2hCNe IXVDjEHLtnAIAwXWJQN6QlhBZ0WQwJIPAe+IjAfvsa0LmbzqVlFKRRuiqKNXKHZMG4/bmoEI 1L5PEElE8LEfqjrxgMsz8mTX7iXnRGtxuWxEDMKm+INEExoLfMEvnLZPw0/Dh9bNADlwhh8J dpmUefSOrgMbhCv/tbUxkdJtYTFYCgvnvVTc1kxUUqt3GcIMFwBzKACovad+vlL5xwkKwmif y2Ojqam/x36caGPg90TX4rPWOZMWAVoc05THx4A+rthrmgGo80JjoB5bJE7ailxWo9459VwD sh7tVnyiNwS11Ibnsd6hU6cxAO1CTMMNgD28au4s5tsKwVvm8Zm8nymUR2noMmamjVP823k/ xYZjsDaqg687BNM6fC7YIZDO4VLT+kTGgAu8aqd+zrkJXOUhGFEtSIbpCVnfmBbuvqqvD0hC ua15fqbpRWCYu925RWlHujlRI5Gt4Exp6rCon1o/WXitmVHZZir/KgWlNGwrp3BOgQYbcEAL LwHn9TkFPG439DHw9w+6TT2UQ3YUFoo+eCx6CsCRD1cbQwdMFMBVT+MAGxLVVnBbE5YUmMhc r9iMJdJD5nM/kGPEH9/fELzH535AIHjbNrJ4tXDyKmSoOiuIwePPv7/Ty21o8YkrXgOd1qld tfjTaCgEtWfpKoMWdCewKJCz9KmwMZ8ZgMG+vII4uKI2YMHnc2exF0iysADF10l1q43x7VSN QzVrgM2W6Z8mSie+rxkfrxO1VlT9wNu64LHSgam2S2NlrNVaSSxcJcEHwCvwIGQYI+gsO3xB 02xmbxwwOiQCYxDqXFPEbWFwkA8BpdapCoEM+OFgZZxp7BJEQ3I3BO/x3HnqbCt97uCAb48b wu6neNCSEdgZ8PivytCJUW1H9Mv7PE78KWeYA8TMWXdXAE9vHU5ojsSJIO08lxxnP82rgifd 6PSqMaVp0Nm50a+6CJywQ4mKpVd9rSECp6ojpk/0XyZ57BIE8eM48e0epvX1ti5G44aMji7Q UBvVQfehc+ioxw/ml89fRACXEMVkPswWt5TC2gY8ms6jB26rVf4cWLzfbhMvKL1NN2Q7iX6x BAmcZoniAjIEoq6cNiR6v29Igf7zRsCkqoTtmLFXAHqxV7P21GFNDgFtCEStU1Ik1eksjcc6 +NcWSGD5p3SccLjft7mu1yVNXxlCzYLnWdRgWW3KtbOBOlUNsBVugzP/1U5mdwFMKSUsun9a 64CTKU87TvIMWeh6jNIRpTPpb+gZnJQjx6oP2PeD4sJlmXfgUSpc5dB/XZlJYrGY8EDyce6Q +MUy8ywFTRRC1aJszQENrIRHirhvK2m+amMdgqdfnMhk6jp/WZO8zv3LEMfNnlw852frsqAo Jm6xGU2HQ02HQF7Hp1S1julijaZkDnfRuSisdPDBI4G4vofTgAQuVoO2exJdQFeaRWkNpRC7 IObQla2jeTjKVBrcYbNP70MQ1KKFwQCq8TOAJ3hNyxB4IZIneh0V1QqmyGFNXJY0hyjmE157 m8lKtzWrk1KYM3PnNbNbaTr7ObBmAiN9CLzGEp6Vb6bXsNKtrgxSBgb1q6JuHalenjCPdcHz PAGt9p0aD8IZl49ol9mOAJzvt0HSpUGvr+MEhPc/ADw1iPdP394mg8VGq0bbssgNAa4AnVZR Sof3SvjwHv/144Nu2EsmQok2la4C4HM/dfTcEX0jOULHyk6At9tKLzxdKDlEFCGPsA6liTkP 52UWmwDQVAq+6PtY2gTNiOP83oF49edQIcdf/vPvcvHixnQkbtombNvCNgHQHDDOtKNaUH+8 duWcmYr1AjzsIQTnJ/Jl40/GZUX0xh7WiZL59RSI0dPCU2sOw/0tKcKKKSv0OPsnyrYfhFa3 JeF1Mp+N6Q6c06+aWixD8OP5mowY+5m0KLipuw9aNRs9KSsE++Nzxx+/vcEBeO6MGE0pztPk OM5Zv0Q1dCItXPA6K8EZBboGwFoDmLQrTtry/GwxBOzK+nm/3XRM69H1hPl4HWQL+Yv7T6MD MmyWlClrGmNcx6OSFh0oK3pY6uLApB3PL0eELFk9RoyWO3rHAea3MD1Rdzj06BKSC7tahqwx zSlRqSRM9A4Mz1Ogg7FdliFKwyAgBEGMHmfh2FYG1LI86YkSIZrHtuY4r6iq1iV9KDXJk21r mahicmgRPdXipF3lqBFmOlB52BSxNx3bCsrO9jV4plRexotUEBlVfNE2lUodzgbI4NFRspoh 24YzY4RNUys+9gNLNLRzQOZpNyCNxd9jCyil4Xkc8D6g5E59eq1d78kwHyj9URO8yoG7Nrbe +/lgjTfHq5wolllsborBGskwhkgzXhnw4jC05en98nQ1rpxzyv9qHW83rvzKKxoWIS3AJP8x IQkIUXesATedi6SNjrNqsJ1yAGhzSiDHjj77/6+jW6dcvaGTNmXuM2Z0W9QGvaLpgnMgjgDB DNYzNK2JoI860bNFZwTO8SoJ6tYBgcLBZNjEGPDbg9frrv+cKps+0UuKMTFt2WjFzt+qWM+v J368mCbsnBkon/UOJk+sKXNjEiOUuCjCVORDo7ZC8Ehe5t2EL0J8I0sOISnf7Edcst60TvWM uS93LbRCoEvkliKy5oxVHa+KyIRyTWRQOj1W+hD8drth15it53HMydZ9WzR/9Bro2OTQgURK eE/HC6FrRCl9OjUajhGUPm7XgXOY/06OpF45dIhn+pKBP0Z4GMr/45QtItYO8UTYvHf42A94 72bCNCFXtsmld0TnubMVRl1yRE4Rm1NFkOPJOGKcEuto9x/pUp1pSMaDV49V00U75+CGPXwP uEgD/S8/YiE2nmpOGxU6tc32ouQARfaYyHRpsMzE0DnAS8CPj0/qzfQInH5wraLpqeCdm4nJ Q/9MQCZrylx8QMHrLPC1c5Srn9t2NmDtLK+OoRz8o15K1mTc+NbIRhlj8uTbGBhNZs9t3ATT /5fWVZ/GmsdGyEZscGA3YoHC5tKZosc/fn7i+89PLDrPiIHF2f46cNd5/9y42r3ExBSq6Y0D 1lHeN9KlcqRnehdhwq9qq0WPjCE8vlsbOKTBn2W2YST8Y1aVpWk/rQ9eOs37vFAaZAZEANTH nAH3xDQoVOjHObuDX4J15fpLp8ZC2tJjVy9W+sE4PeYH/v7jc/b6trvCly5lSoq0lTTyiD5/ nFPaxGN4QCY86kPEXhq8nhCUTQ8k0ZmCcgZab3OsbGoWerZ3LClPdNLEEVZTipCcUbZN7VVJ o3ICzdi58bNbjz4GaqMm3mzajlJmbk1rDcV7xNu60ExAH9pQbNg5Ilufr0PvCt7l56uiMmgS HhzC8LRjeqGhUtGTJdIMglUPtT4Il3rv1DeVdhpLCgiCWZSVUvXPyULt2lkwH43ol6F2oj00 p2bss9nGBTz3A2cJOgxhmkRV0j9Xf7kudEW8LG5MQB4/5HK5aI3H8W3JSDHiU3NdYmSvflbG nRl6Z26XWResDwECgjkeflLBah8Y4rB68hG4SEnSfGzrVMGchX67zjNduelndcKFF4NDbW6K MfaTerllSXhBgbZVw2+Nex7VYdCOHdGxpRnqcrhBGWyKER+vFyBAGKzIbTgQnAO8crlFaAWi /bfNh811ymbYTlGq1ni0dhkIIMplRD8btnRNWgCgKFuYLsdOv9ys33Q34Z4n03c/dob65MRT zNOAAVqQIth9yJYyJzpFpBDxeRwz/4xKVlKSXePnsFjs3Dn/tjbVwohI6owI4YvUSARdLpM/ 280hEMZNIUwyyW/3jXq2/URRgort0uCNkdPnIs+J+W9eGUzRe87T7UVH71gX8slO5Us/jxNm 4wVRId7gOPK2Lpy3O9pLD+ERYhMfiKAJj5nvn88Lc+5DXaQvscESWYB87gc+njt7a+1Jrf/m UINRnaUUhBRxU6eJ6R6R0gzsHUPw8/maWWtmm2ZX0UuzTqdQI4bpDWNYRBsdb7cN5sPhnSMq eRZsG3ntm3rZcb0EpXddYArDkMhMMnKnm91Nm9x1S07kycHv8HM/5ucXfV3vHWpt+P75xJI4 mEqqz7NFP0DfoNmV6BUEALGPMSdGosAJpbscQeZEbZjRqOz+p7NCw1lomC8GgWpV3Rxfg46M cWLk153sIJXMzVor8pLxh8dddymLkCVGLZj46ScaNbjrE7h6rRgzI4UtZzXPvVpQIxL0LogB ygCm0MM5fU+lIw29jy0g6LmfEwz6dtvUj1UAEWxrggzg4+Tm+KYOVKeygUwkcpTC946RJ5Ny 4iy0QAKtVMzurDaPFsdst3KS+f2lxAJ6W1e1eRHEmQfP39WMGVZ1yu7t8rqLvXdUdx2rUEFd 02LltmZEAZonGkfpkyYbKv6eYkIMnOBAgOBlzp6Pcl66cdCWeygoQrqVw+skp2xTo4HWGkph Re4dZuFnbpa1ErY0JwenRWftDb101NLQbitjQdXXLulKt9hNKD4hk1nrpwWpAKidUC8NDS9z xKG7lTxzPoThrrw3xm/R384qwt5Fuwx61hvC2UfHtiaYc7Y9A1LEGs5CDh28jaZ5EljB6vTk GX1AmYh8HT0RU4r4/nypoaKf8Hd0joXNftap4kh6RE6znOCRQkbt7JvPQrYIZjYqwZGuqpHW zaWCEdJJp3TeelMrokqdEy4iIlDbkqHJDyfebiuakENmbtTec6xo0yx+gYIx4gSJujJjql43 qw8IXkee+uDpZUtAyVnvHAIWYHLKQghYHFMSaq2kSGs1vGpIT04J3+5uglX7SXVM1oWx5gjn +XAtGrwqw9Vr0UbKNPEQu0ZcMDc7TIeK2vuUhHvnGOup7hrc6QIRp7VSQnB11k1WrEeuzgtt c47366JqCjoZ+EktBoCqdOj7kvFCgVlyAVwHxkBlz5qQQpyMEVsIS06431a83W9TFx40dsvE h0MpTq53eBcvOVXISniUSZiI3iFrwD20jRMYhBqJKwCzPuEsW9sof9G5A6g25dzfs+tQO26b /vV+2attycz5AlIkQsbThcMhMziwXRkUVwhaPNrksPWOoSzfpFdADAE/Xzu8dlNZP4dp3Zne VNBVEQM98aybqWPgf/7hN7TBBTXjPHal/uYccfME9q1osFiKvXf1bmUrlGKaA5FdV6cMHSro l+vFYc3rpCQbetYG+/QM+TJb5ujOBir3dZ3uxd81ZD4E7sgQ/SQeHIXjUvvv+NlonW3CgG+P m4oe6GtDKxEd4GCw6HNutmq92/RPVHVDU2ARhV6X5cvpQpiW9tpDqc3czVTlFpIoTZc/2S6c VbgQkPXhO4DmhY4FZVRJ2GNdJoIZg8dABL74x+f8JTUaQPcdLaiFaWt4nofyINr0yolj4BIi eI/SqoIrTEzKKaFA8Xk0JVTwAZRascSAs3GLL1pgFF1IFOi1KTUOwSMNzz5/0FrsUBZsG8qT UwQPwvvRWpUl0t+0lIamfLQrFlswPLEAMwY2Tt1NRQ4zeAAAslqJWuaMji9tYOEd4zeJtsUp SbLKO885NYUY+0kZNydxphenioXXCDl5IfIKMSzDQfVoAVqoiVrAsNaoY+C+rQRyhqAKCSxn bZNaBT3NgmP1H76Mwc9KQYT3RPFsscasBjZBoS3ro71zc6gQKr/sLgNQp8qKijGAP317g9eJ lbUNtZGYkWKgAlRVJLclX2iW3aXeo+trD/GKJdM4YC8F77eNXm/TQ5ZUJuqzNZpL44guqhNJ BVtMtPXoF2WYizZChN6qpTQgA0vkQvqaydZk4PU6EVRSTSuSEzWyzRIwS4WgD0+fV6Mx07Ys yDmjt0bGi7a4Nhp9Hee8Vimd9vAKDbeuDFgVa5zqlOUUqx8QePC6/f7BjJYlXZCrZcychd50 mFC4XsH//O//S75GSNg9ZBTbLU3C7DQDWNSYqHU2/lY9i67+H88XzfW2DZZrQiKBqlSHIAYm HkflgO2lTK7dz+cOOIFTsy+73yYrBhdm3o1Jo0G2toOCu4gPPz53LCni2/02YVZ61bSZW2PO F0Mw0xOMfWuo2pQ+aQ8so09K964L/64+t8ZEtSzUpi0TC+fLUWMaDWqRa7iyjMuXLoaIn88d fXS8P+44z4L9KHi7r/h4Hsg5TfKpos9aEDqY1XmpBLwe68IgYLoJ5vlhBUB0VEv+1+cTTjjI /+3tzoevAkdbLDQPomN09B7f7je0Tirztq7onUZ7NmBw3sOZStPxvo49wFKQW2vqAOXYpxZG VqZwec+KqB9qpAi/NwbZGjBDdWzBh5rgi0BbwystOUcK+1q/zIiG4u92iliv/xUAskXnVApt x7V5z4cQsCTWKRYSYNTpFMLJdWTqAAACR0lEQVQcm9qu/DpTEFtU+pl7G1jzgtuS8LE39Nbw 2FbOE4bg22NTHTzDla7NwKtry+y6St0n23lW70chCGLYO0KAgxD58mEmHwwdmIgel3977vCB yok1p4li7QV47jv20hADe+rbulDNUgqe+4HXfuL39/usQieNKgSdfbvpjeoAbdPCVKfAkZLV +0DX/rppXy4CjkLVXQKCOcXznq7WKUX8fFFvbkVOTixYs1qQ7KXymJXrhPgC1aPqe8UQMFRw 6Bz/vd4afjx3pjJ6j3XJ0+jodRx4nlWHNab/D6pJi1AtKF4nDQZ9CFhSnkOjVb1mrSuwypzX toNTf1ybT0SVruUY4P7lr38TgwnhML8UA2haq4iRvPHWiBBZcrJRq5YccV/Xueudo2NF0165 D3LnPfwU8ZvBr6UyP/dDLbkDSiG6ZJCv3cW2AHjNcCEclTKipL/cWWhEzEGNnz3983Wg1jq1 Z/SnpTrHAA176Ivml5kezoYvHtpFTMk0N4FFZ9liGOAVQfM/jkqN1nVbGXdSFccYWnSKw6Q3 2aLtnbboH8rpu+VMQ0I9VXOMOGu5LMYADfnzOrUkH8KDRbFAcF9WxJceu7VpyoKnHMiKiG1d sOgcOQZBUO2aOSEdZwFTOw+Yf2kMAZu6IsUYIa1htI4uHSjctj5Yfjr+rz+i21zo38fjT6M4 4MjuiYEGRqRRkepkxj0mXfo//dzUadqkR33ITGOyCJH/nz9Gqbapn50o3dgw/4+fz9cJc80W ERQrOvXOCCH+b//NfwNly9PUg2zOGgAAAABJRU5ErkJggg==" />
    <image
       id="FlashAICB_Patterns_New_Pattern_Swatch_8"
       x="0"
       y="0"
       width="125"
       height="125"
       xlink:href="data:image/png;base64,iVBORw0KGgoAAAANSUhEUgAAAH0AAAB9CAYAAACPgGwlAAAgAElEQVR4nFy9W5JlOa4s5gDJ tXdk1TWTaf4DkGkiMn3LNIwr6ZzTnRl7kQT04Q6uqJNt3VadFbEfXCAeDofD/rf/4/9KwJDg n+ZA8w5YIjLRW4MBMDdEAntttOZwN0Qk1t4AgM/3RL8a3teF378/uNfE//q//A80N3w+C/dc WGtjjAYAuOfC6B3X1bF2ICPwfl0wN/z5/gAJuDtgQHPHnAuRwPsa2Hvjnht9NIzWcK+JZg5v /Dlzx9U7YEBm4vOZiEy8rw73hrU3dmy4OUZvuOdEaw3u9fsGN35uAOjd0FtHIrGDJxUZWPfC X3//gmViR6C1hszk65kjALiZfj4RO2AGtNZgBmQk+A88RzND7w1rbUQkvt4X9g4kgOvqMBg+ nxveHL03zHvDDPDm2Csw10JrPLPYARhg5ni/BmIHIoLf57oG5lpY9wJg6O+BcfFB7x0wM8CA 3hwAsAAkgEwe6GgN358biYSbA5nwbrAF/Ne//uDrfWHuhczgYbrDzNB2IjMRkXAAy4B78ZBj J6wZ1g78el/IBHrrMOcZRSZSZrpldHMtWDq6O9KAuRcsgbkDhsQ1OvroyEzYNjRv6M3xPScQ QHPjFzODJeC94evL0ZrjvhfmXuitoZnjXgvmwN9/fcHdYGbIbeDzNf6cOyIT9z3Re8cYHdaB NMB0w5L2D8tEZCDq4rUGb3mMIBMwGBIBmCEzkZHw7vj1Glh7IzPRk88ogsYZO3C9nMYFwBrf sDd3hDmmGSJCFpFozWBuuOeCgQcyuqN3fplMAMkDNjf8er9ofWvDAPz69UYm8P2ZQALmDku+ uTtfe68N943mMqi5kGnwbrhax7bAjsDnXkAGrmsg3WFuaJ2/s4MWvdaG7cT1iw/2vhe8GdyA 5g3uhnlv3Gthr43Xa8Cbw5fDdfgRCTeDAcgImDteV0fswFob2xKj8Qwsgdc1MDe/r+kSpJk8 lMEBtN6ATMTecHc4DG00NDN4M8wVgM5zR8D1YFK3MhNI0HsE/w8MvM2v3vDnM7EWH7qbA5Zo oCEu8EJl8orU+ffPXDAAfTTsxdtlc2Fkg5shIxEI2GIIMB107EAaZNUNrblubqB7x+s94Ab8 z//nP9F7R2+OmZuvL5cH4PyzKbbkThge1z7Xwv256eZ7h1titI7eeBCZdKGtdR2WLmzj4bvp JgY9yZzzvGdGMgwAWGsh8Hi0vQO2A39081rfWHNjtIard0Qm5t6Yc6G5YS0aqDtDH28mw+M9 J+afjdYMYwwkgHAAmw+VN8HQvaE1w948aXNDyi1/7oXYgXExhMTkF/3P//o3DMDrdcG7Aebo jd/v/jhWLOwZ57YDQL8/E+NqGN7QhmMn4+vagMMRSOQOfPZEDx5igDHNErx5BnzPib0CvTu8 GfbeSKehuBvjcm6sNeEOuPEhu9wgAHRzLAvGJ19y6w1fXy8+POURvfNBMu7z76/REBm455SL dBhMsdJhAEZzXOPNGwFg7fIyhrS6XQ7wQsHNMdeCXwPNHAu8UYBh72BusAK7Of//WjRwOCKZ M7iVyzbGWwD3PbH0MF/XYOhTfhGhkJWGbrwUx3g7w8vaG5/viW8zuDle74HXNeitdsDAZ2KW mPdGprxGPfRxNfTW4K2hZaKjIYLu7LMmemtIGGIHZiZGb4zNcMbiHbhGRyZQUemeExnA6P25 1cb/MmzyNnhL7NhYi7d/XA7PxFr0GBmg17gGXeHcuOdCpqPJDTYZHdwQG9jBm9yOB7FjoK01 JlEA1grcc6H3ht7bCTE7aPQwh3eHhyE2c4jRlYSuhTV5c1MJWmbCYGjOBxHBHMYsMXqHD93c SHxiw80wXgOWwI5UvAZsG1ZsIBgz9t4w95M898bz38G4/tevN8bV0czwuRfutelxzLEi0Xrj eTkNGwD61QfgjGPeXMmkMW7PxWw7DdPWuZFIWtSuGP2ipRkMOxZuWVdlqqks2szQWkOvGK7M lA+PN6Ey59aZZUcmE52ZmKoAAFYWKUOy1rAn3d/rNU7G3NyA1rE3XW+Ch5iRmGvTCzSDbVMs N+zYSADykKdKMX2myMCaTKh668hcSAMcBrOG0TvPMx1d36cSNzM7Zzh6w+s1MBcT0ZUMmc0d 3Rt2bvz58wFgGBcwWqenA+Ct4a8vR1b+kYF7J/aO48EMATeDK6fovTH/AdDX3vCgS84E3Bvj Zu/AG/rC9HrYjJ/uzri0A3AmYGYOIGHu6BewJvC5J96vi4lE0qV7ufQIrB14vwbSAe+Oa3Ts TLQmy4ykVe/AnEtlEbP/iEAkgMaP9tGD/fv1Phl36+2URS15SIjETCZFzLoDcye8mcIAvUTz BlMClMgTq2PJQN1PJQK9FprpdQxLCW6qzE0kmjl2BOa9sZ3ega9Brwkkeu+4robP3Ljviddr YIyO1pg3zHvCnWdV5d3eKgcdGN55AQCM0ZXZ08NWudnrVuwd2CuxG11DImEJ9N5ZC24gjAf4 mYvxaHTeoDTG7d5gsiYMAGi4b9bAc36QAL5eF4DEikDsjdiN7wHg9/cHuzJolWaDuShrcnQg k3lHGlxYQn2e5kxEdzDerhV0kZFKVjuzfr/Qmkq9vZE7sBfgHuiN9X4kq5gKM5l0lVXd2GXY a9GgTDlBglWDMfjd92JIC5am6EDvrCS2EuG1N8Y10OGYa+Mzb6zNcPPXry/8+883n8VyZAaG HjbA163ybWcwJEQwJKi080avATP8eg987oXOLFEuWy7XrMoFxlzISiIDuflm5aoY51IlA+tK 37Tw+3Pj9b7orjYz9/rTm8MFxvC9dDhbmYErE1d2PloDjLnFllW7tQMaMK8zlm7Gh7nX834A y7omT2MwBAK5E5l2QA4zRwawVTsjqlrhjYnkDe3hBytoYzDrXol7Tewqz1y4hTvMed3qdjd3 9NEx10ZTCMEPz1KfJyL0e/SMyPX8nLzYDn5Xd4I2TUYBsGQN0MNto+fuZgm3BmtAJHj7FHfq wVrSpXk4whPWacmRwWTBGB5OgpGJ5ob3+8Vs1w3dGNtD8RTEfPhlQcs0M7gy3GYO73bqYHm/ c9BW9aMAkabSiwkVD3XFhjcn5gAebMpADACCNw26EcyW+R4NdPF+NZ5JdLTm5zX66AwVe8Ng cG/IttG2YzvjaSWZVXWsk2TptZFYa2FGEIBRPGfVEcBKjDEOQBOJc4appNgzEftHwlelEREd eqsMRADdGvYO9Lk2eudfNDcYGlzuKMFb5fVhGl1ulUP3PVk/eiAF1KxJz9B7Ywa5NwDCg6M1 bCTmWjQMlTr+A6lzq0SOiRAW4+5a+yR9Zo6Esmyn22vOrDyS8bmhI184SWGdA/OLPLBkQacV 5sqo3FV6rgDS5MX8uHp3wwZwGcNfQZxtdLhCwoqNq3fBrhsRfA+Xa10KZfdmmHq1hutqiP1U CL9+vdDchQHYMX4YHkzAmUsUtgHhJUjDiiVIlsDQjkD/fCbm3Cxd5PoK5CyrgoXKHpY/xHcr JQU+941PPklMa7So73XzgD+B3jp+fb2I6StWVhlSpVzKw2QmsGjZDiDoo86/r5IRxs94ahEY MvkwvTUlR/ReaDTqHUysdrJE+npddKdyPRHBUIYNT5aJfE/A4zqhwmBwJMalKuNHJZIBzFhY 94Z/mVy2vGUj6FUA19f74kPdSaQPjgRD1BgNo7vKSBpImmErce4XkT0zoO0GKATs2IiAPBjd YYYuZia666bMGYhorE3NH/c0hC4FsJIH4JH6Ao745pftzYnZGzNv04eZc2ODJVxU3B8NZsQH fj7olNuy5OHnz/p6dPhpGtATmKlRFIknBjRkBHbuA7gEEh6JlEFHBhO71mD2IzOPRARkOMBO llZZ5aFcKX+fydtnbr5HxWRTrb/pyebcJ5EkNkFvtFcwmQ3e8qZbutbG554AEqMPTDVSVgFf MPUTAm06FvKUbpCny0ihgo4xOsIDc+3jUfvX1/VkqUYrDQS8s+s0hHHPtZCLmT0isWXtANDd cb0Grt70YAUmmOEaAzsulXp8SJc3eGMjgB7FYJEICyFPTIC2YqAJ2TrxvL5i8jD5QAC4sbRR jHPh9C5PUHUqMXB+vnttjEEs/WTZutlInIYTIpERmLGx7n2MjOBP0kBh5zO1Ts+yfnTlLFyg SijEAb9vgkmjNwJj+7kcJiPgBaChoPMsItlUinjCL+rWC2xy4SRhhkASI+mJXklCJov7GZsZ sAMtHRUmlmDPil+hBO7Xrxf+fN9Ycx9rhgMrAn++b7yvzlIOrOfnYkvUdqiOHwcb35loAJyX Bjv5hQKBPZM3FoZWnyHZ0qxI03s7MZoZvhocQs72FvAC5gRz8UajJQLM+OciWsaEkqUQK1V6 gxaJaPmP92SrVnFWrUAaOVh1ZCK2UEgAoRDY3PE2Nm1Cpaab4zWIBo7e8P3nczwSMtDM2SfZ G5FMePXGMCXdfH9WMxUOmznGIEDTt649zJ+sttzySkT0f3gCujYhasJ0iR/rHqZhroUpI4gE Gh741Vrg+/uGu+PrfaksjFOaMdMtBA2CM9VZA2O5GQ1kLbr7MTpGI1o2F1ugozeWnwpNOwJr MQxYp/EiGZZ4oFAoMT04Gl73pl4C38vMMAZDU10OLIUlq/SfWUKaw1Tvs9JgzqFjY1dPydlz W5UUynvwTFXi6gEz0zd44lyocufe6E3oIRbue+q9mEPtCHSY0SKE5WbBN4p9t9yPGeFEurKt UwOuwRJjJ93WFhhSfW5vhpwpYzS8x9AD4vsUacGMjZdYhEsjcDpDw3n4ifqMptDRgOxwhaBk O17gBCuMP9+fx813q7NnNdI7kIG9gVC+ws/B2th1u5GCjPW0TA0bb455r2P8Ve5FBGCBtp6K QvUpDMIAVH93awoT//wTOzFTbVtUZcHPEsqPMoGmnIgvx7ouQSBpWHsAIuEwGYE+1zqJGzs9 +FHciynT22HQ7C30B0Jmg7npE4v4e01We99L4Am7QZeaHnNOLMVd/mweFC2VrEG3MdIQyVQ9 8zEgN+Cem5k+6C1GZyJ3z4UEyybPQLcO1+FFBAKO7oYwx71udsga0bJIwJ2J3r0WMtifb425 SmTgewZi53GjTT0DJLANyJ2ADCmUu9TZVLNEdw1X7+iD0DZhVeYMDU35SiBDOHv9R4DNfYfA JrF5Fp9H684W9CDa2ZyI5faGngGkE0DxVr0zqM+bWFDPXBQfb4m2/WTZ99JDdaCDrrFQNoPh M4Wh6+e3LHwnQZqv9wVz54NW4tSufrpeKcRtHRDEBXrIhSru3p+J1hteV0eisRGSwPt9oVll +s8NY5+ZGHZzQ3qDqcviYKy0KhXBTLzoWTuCpZzcLL2HwoIDHYSsq8GYVsgf3YHpTVwPlEkD zi2ta1+1fwguPawbU45hjs890TpOuec92G3ciYyFnuogJlR5JPp19fOAqsFQf1IJTMVcq4Av XD5RN+up2U9c0wsU1g79716BQJysM3YAwqFNLputXpMrj5ONJ1QWCZ0wANcYhGczhEzxobbO B0TQgu1RsnoM1pg33J+J0RvGNTAuft7UwTMXSHW8AHixMwQk+WbJqcZPihzSm9MzZlT1z2Sr sRlldfNpAWxHp2FNnoslkz/yD4O9gkjsVIML1fQiMFVVQlNH7aXSMyNlnAs5msAnnmd385PZ Fvzq54uVO0ys6lOLegS5E2R98CcumZLCqj/NWJbFCsw1D/fLu+NeE9Wj6a3akTgPfO/K1Hkr diRssZfdvGHGxmsMXL1jYvFLprp57akKmBwye/eAGDaJf//7D96vi7AqjBg5XHDxOnyAn2gX wJvkVnW2DEJoUGuOLKKGDM2bKwvH0+pVgtmaw5ojZ2DuADZv7jXIR9gwZG4kDBEb4Q7S5eLg CDsTuQIpKhdDAL1L7BBMzRDel27Q1k0xgIwW3WlzwPaPy1t1mxkcjS1PkQ/rgJrjWPWKfRoD LEsSY7QT88kaJeKUnqQKiZRA18gYuNdWwsdzXzsRwYfczdFGJ2lRJEE4MO91ErMiOSR44zNE ZboXDxpLxpqnQxWRME907/BGb3EOQi46NsusCg0r9sHBC5wyAE0syGoLF8qWAaA9F2Yph3Ab 6C964QaX2w1Y9GN4GYB3tVyneHJTfRCV4eQQAN7UPNqBXll2JUdlrZXEG0xEAC8vXT/OGz86 HKuuOOOfN7TupxpYYJIHJwWrFfSqfjkWb8sOQ2Ip6SFWz0O6sfW6Y1RDgl27v359qZv10Izd XUzYjfe7IZYw+NERK7DyAwC4Rmd4AJMiZucuN5inrMtk6/X7nuhLfIC90bzDVTeX8bLUXScM lKc8Z2ZPd87c8O5dlO71UM470b77c7Mc1s+2cFjj56lnUZUVjYAe0YUBmBuRSDV5SFABemsN K/b5oe/PjYjA+/2CG7njDlKpqrW4xD45JAA84H/dBFKIcELEGJ2EBayHhBEpQgB5Yqkaldmm oXXWnriJLL1eA70x02/b0ZTl0mBIT/r163U6eSG3bjq0ygf6aOjmuF6dDxVAhMsblEdjEufN cV2DVYhex91xvS6RKNnQ8Ebq1rbAVhgkEZIueqphtNUvvsYg2WPO00uIuR93HyyD/+M/f+P1 Gni/yHDasZHyGmQv04R6d3jlZ1lkTkfbgSXKdyIZyrpiDcCCnn1eNivWWkSUaPA/SgVmlMTK BTbsgDtLtcKR6a7oSUYzLDhy42TiBCB4Q+Kn9aJoyMAWd8zbk0fQTfPn1lrK/h8ufJXFvfvB vQvPh2BiMzY5XAydpzP1fNcTfvbDcnHV/wYmSpGCbEFPY87BBFdY2REYrePqzmGRCCFlIdbr 83lbYzJWsX7vzdKrk/zhZmghJpHC8tocAnF56gqbyOK/h4yfAxRoDX3twOvV1WAItE6KL9uk iy+uJErVAmB+PENkYuXj0lrLQ8LLQ3hgfVuo1xMjDH8+9wGE7EejBiDMCLlEQrVk3PCkRHi0 hxCxN2N/CEfoaIgkcSJ4znqQNKq9Aul8HVK9RZLYjOuVsM69DzOHB5AKT4G9Frw1rBbIxUvR q19xb1wvXgBnp0UPM3DLG7IfkcJIOtyZw6i5h+vqbOkmoW2GOxqoq7Kq2OF1zpanPON5EjAr Eku/73W6XWzv4XSnTucrU9kzH0yXKytrxjEG08EYYhHD773hngu//1RVQH53oUprbnqI1mBi mhCaNSF/ZMSSYrRFltRzz8T7Gnx3JS5WVweFt6sPnWwvsk9OzzBjiWKUwq7lxTIPT66Ywe52 cP0AvUU4+eaVuEeXJ1KcHaOx5KxRqR+DDOGVg4h00gET5AsEIv3kVzsC9/fC2pvMY3m06+qn RK33JM2NVYiFnb+fc52RtN66HUtplYGudRoZQ6NA1RErt50BhKkEUpJUiFUCWCqZ3q8L9uem hUcA9jzwiDgkAZfX2II7TSjhXPtg5Yy9OKHAXLx2hZMiCyIZQrKePypRe5xMtTfLy/TeBE4B 6XaS0b057TP64JSMSIcEo9gI2fIMzQxr8/N1Y5IYEfjMBSQ4JmWO7Y5uDgw7bFigwBg/REfi IDz/tZZYPjilp8FY1olIkTKi8kSmZLnyLHe+f3+/2PZMGF5Gq429YZpaMZ4uSxLTwxZdt6hR Vb+ryJMfZb3em9MiI0hUxANLDiVn5+9WPGgT/MTKJ86qsZDVyXoaOr0R1LlGp4u+aUB9tOM9 TB/v1Oz/CCsP1s6fk9cSosX+vf8wSrWKVe8XJlU9Chhd9vs96NHU/IFXX53hbogexsxaIdA4 uwdLkT0T/epom6jh/t7Yc+F3JgIvTsb4Q+asZ1IV0uj0Du4G7042bD0MU3uuaRbLjNg2W40N rqBu6k8XAMCbE8gVWKvCAxOrKT66O+lG8aMGd2/HxXEsiElZYdhLFOuojluG/KgJ+tWsmhVf X3Xy4iFHBt6D3PJyyeS250miCPHbaeUiyXezen+z8+9D1YJnnY+JTGlnkNHMEGgHIOmdhtga yZyx8rzmii1amckYH+56UxPq+56cUkHidQ0ifu5YK2j0myyfGimr0PeUnUZiMu0YDqDPuVWm JfqlqRHhuitYpqQ5MhZCzIKAmLFRt8TPDQoAplKHE54i8ZcVi6kTOzQ0yeRsafDxapzi2BHY t76YUKxQvVnsEAjpSiRyEw+whQM0edNDWft8aYAJVOx9YlURBz0SUCcuxC9rzofCxKhwi2Mv 57LAqgMJeaDEn899RpmIfIojUEni5uux329Ye+G+SYz4GW7YtavPr5m34ec2A8rB4Gi6DMif v6dLKoPoNXTXGl0k0sjvUtAHaB1mfubEvIkBIx55IU9/bk6fvMT74uEG3u8LyMTv7xsGuhtr hk+xRgYRLwTjThEXr0H2zt5BlJD5GF5OMiLJB6nKAQ9xIBNViu4QX32xchgy7LVJ5ug10SpK EsBbnELM5l6nZ11kztGHGDpxch96mhpq3HADrk7Ecs6l39EwhbiITdl2puYAIJJob2pjMw/5 er8IEEXCG/OsUBVQnqG+MwD8+SbW8tfX+2ArzRu8G/79+4POcR19GOcUSJ8aJAzWnaZgnk/X hZw5C1gUrJgi4efpDrlxDLgy+/fVFYtJDHz54Liy0X3CoeyypliEUKlcm8m8wAdFB8boWHNh xcN7q47aSQ4j9f3UE49n5iw2H+rrNfAaA90FW6py8dZOk+OEs3jqc/L0+fqtM9OHKNUmDvq9 NnrnhAoMB3+vzh3fL1keT7rxbq5KRuiiKUv6kZSGkLYVm0bnHAVPeaOajz8kC2PpPK6G/gAa +WPUVoOEm8MN3uSzdFhXH8KXOWNe9V/7UZ9urHPYoZKoaM4Va4iZk18XEbhv0n6fiZQHJUsl Om5ilBShsDfYZonnZjC5xHJr855onZ24KktbMwyM07c+nPsuurXyjsbsTq9naFATKgMRJh5e JYFVzjbgUmI5qLLxusZhBLHhkuTZARqS2KJ404AOrPwjhNQfyyJvFpmE1C+GpNQwKMe6HwBM SXDQIPrPOtx2PqQ6d+K2P+qc4olXlor8MfD3o/4u9xmFrduGbVqoexOmbcpw7XDuAJL99s14 /OrjlF69kdnZhkabNokSrNOLSMgvGfk0G+basFul6A70DjTrGEqgmpCyuTT0UOWPEr3mP76v jCmFrO0MGNgGve9ngKP3DlLsmBSzdtYZqi7fybbn6xr0Us3wMrJ+2Tcghfr66hqTkjeEHbpV U95UkPfaC2tO0sdq9CmfblvyIWiWzZ7pR7JEHd4eWFMhg65IfemqL5uy8nLDLVmi2bJDmTIl efe90DwJU/4AHr7/fWPvIPesNyD3ufUZ5LD3dh2kq0pFN7J0f7rynYJ0FZ6pI7OP8e4A2g5Y K6TMsCfFBcyAYYMMG+fNrZGjMsrjXlF5zobbPklW4ejWDGlMpL4/Ez+nYovDV/HY3DHMzuxB BIjIybhQY2fiKVa1NRpHowolrPtZyCaUK/y82G4gG/Z56Ko13RCBw7iohz96Z0ZpDtego6OE c8QgaY6XiARrMsHqvbM1avskXEU+bEKmEnjKn+a4QPbM9+c+t2wtCQGolKpQ1BuTr9gBKDS4 sGprJuoU8Ya9AncsTrEKnw7V8FWvA0njb9W9i2PAkJNysOScEXwvlZ81Em2uQQQYp36MCfCa HOG6Om9jeQLSvxwpw6ibzFLxKVljA2tOgjM+sO6bkDhYEYzXYHNFuUexjRKJWJs06MLTzYGa Iik4lxMVqsub4a2JTgPgi65xRz6Mz0wYxORwwESvdoAJoho5mT/iene4X4iLyVHocEenUELX rS1E75Q0rf2YkJHBueIuHtz8jGEZu0yfjzpZydJx7XzymAJcUqI+MsbDy9PhlpG4PShglZJ7 80GzXgcMnFwhOOLAwIF264HXnxqSqIkZb3ZmCWKzcWOXI3pHINB7x7/+69/w1wVvj2ABhFdQ aOhCr5k6E5a/9mZbz3j9iz3TBEUaHlKfe4P78zMGDjrUFAYSaJFIDTokgzc/dIE+ID/NgqXa lOVXPGytoetW//v3NzN0tubk5h0QQAFhytX8OTix4zQlQuGlV3YtY26NKhMbcdq/hSiaAQiT d3LlLO2ocJTkV8o4YY8eT2+sgLIwe93Y4tCNlpRX25tza1Pv4fQwa28KLql+J21qYe3E1ck+ 9uEIKWlxoog1vSXQuom6zlAw70nOg5nK8EYoYqvcMZgg2R/WtxOwRCwgQzNUneVIDQ8Ue6SG /koPJoWLUwvtSbYcnLhY6l71H7p1Dtap3uxop3XFv70Ws/ODzz5w5U9j3RF0o82w7k1xHrFU qmSaa2He/ySQ9O4IGeBOvkZiyRt1lk2qjadYq9fVYeZ8wAZcF8vQz2cShRxdwxuJjQWH4xol 6aIx8KQ2QIXIPvoPvoLBs+FSt/r7Q4261hwrgpUPAlgMw/ekF3xdFzKS8+2Zx0jve6IDahHm Q/ttcoURW3FFbUzFvLU3cgqt082pWFhjUQYmOhTjYRl2MOxCwoTH2wi40KoVwMhEGx1DrBKX q8msUiY4UZJMyJq7KgAgGw52vlcc5YtKvg8EbLxJXXo5NViwVFY5eKtwvhsQi0kiLwmZPKRG a94NMriDz3f8nIbNCCwEdhbnWDZn+EcSxlARWMgz/VK1W+xEeoCzQA8xlUn2ZrncAlcxiuuB nxo/0VNAgquzVZafwoFHTbGGrM4Mt0aH+yl7hFjpC2zVuq7ZtDBDxsYG4FEacIp93dCFAfhO hCt0VFaphkivKVWVa0skg6/e2Rr2hwFEgOcHbfqUW3nQMOYCIQIJkOFnVCpBV9wamOwomU2x VBwGk3qGZgkAY8fr6z0QMHy+FXebn8GOFMs1MxDqF/jBD5iz9NHw6uMMbM69nqHOCr8BETiB V3esrWaVjIZ5CPOor/dbD1uhzQ29SqXW2GHjBGacMoVui5KXCCo5NjNE0xy5DrCMYvSG5fs0 VnpzflmVHPW6rmbJ6/2iBacIBaeSYDvREi42fiUAACAASURBVD9CB5HA6hvD+tF1AYqrXvGT 1UcTrEvX78wLql7EOmQEzns1mB4KkUUDRzUhD1PX0Y4nu8Q/ILU7MVUzw1JzZpA8qMQRLLED Z3btugZv5ACwTJC34rk5dvoBWSAOHynPjurkWXK86vKB0VOdOpN8jAsqplFnGrH3kf0gS2Gu Mkb9aBm7B7NTD7rMTp8oIRsR8qzctj6MBhJIV/bDUGHo4F2v5Kos02WtW//+5AhIxFauliRW NAv1Clgnd2+wDOxlx4VXynnoVpHMzOUBZgQyClmrvr4dzLpEFvS2/wgPZpwvd3fsHvjcN/6/ //gXdgTerxf+/uuNWzJfbqS91udPIXORias1XNc4l6JQO+ZKxAoyKYjgroaYA2nt0NHovYCM R8GK+Ih0a83PLGI/DJKZZ5LSWtDdWajjZpLeUmetCfTYi6QG4YUzgD+fW1k4b9mf+ybs2TqZ KGCmH/Ia81tGJUwAuqHuBHmqFNxR/XvdGvMjO7bWliSoeO57qX6ndIhrIKCIExNBAzH1Fewp IxN8v9I5oA4bvzdFh8QJ8AfuhdFz9UbRJIj2vPXZ6095CjPD5Q121d8DFmxOFQRc/Ywx2pk6 qlL0DC7oZ1pnKRw7jygBx8w7PvdEZqC9LhpbBDoMWPdGdmBEIlolWimtk8S9GJua4pMh2fVK Z/KwAv2ICO8f8Gbg+883YMA1Lrze7OxW/GogY/QgT3H6OSjy43Nk/0x46s+cmw/WOrZpWnMH +gXKcALAiiJpn9hGH2SnM5VmUruSiIHm14uEERHU3NFDKWiWbWkcQ39fF2KUtOdNEKdRKInt 6n1e11oT7r6YJ+3/NscHSrPVpK7Zwzpe1fPIhG1g6WIcA1PJWJ4AwuX33ugFw2UmVgby5vhH V/b8+dycI3+/SMPVIHZzA7zhsyfWXvCtiYyqAFrj2HDvVIVQyda8wV/8RjW+tNfD7qQVk2BQ IgjFKnEH8odHQGqEtzcJFfOh9j7Ow4wd1F1Z1coUeqgpmoqfMMeEegYrgR5wK5lmqXKgFJri GGQsVjmn+6iuYtXNfz43eu/wqx1G7pn1U8ZVkqN009WFe5LWGIEmeLxEk+rfUbdn475JCH2/ Lo5RS7f29R5ASlNOnqe/3pf6wXR/M8l+rVntX19vasUAuKWi/PVi8rH14d9fL1zSS2f5xBf/ UpJ2Wqfymd4ozNea/8CRG8LESy85znudpAl4mgdAWb/hushd25Fw8D1L+7w3dvCqEsmgMhYA lA7s5ybvnO7eKJqIJfr1hm/gj2be3u8LORN/PtTG+/V+IVpgR1MzSY0ReSprD8ft832zTa1w Wb3w/PHdemt4v+jzp4yAs2c0hFKnGr2x+eSsgnZsvN7PZSgSxusaZwL5z/cHDmC8L/TRBNhn cggPefDovSi7mRH4/kz8+b4BJJbIjwDw999f+PN941+fb7yugV9fbzQHPivwr99/8LouAiY7 8PlMfKYYLeZqBe6DVh1nrjLtkCUTqLFflk98IEARBEQ4zESq2nDniNO4KNuZSzDneg7ZeNVQ UtqhztcjvNSQ+ejb7KU4K9zcm6FZh6+oNrqEDQXbgiBWfc+WJtHfPMqP4weV6pTMuiiEhRsR PsHWAbppeifBxkZFsHMx6pwyhfUzTxrKbfrPBkt10VIvHJhnIOBzU6j/JUv8zMmRHjU83AfM HJ/PTbfHFyRJYrQnWOczsuRuuIMjxmapjPnpCTMRiufmFHlQI7OBRCx227wZBymSD8zM8flN flkkoc+99xEEhrDw3rpyBYEYVsOPBeoYPOktqtljkhSNyH9ckupkkYChkmm042mKWEHJUzFd qgfhHT//nFl4NZHYxDFyB1KiyIOJbvMfuUcm5qa+PPnzu5pwNNww6sgV8F/l0+lxT2DGPMJ8 12sQJYtALL252qrd2fv+/maMb61hXJ21tkqm4mwfpmbGif+mLlnEPgyXiH3GggrC5a96QezA gMoR1sC9OG3AoTudg9ShF5Gyuk90tUUrliQJGN9f1+CFsAecputf2OmaDzjW/GSeAWTHQcR4 8BIQFE8uQYnTn1NBRTevXI70apw5+DCtVdmBnTdKa798e2yeW42PlxhhILAXc4++oug9LPj9 7edGcoZ8qKvVDy8sMg8efl0X1lz4fO5jGG8MrAzMz4S5Y61vXNfANYamPzmNkhlPzD64h9p9 wOGzn/4wHoUoqxCgcmZOiiNcozY7MFbvI/bLsrP504Ezx5H1DpVkpFrhoIFUhiD8Sg9FsEPt +qNEXdl+NIgm/Wjp7MU+wI7E59+/ebOvjlt8eL+kPWOgPm8I6JlLSpbiEWzKtlb5uObGGDgM INLT6fmaPCmHGYFMx5rsgfSmuS43AwYfgOhZkhwnFYlNB1Ohz8ObBogiesCdLhi0qasWERKa z1OGpJ6agSL6xSxhB5f4fGXy1RPWRTl/apBw7+dgXXBuCCwa4sBTIUIZdyRm7MOpu/o4u1nm XhoWeLqMa28tPuACn9Y0jzc3hQb0mWoCppUxAKfCoPtuSEvcd54cJHIrDDLlf9g5pr0u0ARL ArtCL0NZd0d2xxL2zxn3QvRU8ia7bNka29peSxJaQwn7NS5kIdgiX8cum5CsyJMxqsWOe04m Pe+LEK46as21/ySA7iF0Dtq6JCxaPPaMxNaDL813pB2ItQYBkU+dWtOy/HKhvKBuWWBUXDYR K7PYL4rBmsUPFx7fDeYD2+PpNtrj6muQEuoSQknVo4UXQNAoqhdRxI6q4c0Mf9sXNd3MYZed OpqzdHk6ns07QkqdtQUCmap8ClJ2qlI2O7KsVe6VtHogzxYnhgglclvuIlI6Z1KWgCzGzfDR ug4S7k0iO8w+M3BYMoXERaaSP5zwkZqnoqV2JEKdIEOqsZDM0OimJClOnXMxRRtVjvdeCJA5 GoXxJ2nV7mzLZibXjVQsVuZPBgrbvvdaGFn1u/rhiufzs/HX14uTpOvxNK3ZIWEkikcP4Hpu fQ1A7MVfOtJn70FASaXXIwtC4sO8BQlrYOjqA5+YCIihpB0vmYFhlAp19zPhW/EfdeODAFZr GyU53mvdVURqTRe54c2bUB8iSNfoeH09+HBNTO7YLMvAnWbrx0BdM8cMJnJrsR8emejoaJ6H IpwlPwo8tzEDMyCqsti26ohxMCJhzbHKfetLNikzfO5F0kNKJPCAUFLcEFNmzQlDP8zTQwqF aUsT6VBmGrHeOEnnnFy/VeydDLAPICMj/VpeKQ1rLmwvJSjg8+dDAuh1Ya+txQQOBBs379c4 lPBiGq/F6Vlzx5/vD0rx88/9QXPH++uF3Cyx+Rk41HHPR0qlH8mQVjE7z5dv7wa/ucdlXGJ9 TkKVQ+rGJf3JrJco3NpbuuOOPl5igmz46EeKdK5nId5Sc6H1hmvwkNZmnIaT1jxcpZScerFW izq8k2s/uGDv6QAemVGU+KEQM7nH0dvJBZ6cga58jKZ8I0+Ta0M4QHNcNgrQlFgCBxKraRIR cO3EIceAgn/VmKqNUrEfoQdLwCRgVCViyuMii/rFTzmGXLrn6emvtU4VRsLqUCn5AFvd3aSx xmy2BGwTyRbkNZCbVmhgd4sCFdUhM+y9cF1cQ5GKIeVLezNsUaD4BRPf6yZe3hoMrF+vq5/Q YGZ4XdwLs1cIRKl5tazsiDNdKInNmimvKRmc/nqJ93PxnwEatf5JkCjXD3Wl2Cp+RJJoZPy5 ULlorZPEaI5xhAgS4aHGFbn9sIeNlCBfnbHVz7iTu2NcwiMYI5jF72dzZBrQs+DZfdDPn3OC ehO0boe/d0ai9Rn6nz8fHAE/xbK1A2sa3Bfer47Ppghu740upztLi0zcnw/mXvjaL+xr4Psz aW09AdtknwBnbj2zMnnJeAzW6WcfWqiTp98Jk76dYOJYtZ4jkI106th1o+0IHDFTV0PCcIYC quNWRlsP+0i5qW4vvYjuQ6FDvH5BgizNf8zwRyKb3guU/MyEtObpleKUXPI+zc+bj04plLnW U3EoX/DW1Pxifc/5QJ7P5yZEXN6ZpenTM1hri6OgRhlvOpMxq2Sjd7wul5IEd5qaXEWCy3h8 +YOqvS7YpLXe95LyIkeO9t4kN/ba08LYSjIha/ItFs63PW7XEsjFhMvM0dOVrDz0IXMebvHv iklasT3xLP7pmYeX52aw5AHea5IunAWG2BkrZsgzASQP2PGz7EzUpOnGR0jemuTx7U1m7wZg vXBy0rxooExCt0KHN8mP7B/spf2ody4NY2Rzbd8IDBsoH1LAVQkfQHBsnU81iQCKG+qGUwe2 NgHV38EoxBvOw1iRsEjKiXqHhZ8hhFSC17qku5Q87Ejsz0Qthh2t6UElfv/5/oG4OYAlQIG3 ds0FoKMpLq3JL+zJm9vloSx/zHsV4OOas1vJ5lAA6A4L0q3mvZAXkPsR+itwrVWFkXjirRC3 goQNGjYsvboIwB5PA6e0eDl2lJFEtWb5YOqBQkmh4VkbcunyzL1F7PTTgs2e+Hq//9FyLkZS pIy+lg3lM+zYay9o1ZUsV5ZgTOB9ETrlzrASsuG7VE1+9XFgQhnZU6KMjrnWUWtg5prH7f6P v39p2wHRsRITpIH0M8JcRvWTqYsA0pn8EC9Xo8Jdw30cwDzsWak+ls27N4Ix9ZKG0wzqPxo+ BhyZruLROfwkkz1TLBhm+tUbaK1rFRfOrpd6D54Tp0mzScI0nxIWSI1yUb6l0E2DtOaUtH0d upko7DvP5qjawuGOQz8HgE6xXwO8H1dSYvfe6TJqzXRl6dWg50A8H2DDgyql6s4xOr6kdLGk QJgpD9AMw5kjRJCFWiO1TYe2xKXX8zgonKGUnrhuo9Z6ts71F2aGexly3efnGK/96UKBt3nO JT6/nZn6A9uqzm1Sueid8/a5OPf8s/JJsINX1UwBVGM0rKl+uRXViYpaACjtmRywgICVrVyk ZtKqxdxruCOZG3zuymHq+5WEGkPZXnFCN+x58P3qjs+Hi2qZgdKV22Y9PnfApQRd89UA5Hql jdaCA/Y/26Pqms29UdrtXmCPJD659UHNiEL85PrLhT0D/yITSjmyZDHOGlB5i7k5vpPIs8Ns 78BnzpPokKhI1kvvHREb16j9LMUYUreMVq/PkMeTEQ5Vp03hCdJuq2WDsYVgdjtat6UnZ4ZD vTLlMT/p09WFXOq7s6K5pDSVwE2d/R1x1K1r7UgGvcC9lnbAQOUzw3b//X3jo3XXW4U8O2Gq BzNJYRYXrXytwbRKep224BKq1txhwSUAtfUPeJKKckff9326ZxUChm4DMrFXUrMlEiv2ISmW MsTa82T2hfVXoyOQVMTQA0Ak5UjlyR5SjBoh4vE3eZMoEQD9DJqrquDO+PI6veEx6vYMPC6h bllIjKqXI+pvHKw4u9SzOmysCJYloE3NFd/nWnAfh0Fb68zqDzV0DClomR1KaQQo5AKSH6nE BVaMVcCdfaQnwQJ2asGdPQ2Yq11CzTbmYg1a4H9KCuSlfa5bKo4FXHw+SzGm6SBweOvV8uRK DiZuvePg7jwYJS1B3fOKmfXwWms4/Wo9qIhEtGe8qcgQbn4OvCqE2shA2LXyAHkVJYkQJlAO 7izamVLGXPqOaKd0PK3SrHFinN7A4VJu8vr2Dipn7iYJFnoiAxkzNU2EU5bmg4hKdJBk0aBM O2pqVVIdxy2Z0KsdmAk0/zGS5OrnqsbtDqzAD6IesA9yVpx1GYKs0WDYthGt5t0Nj2z20/Xr rbGF6RzlXShyBpfhvV6qDDRilD/KvqHGR+xEbwavikQrQHbG0b+51IWKrWU4VbJ1UwJasqak TFp7SrVao8n989R4vT9TAkPjaQWLo/5kjc8/Pircj7ByeVkX2heWx1OaQIWiqiOhy8ECpTZU NnfsKcXKq6GFYnrVtJycCMGKfqhDXRyvQM17tRPXGXup3IQgLGimW/hDPuw2oIcSPeAkFa/X ha/XILQLxrm9EpFk5VzD8RGLpqAFhougoI7cY7FMnsOC2poPauhNN8rAUajNkaAtLnmI8Ml6 Hk9SZyU+SCQOhqOLv3ccN+tuCGfD6v0a6KVpp575oX/tesiM30ODlWcW7zB78GxbFHDEThkJ oBDkDMVw6BntYDLXnLJsKxbQivsLeR2odVmzfA4MsU/cG67RzpKcjUSDnwVwZaUEb7iSAiCU O5dkrkQoWB4Ka0V74u2und/1pdam+L43x1wNP8eSL8lzAfyin+95IM6f40tHt94Dv39/YNV1 U35xXXooo519rNWQcE3JuIz65zLbIk+e723s92MC5nES0UrmSG5gts0QYHpVudt7MjTSH1PY 7wcyGTuYU4BQsCnmr129Bo4eM8mVbIsTPucqj597b+fZNUMlCvcjDWow6Ys+pRc7ayGu1z40 5VTpdObEgSONYcjDsCmvVjGy/6jpCduyOkgZoDd6i1q6U1sf+mhqobJte88tKU51Cs1Qi/Gs cVYdyDOgvxe/3zXoIt2MNXJoKsdTEC3vPN2ynf00ZehrPQsRdgBzzjOw4TDYVgEVfJhbwMqu RosMvgllBIjlV1lYRMqSV6lFuzsSW/y6EijuSc9T0NLBLLw4BDWf96NkKz4562/po4iAGAL0 mze065/wXvXfR/9v6zes1BtNDNHQlAjLCBgnLygzQqoutxHuE//eF3e1fdY8mPjaGyukW27P LvAKFVWyFVRLlwf8/dcX2T7u+OSk+8vEnJW0MeHaEWSj8CtyikfDiztp9M04xz+1IM9Vh5MD x6RyI5FrYRiX5hQnbt5KmCW4TAWt/nglIZlk5vAs5j2ZqeuCrE0ewIMlGQcqXNO8qfCcP9S3 Rxdx5RlQ7WYlO2U/rJdsykJzqiX3iMkn0MrVMcbeN62vFuLBGEf3En4dqfm0IFCjDxHxiArt XfrlfGDdG0J7QwtQmtqFdiQ9IRkSFBTJaZLwGoWKk6ASqeLmpVJfLliVpE3FTnNBmDh0LRp2 iSvamd3LBK6rbjCe4Qx94NQDfb34YO658Of7g/f7wvs12DAZHKrcmVxsqO2MX19vvEbH902G 8WsMYAx5WIazf/3+RiYFi96XRpcgFc69cLnh9bpQEqIA0Hek1knFqePqxraUcrHiCVExAIUC HWw7ELHOi1YMCu0HrSTQXXJjEYhOwl79gntlqWSmrojDTCl1pJpMcavJzY6SF9v4oV8n4YLW tUd2c/UXkotwiNMnMqTsoOELNf9Uyz/7VXp/6FbVcm0/2Ck7cBr1VUJNiSo3s4PEmdDCkDvm /lNn1SAD/VTTqne8Ls6ihTD3MtR/rjXtJ/cwGXWIWVPqz8cT/OOhx1KzIg/zlKDEz20H0qIJ NQqMHGxA+mjup2ZeW24q2VX6fCiMU0t4ISOo3S1LSVLrvBqVrbq2EZRMWW1kgsXBvs+QYJJf lgD6BmyUJ+AgAOW3yHFfEQi5P7p7KkSk/kP5LqKRo4lKVYxcqWVCB5gg3r0z/kGm2JsunVNA CXSghQiUroFDJboHTNKlqgw+NhUvhmjm1QNhniNeoT9jTrVHPY1yK1dz/Md//Ouwe2ooszPl YOwFAE99OStrkQbp6R0lxDhnObYnHBwvMtOyHHA+zL2fpKd1V7tVq57BxNHdgRAnrdQP1TQp 2HSbiB1VCSixaq6kTdh7lWgBINfCVvlpxthWMd8DZHUKkIlM5ElZuNmIO1nojkNw7TU67LQ2 2XShKkacKiC6mihqDplCwFqBmZQoeV0XjScYWte9WbG4430NtHc7MwSRHB4tRHKLYdRCGMNF QmpRtWpiiMrQBGjObnX96RQcUJBXHcvtBnGmMEq9oUDjU64pdpgCKjP5dtAhc4gb3892w7UI rzYdjrvBOpOXj3aYsEnArLePfqZaWnc0hPh2G6gGStXBBhg4Dl1yJHtP7nqDaRBK24WN1cKc ynB34KAbChEXEs0urKBu7O8/H1wXO4cNUt7aBb/WnnMil5E06hl1G3EQPJ6PIWD49bp0q/Ng 7GNQTvWDiUJxqXU3eaHQTkL9Gg0RTjGEWZsfJPzkhi/F8wrZANCrDehCmpi0GdKBtIIideuJ TKB2sWWE9NUT99poypLTitpreL/GGXxEUjHy9eLv7M0k7bou9MENDSX9CQB7avJEsba1hqtx dcZUTC23+CBfOHKeho3Whob6pcAMoI8HI68pl59OjJqv7I2Py3BZA9WyiQtcg0nsfa+jeZNg V6smZeg5ycEfPjCaIyFFzSyJls15fge+3hcHM7oL3+fGaheatSMeuRcZjoGcxQSQmyDSu40T Di35enFz5YrJoPsZ9FeZRtdusKQODQNY6obbeeBcGUE6sgfRu53sO9euUzPg16+/ydb8kD36 1y+u2fr+LLJwzA89t3WHK+4BgPV+SIU/958dSTB79HBKtK+2JJk5fHOWjHkHGzAFn0Ka7VVe hsIKVOtnSrdVTZfaAk3MOw+vvD5r5RxQP8CyiRJNDZk+SAC9P/cpRadq8evqFBO8qMt331s3 XmCUZMEru1raKwd3fO77TLaM0XA1Q/N+Slq6dfLpaqFAD+1EMbE1jwE4gfpEyXXlyUQLdCj1 ooq/paQ4C23qHf/z//2XRpuJnR9pL3f89fWF7/t+2CQKGdxuyBVdnrRU7jqfQEnWaxiiNT91 frJHdMga24SdA+qRO3Ys3B9SjV/XJZf61OYGJno7Am/r2CvwLfDo/aIO7Z8/H+xIvEaVmXFo VmbGw9VnmLd07jabUj8HGXtr+MylliqnWgu7v66BX/2FKTF/zgMJ7FnMf0YTVR0b+yMdPxfd Wh6S7dx1SCkAYP/7//l/p+tDIB/gIRK6mW80d0w1VIYmJarsqAOr3+tqmFDNmRZLEgaflaE6 TbyltYOcuutSttBUSFfmXFSfeo9Cs0z1vRlOglgARALPdsfUpIo7lR+UFN1zakOSi2Pezu73 6tKt2Ojm2gQZZ7okgLPU9xHdVagUixbySNzpwu98z4m9OQLeJZ/C4iPOPF3d0KbqpPenP/9o 5/A8mzOJTjzbG2t99teLOvGklO8fJIoxcNo9p6EiLrpwb3OgZ20qYqwot0+QonhyxHzlEJDz Wa19lsa1MgL+i9KVOVDpKc+YJ2BtvC4ieFyzzX0moz3COc2ecaKa4lhrU99GYsCRRVTgzR8S 362dspU41ioul8LDpbVZmXbm7QqyLrJmCfP/o7ttdnKgllpiIETOGmP95yP8QIVRCRC3M1lr MBlFeazRSBWv51DCzJah3TE147cwY50JoIhiEwB9x7Np2O2nlbLkuCXrVXXq0i0s/thpMIDl D0X9peselOswqyRLvfmThAHDHWaBlSXM63gNftC5VMo0w/AulegfOnCFPvEEDgGCvH2eZREL Y2t7QlBTtcSND+8u8/xerfvcVqQPAj0lNbrEcq1GDzl/TFJry/GJ8/GD1ZcS/gUf2gouGDiD iwqVrrn1pQUIod8zxw8JtYKTH2IL+xpl+P4MgApBhNjC/fNZGFfDSGaERayD8OTv7xvmhtfQ +M5+kJ3KKMsNLcW32qvS1Gxp4qnxc5GF8wnNaktGY0tZ0pvBWkeLxARXbsx7ARfwpVWX9yK4 ctShVXK17ug7jxhubVwoTtlpUvSGUo++Y50mUQFSXHnl6MlBgdzBaVR75t7LW5hT2XneC9sD r0zY6E+eoJ8vXLxKkQZDuy683/08lCPS1CgpvsV/d82sQfy4tdbxiJeWFZcooZ79UayoVeJX UYUA7mVraoPtXZKSz3+LUVM6ZW7AfgyZsUIMlZLDGsYS8DW0wtNrDms/zZWVdEFmyJ4oeW2q KE/F+4Vf7xffo7B2Zdc7E555yB61DAAdkgkJWAD3fet7kbBxjS7UTA2M039Wh0uJJjRcGclQ QWmuPC3Va3Dvuq7daULdwhpqBMudwEoKq7fCRWDoo9QkU3PpWxWJjLCwEdfsnUtfz41KVyH2 LVEnfvZN497CMr567b17Xre/tFW4RGx+qiyemfJUfzdw2ClmtPRiwyaEy0ftY+EHhQ4jduBe lb2SldL6QMlp06jaA4Ua+ffeHG/VxWsG/ux5kMKzkFc1fOHRIZClkh0uC2wYQtVgz0ZCyE3j B7NlJw3myHlHHtoxX88RpxvGmP71upiFn1k2ihqVYJDpc5iIFGyAVCuYjJ2irnUpUe3Ig4OU Fi+AA/bsSOzvqUXENYf4jDkddYtIwrb6vl1YzKOo8N8Jd2KWVlbJzPXHP8c+Y0CAtvtWEpNV U0LQqwh7GgsuUfyy9nEV+GB0trrFqfxgSiaLDB41cVptGE6U9yzCotdsnDuTTwik2fsoXboz cUXa0bcDiEFx+oTt3Ou6jrHXORU/oIQKOxy9cXkedGli78MB5DpPlk57LpEoqm/Pz8zp4UdE qaoqUpp5IS5JstRIFaeAGwAt0TV5bz3GgloqJPQlqLN3rrquldMAjvx2eYJMMk43nGCB3EhY nlKqa8wZlcGnAS1gzl2qnMmma133OoJ27o6Xjx/TMlBniJAiHyYtOE+54odwcU/uPCHGgDPH boI89+ZtnVtctyBTBymiJgKxVN4J+dp7YbSObFn4FEp8qIYZK68grmMw64BUMWvok+xaDR2K pYogmrY2pcWvPjjVm1V+LgSa1ns1Ttv4Ool06w0vSCrMpIAlAmQ1dSqvgOEwcgBw7eY9Jz73 wuvqeI+OewbueWPkeOprZYKhjLI3Snu8rlo6/0C1lYxuGVHx5bpxRnuuJ0kxB7FksFbdi67O zPH1HgAa5T7Ww/+u9ufagSwXLU/BpTeBey9cMNxr4f2+cA0mZf/+/c142pukw/yEJ+rq8Pfn 2qdBVG3aok4dKrEQu10ASGdfvIT7ugYVrLxXFkeem6jeGEcA8B/Cxt3huGgYOcX+lcqWGVYG YlLtq6sKmWsph1BVpfplbnrGBM7n75yjEvd8b/jkh6YVPtJY7BW7lJbpR02gBwTyL7mfKiEy k50iUYvt1uSIDCNaMFGbW3PtQervLjOmcgAAGQ5JREFU3miNlcRaXG7Hubg8ZZFHUGkJeZbh ORrME9h04VteYN4TluOQMW9N1gKG+661ZFy0E8mR31vG+devt0CXSvgMJf439+agItRlW3xP b473m5M95xZWuNNyvpJMn4tbLjJrZblyC3uGP6okpIHSAKBLc1280fcKhHKbTJwV6LEDH+2Y Ly/a596qbwkATNQedJZbJWRTpVkiD65bhtJ7Z9z06m75mSnjqqh2AJPMgBddSBGH4EGixpPg zMB/f9/aXhSAHvgY7R/1dY0gA0Ww4HfJRhf9GgPfN7dBXWM8ZY0OYUiDfUq9gcxaw6/3+0h1 1QxZ7MCaz4B/zaIxl+W41nTDr6+XtiRyWQETYqk7R5ytD79+vanpk1shBuQreHU9A806IrkW pLBzCYaga51XuW/TSFbRrULDIkCNSqE8FJOhYQa3ODexDcGQXnva+Ijm5EpOa4arNdw70JNa MOj9uO+ueDtM2nG6+Xz4i4bhDtwb9z2x98brdWFcHSOBjxGDfgu8SIiNKjeZznCQadjKsKEh S/bzgTY6rk4acOm0lMBPrco+c99z41MlmVN54zUGu2Cm9mYNayh7TlGQoRhbZVv1MIv0uNSp JOOnQB6GhBIz5qKFBNRQYtFEAwSIkXiTILHyp5paaQdXf3r7iarhyUn0SoQg+RE2JPxgyrH2 sQoO/f+wbsNpyps72x9CxnozIBs+c8oYmuS3RZiUcuR93yIiNlwCSqqLVwnW+zU4i9ak1Gw4 6FfsBJx95bWe+Wt6H6k84mHckltWq8TAWJDUsvv+88EYpCa1xh1ukYnv7xu/vz94XxcTtlSC ZI/kSkbic89zTu/XONUGBQikSKHQCGcH7OsoegHZtRe2P6tDfnYPe3d4EytGZM/ydJxVa6f+ 3ltbmoLDp2NQS6d3R0s7lUn/zIWebLtxS0Bo7JXuYTQ+RE6HOl6DD4PPuqDAG7jt8LRqDXUg 4W/tfwFvXtcaiq11IDDg9Ron2QipQY9OYKfmxCqTp1KiWLHVFzANYKhVWveErvBp0EChqQmo 2EHsAKqf60/x7tYO3GDHawy2Kz/3xL51uxo/X/HcX1fXlMvWYp9Aezfp7vmhR8Gpf58gruJq 73K2vRqohtBnDlUeAMSdoyzLPSfcqe5lpiFFXIieR1MfhtOTuFUKdoruARuO0HqLuiNLyNaS uFDRqMzp7pYUkVIQIMX2XTvC1JkSSkcC3VPLl4JC4cpdO97WTEDdOVd3rUCRevCRQdcK5iPw pw5mw0EAiEoz709Hby4OXDbRlWrCpG5sCp1rw3FF4vszMbrEeHfg833j87kxxsDXrxe1coSi /fmeKh8nty+54qvKjZqTM0GHh7otGDtjHcIIIE5baopI+UPlLekmhWliIJWMjkZW7VxMZkPn VvkEAPSi/2Qm5jfboePqcBhXVMv1c5EeP3z1kItb/XoNwIDP9405J17G2FzUHa9GdZUkZshG yTJL3u6ZWumpEgb6/9V6dH0Ob078X/mBocM9FSMVljTDtjb7yE3yJa4RUSJuT6+XHSyRMxt5 cJbUv7+ujrk37n9N0bKcfEDRo16DXmrOhe97nu/ozs3Pt/rlTQjZUvjYWdBvO1Spey3sRSUO l/RJQbE0VA5L1vZlq+pkbiQ4JbTGI5bYesdaE1Prvw4MW7u4zUwCAeKteYn7sOnfztwUs/Ze zQaNJPXW0H994Z7zzJI3NfmBpMITTGL2htHZL+awAAmI+f8Xd227jhw5Mpg3SW3P//+ou1uq zCT3IYJZ6hnMAvu0BzBg2G0fqS4kMxgXd7weok05e2jXpJ9wqAVQGitRrZXlVpqy8WoHqEn0 L7V48xJn7Pn4A16tEejCHChMCJQQfLzJ1/PFI2Ood4/nA3uTPrUumhq0XmUgMP9wy1pOsmm4 uHStYl9TJXsKNNGpaKsfVyBroQlhzOCi7SmN5mfPjJZwXuN/fv5GBH3vSzWM4Ms31zqwdsve w4C9RpWHiV9VhRQJbZrT8dkXsKH+bWf4+1zUn43HOKvFROwigLBAMREvNP2ipCUpuWtEgkwY PnCtjSFRveDx8+CxxN+ChdBbbMUExOTxLR0WA0UIWlKJ0+Cg90a/Nw1hXWfjvdJrppye7puA CdtUpcbe/ezCk51CC+7FlAWI1SMtW8qaDDjlPo9UrTc8emf7Cfbp9IyB80WxquSG41xt6I9G uZgxPjyTtobEEdtTvROkQKfmKS+qL5ndBagP0zkeEJ7soLghAs8xYHA6VngcyQ7JC7ghVBfb pdg5g6bWvRiO+8Pezt4fpG5tZ188Ibjx1ZuS2ABh1kh2iMAfD4S49bQj8wNjpg3J5zP/QMW4 cTQUi1MlauFq89iuOGnSo9WDKXCFfMu9U2hIihVOSeeKNc7Qur9SpICkGugaRwBLNmNO6nOr Ny6QcSTqUiSdDt0rzVzEJohpzPTozzIL2KElLd0wE0F+TydyUPipup6++VnwQSgQ6jXXWqfk 9laPd7sVg7dAB4eR0KDCvO9Om4wV+EymPT1GQ68Nay+tE4FuvMgc6Nib6U2r86n6f9WRZrlj Xwujk1J1TerY+2h49IHaTCxXDWbPgVJMcZz0qEvq0WlpQuOq9vGP8cLns7Q/UN8UduDu5MB9 MXIMaUUKRPq8A5Ra6HrnHOMRskpXN9ZgjZzWBZq9PxNrO2rhw1vH0MlkIU0mTOeCMKC534zR ZFmm93h+wMxEMUiS3AjEUNQP9GooyL54e8CeYNl6DxGJQ0eQgrWQq0c7XmoAeBwD4JPlp9eK x2PAEJhTK8uQwWAUmuzk71ALqQgsyPYLgBmh19E6HoPcuNfLMZe2eyqpqbypX2QR4gd2JudM i/i7v2A2j5ZcX5JD52HeEphptWlRQzLHtK0sGlp/wXQsdcGuULpDiYPLhzuiJIdOqOIqp88H 5JYRxCrmtdQCcNhM7XNdsPpkPygFowO5QmIJksigDpZ2DRwFt0dphInc2BDm/LPikDXhz0dq W5xhsOrL6X6Ux70MrmFJxCFGGgAX45UDOm9kukNnfEhAAJJxkfN6ltu1upDHbgZ8hCzWL837 mvdqNXfueaFWrJOR6tAmTLvzvbcO3FCJFoW8OkbnShYmr1m1GlbxIB3aDK2F7MorLJ0ApM4J LagqS/MXvQoH6m1BqVmmLBJKJwMn7d24dQu0CFJqUUN/kCnFGce89karDW1wpXnNKZsRuSdV CRuKHeSpFkN4OSBKq4YVjN2ak96ppGTRtSGZrk1lnVAiF0GlGODcXV+X2LCFbz7MMJ0qkHyS oV6JlOXKXSrTDGHl+KdvUcKqMIWUS2cAYbpLmdqF4wsL4JEFv36/KXnSOjY0bcMMbZYj3IDf urXtGWDAfTv7c0N5ED5GKYgdh2GzNP/UfnsBZAKEKSyBEG3o/y23y1oxAMyNw2HYKGh93NTn VlS6FsGKZG5UGfHslEiovaPyl08sHatUukRWWHOf1nFEFFrEnLKv8+OS1RarAvtxLkNMNy/M gJV7er75yRpN2XI6HqdZ/t6mYZKzR/bkViter8pwWvC0knkn6YtT5WvbSoJVokKhoA4OfJxJ KFbIVpCnBrTKZAUNZkXlO2AY4g8+noOMmdP6ikgpG764JKLIQxwBTWkcUR0leCTme+hsJTI3 SMsWExGGJBJHYzBNiOnBcskFhUpdp5Q00ax93iImBLz9QkCW1xqi0k8lgYPtjl7aWcMC9JEd XRi030qRa67zhkXoi6rX8ghTNYWLT6bhs+bGTL3WEBh94P35HG15Bt1SQ29AyO9dLQiW6hqt fyPwmTyepWHyVqUJY6QnANmeQo5SekBU/t+fi7NHq7BWDnZgZvAZJ0rkMxfX0CNhamrrrskM ODsesVpYAXj0hmtRTBHa+78/EyMC17qHxtfrQR18beTbp3XWISd8HaVej3Hckwj+ZxIBzs0b ox/zoYB4cR4AbpuM3HfTRos9OcC3EY7byEBvk2tXXiBlqGs/vr987mDi4bE9rc8GHvySQ3NC aQX7CqA4elRUrSLDAx8xgZIP5/m98EVZxn0Uqq3eNh9GAqJ74Pl6cADbUstGYOmcjAI8nw/9 PzQk+s0YLln9CqHpvRLl5FuZxguJYO/ww+/HTumYfGkjEFCAj/B6d8frMbDmxvt9YTfarbe9 A8uXOFo3pYa5IO1+y1R601Y6j3eJCBnulaAJSauhAFj1xebpYyM1rBUu/r/UHPeYKj/aUc5b fiZT7dDIOFWpj6/PUOwob+nrAma1BIuUr5v0+aj9fojsfqRyKMwqkKaEuaUzGHozjE7FaFqj AMp7QaBZPWKKRAGzzFop6DquERBqKNiMQEHIEr0cillP9Y2gb8q5bi6db6c1XOef3UUlX9eG 7pR8GehB7yY2RpoCDp1NodQFeZXpgprZoTg5NFwBzEH1JFfSKaImxankAkFI08h1KgQk3P6p vbXz9qTe2vTPk/KTRI5a5BFn95HEc1O4N17PQXGCy1/G+fm7bE8ZTGSHOHl25cH3vLeMAJ1H ug1oaq40/Z3rIq4hUKiVenrwNRdKGIczVa7Ue9TC2NETEKRhMn8v3bcmfG34IFw91f4YfcZN ZeQmUq2m9YoukwXfAWygCjSrtaIxT40fdoa2NZas0XVKLh0IC5G1miqOe7C4i2EORvq786DI WSJJ/5AovxT5n97HklJucsL7fZ3VZau3eoRWZTj+c4cdivx7LlJ47q8IJ8XYKtk0tZUzQd8/ AU8Rtx6erYcyB8qzbdMbmddne8Zu3MiciglLfhoulDQp2FTQaJayKgCqVmQAQDJb//n5Rvx0 9N51f5LFsw7mYXrjS1TsHWhVNuHwQwVfWw/YdW0uB+QLvlYGyNtZaWZcpbtj7kCxzWkdOFJa qkI5gIR6sglV4vMNBsf5HcSz9j6yqfiCWMMvQrUqpfc9SQ5O3ulzf7DnOqKFmp/FN37++iC9 XnHKuB3ULK23sqSbpn+OG1zUHPEigL0ETmrgu0QBAxJ7CBRxBgJxNpj0zmc12O7aCAb6aJro 42wDz7UPwrihP5/SplTnDiUmA7jh4Eox6Wh+OHjJ4NlOjKS9XkPTbaGVoChI2bs+n+smI4Ix nAQwOlBu66oGrgOPYqTeVuAWPOPOA2a4FiFUwjYREqxUzLVJ5APJBb3fQyJXqUTVjhDjHEWk sEGg1I6M7f58ruPVzrekwJdjFs+X++s9j3MeR9wlE05ptX3NHWNwH35Nfh4TgXSvLaJEmgYz x/ZOfSwoAdSSeweDFb5QGw6TP0y+5RGB1+uB4bcdKreNtErlDY1TZ2spbAegAujznhiPLgaU 4OPRlZ2qpUPR2TihdldJGo3/LlRGxhgoBqky4sCQx+zH4ggR0nQQQaYtj2hNKBXtxkurd574 +tqeqVckFJq0KLm08m1SXMauqeUii/Tx0EvNmn9oRp+lY5h21revzl1xoJuTIs3Xk9Xw1+/r tLtTaRCQZEImvgFvPKZube542mByojegtEGkUBSoOUM+AbhvYFXf7gn1/aek/FbOFqDSvj2t 0Gsx3nAhjhOLcLAVw6gMVE9Pt9oqQiRAtldx10UuDBAIaIOifZM92NZiYDQuAnJdaMUYuLMn Sqlnt848MsZCMz6DiUQ9XJJn0bJlJ5IpDolQ5UVwMWNrKXKpkqFw47k97T23b2zD2Xx9rkXh RW7OKjXv4HN2RAq9GD1ql58b8fPnm9ajiKMUNRh+CBTJXt56w5qySHO6WtbC779XCPFk2lME 0cS1Mk2KPvVrs1Sj3MBRsYL3+4PWu1i9BSYmTb5s29leko6TAFLjEFHQLWjuj7TfkD69tHPM 4qKg8qhRmBq0w0GP/1wpBl0VDzYtQ/33BwGgN4dpArbNnbm/Hb1X/Hg9j3K0FByNOPiisjRr C0jtfAE96u9+uqsj0JRZhnP0yj7+vc9urTBq2/3QvCwdpzwVKYSPkxf3kNkvJ2jGbEWAswno n1MgmphWrHTmWKft0Syw3mdqd5iu30pZtSXtKwBs2LrxjWQnj9HPbBABpOAs2bLJred44Oc4 3EK9gtOuDPtUEg04yUpZovM8G9sx9yJG31yh9a7yHzAhR3NxlVkry84tW+IEDJAdO+ftMM2E 5IquYpcxoAWZfkAeeA6XnLq1Er6AVTceT5r7HBmQJUZA4WBWr9tw0O6KIJAq3NFbPzq5kz4J HNlQlgWSRQK9OTagXg+ELno+aCmAALjM6lXwsvbjxwtOb2etlQ+06TSx4rZMLwUIZddqMncB QEnPer8veQ+UY5rQ6NkamM5wmIh0dE63iDh0ZxTjjfzar7s7ihes4ghlfYc+4JIBbysV9kjb EQEGZrDCaEkqOYkFsHRvDW8Tj67tngffwOANrOrjOX0nNLyFdrk7VuTJoxxGKqCKod9zgyeJ 4QMIeboLVCk6Q2+P47PKuaWcPftzGLbriKtTUEtBZi3nvF/EsNmiSAPiA65NuVIudL6m+BDo VaxgQ0pZZcARydSZxnj64MNVdJLZh/qWAUaNZ13dMP3LPup5AtfaMJ13k2C/Lpa9UTtMm9DD pS8y8FMv52R+m+T7vpMWng/g9ejovZI9qgoynh1dESHMLEn6M1AB1Jo8Nz8DWCuG/hx/rB2B QItMmdKlkalecfLzUk5tIMwZW/tto18Ez/r3Bc8zuZnBGjAqeypty6mESXw+4VeVA94kHYeT 1ZqDLWFmAU6JhpZCsYWqWgJjyeYpOaTGzaBxY2VLxOSvH8+jFchb1OaanCpbxbCuD0PAZa11 rCqT153Ox1bKcUBIrVoR3cgNKMHSWAxH+kyxAntbaEhaLiTMElgBHq2ji0P++3OdpzRbTg5N yx1JpS5maACOp5sTuXmOcapL5qFQE0y27VDNS617QIkP7prKAbr7izjUKoa1fK0AgwQXOH9Z EHHjFB9f1uGG6uV+0AodKRJcshMzkt6vhSa/aj/J1/d109Rb1c0XB8J3ObjB3o5LX573SDed 1t536hFLKDdsl5KJEwenQ1E9N9F9CxES/KiN2CWVKgGffcx9SjU0kC2T4TYH/cs1aeHRBvoM 86LOq3Vyw9aWw9OXi1SEw1HkODHPkdMAPNWTU0aUFYkijYXSVNp1sfNeOgK+QjciUyPKsfM4 njoJtADnXA0j7Jmc/a2X4kSgHRs3wd75zx1naIbe1PG4DZaWb0HKzrCForQoYSiMKAWAmwL+ /lxncaNLhtY6GbC1FSAMl2Qx+YtrqRgPO30sp+kwYAP46/WAydkxP/zeXMG2QvuukKthHhlI XABqkB0ynaWtdLklR2CJEPh8dMGzxO5jBlMZe79TF0xRneHYIThSurGttyzPw0UtJ4+n69po gyqZUu8hCwtw4/xSG46Y0dcdq8G3tQCp6wfODem90VbF5RtnBePBHn8tSY19I5TdXpu0auK0 uQY7iOSSjJ6zex+sau/PhRFdUmg+sZn7NueWrTtHnuP3noMK8eB1c+SQxAduyRoqmR7gGboU KVZLQXtWbG9f/K44ZAazO4YziQ2cgg19dFloFazC+BAzyFCQL/zaW15v3FKN0YCoB56lotWO 96yrvBKupKLk85lovbJU8gCNWgv+9ddLQEs5M0u6WiGYO9u73ToAqBUEkJ5xMA6+c7NtDRkK vq8Lz8648XSYuD4bsDjyJhJEpUQJO2KM82N88Ftr8DmxFgdfBxRXtsS6cWwURPC77D2xnZWW Jg6hFkRf+Ab1Yoa/lZP7aWZAA379eiNgeI6OHy/502weoXprmFqvkrFBPho3W1xDjt6x3PG5 LtpqqH/13o4FGBkl9VyAtcQ+qVUkjIlSWAVyoAlAzhk0AM5dflOPpJiBNzzc4avgMpHzjHkw dKa+o6bvNTFgAlyotsFZ7d43hOeLpCndAbw8G9syiT6kPPE7K5UmyBVJ1fr+4cvq58EKD9TB YTizUoeSGfd2/HjWu20IuAkDmjjxQ7NRplp5BNrRm3ncv+isNUgR5maoI2BnAtf3wz8/P0xm GEPrwXs1ec2J61qMw6wVr78HrNBI9/f7g9+/3/jXXz/0sN1GOk0K2oy7zCm9amWb/jD87Avu fPlPAoXGO1aJCpNcOtz/eGOLGX69uRYN50KklYbxaOcz/H7P899y0PyTlpVn7HTQsnPk4m7h fbHKGChcyKp1yZzgjANSESUUXo1PwJxTDxQzbDLggBoYnGx3mgmlPsHg8eWrX5R1F3TKaK0y T+wT9+RY9MQBnLwZvUV/E97EzAeX6Q2UX7J5Nkfhcai2W7vF3LaNVuiW1GqFtXaMhi5tkRiO x3bzueZhjtZqiNIQKzPMIOyfAE+DpLqTTs25j+6SAKeKs6u30ekq0TDh7pCrxLbj6JyAk6qt 5F12lL2Y+5Yag7NPtrcdZK6krGjNtEZrZLDkUkWo3A6RIXc+VI7nGLgkGMnvkpQ1VhnOBZ59 BzJ6Eh9zTlcqpqGOhj4q2nXNw+cCcMCKEPr/EB2q1YqyHdYlaBTm/fv3BwDguP1eSgHQuibW Aiz6nu/tiJG4ttCm+Lc+9n/8eTzYp2lODOQqvgkBzDzT//aTkaEu9Qki1a4UMNr/+l////+8 5+IxWQNgWp9mHk86W33//A/1qtcVqFJXYwAAAABJRU5ErkJggg==" />
    <pattern
       id="Pattern_1"
       patternUnits="userSpaceOnUse"
       patternTransform="matrix( 1, 0, 0, 1, 600,-325) "
       width="125"
       height="125">
      <use
         xlink:href="#FlashAICB_Patterns_New_Pattern_Swatch_3"
         id="use9" />
    </pattern>
    <pattern
       id="Pattern_2"
       patternUnits="userSpaceOnUse"
       patternTransform="matrix( 1, 0, 0, 1, 725,-325) "
       width="125"
       height="125">
      <use
         xlink:href="#FlashAICB_Patterns_New_Pattern_Swatch_8"
         id="use12" />
    </pattern>
    <pattern
       id="Pattern_3"
       patternUnits="userSpaceOnUse"
       patternTransform="matrix( 1, 0, 0, 1, 600,-325) "
       width="125"
       height="125">
      <use
         xlink:href="#FlashAICB_Patterns_New_Pattern_Swatch_8"
         id="use15" />
    </pattern>
    <pattern
       id="Pattern_4"
       patternUnits="userSpaceOnUse"
       patternTransform="matrix( 1, 0, 0, 1, 475,-325) "
       width="125"
       height="125">
      <use
         xlink:href="#FlashAICB_Patterns_New_Pattern_Swatch_8"
         id="use18" />
    </pattern>
    <pattern
       id="Pattern_5"
       patternUnits="userSpaceOnUse"
       patternTransform="matrix( 1, 0, 0, 1, 350,-325) "
       width="125"
       height="125">
      <use
         xlink:href="#FlashAICB_Patterns_New_Pattern_Swatch_8"
         id="use21" />
    </pattern>
    <g
       id="Layer0_0_FILL">
      <path
         d="M 400,50 400,0 0,0 0,50 400,50 z"
         id="path24"
         inkscape:connector-curvature="0"
         style="fill:url(#Pattern_1);stroke:none" />
    </g>
    <g
       id="Layer0_1_FILL">
      <path
         d="m 382.8,29.7 -4.8,0 q -6.25,0.55 -11.35,2.6 -5.5,2.15 -3.85,4.05 1.65,1.9 10.85,2.1 8.8,0.25 12.15,-1.1 3,-1.2 4.15,-2.8 1.05,-1.45 0.35,-3.05 -0.5,-1.3 -3.3,-1.65 -1.15,-0.15 -4.2,-0.15 z"
         id="path27"
         inkscape:connector-curvature="0"
         style="fill:url(#Pattern_2);stroke:none" />
    </g>
    <g
       id="Layer0_2_FILL">
      <path
         d="M 311.65,42.85 309.8,42.2 q -1.4,0 -3,0.75 -1.75,0.8 -0.8,1.4 1.05,0.7 3.4,0.75 2.45,0.05 3.25,-0.75 0.7,-0.7 -1,-1.5 z"
         id="path30"
         inkscape:connector-curvature="0"
         style="fill:url(#Pattern_3);stroke:none" />
    </g>
    <g
       id="Layer0_3_FILL">
      <path
         d="m 356,2.85 q 1.15,-1 -3.2,-1.15 -2.2,0 -3.95,0.3 -2.15,0.3 -1.35,0.85 0.9,0.65 4.25,0.7 3.4,0.05 4.25,-0.7 z"
         id="path33"
         inkscape:connector-curvature="0"
         style="fill:url(#Pattern_2);stroke:none" />
    </g>
    <g
       id="Layer0_4_FILL">
      <path
         d="M 250.5,23.3 248,23.2 q -2.95,-0.2 -5.15,0.1 -3.1,0.4 -2.85,1.7 0.25,1.55 3.45,2.7 3.3,1.2 7.85,1.3 6.3,0.2 9.25,-0.35 4.6,-0.85 4.6,-3.65 0,-2.65 -2.95,-2.65 -3.95,0.6 -6.05,0.8 -2.6,0.2 -5.65,0.15 z"
         id="path36"
         inkscape:connector-curvature="0"
         style="fill:url(#Pattern_3);stroke:none" />
    </g>
    <g
       id="Layer0_5_FILL">
      <path
         d="m 209.5,8.8 -2.35,-0.45 q -1.05,0 -2.9,0.8 -2.15,0.95 0.05,1.7 3.8,1.25 3.85,1.25 1.4,0.2 2.5,-1.25 Q 211.7,9.5 209.5,8.8 z"
         id="path39"
         inkscape:connector-curvature="0"
         style="fill:url(#Pattern_3);stroke:none" />
    </g>
    <g
       id="Layer0_6_FILL">
      <path
         d="m 268.2,27.5 -1.4,-0.15 q -1.15,0.25 -1.65,0.85 -0.4,0.55 0,0.9 0.8,0.65 1.65,0.85 1.35,0.35 2,-0.85 0.65,-1.2 -0.6,-1.6 z"
         id="path42"
         inkscape:connector-curvature="0"
         style="fill:url(#Pattern_3);stroke:none" />
    </g>
    <g
       id="Layer0_7_FILL">
      <path
         d="M 269.95,23.75 269,23.5 q -1.65,0 -2.05,0.4 -0.35,0.3 0.05,1.1 0.4,0.8 1.9,0.9 1.5,0.05 1.75,-0.9 0.2,-0.8 -0.7,-1.25 z"
         id="path45"
         inkscape:connector-curvature="0"
         style="fill:url(#Pattern_3);stroke:none" />
    </g>
    <g
       id="Layer0_8_FILL">
      <path
         d="m 268.2,20.85 -1.45,0.35 q -0.8,0.1 -1.05,0.6 -0.25,0.45 0.3,0.55 1.8,0.4 2.05,0.45 1.6,0.1 1.6,-1 0,-1.1 -1.45,-0.95 z"
         id="path48"
         inkscape:connector-curvature="0"
         style="fill:url(#Pattern_3);stroke:none" />
    </g>
    <g
       id="Layer0_9_FILL">
      <path
         d="m 165.5,17.05 q 4.85,0.1 8.05,-1.7 3.1,-1.75 1.1,-2.9 -1.7,-0.95 -3.75,-1.2 -1.8,-0.2 -2.4,0.15 -0.85,0.35 -3.3,0.8 -3.05,0.6 -4.7,0.35 -1.95,-0.25 -4,0 -2.15,0.25 -3.35,1 l -0.15,1 q -0.05,1.1 0.15,1.5 0.4,0.75 12.35,1 z"
         id="path51"
         inkscape:connector-curvature="0"
         style="fill:url(#Pattern_4);stroke:none" />
    </g>
    <g
       id="Layer0_10_FILL">
      <path
         d="m 176.5,10.3 q 0.65,-0.6 -1.2,-0.9 -0.85,0.1 -1.6,1 -0.75,0.9 0.1,0.8 1.95,-0.25 2.7,-0.9 z"
         id="path54"
         inkscape:connector-curvature="0"
         style="fill:url(#Pattern_4);stroke:none" />
    </g>
    <g
       id="Layer0_11_FILL">
      <path
         d="m 180,11.2 -1.7,0 q -1,0.35 -1.2,0.5 -0.5,0.3 -0.45,0.85 0,0.65 0.25,0.75 0.3,0.1 1.4,-0.25 1.5,-0.5 1.7,-1.85 z"
         id="path57"
         inkscape:connector-curvature="0"
         style="fill:url(#Pattern_4);stroke:none" />
    </g>
    <g
       id="Layer0_12_FILL">
      <path
         d="m 180,15.05 q 0.15,-0.65 -1.7,-0.9 -1.15,-0.05 -1.6,0.15 -0.45,0.25 -0.05,0.75 0.4,0.5 1.8,0.5 1.4,0 1.55,-0.5 z"
         id="path60"
         inkscape:connector-curvature="0"
         style="fill:url(#Pattern_4);stroke:none" />
    </g>
    <g
       id="Layer0_13_FILL">
      <path
         d="m 127.3,40.5 q 2.2,-2.15 -1.8,-2.3 -3.65,-0.1 -6.45,-0.05 L 117,38.2 q -2.65,0.2 -4.85,1.1 -2.75,1.05 -2,2.4 0.85,1.45 4.5,2 3.5,0.45 6.85,-0.3 3.7,-0.85 5.8,-2.9 z"
         id="path63"
         inkscape:connector-curvature="0"
         style="fill:url(#Pattern_4);stroke:none" />
    </g>
    <g
       id="Layer0_14_FILL">
      <path
         d="M 129.45,42 128,42.2 q -1.4,0 -2.3,0.3 -1.25,0.45 -0.4,1.35 1,1 2.9,0.75 1.95,-0.3 2.3,-1.55 Q 130.8,42 129.45,42 z"
         id="path66"
         inkscape:connector-curvature="0"
         style="fill:url(#Pattern_4);stroke:none" />
    </g>
    <g
       id="Layer0_15_FILL">
      <path
         d="M 47.15,11.6 Q 47.15,8.95 44.2,8.95 40.25,9.5 38.15,9.7 35.55,9.95 32.5,9.9 L 30,9.75 Q 26.95,9.6 24.85,9.85 21.75,10.3 22,11.6 q 0.25,1.5 3.45,2.7 3.3,1.15 7.85,1.3 6.35,0.15 9.25,-0.4 4.6,-0.85 4.6,-3.6 z"
         id="path69"
         inkscape:connector-curvature="0"
         style="fill:url(#Pattern_5);stroke:none" />
    </g>
  </defs>
  <g
     id="g71">
    <use
       xlink:href="#Layer0_0_FILL"
       id="use73"
       x="0"
       y="0"
       width="400"
       height="50" />
  </g>
  <g
     id="g75">
    <use
       xlink:href="#Layer0_1_FILL"
       id="use77"
       x="0"
       y="0"
       width="400"
       height="50" />
  </g>
  <g
     id="g79">
    <use
       xlink:href="#Layer0_2_FILL"
       id="use81"
       x="0"
       y="0"
       width="400"
       height="50" />
  </g>
  <g
     id="g83">
    <use
       xlink:href="#Layer0_3_FILL"
       id="use85"
       x="0"
       y="0"
       width="400"
       height="50" />
  </g>
  <g
     id="g87">
    <use
       xlink:href="#Layer0_4_FILL"
       id="use89"
       x="0"
       y="0"
       width="400"
       height="50" />
  </g>
  <g
     id="g91">
    <use
       xlink:href="#Layer0_5_FILL"
       id="use93"
       x="0"
       y="0"
       width="400"
       height="50" />
  </g>
  <g
     id="g95">
    <use
       xlink:href="#Layer0_6_FILL"
       id="use97"
       x="0"
       y="0"
       width="400"
       height="50" />
  </g>
  <g
     id="g99">
    <use
       xlink:href="#Layer0_7_FILL"
       id="use101"
       x="0"
       y="0"
       width="400"
       height="50" />
  </g>
  <g
     id="g103">
    <use
       xlink:href="#Layer0_8_FILL"
       id="use105"
       x="0"
       y="0"
       width="400"
       height="50" />
  </g>
  <g
     id="g107">
    <use
       xlink:href="#Layer0_9_FILL"
       id="use109"
       x="0"
       y="0"
       width="400"
       height="50" />
  </g>
  <g
     id="g111">
    <use
       xlink:href="#Layer0_10_FILL"
       id="use113"
       x="0"
       y="0"
       width="400"
       height="50" />
  </g>
  <g
     id="g115">
    <use
       xlink:href="#Layer0_11_FILL"
       id="use117"
       x="0"
       y="0"
       width="400"
       height="50" />
  </g>
  <g
     id="g119">
    <use
       xlink:href="#Layer0_12_FILL"
       id="use121"
       x="0"
       y="0"
       width="400"
       height="50" />
  </g>
  <g
     id="g123">
    <use
       xlink:href="#Layer0_13_FILL"
       id="use125"
       x="0"
       y="0"
       width="400"
       height="50" />
  </g>
  <g
     id="g127">
    <use
       xlink:href="#Layer0_14_FILL"
       id="use129"
       x="0"
       y="0"
       width="400"
       height="50" />
  </g>
  <g
     id="g131">
    <use
       xlink:href="#Layer0_15_FILL"
       id="use133"
       x="0"
       y="0"
       width="400"
       height="50" />
  </g>
</svg>
