<?xml version="1.0" encoding="UTF-8" standalone="no"?>
<svg
   xmlns:dc="http://purl.org/dc/elements/1.1/"
   xmlns:cc="http://creativecommons.org/ns#"
   xmlns:rdf="http://www.w3.org/1999/02/22-rdf-syntax-ns#"
   xmlns:svg="http://www.w3.org/2000/svg"
   xmlns="http://www.w3.org/2000/svg"
   xmlns:xlink="http://www.w3.org/1999/xlink"
   xmlns:sodipodi="http://sodipodi.sourceforge.net/DTD/sodipodi-0.dtd"
   xmlns:inkscape="http://www.inkscape.org/namespaces/inkscape"
   version="1.1"
   preserveAspectRatio="none"
   x="0px"
   y="0px"
   width="322"
   height="154.60851"
   viewBox="0 0 322 154.60851"
   id="svg2"
   inkscape:version="0.48.5 r10040"
   sodipodi:docname="k03_backgroundcloud_01.svg">
  <metadata
     id="metadata36">
    <rdf:RDF>
      <cc:Work
         rdf:about="">
        <dc:format>image/svg+xml</dc:format>
        <dc:type
           rdf:resource="http://purl.org/dc/dcmitype/StillImage" />
      </cc:Work>
    </rdf:RDF>
  </metadata>
  <sodipodi:namedview
     pagecolor="#ffffff"
     bordercolor="#666666"
     borderopacity="1"
     objecttolerance="10"
     gridtolerance="10"
     guidetolerance="10"
     inkscape:pageopacity="0"
     inkscape:pageshadow="2"
     inkscape:window-width="640"
     inkscape:window-height="480"
     id="namedview34"
     showgrid="false"
     inkscape:zoom="1.1950464"
     inkscape:cx="161"
     inkscape:cy="77.633505"
     inkscape:window-x="0"
     inkscape:window-y="0"
     inkscape:window-maximized="0"
     inkscape:current-layer="svg2" />
  <defs
     id="defs4">
    <image
       id="FlashAICB_Patterns_New_Pattern_Swatch_2"
       x="0"
       y="0"
       width="125"
       height="125"
       xlink:href="data:image/png;base64,iVBORw0KGgoAAAANSUhEUgAAAH0AAAB9CAYAAACPgGwlAAAgAElEQVR4nIy9Sc8kzZYm9Jxz zD3izfyGe2ugoLuFWkyFREtIqKRmzwKJBYL/w+9h271CQqxgARKNQLBoSgikviVuddFVd6jK L/ONcDc7h8UZzDwyb3XHpy/fKcLdzc70nNHo//rnvzJTg5oBRAARzIAxFEMVIIaqQlUBEFgY TAQz/wzLDc0OKDPMBv7R//wL/Od/8vex64ETG24bAQBgAAgACET5PzDI/26GuI8BBhAxiAjn 2ev964s4ngMG1QHVAVMFEUGEsTUBs0D6A53vaOhQ2bDrOw6+4x//T3+K/+If/jsgEFQVZgAz AyCYGogYLILH8YDBYObPBWB5fkKT+Bm+b2YGW55/MJb1GXT4Gg0GAgHsfwMsvq6LBP7b//VP 8Z/9wz/B3j/joIFTCVtnmA70piDbAbLa39jiJCWEg35jBA2BlvTIGxM4No5AzHh/POffmGGq 0IXoaieAHpcygAAWRmMBsEHE6vNzLRQPmASfGyUC6FCc54neO7ZtD57JTTdf3zAYEUh885kF xFwLZXKmIIqdMIv7zP/VDIS8L4PIKaRkQaABEYnbWt45NpTjsj05Ie5FToOFAYrpX/dg0hZf 0Tv+PMYoRkEDmAksAhBgQiDjer6gJJZLgwDfB5FgaqCpBhfHW/ICar7wMYZzMnNIW3B0fEJV YVCAFUQGIpcYMYERg0jnotaVGWA0N4WIAAPU/J69d5y9Y9u2+f5gEFgQ3ACOzWemIjIHoc00 lk3F2BqEyPuaAcT+dx0jfk9z1y/USFLNXZ3P7/8QqDSDqUJjbXlPWy9Ifj0jAxldJDbvZapF H18bg40BGJgB7U5oS6Ys4vt1JD/HXI/dRqjt5FIzw1DF2TvGUDBz/Z8q1gB/SAYYDDGFMQOk 8R6r/1KlfL2BSfipVocOHMeJ0Z3RbvseD7pISOqv/GJam0dJFNOSNEHyfzD0ovuI2Dc0mFlN oeaSwXRl7iupEWuk5bMAX57P/27xLJf1L48/mWjVz/Netf9gGCnUaNEMFixWbI2rpBvMNEzR 1GQtNyElUc0wNNSbGfZtB3EwRahFAubvuKGZuk2HlYDkAziXElZavb5S3Y7hXO3qViCtQXXU +ziovl6Ll5+d4Aunx4bM3ywEZwaIQWyxGeSaKt431CWVJamw6sx5T1OuNQzT2thkGF8PiixT CONOoeGu6pDqdit+eF07QBAJtjZ2TZErjQtQEn0xKI2YSyo0VAQRobUNAleb+TyG+XwXG5YM v6g6qq90XURJ3NSvabcMQGst7KW/j2mSkC9mxl9S3wYAnOT1jbZ84gkYrb4amAVDFb139D5g OqULAbTmFs97GSgAJ4VqTfMUms3o8onLRUrigxQUKq++Xp8//68dJAKxq2waU5X753jSgwj8 jWdoK8HT3rkEhG2MRRShE8jE5pf9ogQ66wMmmecrAdn61TfN38nEDhjdALtGWex+gbO8VhIc rwSP/bXFngYDOVZR9D7AZI4fzu4InkII4Jtq2utiVuZjuadw7nbY8dzDlNivAdu6H1+rd7v8 9rJzFy02BWkKUN53XnMVxvxLG2PMX5TwWdm6xutDE4hxUTdDlyva/KzCAV4y7+u10wXS0Fcc Iq2qgNkCPjSXPAV2ud4Yo7TKukH5mZXlDICpP9vQgTEGjn5CzSAsuN1uaK2Vy2pmYEoAtFyJ 5gXdA7hqQ421uXDMz160+HKti6C/CInb4knEZGCKvWwiubETD6Skg2Ca9J0ApQ0DRMQv0t3X 5fCBHZ3Y4idbqF0t00mbQB/AqScwBMS/BekdbbtB5R042yTCi68LALu0hclQqs3fOqAjfxdb q5Ya0DVDuCFpP6esxxaPEwMNDHVQBdcerTXstxt409A2fr/eHdhaXoalntto2mAzDe0I7Ftz Yo+zoJWqg1EoyvvhAlQTbSsJ1DRiA4CQgChiFkOhEBidAA7wuMMgYOpOF74B/QiQHcwG11Yp QM8+nHmF0VpzootIGHqAmkCML5y7mMMFEFBxzufP72g6QMJo0srFGmPg1I4bNYRuXKQ0rh4q sa5dgMfgCNxKY63aYn3Zt365cnUTGIsTnRhsK6SZKCXVoNU1ndFT88znCNOijoxZfCMzgFWf T/cxJXF9tnQrARynE43FozR9dMAMwoy2NQe0IhAVgAhqiU1SE6WLSuBw7yyeZahrNBGB8AQn jTnBwgRK6WMkfcoHDOIkRyQHCQEsAkFDk1bRLWEB0mMrUIdFXbl9nVghbKMCw1eGlDrfcFsI nw+h89rp96YqjOu7q2Mz6ELq7pm6+UkA7fcOAqeO1NyLCaDy9gaGWvr+sY7S4XH/MYqpjC4i gzRrqUVVFWP0Mg0MQe8do3ePOlLGHVI7aWlJSi0EhOupUB1gUAWrZkSOIiihBoj7g6sKLo9b XTKV1R9bDWqKfdvRVF31qS9g9AFrVEGJIvHF7q4MkHZogpky31djfb1IMGTGDKa3kC8Pew4o CApjRZqoigbmz0SldQpTIYHay8umIJgCGpwtIqjAVgS3HGW7xMvieWgYZwKV5wA1MLsb5ipa AXWzBLPrXoU1VHPacaD2fG5mAsAQbmECrYS5rdyBAUAATq4mtw9q6lK2bioBZISjD5AqjGYg 4vl84saMU0/cwge+ko0KZaamSZCSCNxdRU4kFKp3lbpkgOnHpvlZ78QiUBaw+2JgiOcP0i0b A3/bi4mRkS5Vt9VDNSJlQNu2sMfBOEQgswCh0++fjHIFs310jNFhahAR7PuOrW1Iyd/3Dfu2 Y+OOQQIyN1G5+tycjD4mPTlMC0mr3IKwm5rGRLHxhERnRFxqR4ku0o9FjYABDPXkjClI3bb1 PkBofpNwC/zLDDvm9dK2mSVKn36/McEClHxluytQkVB1gg+/BwXHu3SVJ4PwLlQxxnBVh4kt 1t10JL5EFOOPzrQOyEDkKjyJrh4hlABuHn9w4lq3Uvv5GtrBzNj2htbaDLbAZrwj4GG5pJQg ltBIFlyE+uxKpwyoSeCLZlBHlgEAYEHMtOXrhie3zh0Ec3M0GoCH2QFHaw28A/ac+OD6DSax 0w+pB5+qn0DzfhN3LTSYoOwlPLD8/nf/n3H3vP7FnMT6M9CRG0k8NYqOEfkJF5Shbv6S6NSk TKGpIl2yXCexFVhLuzsTQVQZRB0Dylp4heI7ZkJGulci59aMofNaI2z6Ght39aNOdYsgRu33 9K1zUwmEYebqjBjSNuz77kEN86BHo1f0+vJ6iTaVBKNwXBEktUZCeVsIZPm3JLjl36bq5wjv NmmQ5pLlQC2ZO96PTNBYIWPHjB49HBoYKO44VNGEat8MkapWwwg/OTc+HzlXnG6UE9sJlKqZ mbFtoQFMCji+bB+mB+KMyaBgVt8njhxDH6ff09TVX5MGCGrxCgcxg56116ozJ5zBi1sTDOrY 7g2DB36A4rMc+P52g5yehq2FZt4+NoBp2uTyBtRRvzPNAG3Db87BIJjxdADlwqQbROm3h0t1 iOJ2vqM3gsoBHIQTJz7Kb/GuDW+SYdOFFMv3Ax0irVzQcKYDvBFgDGmOIhUaqV7AoFAyZ/oF 9TvI03o+LAAs1+e8717J0b+gK4GNcMoDSoINN/TjgG0HdOzwXBowUkIh4TkAJg0DwBgdR8CX tlEvP73i76FeQISNI/s0NKhuIAMkrn+zHcyCZoLHSZAT0PcOuw+IUQVSUlrycxmwGG1GBSze l0QdBLRuZS8RsEPNfVAzw9ZSt8V9wkJZFSrcsOkABnCqYVcBwGgduNMGPn96kZrFYgAYCtAw UDdwX1SPhxKxbVuFhi82FY4jpDn6TrUtAIQJ1JzS57E8e2gZJoDZvZk7dvABNPOikGGCzQSk gnEamI58elxe8WMfJ8bwoFvWszTliMbFO3WVIyJAP4ZaD7ehCOYL7TjRmHEa0EGQ2wcYb+hg NGroibQXwqWqJSI89Sjb7ZqUSwOYAJmNz9CmAV4Q0Da//zguOKDCjYlLII7aG3k8gd3GDgi+ PE78+GErE5O5+hW6GRrUCAMz5GBGMPdx8H6eEGZIk1hTALy6wN2lOz5tNDWemi5Bkwi0lN8e v5UNzwHcth0mhufhpkV4A20MHY8rsV8w01C4hgJV4KyN0ef7aX4z7/vumpWdGdxtiZIfM/zE G1gVZz9wGOM3veP5+Sd8GQ+084H3MWPnX2eMgDd2O7u1hm1r2LcNe9vQmtu09364RxCAaWQo NcSjyffuB0cAYmagBMyEW39C1JkSTdDPgQ7Cx7fv8P7lwH3dpQWyTDA0075j5PP77hIM72/s knx2R/pmYKFC4j/0YwZv2Jkd7G4dqYJ4BmM8gpfmzhnwuO34q+OB5+gYA3ieipsNNGYMU/xe m3tZadrl5Yzk30ukJNs/+ie/WLHZRYoBwtDfIJMfngGT2lwQ4YfRsTVyn3R/w6dPn2Bm+Ni+ g8Cw7ftCCLfXzFwIeEfaX0eo748HPo/PET0yQOa9QJjhxTGgpng+fio8MHSg96iXC6L9BT7h ezS84wTfbmiHge5v+LNPv8b/+2dP3LXHZnMxSq4dAFi8qCRLlrQqWfw9Pwxg3zfc3+647TtY HDR5TdrAn78Dx3niOJ44e6/IXfAYGvbae85ADmYo+nMf+PNf/hJ3e6A3g0Kwa4P2E5+Oz/hV /x5/62uJxGWegv6PP/+1rdK3hkOd43t8xYLc01clkG5o7IbhAOOf/fm/QJMNf/cPfo43Gnga vdjK1cUyHIC7e9AIBrl0ZWCInitROIofFqxFekXEJYn+eqLhgzJ+Gk90AvTTE6cIfvGrX+Fu Df/2v/6vucvK7G4WL0wGAHSij1GeiwPY6R4JT+8g7XmlQAlg2TFGxuUjVVyZO5QXwGX2Mg/g 1/gf/ukv8A/+jT/CH3xs0A0Ab9i1gWF40Oma6EJlu2is9LLK+wLQ7tYrDp0+8BqiNLuvbJNs UT8PO6IKFSAw9HjgpAM0PoJoeD1XSEbl6GkWByg1DHMkK0yQeE9y/f1+K4CpZh5BW7TR0LMe jesZpxkRY4gaPkjDYYrt/oZ3APp4YNs+4q05w4EAMgIFQEuiDj2BKN9iYo8+2pQaPZ1iTkhb pCOIeTZnDN7mNccIc6W4vWU0b6KSDLGCAPQnbgJ8/7bjiQPH6BjHCWLCvhMYYZ4z6LN8LW6y FDL/VTuwVYA+mHM6+QAGvy8VK7NEOO36fr9hjAEwvEr25gTtTfE+Dhhv4Q0k0UNSgyjnwxMK ZgMmDGw8CxPAeNYOzK301K4vQuR29dERqj4YeTQDeodtDZ/PA9/vdxgIP50P/PzH38O5Pcu3 zuBMmjMiwtkV3YZrAiFU9ZZQuLER0azCw9SYocbtkQYbCvc8+hgYNKBieNAWDJUPP4tWCATd CQef+Dze8cQJ2e5o5Pb8oBM73vKDETjD1DSYYXTAq5QBoNEYINNIy01AkfJOXiW9SLdzMwNg I4x3hQQAGUSwk3AcJ9AZjTZ0iwrOqMaZlwhJFEXvij46SBo2biARkATxR9hBMJgbYOQqVv2Z Tn0g08P54gRCqrh1xUMG7krYVcF6orWGT+MdP9t30NgKlCYAJCJYd8YxjSTUMPThUinsFanE DAktAdMqZi0mgkEtEijspco2BkQJjRpIOLx9D3VXcitF0oABhpoAythkA1kDhoHZvQ62Pp3E 0qLpXRv4mJrQMsuWSYqMVS//TPECvEw3nTvCrPZYtEK6PBVEMUAkixwiU7dIFeD5bqY7hgZz hdtjBvSzo1WSK9V2BIguoSm6pISBKbGwyeEsDFLCGCm54p/N0qYCUMvC67cpBLlWeMwCuRGL aGS2MDRHVhinFpVggFQMHsG7ejn58mfNOApK4BbYlSRHJXRCEw9V2NBIf0sJXStbVsBl2csX +D83YXlfgrrLW2bGK+vdqn6s1F+g8SAASDC6Z5yyhn2oQpYsnaWGwMwjc6D71E5ppgyI5gwL 31xdIxihnyektSixVmQxYS17iRrOdO/cnmA/fyC6btmV+F4inoUNSDO57Ek+7CWxk5wFZ/zU PsjrQFY4/BXhE6OpKqj8f673NlubHUJyi+NfFkNzVcvCwhQEAEwULCIQmGfJYKBUg0gPwT/L AcrM2DFH2H9PfUp4D9eARRIjCVsqzTxEXAUNsRee/TJwy3DlQGteE0d4dyC2Itz6/AyffiOr XntdWjBB8MIFV4Yol6j+Nqtpk1OXaxjQ+4nGSWQLQgoSMrwi9aJMOCBC4ilWAjTCtG3omDfL hf6rEL7MM12rVZmjYEDA5ETPQgellMJ53dZmw4HwVj10pgMizRfHi79A3rZEgGMRFleP4Uv3 wABEYUsxzc5qVjxB1KA614t87yLWnLJdomVJ6/hH8ULar15MBKwa77Lf8b15NnFqLX/p0DBD 3Z/R1rtFLQI5HZIGxF51U7hsiTsAQMt0W5UCfa2pJ4nCfLlbkbznG0rXvZrqj+fvLjYziN/7 GSrYC/dIxH3aqFqdaUwq5qwCQ/UQeCWB0o5FUQNAaMxQHd7pErstcY8xxqVZIrVCilFind/5 Crx4ibrS3JvaNMrq81mJNCuVQyrXAv8kVxjyJjw9i/yb2VVxFC5J4Qvm6aOqnvL9rfq9CPVA E2xNSk5ihe2IqhA1AoU9SlvivWgDp/UIWKfvmP9Q2TvCAGRyNxFj325Is6Phh1qtDukBucqK GvY1UpaaJDN6OhQbCzQ2rrWG4zzxfD7x9pbUW7XY5N6JpCdFFv6+vCyEYa038C3TIhoTRZVR NpcsRMYC5BZNwCyw7qVURuRJJTUU3ElS5dVWDUKoiFwFZ1YUWRKYJbp54QJQEzSQzZyzRR54 0Kh68tE7TjsrX50Pw1FskGXWUfaIMRTP5xPe0rSFPeuQzMLZfOgpSFZIPgm+JjwyW6im4eJo bXw/TxzHgbe3bT4frtSk3ChLcnz9ouVZFps3f0eI4gmU6fOCo1k9W8aLEFnCFexSuaBeAUTF 7JNZprd0IaW5KcywdUb/WmpOkBf4jaHlq7Mw1DiqSyZImtWbBh0dTRxpm5DndCNGL2h4DiD7 u5zEXumRjtzxPIoQHNynw8uC942iisQ3BxR9Z+kGxead/YRGvb6IA5d6TmuQTfDT4xNMfgbY O9rbhp1/jttmYJ3aDUB1vGY41wtCdG5y2lxCMQNqdQnmcvO9RyBr3kFUBZEeF0g3MwkYQlaw 0dAHg88nIAMn3dE6Y9CBZ1M0u8HMq21X67BK/Vn1+U785/OJ1ratnj8Bj9uFl4LGuTak7qAg kmXJLVzKAe9A7dahugKYr7Ns+9bmJqarRxlmZdDSwDjNTiL1cemspVDHRMC+79j3HfQcIBrh 7mnVhLv0U4Gowmsluqk3c+l2pXF8T8ClnMtxwMQw0zwCZPNKq7lCvWvu9zT5a4j2xaz8LjtD 852cnklFUdWbHVJ1zgDB6+qu10tboxwAJBSKwe2HNM/bmlq0Cc3s1OoD50Olqs+kQ3Eh2SRC 2L80RZagbckbiAja1tBC2gELSe1XpotqVu/sISDdv5RWABa15deVxzqvFguwq6dTIIwWkJeB k9xbWwgbF5oawhnEkmjfqCjO/ablp8sThGYhHyYC5tkq1lJt2fJQ6aoCy6a/qDEiAsNA4vYm y64AYN82V7PGs9dhcUUu/e6Lna2amZBoHTZDtyhlMDVNbA4B0aokuO27j9wwxegdbNE2tFDJ I2BWlacpwYllXJNo9AK0VXC+koWViJcHTfYJU5j7WarXftd7J8EBq+ka66sw2CKe9WOZayoz PTL82rwcuuUv6nJUYYoCQkAwAuzKxYV0qVSzmXoBAYe0hZ9+GU6ACcqE2JsiC5JcF5MApiIR AdaYvauGh2HfvJ2KefZwAQ5i+tGj2cE3gkEVOxAWmJ611uI5m3Vs0hoymGQvEr3s/rqyBWka ZkAeX3/9V3hd3NXXV9xqelzzsabuckCsC7ZqBa5jX0stlA5bnnSxqRegaqn2opgxOXZ9+K8i av6/mnryIrlz+Vy5GxdW93sREwSC+40LEI3e6/qpxnUYjLUid7QkfojmuJW10ndqBSxrXdXv 0sQwqXP5xi7En3+a/XB5v2/Z/PUDqL1NbXxVOvHvC5Cb7Jm2fDaWtGnnkug8EezCM672LYI1 6bKl5E9bOMYIxvTP9T7LsXKjV8Kse3XdSLt8ycVYoPlkGtkEow+cpyP4rCFX9WFFYg4UhRij 6HdNzlw080tEbJgutn6an5U767kXwOVv+7q3v4QlMEvef6r0l2daTO0MEX/jfZfPLuZkRDuz MACGDvWhBFkG5DZ82lvfrLnWeth8YItiAmOYSUSiZoc1wcHVdPPmxubX7Lq8AjZDukxTqvxv 7sK5egdRJWz2fcN59iqV8iCMwA6gMnezTuSiw4qg8RzrfJ1+9iqyvBIgo19J0PwhCe77k3n1 V5uN2Kkr8S6GfhIQtmjeryj8tfZf7q+qaG1Da1s1RbTG7KFMCoquRKCFqYmKgA6E3Kc1PiBj gJiw6YbfUscfb3e054FjO8HDXToDyo9O10pVQds2berkimWDZmQN5JU1K8rmaOsxI2zcyl7n 5g05wfSGDYA0w64DfewgExCfsFTBlo0K3hNKgVlEaLYlc87Q800RZq9yLYFIyZ4gyqLjZeLh xVMgXNedFjxNLBEwFAcb3ozQjHAy0GAQBU42bCQxFevq6Ti4ZUhzbh3DS6W3bcmn+yC+xU8O 9f47lM5kMosFsIBIZp46icaEjR1kEeaUBiaGbNfih4q4feW/fv2aymb1/ReVHd/mPDlUruBb r7nmtT4QFoi3glKv2sG/pp9eMfcCufNpXydMTDW/YKX12vHxKkBJJrDr56a6ia/JVAWsv9YQ lU8H8TcXXbv7LUNCmPFjy89yBEYYvBOabpU0UVXY6OGzK2CugmuxNK+zhiJf4U3ZQEpz8xL8 Wd6/unyJTvJ5C0flxheQnPckSgCEIgQsA0iMocPf/2Jrv/l64TgCyuMoor9q+MIOC4Cw668u t1h/51L21a0b1sUsaihBU37gG4lWvzlT9XhBTzyeTww19CwZNoX1dP8i9r5lYYFH1VKrrBqG q0V5bsZ8mpCceEabjzNt9QVk4ZvRwLjrDEwZnPl5mckUxKw06LqxNUkK169Adea+gtPXPUwh Szz0FYFrYS8RwZDk7PTB9a2R7bMLk+S7Wu5mEbbGW1iptIorXu8KwJNokmrFHBRKaz6fjQV2 zth2qcG0yQzYuLohsQN4/XGOH5mPb8t3K7HXjc5qndUlW7RubTxnLe0STEkQ+YrokQxrBlT/ +gtJl2uXKo9/UtkbATZqqM4C9gLifXW51GSTgbUaJAODBQN7/YKPMUFM5kz91darui2wly29 2sLX30zMNBMzRIzenxh84s47Grvb5L3rJ0bkz1m46tcuy1u0DLHUXa9KP95dTPmqFxMs2ZQm ItAcWVHXvUzDtBmj9g3s0QTB09vgTI/6hMkqgHgN3gCVaFlCXiUAblapmGPa8usacl+y5bn+ p9Q0FpNAZi8ih60vHFCSA7QZ6ZpfFl6bRF6oXnWA8W5DTJrsA4/HE8/nE8/zC87jifbhB5hE 9CunJXDEyVuD9tem/1cWuOrOum+qwQVzXE2cmwohAZNAINCoYrWFwFVBCng8f/ikifRkVDUY NujDDIGEnWdA6WUWzvW1NjbMbS7VOs3Gix+fasEnVXhiSUn9nrF8imDTZNBpvkjEhxwHQ2B5 xHZBhJfyl2x/v5Jg/c5xwtVWMjNu9zt4M+y3rQoDPUgTxIlI3HmekEVCp22PZZG33361n/k+ 36uw71bErH8p3EREGXNMlxoL0X1+ncXUyBP99OQMC8c4kM0Jh6kBEBvun9/y6b+FeuZa8q+L Ai0TOt8Ym5vv9X3ro6PFUAJUv57EjJsYOhR9dmozcMUssBhctJrmZlUuFdtoM9lgsEC0s3Zr rV13/3lAaMc5gL883/FzMGAPEPlko/c+kBEdgqs7H3Hl1yJd1LvVmusHqk1ZAFSoHgPV/JXV vl/U5DhdinR4/29FAQkgxtG9ZOr9ceDz5y8wANu+Y5cNLDvAVmAppSpn0IsIrB9Vd2/BGBUG NsPJ6TrFs0kQw7zih+G1ByCvDNa4T7qCaQIFApaGAYGQxw0GAWyAcIOSYvThtfkgsLm6r+GO LiJOdF5dmlCVHC06BqCvkyqCCOvPIlLVHkzeDttaA8aAQWvkRaqjshVmUVGyqOZFtRUBFxC0 Ysms1bvUv+d7F9+3lOGKvhe/vsXwwtYaPnx4g5p7HufprUNCsz5thiNRbucuExbBFuGgWehR kr4wdTJB7x0iVm1SvGghW6S2TPMLxsqNYWYfKhGM14dHJzkmXvlbU9LXX7wiULzaHFzUEAEw y2G6LhE5BM9HeY3aMGYv8s9etTUcEG/Cy4UvlFwUZKm+qSlpYaiFsLWGRLdzFFpVpcIlBDDs ++4TJ/rD07JMsLYXwYeOClfnPb71ekX66/d2+RzBdEAvZgnJo3WtS3Bm3TMA2fhGiD22NEUL PYALVRtd7hR/XYIceYJB7t4VLHm5EhSle5l52nkYthgeIEH07Nao+74OUfkdG2gl3k7q9MCy N26CIHI8krYgXZpl0yoGYYYxeuWb8z1NBErOoLlbefiAmUGEq3PHrzftMi34xit0cq0euqZ4 9rpXBqciVA3MMHh207oZJJS4r/cNhlRMF9vbqBY/Z0ldA0CTJsuGYbosEXrsi8RMe5ib698J CzYWsA20KDogYWyNfVQGEyTwQPWZpYr/W0n+L3tNr8NyM0NrrFqJiC6u//ppi2kQhbKJ8Ha/ FWNkCxQC1xQmyRxCH+uTXPZwjAGNMOqMFVChdpDPq7lUFMVzl1rH1GQXOV/0e2o+AnzwwSLA Pl2KlpkDQEsf7+u54AaDwnRi+K8ULgEGBVGriVK56Go31vmwVMYsCe4Zs0m4ef2vdcq3XyPV 7fSCplRTXX1el2a7NADv9WouuVUjKA1qhqUuRxEAACAASURBVOM4kFE3Eca2bW4qSmu8+DYr 3knMsrQTWQwz5tSi8OqjTPDUwUEWw4t/h0TM+yzMwovXA7sGpXLv49UqdkyTO3JaMoDi8iuI m+Hamr1j8JbjkDQGYwRid+0WD0ATR9Z9SwpiKSkJK7K7fEVo8VkKVMsNTWJwFZ/ehgH+XHzl +lS91x2OxkRYDUFItO5LiT4xmidLvLpfzOwED4kuraY+ozYHD2Ip0cpegkJ6GT9Ic3aRA7+e T5t+HQ8+Cb6e3VJEr/eWOMaY0MyDR9+UrRtTqibVhXjQgFzVt9bQQDAes+WpLFZIW1xHMS/7 Gm+jAHSJ2C8UhxXgWyX7FepcwU9cfcEp+76Hm4Twx6OrhnwsV7b3TjdiFnk6A80cgQWh0iab iDeDEC1sm/704oouI8Zeaw0uq/mG6Lska7Vn1SopZ+hL7UX+2+zs3nsmPBGyxZgMJrzrmJJh 6ZunSmE0E5ACwob7TcA8YHbi7Gc0L7pNeS2UyKNDmjSMWA8zA+wD8o7evWNzv71wsT98nnvW GnmTBICtSaHrLQb90PuGt48bxnlA2geIAmYdBIPQG1ifzpg5TcPcThMp3ljQ6XTmV6oO2uxJ d394UcOpNQI8+lyf7OsiMDVP7ASBRASP3gGLmoClq9f3y0AyMGyD0hsOGxgwjKdP2x7jwIaJ ldznn0xiANiulUsA0J7YwBC0OI8tK0cpYOdGo6QosCfSehJihjBRBXEY8BEdQzG64r275AhL zXThpRjy0MOVKeVg+xzQx9jaDfuBCEOO0iQsMYrHDO9tR2df5DC3kK7mGwSM7340/Pr9r/DD xw2P/hmP/lvg4453/A10f0D7RNPzdIlA32wAfcB5dpznCTtHMWdrXoxZmayvdIx/6XKWpCtb TKjy48zYFLw5I6kqzj6qzq9tG7bWolw7A1yOsTxMrDjtwNi+86PKNI5gyWHBoWIlzdtq00UP V8nWAuBYhGNDFQyPlZek8nSPCISf+gFBTD0wYBNBE/FImhi6RTIjpBiUdtw3gltzyGgeSsxz ZDysqniQQVlRDg0Nl65YgKiBaAQojA0TRmMFk+HLb05898OP0McDpIKP7Qc8+sAbfQAdAqb3 EFIG2Sir4SCLMcaAmDdMaPyRyCBm4Jy7ipc4QZlDwOwshvDJrrpIOzD6PDhwB8EkTsIYCh2H n7R4HN4yBn8GjusTA6JH7Et4KHHdRPuymJZUSY33uzfJi4OOVO8WiPKZExmX36/lwjdpELTK n1MEQBKQ7C3djehRL/CeqJILqUrMbq2o2NHx7D4upG1eijxMMSz7whjnYSD2jdKws2gCiGAA 2D++oYuhn0/wdsc5Bj4/n9juHzFMAP5hPlNhwsznMw79CaAG3ja06mMPzQLEIQG5xvBoFtDa 7VYxA13MWoI03h7l3hERtq35ZMjRcR4HPn54w7Y1iCE6b70EStjQZIPqXgKafYEFlIlwqdvN SRQfODhleN9Vhv+S0Jt8/xJ5ugKmE4RuhmMouqq7OyBI20Bi4P5eD5LApDSFAWSbZ77gcRpV g3YPg55nx1vbINogQ8L/RTCXghnY6FmH1/j5Mz4Om9QBEo+G48uBN1H08xN+9kbAMfD8zV/g x+3fwtGfqGidTVVPRoARTJeJjMM3dZ015x7NDJWmQGWYlxHdPhaNlnlyRNxThjOXH0ros2hg hOfZ0R8DZoTzHNhIMRju9zP76RTEuOn7RVBd6lFfBZl8Wfz0U+Z0ovw6P0Swk7G6U2tUCwD6 RsBgnDAM2UD7HWeUj55QHw6Ue4apdtzuAtoRCQe3VcfZcQ6DoqHtG2xvOFTrSEwi9q6aAHW7 3KAxV954gIlx1pA/Bg2A3z7ixInPJ6EdwEE79u9/D3/9GGh3FAo3w5zubOGa8QdUAiWbGJek kzDVLlPuoi3h1pbnqvjwnwpVxAUY0XTJhFPNJ1vCMKQBtzvADecwdHGCG7undKriqQaSN6xu 2pR6/6eF6aj5dQDaP/4f/8/yLROvFfInYJPPgTQdvLTWLjNQPvKO3QSDGL+1jvfHO368/zU2 JnQx3KKhvnYpcU/+Rh8w88TO8zjweMZkRTghBue5aYcflheqUyPv/W7fo0meqOTRtWxU9Ofv +Kl/wdsGGH7A8df/Hz78/g/45bjjv//T/xufHmfVqeVAg7DSfi/yqRqzyND3JRsCG0utrQi+ 2nTpuew1LlWMRfLbOIDQ97NtGz58+ID77QZmxqcvD/yLX/0G7XzHT+OJL6fCHgPv7z/hHQ98 tj9cRNYKwIUyhWCpfYxX+y//43833jSfJLtQTRVP+6781QxL9t5xHAd67/gb7V5IAB8i/xyK 33z6BDtPPNBh2GYIwPJhFrsjswAAzGBpaG93sHiU70elqrC9/t/AwnijL0Fot16tcfnMwgz0 Ow4euInh/dHws9t/gJ/GA//N//L/4D/59/8YdPOnmw0TFpIXhOAjoo1AFoFIDDcyS1B1le7V HPaRZVhrRevs7ceISdIi1ZTZz47PXz7j8+fP+KvbwHZ7w30XbNsP+P3bB3zc3kCk6NvAj3Om RFreuJ9/Zf061N0uiQpQ+XmSdlhT3RNUDb0DQwhv2wag4Y82gXTCkB1/9um3aMc7/sHf/3vY oTipo9FMwPhAAlflFlmgKp7Mxn2a9hKwAk4JTLJo0WxA9cQ9MmNIbjavGzMPKmDjLxC+A9Zx e2P08QWQG559QOUJGjt696kUgBPAM4dPT4ZEEMGnM1HMtRmzk4a6I/8oxtCxzHPPQFAVWmYB ZtpeAkmHoQNxDSEFkeKHtuGHH37E//bLf46/93s/YB/v6DJwjI59PMBkMdRwnmuX+yM87zls +PgSRPcRUEeYLFKeqsLBXO8u+ekre5bJK0q8+WGAjWDCl7O/XDXaJUzqYM2JUVUolEGh1SaG WgjflMK3BwDTDiP3+7dtx+hHuGsowntrVtheP+sLWbRAfaBTR+9ngMWjNMnWNuy33f3r5ais eb5rHMibZ7sZIHEkWYJMp2k+A2OE2UEEt1ILZZhYaII8onX/rUB1BqRSYssly8lXEf8o02cx V741WDf0PMs2AHqrrQ47tBYgAPAAAXw09xrcz2nOffj8VathfEt13RKqmgAwpykHMKKw06Vr cI2NQwN5JjPN4IPBj/xOzOEaYO6Mn4nSw7c15GmSXp+3Yd83bG1Oc/SNjglYIa2tphdm5U/E 4gPA+egTp6ufRp2un3sY6Sat8ZtkbDONbPGsuFnfk8w0M4gJhGf2rbKAGf7NwUzkwa4jevyY CC3nveNf8spceAX1bQ4UOs8BEaphf8LkEDUInvHsSx47iW1Lx8iC6NfKE8LstMzxIvnz2R1T CCTQPC2MC0A9GLJKFuJ6WZS5bRugnvrNcWTZG9dEYJzlxBbJjgC7+bRmyxEaHs6JoqlgBkXb ef49wbKto3joStSKAyxBFYSNvsTigzEo5tfAQ9otKnm8sOWJPnp0E7U6LbJNXwzXMRzl1FuN 90pmTalgQpzS5Cth5hhulwTEIqE5oyaH+0VJ8WISJqz1fywRdPx+VqZGrloH9u0GqVJqq4nU ec8s3IBO5nFTlQfgadW4pReQTJpJEVufLZ4s40xDr527bpfFUfQS8zBkUeMEstOpWbp41i3A qxCkPpz71VqbaVR4dY+ZV9H23v3oTnbGPs+eRF/ZaRI7X7xE6fwtM2+bqN67Fiya+7L7Nfx8 fxPyRMI5bTqjdzE+swDcdbGOlqWmGY/u/vq27bjd7iBL4EILwXPL/JQFJq+GNeKwx6jNE8mJ llSu2GSy4cOJYcgRIxZ6NwcG1fmqZmXHmcVPUSCuWfEKL1acRLNgn5m6Ttt9xVYrfai0bV3B rE6McA3oZ7USM/b7LZ4lJmX2bxH9Gy9dB/0sIadML6YZIopARfVzz1Hj2bznIXiJS3ERfWJ1 lOtDCCyn5k/JgCmFWvTUp0jDOM4cVRcMOEeWpJuVR5GkZuHF9WMjPw2C4jjRHIcSpzwM9ylC IKyuyXVMWAIuJ4gDyNQWVhvua74ytu/vpKAtzJQve/m5zESsp1K0yM+7UHForPPsdW5cvu9K 9AXA5Ut4FtMnB80JykDvBzLhQCtoiVf6uLBl3jymXZQ4lwyBrnMOXVXhqIFPLrCSNnqME8fR wZhnnCfBBNkhqxg2MMzHm4/4X2neR2QrthThCPP64bRZ+eJTzLIsOVfoK9hYCpithR/Z87/F eey58jIdml5RjhmNgwyW3rSKBJoV3VfzkC5aMkw4iRg2cD5Pb64kqYrkOoEx9hFV1RIAKm/m LtckqNux5cH0BuW/hvD3+JkBn/g7GPuAn2EGithjllCtpUbp5uQCpRHQGnRQHdRzkKCbue1l gbTmcyajMpW6Z8A83elqlShq96Egvnt4loHeBUI7DnuCcIBM0PtZ3oIGZ1IWdxJjy+eNLpZ1 SpbBXbaSmPrfs+hMBOs9kLur+1LdEaPwAQscCNsgTSoABiacprDwFIzVPQSO9DEr2pCqjlFV KHz+fidEetwzhUY+tQOAT6KoCNJqR2KxFjAzJy+kHk5YIa2BjTGic7WfWV0qi/uQiQlcuNwM Ppk5tMh67+wd64N8JHgODzIG2NVw7yd2kkLkCegKBUfb0YIU6t+aCYs0BVcN56AMOI/zou6J o1UopHeO7F7uc9XgBfL8995TwGnLFciEyFrDP6eBeEIGRu6uEkDIEqjAIZhqwEPGfpZ9b16a 7gcmCLbblkQv3Ohf018sdZUvm2oMefM4VD4MtnerRqBAU0tcO1jSXmdkDmn303wgNyGK/1XB 24YNrr776MBws/N2v2NnCSGaGmrE8dJ+tpFcrm+AA58cPLSu/apDfYPanJQxMi6/aKzsEFpn 0V3pTZMRDKUxUluk56BxdoybnR6TOwnnMfB8niA7oZv5SQ+EOj4FSHPk6t2LVOaZN60JhHzm TKn3EQa/EgyGIiSBliT81SYhULy/NSs64yxQyjzutHGXmDT7CFJhcSKum572xn8Rrbb+bL1n PzuBW8O+77B+wtN1iNrvrGGPg+KXHq8kngU2MdXJLAigVgwSq+TsELH5fEhGfRWMWu6F6AXK g+vTdvtBRFYMmDF9JqA1C43nI7ydZ0Pyc1BS2HQd44LF0i9Yn0fjsCAAaL2PmkqYD7g+JK8+ Qv5+ORdcpAHqCPg4Bx6PB86zo2GDtXnXjIsn0p0qfjLDikKnJOw4jsPLkYHZNgXg+Xhgk9hU DTsemqjOR697aLhBoVHC38/xoiu1LFxMM8N5nHUtZgkXFqE1omij9iu3/OVV6HXuBYebGyec VKFoTZyyjNJlyteffxjQtYNMcXKHxWlbAMq1dXNKc8/hMfgaIjhUoUZRzcSFxOcefGMRC1Nk xErNXaVMopyj4xgnBrVoacpD+LC4Jwper79KTTKDue+9bV7O5andOHIaOQZ0tula9NVlMKhh keQwW/n9UEXDPE/FXrRMSnbOoUU0NhB7nXweBPy37dNqb9fYA3MEf0LjpDbTiHNYTLzs/cAY J4Z2WGbnMGvmepSYJe5QM1BmSWFo7FFCsTk/r8nSgGex+rUKJDdhApH8te/eOToaRTBAGlrb PNBfJzS4pKhkynI57O7FH13Lf8FcTQH7Ns80q4oUZuzCXkdmAIyqBWjOAIMfbUnkxYNROFj2 OFU9MH39MmNuG1m2YCBPvfoAYgLgLcxkM44x8wXXvVqfOxkhAbRh1q7n0dn77oCr94HbbcN+ 23C3HbgxBjFucRifCANjNpk4PvB6gpzPmtOwiBDVvEDbtu3Sd11kuDDuyyIW+5QEdA3hKb22 bTXMZhzd1VK04WZFLELqWK7SVdeLDeS2oXcHN/5+ruiTDo2Bw/m8TnCXTFePwusApanJaGE6 599Yf6j6/IzGaUebeM7bvZMRJzF2T4Wmh0LL6PAkfhHZYDYAc9cwZ9SPaACtseVRaZtNJve3 G97uO246oH7OUCQg3SX1OrmJY0CYtX4ZN6jmFV9v4+TCzGezpyVTBZPkUCAsWoByKSAeYNvB ZIA9IJ1BZwfjhNDN06sWcS0iv178BwaOMcuVZtOBlXRth8f4cySZE2lEQaIBUcXrcWcFYpok R9vuEMCOgcY3fJF3NGygo4HtCw694Z4ALUi09oE5oTrIGETiQxcbA93QdWD0AflwL22Bck/n 51VaxRTco+nRJeuSeZwHttawb7tXEXsYEhjq1XW9g03R4L0AQhtYga3tAA7vVeegFYa7c+IH Vap2L6+KLNvWKuGCAtmz0saJQwBQGmDOVHmN2r1APbz+MT2DHkEHi+SMiJRf6Yyky2eSU/P1 cte4bh+9AFbm8929ihrylMCY7Y4lGJTvrS1YNExqMlflVKqYyLVNI4LxnEfLxN7cQHTBBufZ PRCzgNPUZoYApmX25kZenud1c903dSEu7LN6IMl1fpRJnXwZ16nTmurE3QIcqd6mTc/sUm0a rU/x+lT+u601qLjUDtVI6KddpohKWeZsgtP98znas+6w3C/5IRsP+8je8Uz1esOhEuIgOgYw AihRAbkJrANn5IWLyJORcl1uolDaKM2bIU5u0Hku2jFWExI5+SWkvG87cub9t0SHORpQlrbb i5ClZcSaEVzeQLMGoCpnRh+VhFinIGS8FpgA6wJ0CuV/gxMX+kiTOCecKizYuzOahrpTkfDH wyrPWkPM/q5khOUmwaxdPY2YiYWt+REezOIDfQPdDx1eMx9M0HtHHitauCK5izK+PUGX/zo6 S0OumOSyYFUsuXnFqaktEGficIWj1bLqJYQM0x3MC/p4crvEuELEp2wltlo3nyLNyy0GKE3c 1q52OgMHGdHy4LxhBnDmRSdQWVddyLWwWeavMwXpvx/qRJAA27lYA4AITdZmAxUfT82ZEbbz OMKeEbYW40gjCaGq4RJ1HGdH54E9Bw6J1FCetTqFaxq2ryWbE+aSIoAVlTW1B6EE030cGRDK 8KkvC2xzrq7TTqG6Eh6lBSyAa07OqD2m1SxdQXYyDhN8Ti4ReiSQsuSsNZnltyMIrlHZAnKk uRZXrMTO1OrKcQvTu92yeWyXBsI2m+qfGVUDVxUutmqnyWxzba6/ChXDwneWWZQRkH7o8IhV PzFaWQ4vurhE1/z9iqivA9XmpwpKbJIZNDND4xb2Og/IsToq24MrbZlGETWCY5ohNQPDa/Qt tacVe1VMIsPtSerZkPIqfPG+0FQOIJ25M6jVWGZqLrmrJC4WmNrg9WRkr6aReaOXOzve8JBu HiCj6otyDcQYeoKVoWsJNtX8xgqT5oblEGDnKULbYmBvMcX8GxHhGA6kKAIhGTj6avbapO3C dLZcF+Vq1VRqoFqMhyp6CMwI/KKmXr6U+4oEXh5KFtlSob/snu9mRhZLGF6hE+ZefPtFUBvl 5qZAtAXJOMpzvotuyRyFGZvIU+oqoiaT4Fdw56/z9AY+Lz6ch826PTP08wQM3vIctkjgtt/D lSn5EUrFVGlucjzKx0CcKUpVo5+aAETVjm1qGOfpGEBzMHFu0aLRFrRedr4o51+YGefzLLyg ZnXcj3eQ5lhy1NqySELyuVZbfaF7CEeYn1eeSGKv7qYtF/G1BOMs49aBxU+3kCIJcGLRL1UD HSlO+6ykGgHU0I1A9ADwEYQNJh3KhvMUPPAFTLd4yHgsBmQjYCjMTigYfbgh3bbwhc1LSmkB SmZA1dhQphwBshNbjQ7xIkCXSJemZo6quTXcukKJMDbGz3jHT+cDQ7e5lyFMeQoxE6FXWDSi Z/BJEkmIZ9h9jftc6xHmGXeI2W8EL+EiNpidEG5l+qQ1j2aml2OGDxvw+fnAj/cfwWeHbIQT J9omkK5AJCtzf1WpBJDI6+gz7lJAzkGJXRrip7pPLsf8xhAL8IX4eaVeoE9Gs5dcMU8/qk9P X4JCevZt8xr0foLIQJtk1XC1G60eyEzQ+NMKT3yQUrXmxit5k5y+HGKb1TBAIYRFq+RzLocG WNr1gfP0dZ5jrW7x/2eChqH9rOrbmq6Vk7aEA+9oAUPJsDEIhbeW7f/WawWYlVgKFbWMD6tr zTNcXgbbrK5Z3jQ/7u+zsOsWNWih8tUnU7GSD7NbiwxCCnLQjwFRwjugI0qfvOQEMMKABuKk iYQwCZs4JFWv21qtPjPPGs6Ucbk5sa7s5FzVZxJ/Mg4hBQPIYlCPX5yna6g6XVEtavhcSwkz 7m+36gOsAFEx/tQglpLYce1SyedbCDAZIUS47AdizbFesvLCykQBaMXdKSE0EXOdC/5Nvsr7 8oyoxZFBU7Z52sH1OeESaubRq9u+QdXLnbx2O6tGJqrOAEjIWhGlR7NDMp3pVXMRz8LE9bnn z6lHwvbGutNNO85xObG5KoS6gzWRrNpp2Pbdq3cyDcuMfZv2NYXCIkljBjA370bJptBYx4hU apVuIbGThbmcP5d3Q8nOU0B67w6kL0AuX4sErNmipdYyEP2C0w0LuEu/Ov4vppj2xX8OvBoc PMyw7RtgDXkkJiJbhNBAq5Qr5uG0qlb94RzupTNHtAjhmsBZYw2GNGF2ed5XBtn3G3xkeYed J8ZwJtv2HTf2tiSP9XuJkteZzwCOnzg96wbyBOoZYo1cR1wnPQqoQTnS1cu0LxiiXMymoBfw nKamvIyoGcDSUh3o3eaDYEa9Ji4sU1723JnK1Zl3kihMo/IVkxFmpO1FPQWrDvVUpakfh6Xd 2Uwkj9ZaVK9hStxw9+gmbbYSj3XgPcUEiIXoWS9w0V+ECv1OeFAqX+2Mt/kmszAkfN62bdgb V8g1g7HZEqWqU1vWngeR0zxmixdms2YGm3Idawa0dNDKqLboK7NqslT1I8RzwmWuupUtT30R KiLVfg1HCuA2lUna0tABoW4rkUICEe+P/tYrFdZt36M8y9DkVlyagEgXji5cEAR0DDDtXjYW JHqeDGalwZjIs2YZ4QsxK/8/9sJtrcIY4VMTWHbcQtI4TpjU6HZlYEbUbDLI9TCfiX2SiS/4 JC5QgaFgFm+osItZcwKHCSz29YegrEUwi0SUa87sYWh5etLUE6ih9TNlmCpkSnhyW9XXxVeW sMssUCHw0rVa3LkAD7D3hlMwAMzweH/iVO9kEQ59E0TKUdm5KARQ8b7ucwFwvnmNi2Pi2TP2 nfVoUZWaqhIThcOsJNXjAR7F81n1HfpUCKI3LjRTVb8EJZpsATKXeEDa3lR4QeBk4CRyArgC ZkUTWhgn1sY56pTBPPsTbGTHrM2Eyzm0UGz2YCPBgqFSq69ymswgPEC9gXkD8wGyh7fggkH2 CUb3heDXYn4Q0I+ZhOjq05hlF5CSc2a0Lfn8F7fhQoRmKIBj0TkK9klVZ/n9O8Y4fFB/rLHr gJFgjLN68S2lHJGRWku6lg6V6kZFtEoJQNpjQ/tiwmawZOhzyuFqOmJTLMapuJxF1i8rnGHY 2UvM2bxHrpvBBtBIICAci96FGUgHyAzNAAbjixgOi1FoTfB8Ho7eMwFQAkgpxanmppiu3wPw B855JuSZo94HDgMO7iA9XgDUVLVEFCMrUQCRYuNFGCRAz+pXohqXldlAVuBUxRgdx3mi96g1 A+pYjreNI8PkoDNCLWWS1u/n5i0mK4Yg5T8r4POtSpuY2CH/UjSeKvvlVW7aN17rfl0utjzA Gq/w90ywnG/34FYAYmQJ9MhOUKserOJYW1qRsndrAVUAMI4TTTuIO5hHuTNkhi4DM97lD86Y 3aqeXhwhVfMcdJpvh3Eqm3Ujo5JU1TtAzNBNfeZqeBMSdfUcklqVpWtgJlVgqnPUsouvi+nT 10/DEfuii9Yz4CvSEmw9M2dhqEmuayyE1g9HOjZ+H+YUKYyTG0tDT5BMhTHGiPYpc2FoZx8T 3SILAuZLXgfp1H38JyXxoyMswZ74eFDz+THjOV2uGUxBBR6GTkl2XzIjZQisoFh749MFU3Vl eEanKomASAv4tS2GIg1nqK7qWpu5UrlprRdu8m/tslqU0Oc3iwrPuvQqJn3ZP/rqm3n9rHV7 JXzeuty3r5REpoMXAcXKpBQMmQ2Svl9jdC9PVyTL6rrM5fLjG7+dq5DNZ7si3I4RgYVzxLgP atM+mtVsGdIMh/riHeS7SDgSTjdnDTX4v2bu3o1sGLAJPIFErN40ACZotyrMJFC4U9kFohep m0T2AA8El7u/vioLmSR4kWpav1+usoZ2nQQLQFu1QUT38jMUUb3UPhImS+kSZorcvd9CWDB4 4DxOLybNiJVlo+HvIPFXr3hjHyMQzgBtFghX3FKS94SXOlKFZllWIOF9z9SjE7M80tXm0+Tm +t4IOYq+jwEC0MTHpGzbFhk1hbFAyYeQXwI14VpmtAyL1BsZWP36aq8aLr/mJodvjgpRYRXN OngIaxJ1EjZTzsng+fsKDYeqTqKvxRSIp+YQhNTsdR9ym+4JJB/WTMxoRDwJtACaVFPrg1QQ YDHsiahdtTEkSoUx3NpRJO5zwH+UClRC4jifcwEUk5aZIypHsHFerHkBzezkVPMp1MLYm8+l 3ZgcU4yBYZ7F00D0Pigotov8rNR1A1McM8+e9fBXXTCxTXaMTiz0DfVO629Q2oACyBEyXjDV fMXQYTNYZssTJPGTKUOwJpjzXzJm8IhZYg4wSjsurhTVw2rEgK+JmSmZAwObPQFy4j6OA+/v D+j7gWP7Ccf5Ofmj1G8COWbP3k97nicIz8XfEWgy7aW4P9p1oJ8nCF4itbcNwuwdrufhRO8d ne/o54HzfEK0uVlR4Own+hg4niVOZVKc6FEOtV2gKBYeAGB4HGcRaQ03T6LbV4yw+th5QmQW qNQZs1jZbCL5r7yA8joW258aLeyAz58ZPk6VCPRf/df/nSVQWsuAnDAEkg15EL2fX8JznLR6 rvbOHSLfY98N//TTwH/4Bz9ifD6g93eIvaESOak18vrCGDFafOXmtTLlPK/cbUvIskqLiGrK 5H67Qc3wPE4YDDsBn8cTmyrabcet/xd7oAAADXFJREFUA3S/4xfHT/i74w0mYxaLXKJdESuX 9lI8EomQILCsRE5mXSWfUVKVwa7SoCD0GpI8A0L5EATgb+iON+rY9YlxdgzeYBJxBjtBtM9n nvxRxN+I8Xh/d6JnudR/+if/0cVlAbAQgaCIeqxQ4euJS4Chbw3cv6CPHaN/xq9/8Zf443/z 7+CD7NDbuw8tiLAqIe2Vq8UmgmbjIiEX94kIBq6NnCBnkayIND2eh89bYe/F5hhgoM8nejPs BpgQPqjgIMJ3f/lL/Htvf4jvf/4BGSvHct1KXOSkx4UZUlv5/a+Cl4SfVUSJF+rPq6qATp+4 jHEyBgD87//sL/B3fv4d/vD7NwgRBjV0Yph1NFZAW4G3edW8wNyfNCMA0D7S4d0aEaLLWWTF OlUPH6YU2Q8WC4zGQhXBAeD467/CbfwRPgjjeX7xgf8rEWOBZIwGQTPFVS1OULIS+BVh5lll gGHQwL4NHBh4Hg9o9yoUGgQ+vU7tjQRdFd8L48voOP/m1/ju4+9j759ftNvVd58nGE4TRTSZ Y1XHtd+r0OQMm3KLUVjIzNBjYZMp6FKYaV9+g/vPN3zkBjLDMQ7ff1ZsMFhMx05hmmrer8gc sQqBt4YBaPTWQB2g6OMeubpYmNpYxoZ4MILjYkQEnAcaFK0JbvKGRoT7tvmwvjFgEZ7kZaJk qWhT9FbmeoJFmxIzYkh+avKSHPOpbUyMwQMkDN42gEd0tA700SHkx16gbRhQ3GnD2BifxwG8 bbB9eIlREpMJxrP4YnoWaYcXCSDCmUBwZcpFza9EX8+EL4TeuFR5Cleulwg4ZKBvhnccsDGg 1GCtgclg6N4LiAk8ZwTPf3/CvCaOvF0ZAFpXwoBAydX4UB+zTaF+KfrM6hC9WrPb/PNkDFL0 7i4Ttxt4u2McCrm9AX0HKMuDvME/tQpSq9BMKZa3mSiUKxAdwYx4DxGUopjffHQomNBu3nIE IhxnBw3G43xHNwGkYaABrWFQg6JhkE90UOO4PvvBd0E9W/4rkaT0ygGKQUXTOlp8LolfHIxy 3pJnAJx2ZZo6NMCccU4lQHYYbyARtO0Ohat3b0hpyCRPSfsChEHAqZmgybr3wV7aFEc0Dxvo RmBlr+k+R/SuU81puRBdxBvlAHQzUNsAbj4ot20QuZctVuTpBonGGXunImrhmOXAOpIkRtr7 BFL+IEx+5IgingkbLI7u2jr5+TSD0chz9JsymjVsgyGdcNOtNs03ADMwVBpmwTyEmS61nPy4 ZMJWcUcCtoVflt+l6/pNm557fQK7bdiGwOJg6jGGez1G4BaHH9jst0OaFyLPdo4ZqQSAJkTI VlYm9q5Sjd/pQJNQTZwqahKdAAh5t+S+C3QYhA0iBtkYHQPCYb+yGIIUWVKbWc85EhyeylzN SeIBADFtN3Wsv1/D/ARhhGMyVc5EZcLWGGYDBAGTYWCAoGiCCJ64fq3iUAM8Np+SOuPrE9I5 M7ScwuxI84XwsS6anyRMjQlcEy4r2MvKXJiFjTfAPJSsABoLdmF8Of0svErHFtEpzLPNwFhc v9kODPLSIx+vYn4MVO8ARgzyydmvHHGR6WKxETCekH2gn+/oj89Af2DnHcNO2HgEWvdgCMOg HKk+KE62aQNz0TQHDPTIDcAQ1bVroWUASxH0HvF1Fgz4lAqRhn520I1wPg4MU+wMnNrxjgd6 GyCJGKAByhPFM1sUQWRcAsGoTrKKVQR1CkwBxRRF9JJcKoCaqx2XxkSqGEUK1SkdB3c8ALAY ts1wWsepHU/tGC0KT3hpfeJJ9GzzIiOfpgGgcR/40DwAcfYTpoZNGk4zPJ9PPE4HWLd9h9w2 VHw4F0oMYMeXLyeIN3QTfH4MDDpBHzd/BvEJTyNdt0hSqAHbUg5VbG4ADfi8dpqtRGa5NXyZ dmzDx4wIi38GDLQYIEiM59jAAgwIWB9o7QPG4wdstw5R8aEAImi84bSYSq2E53F63lpalHSp Z+mYAKiD3FTj8eBO9gy0eLl0FZpgxhkQhG16Rf9rLSER8PlB+Nh+xJuc+Mne8ThO7NpARnjA wJ3DnRa0qJ3T7mFpH1wUFbbwngYAaKv9as1PYWBm3OyG+/2On95PvL+/4/39HYQYe2lWYzZ9 bgtAUZKTCMWP3Bq40VaKyzcTdfY5zEueL7HnfC3u0VcvShFKyUgFPAFgvm2/7TBs4GHoxGA9 XblHvTk0ZuGxLNUtNGfZUmTBEofAyqa7BAGvD7nGEwLBFTMvCwjioopIal2B7FUNzILH4wHY A6cMGAPP53B1v7sm9CSWlqZg8hbxGrRUG+r3bBdbFs+V6c4mDd9/f8Pb/Ybn84nn84kxBm63 GzIKBmlREYqwLTExyYA+FI3CBBAAC/PAsxzXxnPh7AmQ6nkWRbDKVP5/yUq9vNwj8Pq7ui9m ibLnHdx+H+eJL1/efWTJtqGJd5vsoQWJ0rxM0Mc8gzOORyj9ynLL5pDCV3L7q2uPc2nDvlsk reLns3cvcgzg4/s6vAiUCToisZQjUplAGW6NIUOvr+YIdIIJNU9OZJhUGrBtAmDH8/nEcRzp VDlQAkHYp0RpNvHZHF735cvTG+ii6Z7IK0njuea4j/UVP/vki1kyPAVlfmbto3+1EoAPQuo5 kABLtS75dCiNGrvzPPF4Pn0ujipuN+Bt/xBgaOYb+ujoUQYtrfmxl+DyJLSkfg26UNlxoyWK Z3AzILOhIxlFQysexwlEwcdxPtFt+AGJZujngE9vX8BvtmojBxgt4pySntmcdB9KdSGPyiQc hw/9/dmPP2DbN3z58o73xwNt23AeB0gU0hwRq6H6s/sYYJUK6gCuztVGHeuZcfxXaS17XdZw 2cB8P83PrIh4fXEk7SjSZdmB44OIgnHMwCJ4+/ABY7h0nWfHtvXoY7eS3Awpp0r38LIXegCU zTlpwwqgrs+5qvqjDzTznEbOW+tRZ9/P013h3vE+Hvjc32HU8Ea3/7+9K1ty3IaBDZCUZHvz /9+Z1Ca2xAN5wEFqMpsfSPQytZ6pNcUDbDSAhhaE2JfN3IN5RXYZkCYzqL48ORaajNo0rlvg qTeamZISI5cNqWi+91/vD87rgnBCkg4hde/IkiubFeE9ssts62A4GYlj/0b/eueQg3VDvb7w d7wnUHfL0fQ0GPOkGaSCt7UcBp5u24Q0nQjEKGUDcUftHX0Irqthe+YJ0Zyp9NNEWDRv5b6g NJdcFrf06/jKdqjJtjryMbyuDZboSbhqBXpVy7I/DcgNIAlc8MA7PQF2VQ5BJ0FxMUGaG3AR kfN68znwIQPn+20pQYJP7wBnPJ5PcC7ov/+hDeJMjZBZX0T7rhrQgoMVApEBN8+vwnSFYopi Tux0WxzA48rid8tqFwID3W9P/QpBFC2C4qf/jRhD6BthDFFAa4iompCQ5vCZHKcRDK1Plza+ eeUVIGr6fawLzvSNPgbjui5rD2blUpYMmnPSjtHEeBwPjI2QtgO5MnqrqFKD2hU/KT4Py1SQ H2j78uzSms63R82TTfTz8bC0JNsIowNdKdXXjxc+tQH10vvcZEaGmT9OCUe2dhvs9/PQRYez a3MxbujVTpY3k3MQY/DMz5WaV5FQXrg9RrwQIehNEdO6McVqgYR5J2JkEDZTtFCB/DaRNXn/ lxRSa9zvASNZN+y3rkfsUx2LeIBJ/19AY9+1NrQ28DlPlFLweOz42d44zwuEDV5N6xhZiyNV u0cVORSgt9aMRnerCOTqYVN4NemcKP3cigOsthoQ8KggZrz2hCu/8JE/8fP9Rq8MHgm/HRkv 2jHKAaIBGQ29w/LWCE43M1IEHKbvIAZ67JLyqsv4I/E6SQCCLtk9qdjpnhYFQHn0JXzJJMiZ lI3jrirRVgPPEGPvtHCCetMrwYSQyLxyFoD6COEgW+dYznWxh4ssEQc/DiJrHQ60S3vFbp6s sRe8nkdovv947Di2jF7f2DKhC4O7thzPlndPIJM91/7x9dT+sIkZVHYlnBbBI8tlmhShm9wI 6Hv+2FfQJap2mBLj+dzBpaA1sd1qJpVVzqsvnPmY9nk5HXJzG8myYpkohPbWm9PPOkCh4+bs E0CYDe8Ixcf8DcwjUDBwbhLd4qiF0W7Rq0hBnOd/8K3/9vg1ZxvRQrdgvU7f7zdEBMdxIOcc 8W/tf6dJEvWqqL0DvKHwrvOcSVWknXlb6FefExdSXvV4cvQDi9ppR6TrPC2XkX9uL936hczA tqkbtm0ZZUvIIHQegXbj7v6CyGLubp9L3N1Ed00b5wNsVOA0pbLihKu2ie50Y8TiPXwYNjke kbpNFmb6UuS6iP+Q2Xfm19b79vjYIzxrPLmL+oc7aBvY38cJsH3fseUXegGEMraR0WuFcFW/ nPlmXSYsEghc8Ghq6OfWu4Y9KU1ARXNnShQ5TD8vToS5KKqSBI2jWCpzbRWf64OSNr37nHt3 lsiTK8xpjT4s7lb572UpK1reaj1nwypYo47N7uic0vcbTF/SAGaayNZWZ41JJzOZ2vpKkaSI NbfL99r3Xy24j37V8JnJitpQ1xe9VhVQXtWufU1Gb7h6R29VvYbNIm6GoWQ4CaXWdoyBUgrO 84wNBXyRpPv/+W88fwNWsTb0s70ZewAAAABJRU5ErkJggg==" />
    <pattern
       id="Pattern_1"
       patternUnits="userSpaceOnUse"
       patternTransform="matrix( 1, 0, 0, 1, 438,-232.8) "
       width="125"
       height="125">
      <use
         xlink:href="#FlashAICB_Patterns_New_Pattern_Swatch_2"
         id="use8" />
    </pattern>
    <g
       id="Mask_FlashAICB_Layer_1__Clip_Group_0__0_2_MASK_0_FILL">
      <path
         d="m 264.75,98.9 -1.75,-0.2 0,-8 q 0,-4.85 -2,-9.45 -2.3,-5.3 -8,-12.05 -5,-5.95 -13,-6.85 -2.5,-0.3 -5,-0.05 l -2,0.3 q 2,-11.4 2,-19.9 0,-6.7 -2.35,-13.2 -2.6,-7.05 -7.65,-12.8 -4.35,-5 -9.35,-7 l -4.15,-1 q 0.5,5.5 0,13 -0.6,9.4 -4.5,36.5 -1.35,9.4 -3.05,1.05 -1.45,-7.1 -1.95,-18.05 -0.25,-5.95 0,-14.3 0.25,-7.85 0,-11.7 -0.3,-5 -2.7,-8.25 L 197,4.7 196,2.25 q 0.25469,0.6390625 0.4,1.85 0.25,2.5 -0.4,5.6 -1,5 -6,15 l -0.5,-7.5 Q 189,9.7 189.5,0.7 L 184,0.2 Q 180.55,-0.1 175.45,0 L 171,0.2 q 0.75,3.25 1.15,7.75 0.75,9 -1.15,15.25 -1.85,6.25 -4.1,24.75 -1.15,9.25 -1.9,17.25 -1.5,-4.5 -3.25,-11 -3.5,-13 -4.75,-23 -1.25,-10 -3.75,-19 Q 152,7.7 151,5.2 l -9,4 q -5.6,2.5 -11.85,13 L 125,32.2 Q 120.75,30.95 114.5,31.1 102,31.35 92,38.2 82,45.1 76.5,61.85 73.75,70.2 73,77.2 q -1.5,-0.1 -5.25,1 -7.5,2.25 -18.75,8.5 -11.25,6.25 -17.75,23 -3.25,8.4 -4.25,15.5 -2.5,-0.6 -5.8,-0.8 -6.65,-0.4 -10.7,1.8 -4.05,2.2 -7.45,6.8 -1.65,2.35 -2.55,4.2 18.45,2.05 31,2 20.5,-0.05 45,1 l 0.5,6 q 0.4,4.5 20.05,5.95 19.65,1.45 33.95,-1.95 11.9,-2.8 12.9,-7.15 0.3,-1.35 -0.5,-2.7 l -0.9,-1.05 15.25,-0.4 q 21,-0.3 49.75,0.3 28.75,0.65 73.75,-4.1 22.5,-2.4 39.25,-4.9 -1.35,-2.35 -4.1,-5.2 -5.5,-5.6 -12.4,-7.8 -6.85,-2.2 -10.85,-1.3 l -2.65,1.3 q -2,-4 -6,-9 -2.5,-3.1 -5.5,-4.1 l -2.5,-0.4 0.2,1.95 q 0.1,2.35 -0.2,4.55 -0.3,2.2 -1.7,3.8 l -1.3,1.2 -0.5,-4 q -0.3,-2.5 -1.7,-6.25 l -1.3,-3.25 -2,-1.5 q -1.25,-0.95 -3.25,-1.3 z"
         id="path11"
         inkscape:connector-curvature="0"
         style="fill:#ffffff;stroke:none" />
    </g>
    <g
       id="FlashAICB_Layer_1__Clip_Group_0__0_Layer2_0_FILL">
      <path
         d="m 264.75,98.9 -1.75,-0.2 0,-8 q 0,-4.85 -2,-9.45 -2.3,-5.3 -8,-12.05 -5,-5.95 -13,-6.85 -2.5,-0.3 -5,-0.05 l -2,0.3 q 2,-11.4 2,-19.9 0,-6.7 -2.35,-13.2 -2.6,-7.05 -7.65,-12.8 -4.35,-5 -9.35,-7 l -4.15,-1 q 0.5,5.5 0,13 -0.6,9.4 -4.5,36.5 -1.35,9.4 -3.05,1.05 -1.45,-7.1 -1.95,-18.05 -0.25,-5.95 0,-14.3 0.25,-7.85 0,-11.7 -0.3,-5 -2.7,-8.25 L 197,4.7 196,2.25 q 0.25469,0.6390625 0.4,1.85 0.25,2.5 -0.4,5.6 -1,5 -6,15 l -0.5,-7.5 Q 189,9.7 189.5,0.7 L 184,0.2 Q 180.55,-0.1 175.45,0 L 171,0.2 q 0.75,3.25 1.15,7.75 0.75,9 -1.15,15.25 -1.85,6.25 -4.1,24.75 -1.15,9.25 -1.9,17.25 -1.5,-4.5 -3.25,-11 -3.5,-13 -4.75,-23 -1.25,-10 -3.75,-19 Q 152,7.7 151,5.2 l -9,4 q -5.6,2.5 -11.85,13 L 125,32.2 Q 120.75,30.95 114.5,31.1 102,31.35 92,38.2 82,45.1 76.5,61.85 73.75,70.2 73,77.2 q -1.5,-0.1 -5.25,1 -7.5,2.25 -18.75,8.5 -11.25,6.25 -17.75,23 -3.25,8.4 -4.25,15.5 -2.5,-0.6 -5.8,-0.8 -6.65,-0.4 -10.7,1.8 -4.05,2.2 -7.45,6.8 -1.65,2.35 -2.55,4.2 18.45,2.05 31,2 20.5,-0.05 45,1 l 0.5,6 q 0.4,4.5 20.05,5.95 19.65,1.45 33.95,-1.95 11.9,-2.8 12.9,-7.15 0.3,-1.35 -0.5,-2.7 l -0.9,-1.05 15.25,-0.4 q 21,-0.3 49.75,0.3 28.75,0.65 73.75,-4.1 22.5,-2.4 39.25,-4.9 -1.35,-2.35 -4.1,-5.2 -5.5,-5.6 -12.4,-7.8 -6.85,-2.2 -10.85,-1.3 l -2.65,1.3 q -2,-4 -6,-9 -2.5,-3.1 -5.5,-4.1 l -2.5,-0.4 0.2,1.95 q 0.1,2.35 -0.2,4.55 -0.3,2.2 -1.7,3.8 l -1.3,1.2 -0.5,-4 q -0.3,-2.5 -1.7,-6.25 l -1.3,-3.25 -2,-1.5 q -1.25,-0.95 -3.25,-1.3 z"
         id="path14"
         inkscape:connector-curvature="0"
         style="fill:url(#Pattern_1);stroke:none" />
    </g>
    <path
       id="FlashAICB_Layer_1__Clip_Group_0__0_Layer2_1_1_STROKES"
       stroke-miterlimit="4"
       d="m 264,91.7 0,8 1.75,0.2 q 2,0.35 3.25,1.3 l 2,1.5 1.3,3.25 q 1.4,3.75 1.7,6.25 l 0.5,4 1.3,-1.2 q 1.4,-1.6 1.7,-3.8 0.3,-2.2 0.2,-4.55 l -0.2,-1.95 2.5,0.4 q 3,1 5.5,4.1 4,5 6,9 l 2.65,-1.3 q 4,-0.9 10.85,1.3 6.9,2.2 12.4,7.8 2.75,2.85 4.1,5.2 -16.75,2.5 -39.25,4.9 -45,4.75 -73.75,4.1 -28.75,-0.6 -49.75,-0.3 l -15.25,0.4 0.9,1.05 q 0.8,1.35 0.5,2.7 -1,4.35 -12.9,7.15 -14.3,3.4 -33.95,1.95 Q 78.4,151.7 78,147.2 l -0.5,-6 q -24.5,-1.05 -45,-1 -12.55,0.05 -31,-2 0.9,-1.85 2.55,-4.2 3.4,-4.6 7.45,-6.8 4.05,-2.2 10.7,-1.8 3.3,0.2 5.8,0.8 1,-7.1 4.25,-15.5 6.5,-16.75 17.75,-23 11.25,-6.25 18.75,-8.5 3.75,-1.1 5.25,-1 0.75,-7 3.5,-15.35 Q 83,46.1 93,39.2 q 10,-6.85 22.5,-7.1 6.25,-0.15 10.5,1.1 l 5.15,-10 Q 137.4,12.7 143,10.2 l 9,-4 q 1,2.5 2.25,7 2.5,9 3.75,19 1.25,10 4.75,23 1.75,6.5 3.25,11 0.75,-8 1.9,-17.25 2.25,-18.5 4.1,-24.75 1.9,-6.25 1.15,-15.25 Q 172.75,4.45 172,1.2 L 176.45,1 q 5.1,-0.1 8.55,0.2 l 5.5,0.5 q -0.5,9 0,16.5 l 0.5,7.5 q 5,-10 6,-15 0.65,-3.1 0.4,-5.6 -0.14531,-1.2109375 -0.375,-1.85 L 198,5.7 l 2.3,2.25 q 2.4,3.25 2.7,8.25 0.25,3.85 0,11.7 -0.25,8.35 0,14.3 0.5,10.95 1.95,18.05 1.7,8.35 3.05,-1.05 3.9,-27.1 4.5,-36.5 0.5,-7.5 0,-13 l 4.15,1 q 5,2 9.35,7 5.05,5.75 7.65,12.8 2.35,6.5 2.35,13.2 0,8.5 -2,19.9 l 2,-0.3 q 2.5,-0.25 5,0.05 8,0.9 13,6.85 5.7,6.75 8,12.05 2,4.6 2,9.45 z"
       inkscape:connector-curvature="0"
       style="fill:none;stroke:#3d6782;stroke-width:2;stroke-linecap:butt;stroke-linejoin:miter;stroke-miterlimit:4" />
  </defs>
  <g
     transform="translate(-0.5,0.025)"
     id="g17">
    <mask
       id="Mask_Mask_1">
      <g
         id="g20">
        <use
           xlink:href="#Mask_FlashAICB_Layer_1__Clip_Group_0__0_2_MASK_0_FILL"
           id="use22"
           x="0"
           y="0"
           width="323"
           height="155" />
      </g>
    </mask>
    <g
       mask="url(#Mask_Mask_1)"
       id="g24">
      <g
         id="g26">
        <use
           xlink:href="#FlashAICB_Layer_1__Clip_Group_0__0_Layer2_0_FILL"
           id="use28"
           x="0"
           y="0"
           width="323"
           height="155" />
      </g>
      <g
         id="g30">
        <use
           xlink:href="#FlashAICB_Layer_1__Clip_Group_0__0_Layer2_1_1_STROKES"
           id="use32"
           x="0"
           y="0"
           width="323"
           height="155" />
      </g>
    </g>
  </g>
</svg>
