<?xml version="1.0" encoding="UTF-8" standalone="no"?>
<svg
   xmlns:dc="http://purl.org/dc/elements/1.1/"
   xmlns:cc="http://creativecommons.org/ns#"
   xmlns:rdf="http://www.w3.org/1999/02/22-rdf-syntax-ns#"
   xmlns:svg="http://www.w3.org/2000/svg"
   xmlns="http://www.w3.org/2000/svg"
   xmlns:xlink="http://www.w3.org/1999/xlink"
   xmlns:sodipodi="http://sodipodi.sourceforge.net/DTD/sodipodi-0.dtd"
   xmlns:inkscape="http://www.inkscape.org/namespaces/inkscape"
   version="1.1"
   preserveAspectRatio="none"
   x="0px"
   y="0px"
   width="268.59479"
   height="303.14941"
   viewBox="0 0 268.59479 303.14941"
   id="svg2"
   inkscape:version="0.48.5 r10040"
   sodipodi:docname="k03_snowman_01.svg">
  <metadata
     id="metadata192">
    <rdf:RDF>
      <cc:Work
         rdf:about="">
        <dc:format>image/svg+xml</dc:format>
        <dc:type
           rdf:resource="http://purl.org/dc/dcmitype/StillImage" />
      </cc:Work>
    </rdf:RDF>
  </metadata>
  <sodipodi:namedview
     pagecolor="#ffffff"
     bordercolor="#666666"
     borderopacity="1"
     objecttolerance="10"
     gridtolerance="10"
     guidetolerance="10"
     inkscape:pageopacity="0"
     inkscape:pageshadow="2"
     inkscape:window-width="640"
     inkscape:window-height="480"
     id="namedview190"
     showgrid="false"
     inkscape:zoom="0.77887789"
     inkscape:cx="133.97964"
     inkscape:cy="151.65"
     inkscape:window-x="0"
     inkscape:window-y="0"
     inkscape:window-maximized="0"
     inkscape:current-layer="svg2" />
  <defs
     id="defs4">
    <image
       id="FlashAICB_Patterns_New_Pattern_Swatch_11"
       x="0"
       y="0"
       width="125"
       height="125"
       xlink:href="data:image/png;base64,iVBORw0KGgoAAAANSUhEUgAAAH0AAAB9CAYAAACPgGwlAAAgAElEQVR4nGS9y7IkSY4sprCH u8c52d0j9/9/ggsKP4Mbcs0FhQte4ZWZ7so84e72ABeAwjz6pkhNT2VlnvAwhwEKhQKQ/+V/ /79URKBQAEBOGaUUAMDUiZwLRICUMnRO9N6RckLOBXMMtN4gEFzXhVorXq8Xfv/+jfu+8d/+ 239DLhnXeeG6LvTeUWtFSgnXfSOnhOM40MeAzonX6wURwc/7DagipQQFUGvFdZ6Yc+Lr6wu9 d5zniX3fkXJGu2/knJFyQmsNSRK2fYNAMHXiOi+oKvZ9R84ZrXeMMZCSoOSC+76RS0ZOGfd9 Q5IgpYzrOjHHxL7vqLVijGF/LyfMMXGeJ/7xH/+ATkUfA9tWMafiPE/klAARQBWSBDoVYww7 45whSQAFePa9dUgS1FLRWsOcE6+vF0YfUCiO/QBEcJ0ncs4oteK+LwBAyQWtd/TWkHMGBJhj AiIQAMfrwBjDfg9A2fcdrTX01gEA9ajYtg0QYPQBEYGI2A/L2R8SgCqmTtRacZ4n1L/cnBMp JYgI/vrrLxyvA711qCogQErJDrgnqPpBqGJOO0QA6N1e3BgD39/fEBGUWiFAfAZ/TT/IuzWk YS8RAO77RpIURlm3DbVWe04AOSWUUuzZocjIUKh/34SSM/LrC3Wr+Pnzs4wsJbzPN0QE//Ef /4GUMyQjzikJUEsxg1W1y7DZmfLsRAB7HcCcEwr7/jrt4pVSoG70abOfI2IGzMuocyLnjK+v rzAMqNrPGhOtN+hUHK8DgNjPksSfXzDn+kNjTkz/gSklXNcFEUHdKmqpKLVgTrUPTRkQQZKE 19cLtVa0u0FE8PX1BYXifJ9xIPyiSRIkJYzW0Hs3gwLQWoP6C6nbuln3fWPqxL7tdjuSIJcC BTDGgAAYvWOKYN92O+z7Rk6KJAkpJyQR3PeN+74x5sC2bfEdU0oQ2G1MObmHsEPftx3tbmi9 oY+OWipysr93vA7c1w3xyzC6GaB9XsKYw7ymAn105JT9lhbkZLe93c2sV+278CymTnsmVehU XP2yl64A1M5x33a832+0u/mlS0gQpJIgScx7QDCHGQXPv1zXBQhQix9y7+GqU07rVt32YPCD HnNAFdhqtZubM+aY9uAl4/X6Qk4J/+9//+/YagWNi+EBMKvkwSvoKRQpZ9RiYaDdDXzGku0G bXVDyRN3a+4+0zosf94kZt2S7ObOOdFaQ2tmlFD7s/thhtRaM89VKhQaRvT7z29s24YxBs7z RJKEr68vTJ043ydabyiloveO1sy7lFIwxNxp3TZc14l2Nnv2fcOc0269LiNL/h1SNg8nUyws DA0j1jnNiObEOQdUFf/1z/+CQLDvO7ZS3CsWCATndaLddrGe3rHc941aK2qtyDmb71d/OdNc y5xzxbOU3L0o4A8uIrjO6+MmjNGhmiM2x23uFneSJHuJOWFOBdReateO0TvulOJLHq8DKWUk EYxptyHnDL2veLHbZod53zcggvK4fSLTjKYU1K2Gm6OXEbEboG7UNG4Rxyqlrj8n9vujjYi9 NPbWGkopSNnwj91K+2FxBgpc14XWGsYY+Pr+gk4z+K1uhg96D4+oSSFqnkpTQsoZvTVc54Xz faLWDfu2YT/29XcVgAA6FY0vPL4cULZtQynl4VbUAZrd+Fxy3G5VNSsS8RskaK1h33doWUDl vm/opai1wj3K42DNSBj3e+vovRtuKAZCxhxIvWOqv/T9QC4Z7W6OH4Diz5VyivAx3UBFBPDv A1m3v5SCWioggtZu3HdDLQWllvA2vXdMVdiPyJCUPCRMHK8DOWX8/PygtYa6VcxhII6YxQxa MCYcVNnLlM2+3xxmmKVW7MdhoWkO6NA4J+IrwHEVvUBK9qxiuGbqxOt1YN92pJxwnVcYoohg jIFaigHylGnLKHXbkBhzkyBLwnS33lTN+lTRevtwEcPdCwAc6cBxHPFB/GAeQrzsJMi5xK2h IfEmlGK3MCXzAr33AHtzmjvvbljwWCdFkJMh8jlGgC0aRJGK4WhdoeijY05Fbw1j9PjujOv8 XsmfuxRH9AyBc6APM9Jaq3spN+SyAJuFOX9BMBwSMVoVtRQcrxfu64rvOIZhqVIK+uh4/7yh sHdgLztBpyKXjO/vb0OEUHum3tHcQ/QxIO7Z6LgsvNrZldG7u42ErBkpCVIu0E3jhkvy6wqJ l6KqnhYA7W5x0JKSgaxmsXjb9vjgJAmSLRNgyDheLwOFJePYd7NOtRBxnqfF9bbiUkoSCH66 C00p2YudE3/7eqHkguu+UHIJz0JDm3NizLYQ8Zy42x3hA4IAXLz5OVs6x7BXa0XJBSIJmTEY gpSzffc57fsmuzx9dKD7Le4d53VC7oQ+hoWhJBBNgCpqLdi3Hdd14V/Xvyxd3Gpcgvu+DWDu uxvH8JSxewq6xaXLNfvFMrRPD1Igdgt76+johmYZk0Swe/pmX8DSnSeavtsdgIw58JwDpVZs abMQkQvuP38s93y9ABH0YW59jhEW+fv373BFNLht2yCeXhH8jGlAUpJEWmScQsLo5hV662it A36LmIHkklcoUdjzTzUMkrKlWzkZmu4jOARVNYDmXgcboN0MhwhdVXGdp3mYnHG+31CPrcyI ylbxVbIhfTFUb8DU+IL3zxv33VCy3eafn5/AJmMM1FqNg3BvMqe99Dks9RuYdtP9muac4zm/ vr9wnReKQAKgzGGWLO5Cpy5QMeaIHzxV3RVOfH9/Y/SBu9mD7vuGWgve7zd+ft74/v6KzKC1 5jEYqHWzm++xnodGwAgIVCdw4xHLEnrv9sLdJdOLEJETnbfePH+NP7FurRMYOi1EhDdwnMGX ZLnzdO8wVj6tQJnLEx6vF7ZqpMp5nhazS0GtFX2OwB0QBLAtu2GJ0QeyewTe+ORGmVPG79+/ Lc/xd0EuAQKMMQ0TDDPOnBKKZ0qCxR3Ac/w57HsUCJCyufWZZqB3qKU9zBdzMsQ950QpEv// eZ4ouaDypTRzwyUX/O3XrzjQYPnmtNxWxHJ1Nypxt500Qzwe55TRWnNmabGGghVu+H9JyqwX mDEw7ABzCaNWGOAiW0dcQUMgQ5Y85KWUMT1FLbkEgNrqyhaSyAqPOS1iJSeU5M/i7OUYTl4V M+af608YXkopmLzeOhqaZValYqpipBGpJgDzQO4tRh9ItZrhphQ4ow/zpnMivFfpzSC+1BL0 4Bxu5X7zkluQ+MHR1Z7XievnwiwW21UV93VDVbE5A/Z+vzHchediruY6jT7cti3QcvFDN+ZI Io3k8xDU2UuT9aUdXzxvb/JwwJfH/J7p57J6c7kkNgi0CCxzzn67jIYu1dw4/x4AJ6Es5EGN MNFq53ZfN/bjiKyEjFoSgfoLSJJwDcvB92O31FPtYvTe8etvf0NOjhuYCZnVom6bXZCU0HOP sBjeKQzNMAdDQjmvC7k15FYsx0xOnDjKHG5Vc464HY9Lhn0/cJ2n8c3uOksx0PHnz58AL9u2 4ev7yw9thDtn6qaqy8X7z1c1Rg0JYYQ8NDh3Tedtz2MhYeqEqEToGI5ak9+i0RhCgNfr5emW +Y/gJPzgWjPGTEQw3bB4iyQlYyFbQ+/rM6ZOtN7R7hup5HDP2UEu2bo5B/7297+hnlekVykn zGbeoG7VwkZvlsa6YTanqeteglEcZcSzd093CXLjvalRYiWnhKkKbQ1zjqAYaemRA0/FHB7f 00BGDoQ9daLUYvmoGEXKmELgo/52SG1KSthq/aAbIyX0uNqmufaczdNMfxniCJu5NTlr/tKp 6LPHz9RprpGIfPrNJoFTSvmfPNycA2MINufr+Q//DItB53UF0GPcZXpYakG771VoSRm52I0n OcPnS9kMcnERiuIv/DovtN5RSo5shimjeT93fmJeaF0WsSLQsM/jey2v12uBlsft5kvftg2A odzR1S1ZgTE8JpuhvF4vVKcjkyPlbdvQerMc3t22+u1KKdnn8Jo6ocDPJYjUYXFZEuP5iulW ZFgvW5KgpmI3z4GNXT/7s+vwjcVLknC3hl0EWXIANrO7FRfNBSBeKsFteABy4nhgipwNkffm HmxiOgqf00Ctof0rwlkpc2Um/h2ZfumcmMOwTRILVbcbTnpgJl66UpZBzzSDWKujotStGlrV idFHWCARZM3V4kGLgGK3YFoc/cc//oGfH6tCzTojdvfW8fv3b7y+vuyBBLjcjZHA+Pn5wdf3 V5Aic8xIqaAT0wsQdFtkmvh7s89IxwAjIEopBnpGR5IaoI74xAo6EkWQ6eEAE1FtFAdmgMTP l2S/l0aKkGThbTeOu9tNYs2A+GPbtvAQ8ff8O+SU8dqPcMeGTQpeBwszVlImJhCI8/MGLlXn B7FmHL4E8OY14UUqpWCUgUJixWrI9r+YugiRsVIWIsck5tqYQtRts7weiEJE75bzP8EWyYqf nx/knPH969vCBlkwxqyn6yPIEoS3gMfe1hvmmAEaVe25a7FsorceaR0NByAmsNufU/5AxKyQ 8Qbn4hil9TAAGhcZMN4+gcTnPMEk1LxLEFgAsnsS9e+TqGNglqHG9HW/gLVUB5uI8KTTSttP Wjs56GvNcIDORUKR6SsEZMxNA1D5w173BdaYIQv98um36rV3PzjtFh54wEwBWUk6jsM4a/+s dt/+Ug2Eje5hhowbgJoNgSsQ8TOlhG3bI81hBY83JmUDTT8/Px4e1sGQDt5qirSNAgNy+BJx v0DdK1iRaYWXnFJkJ2Ywi3Lm74EvieEI4imUpY9WC0D892edneng4jIU0zHM83wgCGxD/FRr xZ6s9Mo0lIWywtvAg2dFiTFqDMtPzQrtgccYntOm9XJpVUkizxYIrvvyGnjCse9GH8LYJ342 0y0WX1i8iDg5FTPNOFD4QWSxGrl62RZiKdOcivu+7GU5IVRkMW1zTCSZQE4QJLR2WoXMU7vp SLuW4myfeZBMvDEnzutcwgexqp6dmxk9jfN5c0lnU49AwEpPxRjeew86GG4MkZtjZTkA8H6/ Pyjm7qIUuvO6bcbBjLnq+UxvEoBccpQd48b0FO6MacvwUh1Lj+YyE1CYZzuAEgFCVZPiwXgT WmsB6ug9GLMtpiK+YFTiHLVThTL5s7q9NBZFrtMO6jgOI588LZw6g1MfY+A4rHI20wzQljx2 Mk+HG0GpxrIR+0CBXApAMifidYJzIcikdOcCewIPVZ590Nt+eFE8SZiVPZBAYg3kvC4UXdyJ vWALC2MObNDwkgTsZfeCiDhhMDHjsOEarjGH5Y6SorLDh2Is5bd50rqqitfXK8gEKKJaN3U6 gqcgw24MrZ5gyCjGHpIgAiTqcL5eL/c0FuPP84x0hrVzYgmrli02sbWGbduw7dsCXI7EV6Us A4MSMUSYerKMwzVy8ItTcoFmj+U5Y2QTnLCg86R+TS6GR2VSQp00nDbmczEEpZSAbBdtdwVQ XMyHHm+Mgeu6oBUo/nPUiLAcboGltyRpifdgHK8+kHPkxx7/aZGMPSu3n06I2GHxdlPdkarV qvn3c7EqFQspT9RO2dAcE+irEnbdF/Ztx75taE2CQctOoaqDUB4CvQ4P8vfv344zNovj+gCK QQEj0j9SwWOO0PEF8aGrbp9ShggivaPglC+af2/M4TS4G6IbZikltIoyvCQrugxzmBEy+7JM hMzmKuESH8E/W0RQWLKM6hEAFCDDXL2Kmigg6iJkxexl3u3+oPkAhGFIklUkeKRlLBUG2iR6 12Qg5yFKYLoTqZlIVM54e3MyPkGhphebEwPA6fEusgA/jO4sW84F932FIT7/marxYjOZsjE/ vJalr3OBRIi7VSsBJ0nhXShGkSQYY2KQVp7mUonVCBglmZjTQCsilX0ykwTIffTwFE9SjV5x jIHksX6MgdJHX7GGn4xlKc8Y8vxFcmOTHd0JCL4Qpjk6LSViZYyMXE7rC1AKTNlRV7+pLKfm zzSIZBFj8t///vcIBa113M3k0Nl/vgkdZlTqeh8OlAS705zB5fNN+ne3Ig8xxYicOaccsq2U U4DfqdNFlP3D48F/BkPD5NkCJgHvHfd1R/k1FcMB13mibjUumWSJVI0vNGd7FunrO9BT5JyD BGLKKElMDWslT6tuvc839L7xer0M2MHiBylM6rDm/amatYqUFy1ghwQlvQgc+4ExB5oj9jEH erOYte1bUKlMb8ho8cBSTtiP3VGufOTJ5BFKzth+/cIYE/d9hTCRt5yBOWUzqOM4QOUr06hn LWC48W37jpuA1Q9v3/fwVn2YEdVSMPMSf251C5fOw2e2Qw3+eXn9HWWxb0kj9v/rX//CcRx4 Ha/1c9zj6TSOP9i2rbonkojzEAlsMOfE1+sLpeQSChO6ylTsi7e7RSrBGE5UT0sL4qYvLMB0 DTBVjXq8xkCoMyXJh/t+olYeOvNK8zQZgLiQw7kmAS5XkmgUFOCW7QyUG4aCEi9EmXj0sapv Opcaxw1psX8P8siJG1EJrEDkzhdK6Rh/Xt0qNtmC9aSWzz5rVfYCLzGkTWs2qaWG8bCA1YdL yVy6zn4CXhS6fxozZWIALKbvx47hzFspBdtuiL61G3e7P/JCuvZcCooIpt/YPkxjnUtGHjmA GBEpc1hS7cQA7/c7fvYzppoG/9Fs4S+2t5WvWr4twVKNMQCPXRCgiDFQuRSIKkZfQAuCKEJE McUNmDGVVGa7W5RTg2TxeN57NzHEnOj+AvZjh8A4hON1QCQhFUBmcgVMx+2Y4Snpoh5+ODeP jigxT50hnrRwNw1crrsSlw6AVwnX+RFHAIpy3ZfdiLmEAnjc6Ii3j1JdTiXIiDFS3DARLJfn hYlSK9p94+2yn6cUeLgFPuM83fmiYCVIE4YEGomqd3Aoq0uw4MLnlhkNBOo38SkHu5qJ+T/U Q8xlhfLsEZRyLtluy/TGAjE3TZYPKAH2nlWw+74gjxeiUzHh1T94WHECiUTVGMvNt95x3xdG N7kUwfS27wYI/eyjfwBi/+7cCcMCz7TwQeCEBGCIfA5zb5G/PlCjUBAwVk3cpNTWpAAgUOv3 r2/8+fPHLHyOYKF4uN/f30G4MHVkeigpofcWqhody+X7I6Oz9QrWeFFqDZRKl24GshgyPDyD EvGWjCwZkgWaDIxG1TCnEEMyxcwiEE8vm3eSUBTSR0fJxfv0DKQpjFN4ag7IQoaxM7+ersuD Ytt2u9lOCNHDERju+74qmEqtnL2jD7DsnjSnbKXV4KPTK+KOpSo5kHuREvFneurVtK2Ymy3e 8QZCKGs2dWfPI1A+Y18pxYSSWHmxsLDigKo7SaTeEMEGADj7NHqPDpu6VadhJy7eDNe5q87F Cg5zsfg3Uono1pStKZ6fL4meih7I3L+aQYl5K00aRFJKCa/tFS/NilkI4BuhhqEtGajk7xeY R23/BpiveZsB/PzYzX00WJAtJb+gquEdotomYnosVpxYvmMsMHlw8tsocUBBlvhNUdeS99bs wT1OnueJZ4fok0Omy2aRn7m4ZQrWn/ZB3boH4N8XpMezpSiX8lbMaR2n7W6YXgqmuJLadTuc pZd7cvSM+QEs52LEBF7EgSF5Mn/87+aiB/Zjx7Ef6LlbQ6W28Ky9d9Sy+gD6GAE8qRGk0FLV um5LNeC9uVSKfMIHhvJfTN8qavAKKSVra4quEXfvLMAMR9nqQE7myqlN7qOrHPuIhwDidlzX oweLccfdUJceNCvd9O4dN91ZK5Y4iWaTEyc6J5CxagKqGPcN3EsdypIkMwi+QBpaygmYT0XM 4iWmmoyaErIgTR65Nz1UyZYadaeYSzap9J+fH2P6nJxRIMJmTglNXTjiAHHet9GmqgaUH0wd vQF75WiYTyxi9fiFjZ5G6lYABVCGV1+eXHJrDTpWB2Xy23Bf9/ohChyea+ZsXSB/3n+gUHx9 fVnPtDcYsl/r5/0DwOTPGYgK3L7v0KThqqia2fYtFLFSxBm7iWPbkJKxXdbZ0eLm8csxvo85 TCd+N0CctlTFOU6Lb1sJCVLrvIWLH2czJz2ONWUc9ne6ofrpL09dh/D+sXLmvm+4r8vbmEoY B0Ew+wd1TrTRA2jyRfYxINN6BXijs+YgnProaHdDqU6Eebr88+cHvXf8/R9/x/C25VwyUsr4 5z//iZJEABcOPNtkKa5/WjZpP8ZtIu/rutDHQpajj8gdA00mBx0wgDbHwCZbIGNj5haTxHhU yBOoNeON2ZCnEToklp6qGh4ajZFpKDZTn/KmsSP3vk2xytZlxdIAkJBC2JIG2JrMpT1DKblg yATaIpNKKfZSir1wa1KsES5CszecyQt6OBsfgJWl2E02b2R6hR7vSHkxyRUIom+OQg4rd/u5 PdMfWpqVGhXT2Z6l+JAATDw8VnLgtWxVxXmd6wbTOBzoiOfb9CwpZRyvA7VXXH4r+Hl1qwG2 DDgZWAyUqqbaSd7SRLdJMEZMwljeZvN4mbHVzZg0rLZmeO27e67OuMrqYsZqVdI5A3MkzzQy rN+NfEWtG3ozHoTFH8bu271cLjkwBl94GIP3rVk/gEBhCiLoypFJ/yI5wdbuyCTCUJ0fEX+X haDL0inLs02/lULm9PzLFlsSIBYvnlUkPgCLABxoQGpQdX7k4yYzkiUPcsKE/XO77tGmVDcv lUZ9euA6r8jTaelhEFOjAMPP66Mjw7BG2jZIN6HEnDNIKLJuKqtUGiXllMIDkY2jBInfm/m5 Ga4uQQoZzDFX9tMadli2kSQh73l11d63tTztO3JOEf7CezrtK7XGReljGIvqotSl7DVEH5Mu WDI0UcJq8Gf5kR8Q4skx0B/xj1YVKQ1sQkO7G+7WLJ/1eHj7bJjNYzJv1l9//YUxB6pz1VY8 aZH6CNYkjJxyMGEkHZ55PjXrJF1SSjGpgc9Lpaz4zW3dqlT8nOQvOJS5ZLfc4T6rduQjnmVl /j2mdu/zHVVJM5SKum32nLJSuLr58IYx0ag/aDd0lqC89V4cRK0F+35E+KFhPTUEVCIRZHsa WhwASahhrDgxI8ZBFZo1lJ5Ux5jV4YM+lCQ46mFG8LZYXmuNlxSu2vEDka55i/UiaBj0FvQq 13WF8D/yzrzq1Mtd5wgT933HCxljQO87RAWUNhFrsHSasIx/9h7tv8ASh+accbsQM+UU1HGE RAGyZLzbO743z6HWAxvFInxRsn4GdLV5x431l8dydRLBe/yYd8ri2Y+B6z6WkJMpJj1TUTXh gCS7G5QD20MmiCrUHz7n8tF+xC5O5rQGYEx6ZBOedjOkJKvz1FPAoB6fBI1SuIAwMKaHdPPn dUKnLhUoCyD+D1OWIHd6D5GC6sS4rF4PgjY2ATgZExIm17mDEmkocipePu5xPpYl0Ogn0qBU DCGkjBarUMxqcAD0PgAiDe7dRqGknA0XOenCvjimj7VW/POf/8ThBFvKCa/6WueocMBbo6D1 er2sni7TAALJFsaykos11OsqKX7MoRHrR3u/34vE8TIlO0ii29VfsllcxxxGGtxzpYGWg9ao WP3+/Rv7vkftPMNwgxRBKRWqK2Q8M4UnZxBtyl5fsHzdFUCq6IyTD8AoKuhqtQO2NOdshSgR G79Detf67VJQnzFwYQ4DVTRE/0xV4L4utNaxO3ceTN+0kjT7yKnR645z6lat2zUXTFn0amUb NxR1M15i9OGpdHNDdZ3/nJD/7f/8f3Q11i1JEEmA5tUz3sQnUOHtGw+U/ywP8sBDQJFJg36W MHOxWXVzanRrqOfqbDdaUqfP8VhG2S5Wcd92B5E2p661Fno5TqBgHswUiUbHEiaAlbcrou04 xBqPF8EyausN4po1hiF6At5onlGocufqLIrvIqsHX6eGyMJegVU1WTYm9qGx8tKWugSiv3// Rq2rLyGX7EMJhkbxnmkUPNVid8j0bgo4eCISZMGCX+zJyjGG0TiS69cZHJ+ALKWEMTq6Lr54 2zcfqpeQsNDnnBNDx6qb1xKsXU9sQMCqqrmRKIaLNBRJjKz49161eJ6csXtMJaZ4ei2ybDZ0 wc4IaRVMgM8Gh6jZ92mTox5ZDZgZ6QRkYZGuPZoWKE6ZY0abksJ4DCpp+uxeBrb+fgPpJrYg py9TUaJgQibID4xVKKmrxTelhCwJd78/KEoO9lM/oOFlVVHm/FYLZiGn1AJJZQkVinH+aS5J sHpYMQ8kyF69m2oqUQKV7WuLWTVdeoSllLNV6OQh9RKjmlcXC7mA1QGzaGSbimmg9lMbQI8m siTgEGMBv7+/rcvnvIJ+nl4xS5o+ytQqJk8eE+j9jh4Dcuwp55hJYxMt1oUiCcNhCKFTdLZU dQI+/myVyh2L9TFizhvTgunAYc4ZPVqsAT+7Wo3IWS4pJUGtG0ai2HEilQ2FhzaWOoVEzZcL NmhUcLLDcuf2kQJRJRvct9eMn66Llb6cElBKpHj2exl5f6hL2uLCJSVkQYxRg2JVrbDYuGdl DrJKz0TtHIAoAMTB4lOFIyLAWEZmvEgC1GRgdP8lF6/YdY/JiiGfKSHDFBzE1q2uipqDxup1 jKQWGqCKMscAfFCgQEx4gEcfmX72iPOFoZh7iWEBfBkszvCGOd14pCOsnJ4jKmisBIg34IlE f3kMG1CNQXp2E1dDRMiqfchPY6oScV8e4Uc/no+93lFWzSs2ds/f+Ysu1byPecbvX98emmy4 4H/+539GrP/1t1+4r9sBXUKFfvysOYw/37cd+9fu57P08ByXEuXcIdD8CBtej+d5cAIFU1dm LxSS8HMLgCBabJ5aRhZzo2n6QGBPFSia4CG23qFjuT2da75rztli3vv6EONT+96n8/bs1/Ic /cmbk8Y1UmjpveLPpIzWW3S3kPdnk0LOGbPP4PN1Ku5ubpdagWctAfNBW+pSmz71es8+vqB7 IQGuomkRSzfAq0+WMKVk3cBpXRJq9EKS7ozf7v16rP5l9wQsbbdh5Vl4PaO7VoCGvKp2q65S TFw34gstJY3GF+itIZeFCAUCyRlpTHTlIW3s+asAACAASURBVLsSxD+QzBKnI237ZpOM/TB4 w9mvRarwyWyRVn1ckMU++S/OuEGGq2DvuC3q9GcfA6knZ0PXbRVIMIkAPvgAhq+ylyBxxkOT z+f7ef+AU7dyzjZCZG5BE/OCcJSK9e/bv1Me3nrzolWPn8Vf/67JZ5hrrYcmb4hg+o0mtnoO PqBRd78Qha6VL5+pT/VBeO/rxH3dOA7B9tri0HPK0Kq4rjMaEW0Q4ep9Y0lxjhkp23P+S/HB OHSjTGnolu52R3UqO35grYAXiAqTKO60hpJSyKrtRXZcyga+hJQqks+iyylHCqXNpl/8exeq JEERnwQpnw0HYXSeJ2f1MrUPN3q/31HPEBE0da2aWbZRs208WLYUHuB5QYJ0yhxe7Aqn/Hl+ +7Gj5oLWmwkzjwOqNoCwd5NhleN4RQrCGPHsVP17/Rva0ZCSzVX/eb/x/fWFbT9M/gST/G7b ZoPzSMh4HTiKBO6OqD9DgAzDBDZgx4YJkPB4uxzI7FKDEgbwCSR9fhwA/Pr1y79wQynZuGnP radOlFQinRNJ0fvGevO2+fA9zxKS2PCEUiu+v7+gl67++u/vcMUsJYcejcWX4vX7c03DZno6 +ohQwhIw5Wt8icASivTRMU9r4ODwQADBZzyJqVoqXscrPDdbtuvrhWK6doUqXFnpnR2ORI/j wFY3/Lx/8PPnx8SKo4fb/tuvv+H9fuPPnz/Y9x3f39/Ysw0f+uuvv/D1/Y2cE1qzwfzsd08p oeUCChYDUfsLTlhkDhQYOkOCFS7aPRRBnU7T7ltJ1Aot+7ZbT7cXi3iDjHdYvLfAtHNsFSYO WWoUvxBzonCAcsnIyJBuL/FZ4QuU7eCSugH25vfTBJdcVGAZhHi6utS20Q2k9l7otqN1jAY7 U1wK5uRTJ8Y9Au1TM1CswOEtOU5wKDTQaGsN226TH8cY+PX1CsvZ9u3R7GgP8D5P6KPD8jpP T2vWJOJa1tTpP3/+GOr0YESZ0kje5OclXOagT82aqo3EJnIf8JjlA37P64ppkvdtbpsDAukt 6kPU8JRdP9NSHroRTWueLI3I+u9WUcTqDQkJVgmLoYy+uYEDhmlUSUzzHjELiF74eC4PMzLW TN1SK8QJqlTXjHkzzuFDHe+4OHzmGP0dVgrEeJHWFsAAbC2EdY1YyfO+G7IXTaqDkvN8x02p PmBvDIs9275ajEJf7sia9WCdinvcEY9rrRHnOFGCJVwAEe+Yr5Znbv6gKeE8QihzROJQQ3bs z1YSNW8dx+vwdHHAI7Hjnx7GbTfLeX+mr/RI8zGZ2gtT1hhpGOC+6JlWShV/HivHN/edMGXV FCJLSeZxJuZHuAF8UoiHMwosSsiVnHrcUgIb6fnyerfiQC0V1732odz3jWM/cLf7YyAg+eLW VnF/c1qV7b2UHIX4wXy1VdaGQrHKl88hxIyDJGaE5VPX71E8QKaMnadsuKSBMQWKsqWnnjyH 5JeODYlcn1Frjf4xeBikt6QqiDfx+b+8ZcbJr90xAsGWtjDckH85a8fUN9qo+lK+9t5RtWLI AG54YyRT2hLegqxpc1VtYaolSbClNbRGoUGzEv0VH8fBendQing06jsAJGId3iX6JAz4GQmI l0N3zYecmj/YtBXLFytFUoSUMZ+Bt5btQKwlMAfn0GKRhM2FC6Rtp89btTy/mKR7rJ9nXT0D fU7kR4rJuAm2eLth0q2SI79bQ4bLnNp0vPEYXcbvhzUPh/jl2fkbBRfnKFK2Tl1glZpVFe/z bYsAHPjNOVE2V4w+0wLytKwe8bazCM+KTik1BuXX4wiXzQc5jhcEj2qWmgI2YqEfTNwKItWU INP65aYP3yOSTdlGasU2pOHU4gPhqi5hB+NzcOcKqIcRlQGdBalkVGHzxIPN859LmhUPgxO/ jc8Ukl4i5N6usbebnZEelTrW728/GzZXMgt5jkaz7qAZApOnkQVA5Pf1l01pOdPYWh+pckpr sjJ09X/x1nH47c/bthn8+v4FqG1GsHlwCOmv+iHRos7zjPaclBLQ1wIbHia5dn6mWiCLgkIp BXe7o4ctu9KlwbjxUkswTqoIT7T7kAJbZUNl0IqZnLVzt9tmtnhx5VnWbd2+bykFYBu/18yZ mwsGhsd8CFDw0B6kVeMnfvn6+opBDhQvikhMk3hOdhSY2NRYTvUQIp/4g97Yp2TylvPnMoxw CHMfA4XxY46Jn/snph1l32jAwfLHfuD1etnLcS6Xw2aP/Qgyxl7WYo/6NCkS3byq2qQL0rTn 5Rm4+ODbHlWvfvaQ/tC6FYj6chJLBUvOnhcjyJ5TZwzXbVeLm8Jb4Ig1uOt/nxJFb9YaNePJ O3MRt+l22ZU8XpyNNkVkItGOhGRCk7HS0D+eOx/Hgdv3sjCvZrrMDOM5h4aE1fv9Bid+/vz8 IOWML//3t9Ph1rDiEzHcSxQjOAzykxtnzNjqhvM8gwyYc8bURz4I45e1L9ukyOHtu9XFB+2+ 0XqPXvcnRWil2BE3YasbUrLlNGx4zMkaC6Mo4ulb9i9D90hsQYROTEBGje2+BuosRIiP3CIo 4/ORojUsYbnznIqOHpXGfVublzgAoLXbPsONwApVCsUA5udMW44MZzsT8QolZTGOVEj26AcQ ZWrKXD0GRriBl1LMCHR+CFdKJPfCgbS3c8y2DoIv+7wuAGu0CBUttMp933EcL5xYe8IUQM3Z pif7TSWC7WPtY6M1s0iSUkLJh20O9A0IVJMS0Nm+tQzweecqkbIE23v/SNHGGBh5rd7gtCe6 febZa+6bgyLAhYsSXsj23eR4MRRyzjmsBO2Az1C5fABJdaJllYtnxOUo4QgiyzleB7ITWUbQ aLCmnNLFukiIK0rBtm/R0PnUCpTff377dGJ7ARzgBwDndeL76xt3az5cL9skJl9Befcbp3Pv LBGe5xlarPu6UT1usQmB5VECIsqnYzzXWEMBkneB2g23ujnFE0Mm8rQGRSpa+DPDOOaScEtK SPo/73MJHp2x8HFAIoJUy6pw+W0iKJ2YMT+GGCFAVsmBcdZyviUtI4+u0wyAIlI2K1oai2Ar M4mcZBNC+jQl0n3dQTDlbIuCkjrYk+UJIQsEFo6uYv6cj4yv9GU3ZXQXMqw5ZNd1GaJ3MPaS Fy6xbg1iAGrKxhj48+dPrMEijUh0y8IK+64DNQfjNpe7dldt5IY3MlID8CQk3BVS9BDL7Vxs 8ZR1UVRJt/5cKAB4jdrxCKlNf998626IA+d5IXvxw7iG6UMXBjavD0CA0VclMkv+kDsT0UcB 59FaRTyUs2GL2O4oT/3CkpbzxhNgh2YBQHFOJMp7vH1WUu0eO00Ryk7SqeqK1BJCvCdw4UGa WNC1Zdd0GXQOiVIfAz/vPxC6zkdMY+xrt4/OzmvKpKpi+s2thZo73/kCk3Oz+BCgzV0sSZDR bZ0nc3nm0yGSyDbTjvQr3SivDcUedas22Uk5DiUtnOOFE7J0hj08vspi97rn4ltdq0Dpqrdt 8yVEjbc0tkVCbLMEjdw86krbps7QGfJCWkxPxj1R0TLmCBczVfH1kAORcg2k2q2xn7XhxazZ C+VuVrp/dr8utwv84+//iMJK7917yaf3glWbxCi8Yeu2SfyO17Id2OW8RmP33pE0hUCDhAld NOXczB4idue0RBjTDrckJ5tisvKq8NW62ZrO+TQMBDBWwC+ARK7N+G67XzSwgpVzvbqWLS6/ f97RkydD4tb31j96Bp6Sb74zqngZvgGg7F4SraUGTxstMA52GH+gdgPG6Lj7vcT8JsBxJJlC i8XV2le6kPpyxZQPbbXi9fVlKljfJZNLRlYfENw9RfJb+4zZJF5iPnsywSUBlcmU2kNaJKEa 5SjU4nVn0rymT8tr5ppIiBer6wjvdnsLFDwfFpRs9CtfovE1FsZIV/OWJQdvJIpiupc7I0BD f8AhQ295WzZBLQLMO1zs3IlBw491qG4Ava7cndlT2bYNf37+QNU01sGNu0VfvjSWbpsvQSCx MgNqL95c2NrPMj2mPTXrBqiy17p3m974QOUB6B61ZvDFKwfreq4vJRQpDAfUAyisf75yJcZ1 WZgSxBLB831aD7unoO5vnfCBY4rVcMlVGXH7a1nfKWVoAUqpHtt9IG/dUWHGPLxpkR5nTGvX piGPPpzXn0FjPydBbvseku1b7sisks8aDlm6rt2vLOWybgAA5V9//SuKJZTRPis7jA3TYzQ9 rI3yPoJyZbFAdU206GPg58+fcCt99HDRvQM/4yfCxd0cBM7yISP6/voO0EU5UHK929XONYki r81LpB+nixeZEUysGXhxu0XQ/Oerhwm6/Tlm8AIpZySP/Wy5ikZPF1vS8FjRYkYx5xovasoX u9b0JvAXZjo8d9O2vshm9nolr7XbhxluSxiqazy4zhVacrbNEM8ZPax/lH+fNxOuPSUbCS7r wYYvcxMIivPMx/EywYIXKxRqHHNeas1t24yEcGkRUfLpxRYu+llSqxo1gFJKMHBslcqlWD8a Vr/4MzVhDhydo5L8AB5SJ3ks+UsLNTNWcg7bCjk2QZLCiOwvG1gyacD6w6/rigqlre7SwBpm aP55+rm0iLP8LB5T325afhm+hbGMkKWxMYPfJ0auulHnupQ7zZlVAKacKZ5S5ZxjSx9dafcR ohQfEJmOOaDdx4VQceItUKECdbfGAcAGjFzi221q8XOJzrN9iO6foG6DLQGaOpGmjf/k+miq XZj25ZSDMYw5MR736P6fgsHQi7vyxgwbsd/0+WKiJuGcQaYewNO1+zrR7hvZ4/n0UPPkxAlM vaoV1bQ5PyuRNOpaaixKJLYB1uwfZh4Ue8yx1o5c48K2bbYZ00NneboXtgrRJfXWokY852LO 4Cg08kB3b1zIo49QMNWEArawL0ofpoU/TF5FxC7JqmTjGj4tYs1xi2a+blU0Q9c7+mwLb9Bd 6tLgc8BBTbbFkMUfhYZo09JBoy4lSSysZ3rHyZGi+nngfY3t5uSslDL247CBST4wwObB+DZH L/a0YYTXse0PitQWBDCkKEzrDn+uLMXTZwuSKa8VZfzf6E14sJBTFUmXsRT+of5gikJCBMWx bUv04CyQEQDLWADE9AMAIfCn+mXOgdTWQpwoT4rg589PKDpyKeguakwiuH2gDr3Rvu/BIaja aG9gceXyqL2b+8748YWAdduiBHoch+0v3/bIfzlnnewfu3Zq3cy8p0LyY6S2rjh53zdGGuGV SP0ypi/RtR/bXDzB5is1AXjoyuEtnxoBu83PZYEWZm3Q8ppBwxtui/y22EzBkAN4weW5DcDo xvIR/6IcOaflidLjcJP3fKXEHqqFti0m19WJyfLjY2jtz/snxnuRG8h+EznLhi6vblswg+d5 xuSnZxpmgMjoypxZKJlIo2P4LFmqXdgz/4FjxHhv3ors1TWqfABEUQMAhlOnzO+T08UzwpwD y64xM4c1/pir5+fIrlkyj/d92/TnJNBpFTOi+eDcfR3qs5z6bN1+Us0xCCL0WZ4XGzq1VIRl V7pPvuinEdS6+SSGHHkwLZ1x0+ryGhMh9/1AdRZvP3Ynb0b0au/e/vucQnF73A6xBKtJsnq7 yGSt+bGKv/36WxQ+zuuMdiFiAA7WZXghaSJZViMG3a/n4M2ReUoJZash4KxSMdRibN04nrzF MEPKpLZ9i3RvPtZ1sgbBCuTtat6sPnbMf59kEtQ2QCYOemBjpHqnT7eaPUebhnsnhw5QEKkr VywFE5+TEnkI698tT2/+g6N4Imtykoi4WmVCRdBbC17dFvAV7DmjP+hHVorY3lMd0XPlFCVO RPXheVLGvud4uVyXQTLEDOj+9EyO4vnfc8ruzmUNLH4YfvaUjtr27J07TxkXu2ITvFHj2KMA 8uev33i9Xvj+/sapZ4SvMa1WwVz+6/XCvu8xKXvfd3tE9wxJUnAs+7bj6/Vl7+cRstl1Q9wF wCZR8PZSaBBrJBVI0fPFmi6Q/LZZ6jWiMvfcuETpkjUVahxG67baucy6lsl4PKu1Is8lzYpK 2TNs8GaXNRqU6zuCNMlW2drzHvItS02xCBrvQLV0MiM7TqBKleGu5AKpvgXZDfd5UQh6yU6y aZIlajZZfoxucWxwu0qG7pwTuejRtn2LXbbWU5jWvjhXzNS6hazr3yuHImJNFo+eOQAoo5tr +tjC61OX+UBEknN2e/XidWgfkPDM68eckDHWIB+vQPHBmDawrWiMAfSO6ekagEi9UjatHPoK KySLmIpRfgUgvAQU2JJxA+Leg1JhhoY+e6B77lyBWoymlow3hf8EnftAzAJxAmWE+xaRmNku /ZFHu1Hsu3XTQPWziPWIyWQOW2/WJ1BWK3kog4dLqWUVbijiNKPZ8V//+Z/BRcRIMbrFgJfC 0oPfnCSuLOGsGdZ69ZHWScw9vy57wSkl1FTthj0KKESldDfPA2YoIK2ak/WS99TXCBIoZp+4 9Q72SzbL64uUwCF3u5H62hS1RA42CYI9Z1TTaF5TKnPJKD6M7yK5UnJ0kD7XWbKWT/wyy4wO WRoFwR/rBPu+QzKi4cEkaZcZxHFgdykahyppNjAYLWdlfc9jP+IS9AdXYsMZXETqcmg2jhSC LFHytpxyNOOh5sOV0mItlLvlwYfTJp/egMfwXQcTBHfPfulnDXmMidvHhVXxbYS9r5lzik9J lpMeT1fGWzaHjyKZfaV8PoBfYUtsi+3Q8y7XNSeOv5KHG4oJe+/4eb9tLMpWY7kOhiBnRR75 Q+dONxt7z0nHOs+eJGFi4ni9nIdnhQzBd7S7YYiPJGV5lRVHv6gmIpk+fduyK3YJ3XLb3jpW Fv3vFggg/sJIxEQJksUF9qU7f8ydKzFew/PAIEnI84pYle2+cd+XlQfTYtp4OMdxoGwlQgXj 5WwtRmEDiJSmlebpnMCUcauIQisnqUHlCl+GDf9ZtOszKwnSaRqrlZItCzpgQwLP84QAsf/9 us4QUtJbLVWvQmZCnzcoVAmhh4eV1hrktAra63UYqPXzq7Xa6BB3+bzhrATSPFkG5/rz/Thi MgfcgK5HlS9iurm0giwC9WY+FGBkHqkfiJMEloUKJGcU9sG5Ls5WXszooXq9DtRZ8P4xCfX3 9zfqVnG+2cxoX4Ijv+nySTc+kSjERAtU0uaUY89qd2FhKQU1lyh+PMWYwTS6uuUpoqS3YNmT HiK4i5yjo3SMgekp5HN1WWQ5+Umo7NYEum+474bzfMf3bu02gmazDZBlMwT/FLN8yMj8MrJX LeeM833G5Sy14Ngr4NQ4BaTseiF5VpivPqnVZ480+6MARIMBXQWBUc31Q4/Wust5S8b/+P/+ h+1TzRnoj1JsKfjO33i/3z5BwQ5wqobEunojRqz1njMAIkEnpdrNG/T1QWNOXcOIU86QKrhO a2ospRhH0DnTXm2dB1/qY+Ax6/Jsvf7z5w/mnNj23TdXLsOMurUb7fC0kXGf893qlpGTSZ/7 6Ejdmx/uZQi/fv0K+Te/79SVjfACPDuIerGYHjT4XAsLeQHkf/0//m/lWC5VxD4zdTLleL3M RbgA8jiOsDbmtqqK25miWsrDGtkiVPCcQRsCBdjWY6ZsBCjXfUOwYhu3Ft4+Yjz7yxbIx/ME EPR/yBOoE07sY+ec9Ou6rFXY3XgpBfd1R8MBNfe1mryLUyE4b/26rg9SKuhfWSIMjuBmGCFR wp2yvMHEUNPPjHT36MND6AxCiCEW8OkXPpCBffXd83zOiS85x1y7krMt2OXNEZhaA2VNQNi8 JBntPWPNgI+RJSlHKla96+WSG3iM8Y6uGR/5ZeVTYPdYFzdhjPA4jFev1wslZ9yONLlUhzeZ efO2bdY/73RlMG/T9s5wsS4EVmrNJuYIUQglT1SvjhG6tad8mf/YGaxVlyGVemRArEymnCNt JY1K5bDxIIaQiREsl7cfRoYNbnBrTBlihSi9dcIKi83HxtATwSnfwlhJiVBJPs3Zv+ia+ZrW lgXeIidf2Fo053yUYB9pHxz48wC8T4zzzIuUNfZDEGDk9iaJ7EN3WS6lbEjmUrKQX8g5YQyJ 4sq+rTGj9zQjstEqNUqk1PUR35TqWcBN/dySNUXBgyVTP3B10qQ62CI4fJY+J9bCPfaaPQcJ WQjNIeKwsS4SFU62aYfhQaMXLkCafz5B6xwDmtbeVUygnD40IOclDQ75sCS8rzfmtHWNjJ+q iqSWOtW6LXmyCykWXWkgj7ptNhcwzpicZ4u5rby1OdseNbjnsRbbia+vb1Tns9mOJMlaoe52 o/RisqTOilexblFH1s9NhdnFGOO+HI8gOl+iNbrYOXTtYfhPuVR1L0jPMsYAXKLFNIm3ji8/ VKt+o19fL8cy80O7HzIpmADzOf/1OUCIxstCEz2NKX8csGLtqPXUdnUzsknhaUnUflMKHUoN /+/D2TQTFXhLr65dbUTadJd0u/xfeFVLpxcJZMRN6b3j+5fV25nPA/i3Lcv+732NFumjh9Tp ejRfMP4x/x69P9ZbuliB3sOnMKsbM0dzkXCxdWBbUJu81Zzewe6V59TmeH4Pidu2OQs4bBCw D2q0Qf9YmnxZTZGxldKreezfHzCKuPm7oTd6cRecDzZWVZR9X1uKWeLkh0VujsU7h+gCiENa BAniv8FvDn/W1e7YVhA1X59uKDDV6TN2Co0mZdQvQ529NZx9TXMSfLb2RhqnGoYQ8qRq6ZsB P8u7KcqErj0zmC68UBs0HIsNYhCBU6Ujh6tPOeHIRxg1DbLm+j/9PSs++Ww89wDc8hCTIsij 64wzvmdjkAQ1930MjPeIwU1zjAjVHDNK7500BU4rEZj8V0qrmgRYSbMma7Kbns9P3xDI4f39 kYoZfbpmyBAcBROXXLBH/viRbpB9o4hBXMBBt7a6YbD2mTE9m6usGJoAHzdCiZfVmGFD+1uL G07v1bvPgpdF+KhqzH37zL8lCkzJgSw5b64nZ6PEsxMlpFWt4/Z8PNxuqSFdXtoCkkfr90Oh BMNFBV7KxsJQ1sDJS2gv2UinaUCO6cNMi8DgX9zdRZ/XiTksN233jWssBS3TDRHgKEdYHula kiTbvgfQec6zsU4aY++YDj3jIQV9EYediMk5Yy9GQ57nifsx2qM6mqcR0GCIO0iP0uinKpQ9 9l6gYFpKY6HkyUD1AqvPNDTnjNQSrvvC7e3CzwJJqdaZq9N4ffXbvG0bDu9/e1YtW2s2b8+N ytZ2IwYTvd9v+85lbbcg6YRHKOYsgdQTynEc9oDXjW3f8HV84falcM86L2vMPNht2zHGwL7v AVrIetlQXg33GnPTa7VmSBcfppTCnTFWN7UZL0kkaEjA568/BgQL4EWJi07Fn8Xq9TZVykDP 6/WKMuXPn58IB5xkzZvN29zuhrvf2Opm2jlxpq/Uj0thRqM+YOmM2Hm3Firg2E1vtengHWqt eHlljEv3CCgZqowLsDGqMQFafWDheAhWUvb+c4m4n9QaVdp9h5ep22Z1h1hA5wTHmc4PNPok O55NBZQcPS1M+8pfzSU5e+XWJtze5EAEar1YrTfrxBwdGAjWirH0vu+lo8trK5RNU3a60dNM Aov5cJO3GwZVK83Hi1kV7Qq0DgBJU0yrvO+GX3/7tbTovnWa4z7vdkOc9WrdO3td3HG8XnH7 yQVQbXudV9xGbQ1TlmKHoYPnVx5ppQ3oLx8Cz0JQet+WjuXiYdVHiLISKoLKfrje1qRhAhEA QVCQp6ZF0aUDiC//HMBjqQJXVi/uO+au+hcp5bE6271ENBDAjOjn5ydIIcEaOJBWsIq6NB7G RKPMyUquHKRAtBw5tVfMAkg5mZRztrEjTgMn/97stWPaRn6eL4sNG19fX7G7LruIhKna6APn ZR2uX6+vle9PxE1/TtzKXttIkiwsAH57vXnSFTq8fAsreTHr9Qo0r45BShy0mOCRzX6WW7ui M1muqKqRXzNOs/pDRoy9XpzOtB/cTWLgxmJ4CwEAlMOHJo7dFK/YYDG6NRwemyL9eyBSAhnb CTPQBciw207uvtYa1CtzbY5XKaXGNImcs++c1ZAYWcvXz8q1+3iEMHEQaaEll4LtAaRYSYMA dzOWkTGfoI+jS5MuwWSEDeeXnoMbeLF4CayMPEKrENstXJBJIencamgLAKBwNCVF+1y5yTRj 27cAPvMxujpWTVeO6HD3o8Zfj3ugFK9UOWXI2H3ft0mm3B0z/ye1y4rWejklgFOI+VNCFomt ilOnK3nWRkQe4rZt2LAF0/Z8KX/99ZdJq71ViM0Ov3//hk7F6/uL0Q/ZF9vT08xhk54h8Jk8 B8YwoclzWV+KWO4D/Ms6M2oReVMj9DlBZtmAycjDzft74kAC5sjsrSczSoPe6oaZV999sYpT XfShxyhOWCDKbF5p4kiLqLffE/e4gUs+WKPnXlPuDq+OQiG2ZYCih/3YI7+mIoRz61aVyeMT xY6SfGl9QpEafEJMW/Lb8JzWxO9GNP4xzSkvTT5DTh8G0I7jwO4DEc/3iX716GQdXvmz8vAe I7/vdtv+9m37mGA9fOxKtA67a2ZYo3ErABW7LOTRAUGtBfWo3qZ0hdI4wGat/r2W0KT65wWl PLohc4KmcE8ew3rvYWnJkTkFCL11myDp0idrgVpL8hSLzxZdevPiOaUZ1UTKxqmzqxMT6Ml6 y0PO7BfUMIM19S+enFLlEYBuzhE4ojzcaXe2jKNEqBTlxEmrFFbk3QDUn58fzDqC8DnPE+d5 Yts3fMs3NqZTc+J9vv2SXFFrH70bUPN0jJseN2wxCl1kTa5Qj9+8PM/hQWTfWC3TugUryjNn WxjVRX2sBYVBZLGAr2rTBVlZIuMDf0nJx3HDH9z2etpBmTTXR5PcNnTIQMbKYxn8SJKQsInG /UvD8Mgljzli68SzXVqh4cpyzkCa0U+nUFQYqmfHB+CTJabNnzPx5nLzfXTIWE0CXDk6hu1C ux3k8UaRROqj49hsivN9X9H9yxhcyYTgsgAAEuBJREFUtw2Xl6r57KRkmQbXzQgZZin0Ypzr zlBiaVwJXAVYqxRBKLOmWPutipITZrsDvUcnzeY7P8XjEt0fXR57vIgUeVOOfUfJ+WO4/LEf tiPdCQ9VDXRLhSc7VzkffnMAcl3mMSiw5Jfft32NyxqrsRDFDuK6bmg3nvzb8cd9XXEzqpdu +3UipYSv76/IVIyvt758GtEYA9kLKnMYJjFkbwa1bzvqlwHY67rw+26ROpVqq7Mlpdi41FuD pmXsWbNtu+odbbY12cNxwBwTqSzmzwx2LUcYnh2pKmYyzxlqWoF5G7Ud9rVU6LbGoGz7ZtVC 6q1LLgGcnsqU4zAhP+ekng/alKBiOKDJOa/B8h63OaLEkHMO3l1EYtQmK3ooiPIhhpEvtVZY LLAU/NlOHXwzjKaEfu5+ecq4n4iXmvY+Okqy2rxmoz2p3LVp1CycpGAKxxzQ2ytlng7youS8 9PBMX2utkEfdgmlVThlTnG0Ufg+JfXQlr1nzsTlRJIYVWsGqsYJsM27zYjunrzZhdc3OwJjH QhdHtM4HXlMN1NPgEaTAHNPiVut4fb3iyzMXJrdshY3rQ9qUnJunkpaTopgFUCas/tnPYgcP rY/hhoTgzedcOvUnGGtzTVdq3Q4KWLNx3u+3z7+10q+QdhWNKlpOq+etN87EKdhrDU4hKNi0 5tCOOfA6XnHo44HACZI5fOApL19g2jtcmw0wZu8+lAa63lliD34yRbINH75jY0boAMwr1Y/c l1w4tXLptvGW/MEiCXXLjkTNyuker/syYHeurRDMz6lDq1WAtFqKWjO6sxYbKnS+T0DE+qm9 1Zc3ifFKxrBND2OYitRzaOriSWj0bphg362lyABWQ60bjteBWgr+675wvq216Pv722azOVY5 jsPGbXrlKmcrBD3VOq/XC+/3O0QL4gYGNaM7zzNuPbFNpKfQqDRGPVzNOGkUNCIA4OIdsnZE /axhlFHi91pv1iJOT+ohTVWtVZmHyfbiUKPisfiVs88eCNFVAeYe99WtYelCx6b7Eln6r2CN oAFWeBCcDgWKLpNgnkuw8Hq9LKVJKZ41Jmgk3wbtXkVci29DD4uLDi832hqKlV+//oZGJs7d eiiEvbgyx0Cbj+U5yUQP9231ivBMzkcYV5CiCZSk0HOsakoJ0tzdi63CDo/gxouMyAyedXsV DXYyws5DoMlO4pwH7usGy9c0tEJxn5H+GduWAqVzTNUzVtEbFJSQ/445wWWy9AhzmruMZbwO UihVVl00JvVpKSe8vr7CmKbOQKwRdhwf8HnO84xcVnXGxoecElKtQDLue05y1eKNhLbZePO5 twCCkzdK18rKz5btOWe0dbOFiAcOAdSNhCA4T1sc5FI3o1H1U2fIhT58gc/wxHpA48t0bxda PMdVBJEknPicpZSP1eMsjBXWtKmNtpKdBGHPl3Hsttbi5/0OoNB7X0tmUwqlCV1Wf+SPqhrT qCjqAxTba/sY5MfJzTELJ9tMOCJ8ovpSiitjHkUcj+99dKRpcm2rlHX07uu9PQa3NlY2UNbW o8iH05okGWrUqVBvqrBWrxz1AaZx4cE8NpdSAshSXWTlT1m3U1f/eKnFBvzH72PtlU1bFHQo G8eg98zRUk2gmCRh1z0KQfQ8hTk6R2jbUjvrnpxjhkQ4eU7IL0BXbQ9uoOeZ24tYW04USESi KML5dCytAvgY7x2kSi2BesneaV9iRG5X5Dptgrc5ZgwpkCS4HBeE1xkDpVS8Xl+O+hEvl10o kWYCMUOveebCcZwign+1ZjXynbtS1j5aKHCe7wBmFCoCiELU6/UKzBSlUV9waCPJtjin7Gcp WMMCqToimIXLrLiRcrF5eMilXHlKF8atTKzSWIUnW4253QEqFJa7n+eJWnKMrnyye/YyjXgx Fau7LjVqd9u2lY5A4vND5aKKxKnTsHQjaEZnvAzEdeRsVagJpkE+IP/H+s8S9W/DZN00oj9/ zojTNNan6tRGjek6xDEgXiGkgdsEJwQ2UE+bSNsa1VpR/GU/c/OcMzbZcXmtfz8sHDBjueEL CfNahtCaeeZjP3Cep3lYtSzo/X5jbCOmeKSU8f3rF67zjOFHZXilJwK9aggWuZONL4APy8MB EBw5/y7/rDoA0kfZ81k9Ij7goTEmcZsRpm04Jm/Q2NXq6ZaxVQJVm+ZgenmTZm/7bgWSkmNs Wd1qrPweY+B9v+PnyuP7EHnzV0opKo5QBPAcTk0fL9PccVqWutu13jpx8IlHO/VywTwPYh9W IPmLdLGILwSa9jNLzhjDplAY7+D8AVvSdDWhHkdGazfe5+q7K2OO6AxhbAMMCHEGO92d5aKr 0TAoxTFiLBirRBuAmXPQjeSNmZ5ooXDP++jSKhvauRtYOjZvmeIz+Jx1E11y2hKigc8mPM6Y tBR98M7BiywZs8KmPXz8etDFYVyO1seDYKHBx8Bdr2wBazg/FTEsTY85lq7Oq21TJyQLtryZ zMo93bPTt1Qb4EDhhnqGMofNC2A9QrJExY74IVjQMaxAJYLC7YM8bFap6Oa4hoPDe0iuELSw HRgKqGhYNRE/81Nze05KZA2mi4N/QhLttxJw+ZRPfRIHZTZCHDFcL+ccrOHyVGsU+Pf395rh ct0Ri6Nf3XNjBWHHqhNgwqdZAeO6onZNL8V0izo0PgMl36UU2xrNz1CNghXT39F8GGNZs3TU w0Dk4K5jnGq78FiU4cCCZ5GMGgKGD/IFkWrnbM0OzMmfZcipin6aqKI9pLnAyqfp8gPY4SH7 ETs5Gg8JDvVUEAkf4sfgvb3tCSKYMvDn/RODB6lTU1WMuYb8iYNE1eWR4G68FksJz3lF6Dj2 Iw6G6lrAGD7eclKyzJlDF+f6/cuZRt5sljETgSqRvB8+hwVY4WN+NGXSWCx7snYvFpYAWG1f bcjhM//vrUdJGrK8nU3g9hs/lmy99Y6s0zYwknOny05zlfZkrLah0ILdi8hggYTeIYDZXLtB TaSnSG4gsQaEe9D4WQ5UrnmFgidcrplTHAQPkHHSukNN0vyUXP3588fz09Wi9CzTPpsA+LLx uLl0tyxKEWAlSUBCuFvAuIc+gSoCzRmYCha0Yo8twVhfY9MZSqwSl4L/sNLvEQj8mZaKSPAL vLTWU2B9/bNW1LkYTfvcDiCjvF6v6A/jQfDhRATn+zTdd1k3o2tHhUlqmQ4wHYpcMWdIQtTR 16zTNRSv9x6xNhffQNib3SKxvjSu3WTezxRvshI2Z9xEK0Awjpoh/rzfMeQ3Zs64mpQv4BnH ecMJRql4LR6OhkuR9n2PmgOgPjA4PW6vr9Sih0trn5p6qBSsBbxse6oRdvwyqG2n3vfdU8b1 7NbEaUykiOn/rcWsOQYxj7RtpgyKvgNaYu+m8Y6OSF03VcSHATzGXB77ETHHrJwFFIul7BdD 4tLcEZnBnDbbVbBiK4cCh+rGuecPJY6u2S5QEzeqlz9zXqsxAC+/7gD8+QKQzYnzXiwYREKI KGJdn3xBDD252D61lHMMV+Ah87srNOhmchelSLh1fk722B3IHFbnVvcoxBWiVku/W7NKmQB5 JtR6RJbDdwNBdBNt++5jYLL3wFUcLlM/31ZeLtwYGEyRr+paQwDMA7TW0LE6WaZO7GX31dVL TQvFap5wI3h2u8ayALFlNZRNPSdCjDpDenW3Zu3SRYItsxag1cka1Kz/HMY+EwtqpCp9DGB0 fG1f4bpFBLfHbQIsf+NI7klY+KGh2PyZn/iOIb4QQXmtUWOAdeD21lwMOtH9PMSbIe+2FiJx Z3vXHqzefV8x5oVTMrKPTHv/fsdFraUi7VYPsUlUZoz7voNLhfbDwkGBmmuq8tjR7SVPNsiF 23tMjxSRtULTw+RgOXCuaQksd57XacUOfyBSkLG5sRZ8f/+K9IbALW62G4x6FWqOAdmqhw2N tIWqV6pnGXANyXo5xNPLXEosnaWmn7fb1mMboOqOF2Jb1VYDiZe6VMKSbFYrsx4TR1JebYpf E3YsckjnDN07AS3dd0vejSNeftXlgVMyVa9hAxu8kIZEdY4467lfh/RDiWLBXBuBgqBwaVAY wlidohTRt95QZgnSAcq1lhpNDPu+BzUYTflzRrHhui6k+xM38AFFJLRjBGesuXMwoXpa0nqD 3kvzHTNjfC4erX9OW2zLvSvkrqM3bqxR37YZ4XNilBFDmQmKg8lhjRp1QiZimkYqPqPPs5iU Fkk15wzCiAB3DII+KnCtTCxTFiD08MlOH/u7A6o+l9Yp5Jxs4DI9LL1YYY7cWl+rllnxceKD naxUZRDRMr8nBmCqxn/nLc2l4AgR4Jo8lVLC19dXxGMTUvaoJ88xYq3kmDblMWbVlgXYSHiw vMmBgejmUYjms/PWQd+O4W50jQuJMqcs5WzOVnUb3UajqHs0fp9o6PACjrGHlkPTY+2buVZ6 SqNT7+DRqeSZvnUy+T/PNNRmwZmUTOZafx6pMQAVQNQKQiUXtNTCezLklPXS1lZBskEiNrCG cipaKAWHdfe9J0CI7sjW0Siqs0lzsgI2PNbYnvXX11d0v6aU0Nw111LjkKgt4xhrthYRjUIR gv8PqlfXcGKGKXFSZI41oiu+A5/bQVrsqsurBzy6bEUgMoIw4osEsEaKBEhcs+PCm6gxl1zr zXAARRhKhEXIyj6SGEjMq72M4U8AYMK0Bf59/vEf/wgh5uTESBtIZ65yq1vENsWaeMAXsvtQ WxpEySZbplt/llHVc1DedPGes9lu+zsu+W3tDhfJOvBxHDY2ZPQYAPxsn6b44m7N9pPAa9h1 fX5wz68jWDNOgiIGIBnEdI2DkZgxPOVI8RkpOWMo8We7CyyX4duLttJzsRRqanTUUoCiDjIn DWSstC564nB4Dl9QXLseUziczOGED/aupUd6fF9ctzbXmFASFLXUqNPyQK77NmGEu5Rn3xtf UskZXRVTlnwnFsfVYvouynRqQdEaaV9vDfdjsB9LkuTHOTLbZEVb0JQyJCpv/LIBHr2A9PQ0 7IqxLRT+0h1gkQ4WsYnNUXjx22H1Cydj3MVmr7JRUdS8EgdIDO4r+TFB0j1IkbKKNR6Sqqt9 K2p8D4ZJVZOimYx6oKu9cO60JxBE8fn8aSIjAWnNtGEr8zMzKYT8pZrgrs0lsWWlahMJIYN2 /WC0vr+/HWyN8ADR0tOLpyoGmA5dHDnjcs45ZNF0feo05XVdeL1e0V0TB+Ye4f8v7dqS24Zh 4EKkJGfs9P436U1yhB6gI1sSKZL9ABZkMpP8VDP+SyzrQRDAPhCCCvw7nlyda8YQSVBojEYx RBQp/oLyHvD8aPCXi5wAWKBhZ4+oGRtS7v48WIvUWtFE9XVKG79hmgTnmfRBVvN4s9YzDYx5 /7kyVYunxAsaJ/Dl7J5B4/hQa6Pn7o8/AkXy++NPY03sllrTsPqGsMoyjntnvjLe338pkkP/ llJcNHEzrJ7hlT+KGTNzB24lHPWlhoLVE5Vl7lHIVZ72m9h3jnE26VCHiZXHlpHOE3GOzkxt DOG1IlvzZJxzSlMimURXP8s5zlaxa+G5xehXrTVj6phz1Lr6bxkrkItMHoHnJz4Va6gImkUy EaVVXZd+J5qSXkIISOdpVmri7WEuAF3V0et/1u0R6CQ7cqzR+n7x3DYA2mR43O8A4BTkZVmd oEgsPc46dJeynvXt5qJ9Gtoy4+2Kkj6Ks+SuTFGzvwuHUaSYkLnLU+nKVSZgcTIHhqpw6mFS IwDYm858gYgSKWLEfb1ba/jyKNL3b3HKMcs9HnxA7FLCwBq9b51fwE+yXIb3eVlCJ4Ki4/gE rLgHNyubiaYJgHldfYjgPd57LV6rn5eL4+2ms/OO0ufwRIYy9rA9efmCvNEomEwVPrzt7xPT xBHbHHarYTClhGRGwWSzyjThPA7s+479tePx/vDxl3paccOgEIKTCSHdWI8XJSI+6anZhw+E LV/Sn72XLoN6dI7Ytu0T9Uj9VW++bydT3nxFw5qGGU8CWTX439i++no+Pfwu8+IgyX4ceL1e Jltii1bl0/Ogrt3Pw7czjbD2shgHDlzd+sZ9YgA1wAmaRO2Com82Z+Ts81bG7JUgvkDwfD09 +WGznz30yUZNditNlS0V26+ZZLHZ4Pv/pb16jtiY574/URwJQo01+iRG3ggKAgFzVr6yPby5 c9ns5S212tjKivO8vH/tXTvbR5WOZfi+RREFX8QnQ4xJV4gRHHhfirJ+2Gd4PB4KJKXsSemy rPb3o6ihAXYvrols5GYWJsmik/Lw8kA4TaljH601wHru1MClpFOdGSXXdUGkUuWy1Tvai9RW Vbs1K9WoForrVFhfW8Nm4Z/IXM7Zmx+6x2kNXnP1C9RWqLpEEGb97mig4rUDGw5wNPW+YeeK YRkC7+6VWn78fjcYtiSQ7VDn3k3hx///34PlrNbQdn21j9+EyZK+OygnIyTs/kD2IoeBDcXj H2i4ym7TQhkXAAAAAElFTkSuQmCC" />
    <image
       id="FlashAICB_Patterns_New_Pattern_Swatch_8"
       x="0"
       y="0"
       width="82"
       height="82"
       xlink:href="data:image/png;base64,iVBORw0KGgoAAAANSUhEUgAAAFIAAABSCAYAAADHLIObAAAgAElEQVR4nGV9uY5kWZLdudvb 3T2WzMqqbsw0BhhtRP4CP4DCqJT4BQQojEhQoU5gNAKU+APU+DOjsLunOzMywpe3342CmV33 IBNIVGVWRPh7dzE7ds4xK/XP//SPed82zMsCpYDj8YR937EsC75+/Qogw7kKOSXs3mPbVpxO J7y8vOJyueDj4wPX6xUpJTw9PWEYBsQY4b2HUgoxRuScsa4r5FeMEUopAMDLywtyzogxomka eO+Rc0bf9xjHG8ZxKl9rjEaMCUopVM6V55nnBdM04XA44MuXL1iWBfu+48uXL1Cg780AtFJw VQVrLfy+Y1lX7PuGqnLw3iOGCG0MQvCo6wa//fYrPj7OmKYJ1lpUlUMIERX/jHEckVKCtRa2 rms451A3DUII0FqjrirknOG9R0oJIUQ452CNQbQW3nvM8wxjNKrKoe975JxR1zW9dM7I/Nto jZQznHNQSsEYA2M0jLEI3qPvOizrSotTVUgpAQC6roW1BtZabNuOlBJiDLhcLogx4HR6gjEG p9MJp9MTYqQXPBwGpJSxLAt/ni3PogA6EPsOpRS6ruPPsfS5OcMYA8/r4Cy9mzEaCgrGGqSU YY2BsRZGaxhr6Tmfnp4APhHLupZdCyEghIB9p5eoqwrWOWhjykIeDwccjydeSMAYAwBQSkFp jZwzAEBrhbZpYJ2DMQZVVQEAzuczbVaMAJ/eGCNSSrjdRqzripwSqqpC13Ww1uB4PJUXefvx A5WrUDcNFICYIrQ26PsWTdPwSXLQWsMaAyiFbduwLAtySvQ+WiGlBKUAbSysMdBGI6eMdduQ U4Jz9LzWWiilsO875tut3CxrDOyXL6+IMWHbVrRti6quUdc1YggIMWIaR4QYMQwDjDFY1xXT NCGlhOFwKCcuxogQAlJKyDkhJTmVCVobWGvgXAWtNZqmQYoRwXsYa3E4HpAzXXnnXNkAgE65 tQ7WWhhj0LZduWLzPKMfBjRNg5wTYoiomwZVRZ9jtKbFsRbOWQC0kJVz8CHwpqOEDWPoM7TW UIoWuDoeEULAuq4wxqDrWngfsMwzlNbQmk69reuGTqGjh+26FttGMbKua2itoJXGcDhAKWDb dnRdh5QSXl6eAdBJ2vcd+76XhdNa4//9pbWG1hpd10FrjRAjjDE4Hg8wxnJ8pNM4jiOenp7Q NA0AYNs2IGeknLCuK6y1+Nu/+Rs0TQNXVYgxwlqLtm0xjiOmacLpeARtiaJNTQnOORyPxxKX laIb5Pi2KKVgrYHWBiklOjzLgnGa4JzF8XhEignTPNNNrSva6HVd0dQ1HX9LuzbPM67Xa9mZ rutK4kgxwlkLVzk4V8F7uvoS25Si8K61Kg8DAImvbEq0EJqvfggBfvfQDb1Ezgree+zbhtPp iKZpUNc1lmWB9zsAheA9tDFomqacvBgjneGcy6YOQ48QYkl+FEcdrG1AoTwDSHwa6TctOspz L8uCdV35poHjdcS2bVjXFcE3qJsa9nq9YraWdpzjgPc71pW+sG3bknWXZcbteoM2Bq+vL9h3 X2KpXMcUI0IMUErDOcqGml9Usi+QobXml0sYxxHOOez7xgsMCivTDKU0Ukq4Xq9lc+u6AqDw 9vaGYRigteaF9pQsvAdy5s1PCMHD75Q4NSc7WqxYTh2FAfpnRi4xPwSPbdtLYokx8GFR2PYd OSVkgE7kvu/4+PjAtq2oqhqn06mkd8m08jU/fvwoD9t1HYwxlJ2NKX8/zzNn8Qo5owRoud4A SvK63W6w1qLve6zLCm0M2rbFNI744x//iNfXV6SUMM9z2ZSmaVBXFSWDTMlg2zZcLxfElFDX Naqqwvl8hlIa27Zx0oxIKdOCag1r6RZopZAYYThGLABQOYd5WQAAx+MRCsA4TgXdzPOMfd/R 7zvU//gv/z5frzeklHA4HMrJyBkUI5XCNE643W6AAsGN46m8nK0cnHMYxxHbtqFtWzqZ/PPA +A2Krqzgy2VZ8P7+jrquMAyHcrIE3wkWdK7C4XAo0CinhBAD9m1HjBHTPOHl5QV1XXH8buFc hWVZCHKBTjed5BofHx/4+PjA6XhEPwyEA43Btu/Ytg1KAW1LB+R2u6FtG/qcaebb6hmjvqJp WtxuI4ZhoKu9rluJX8455JQQU8I0TXD8zeu2AhlwzpWrbK1FrSm+SqCWzE1fQ9lbrnTwHuu2 IYaAmBJiCNAcOgS4xxT539P9e9a1/F1OmRZy90iJvkeudYwByBlVHfmWaFjrkNYVAMdj7xFD gOeQJHArRsniusRauWmCHQULU1GRME1jCW326emZg3z+FLAFb+3bDqVVSQ45Z4zjiBgjjscj NC+gXNnM4FuyWV3XvMiA9wHjOOJ2u0KFWEIDgHJSZSO00gxjZIN82RQFhapyUKpGVQXCcc6V ikN+JnBPXDlnKE03QvPzpBjRtS2U1oiRYJeEMqXo0IBrI8HAOWdUVVUQjFL0d1YqCgVg97TL csKsgOcMtG0LrSg+rRtdPaOp8jCaEgu9nC6Lp7Uu8YjCjixyA+cSuo4wYUqCGykMGKNLVWKt 49sSS7wt6IAXmHCgKZ9Jn5fKzzXW8imKaOq6ZPuYCMZY/u/GGKrKtILWtsRazbHzXpnRe1vr YAx9nf27v/s7Pr6pxCWBQlpraCgs64Jt2+CsQ8MxYxyp8pDF6Poep9OpZMDEAZsShMK+eygA 1aHG8XAo8MVaW2BVBngBEhQUtDEAQ5GM+yLmnClxxAQgI3J5p7SGVqrcEu8JVUgZHEKgZ+16 bNsG73d0XV8WUhZbDhdVdhtCCAWLSqyVW2uMZexpbSl9JJhK/HPO0sFm0FrXNfq+p5NZNxin EcfTCRVnOvkaetHEV4OghPc7QohlN7VSUFrB+/AJh0qIkb/LGWWRaR1VubpEdNTl+4wxyCmV qkV+Jm2YwTTN6LoWbdPi43wuIN08LKSEibZtS6Fxv1VUadVVhWme0TQ1rCXEYKuqKolCrobE qW3d4HePeZlLoV/XNWKMWLe1bEBKCd7v0Iqu1bau2L3H0Pfw/LMEQe77RnFHASnlEncKscDx WoK41qZgwvywkFopRN7wAqnqmurgZeFyrkMIvtT2KUbEmLCsK+Z5wuFwLKVj8B4xUc2vlKIN 8R7TNKGuq3KiwSGQSBsDgDC2/Zd/+ZeHZENfaDQV+LIA9yxMDz5NE5ZlweFwwPn8Uco7xzXs 5XLBNI04HI6oqooTCZAzVQohhLIAcq0E2mgGxilFeB84TtoCxVLOiCFg55dcVsJ5OSU0bYt1 XfHz50/0fY9ff/0VSqFk68v1ipkz/M+fP/H732WAN3TbNkSGSRJy5nnGPM94enoCoLAxLIsx 4na7UbmYMsbbDep//tf/kDM/iLEWyzwj5Yyh7zFOE/7yl7+gcg4vDIwBorjWZf0UT7TWSDEh IxeMebvd0HYd2qYpMSvz9XFVRdgwJqRIiwYFOOtgHS3usizY9g3GUDIjcmVDVVVEfCT6c9/3 SCkRAAfw9PwMrRXmecHhMMB7OgREsSUsC5Wo67pAKV3CTSmDGVbJ6RdCpqoqtG2LEAJutxt2 xp5N08AWzpGL/t3vUEpD8c48PZ1gjEXTNFiWuWBOOWUqK8QQYayBVhohhgJlXl9e4SqHirO4 xE6Jl37fscwLwPHZGQdtdLkB1lhEGwmEh1hoPbnG1tp7bOTbYi0lMWMMUkxQijL4vu8YR1UA ddu2lNC0KjfyHl40cwW6fIZUVZKYheQoJ1gbAyjAAExSaC7KV4QQafcY363rytnbIuUMpYBD f0DKCSopZNwJA2cdKlfhcr2WioZ+ZYTwcJKVhgLQ9T3F6qiwe/oZx8MBjWlKneu9R11XqKsa VV0/YE+Pdd3KyypFnIGr7rFNq1DygJws2ViBNLKgKUYkXtSqIixJ4WEvEIlgHD1DVVWwtAso 2KyqHGI0hQF5fn4uWauua2KRrUVKEfvuiSDVFkYbZOYPJXPHRKc8MgTp+55oMYYqdV1DZWDj hadYGQs2rKoK87qg4jJUauCu76EUME0Tk8H0orQQiW8NJQE6TXspBQVu3UmTWE6i1rpQdTEm yNoIeCcAThsvKEJzyLLWGuRsSjIxxsJZVeLFwPWoXB2j6dpTttqojpazljPhvpxK1p3PZ+y8 a03TYBiGO9SwBjkRjAkxIAYqAxNn6cAwaNt2eB8K+eC9R8Nxt22aT5TaY4IUIA8okgasJXYq hIJtNX+O33eAK7THE+qcLUUGAFR8mOjZconT9uvXXz4BTMraGtu+Y5pGvgJADAGOYYSUgc5V pOOECPB1UlCIKcJoA1c5/J6za0oJXdvCcSUjGsq+e6BtsXsPVHwlrSVQDYWQ7jG3aRrcbtdy uo5fvhS8J5qNhJGmqfH09IS+7wsurSoiM+Z5Rts0ZcPkoChFiMUYA8VcbF1VhfRog0fTtOVU S2m8LAts27Z4fX0tsEZO3rIsqKoKX79+JT2H/yxAmDDbhsy78ogBc8pQmhKI3rZCHgx9j4pJ 5MwJzlkHrRQW1meMsej6Dk3d4OPjA9NCtJUxGjFEXIcBKUX0/YC2aVA3DaZpxLpuBTdu247j 8QhrLQ6Hw/0U13VheSTry7MDlGSM1oDEypTKs0nI6roOdV0jhIBtXdEPA/q+hx3HEX3fwzmH 6/WKEAKapuHUvhZ0L5pFzQC+qirEGBBzLHKAxCnZsW3b+KpYGENlo5yuFCO2fUdTNajqqsQr rQKqugJqYJpGPt0aWhtEldC2bfkdAxEWfE0oVOSMnLdyYuZ5wjxT6ZsOB4JeXFntwUOkEvn6 +7Um3LtzlkfORcqlsLbg/f2Dq6gM9b//+z9lMD0vOoRUDo6vQt/3he6XGLLvG5q6weVywdAP RMbOE7aNTgYycL6ccTgeKVywcOa9x9PTE+qqwvvHB/Z9R1VVeHp6grUG87xgHImeOh4O8MHT 9QeKriTyKW2UAqCYCouf4pr8XYqRYiTHPZEJnHPoupbk23nG7j3V5dbCWIOqoiqOCoyJ5duu /Jx933G7Xine//z5s5ykGCN2/hAAOBwOBIq3rVx3EsorrMuCmBI8w51maUjDYA0mI2OeZ4ws rgvgVUrh58+fBYuGQByibNL1esHlcoU1Bv6XX8rXPeJEyxlenlv0Ifm72y2U4uERegmhIVda IJAxBiu/tyiZ27Zi3z3ati3PebvdcL1cSMfq+6IVxRhhKX7saNuuXPHIRKerKsSU4JwtFNb9 WkestxvWdS0llRAO67ZSovABMd9fSL5XHnjgRKCZNNVao6rqojIqxrZNU8O5CpVzAGPajTFt EdseGB/hBSSmywbSbbrzqgLUBVrJpshJhmiQiqSRpm3h/Y55pjLXcFGQUoItpCd/WF2TZuM9 7Ya1BsZQzGtZ+qw5YXjvC3Mseg3pLlTSTfOEddtQ1+ygyEDFOo61Fqlr4ZhpGYa+4FnJtFT/ Bq5O8P+dMrGLyLNLfJbw45xDSpEqL2OguRLZ9x37tqGqav5+lO+Tqw8oHI8nLMuMv/zlr9j3 Hd++fWPSJiBG5gBYq7fX2xVt22FbV3x8fMAwJpOkQCB5E9CJwMlHatCcM6ZpKtc5xoimbXAY DljmBS+vrwXziSTwWHoRG4RSUazbVmJhjBHIIIZe3Vl6qZA041lrLCzLAEK1yZUTwoJkIy7x YqRqTIFPHgF1MOskG0KLa0p4uSeke7zVRhPBfTye8PLyAgC4sWpIO5mgtUJV1aW+7fuOHy4W gN1wmVQz8zwOJK22TYtxGgsjTRgTmEH8oMQhsYOklNi2Egqd37ZteZ6qoqudc8a8LNi2O+v9 SKWJtyhGQyBbCgUOE8ZoJK2ho4ZzVdHYSxjQGnVTI2dgXVf0fY/f//73iDFgGA4lvEkoInIZ xJC/vLyUa3QYDjg9nfDz5zuMMej7Hvu+F41m27aSmZ1zaNg41dQNuq7D+XImnbpy+N3vfoeB lUljdNHK5WW9v5MQRAKD9RCFw+FQ6v0iOD2UqiIDSOKIISBxmeechTH2E14VCUL4Vtn8cRwB sJTC4co5ixjpZ7ZtQ0UHhxFhgQRPeo6x9nQ8lux1PJ7w22+/4XA4YF1JM5bTlFLCwMSC5lgq C+gqV7L+eBvxr3/5V7y+vuLbt29FOhCWREwDcpLkt7MWmRdyGAYcj0dczueyOI/yh993RK5U JJZKzKSTRzdJKjYiLdR9ISPV803TomtbLOuKYRjQcYUlzrvT6cQ3h5Ja3/dIMWJiUtcag2ma gAxYpRWahq7nYRiwLDPOHx/QWuN4fCqQxlqLcZpox/jUnE4nrMuC3e+UIHJE27UlVCilMAwH CONz9wZRUI8hIIOu0M4LVdf0sy/nM8ZpwsAExTiO2NYVNW+s9ztut4ymqUvSWJYZMSY4VxcB 7na9FoLEWIt1XQu7bTS52qgiCjhfLuW5yy8OM9570vZBJbRjyrH4js4fZ0zjhI/zB67XW7Fu NA3hwmLr4xMomFJ++Hi7MR1fw1lXGB9jDN5+vOF8ObPaZh4ycSwn7C76x0KckMOLXnTmIkEM COQFqopCKFdcgVikGAPZ+ZgeXNe7FUc+T7w8zlmk9NlJpwD2PNI7iKx8d9rlErdDCNi3jbjc NwbHwjWK6pZzxjSOlPG0Rt93UEpjmWda6LpGiBHXywW36w3GcgBWGl3foXJ87c5EaQkkkcRi rUXT1Myq3yFNjLGw9U3TYF6WonCSoB/gfV1OzrZthZESY4PUyY+FRgwBljlEMlURJSbIQ/Bi TqxKElFWNkA8PoI1pSiIbE+00zQys9Ki7zvcbmP55it7W0zBiho+BCg2EoQQEDzVxkYbKE1g +eP9A03bEB6dPD7OZ2zbhmEYcDodS6YOITL/R74by1n6Lqj5wl0KhBJWWn6F4EvCkvidcy6u DiFfl2UuCYiSCRG0pGbq8s6RD5V4haSQUGAYpkXBTBTX+fktXZHMvB2tsFD3Qj/JogGEqcQR sW8bUk6whmpTAPA7qXH0MmQNkdq2qQlWfFYJdaHAHMcmyo4e88yB3LmSqOS0yYKLjiM0mehH 6mGxBVvK1dTawDmK20awqSLoY7Uq0ObRjCD/FM4TIG5SEpHtug77vuN6vfHV9hiGAyqxaDC+ 47hbfiA/G1vfSLjSiixxx+MRfd/jxvbgpmnQNg36YYAxunhu5MFEE/HeF+8jQFxljBGa47Rk 6btt+V7r3nND/nRyc06FmC3GAt4I+VzZ0KbJ5Wcm5lQzHy46kbokTkEdsqj25fkZGcD7+zuu 1yvatkXfdWjaFk3bYltXZBCIVrjX23Vdo/We6mm2uQCAsaQnHw4HIgCqCge2TYsIlmJE5JeR Eyi3IbGka4zG6fhbQQrWkr8754ysFFvydIFOokrKCz/6mKpKPSxQgrVU8ztLmr1SgNbi/DDY d8scqCk3B2BAz3SexNXCSJ2eThiGA47HI67XS4kjklUFsMqOSkbruo5KPI5D4IRxvVzLDn/7 5Rt2v8OHwKfIoqo+K4opEVaVF3fOYZ7p5X799ivefv4shLPU88IEic4ihYNg1Myai4QIrU1p AVmWFW3TYjgcEGNAt/WfcGLlHMJDwoshkKG0nPR7YXE4HEr5adu2xeFw4FXPaJq2PPD5fMbp dMTz8zPe3kh0/4d/+Ad8//4db29vxb5h2f+itMKXL18AjoPaaLy/v+PUNGjbtsCXpiEeU7Nl RZgeY++bGNjNoLXG8/MTYkzYtw2/+91vsNbhx48fdy9mjFzeAq8vr7DOFQiUci43ZJom/Pjx A01d48gm+xg+YLsOzy8v6LoO67pivN0Qubratw1t192pOAb7X758wcvLM6x1uF4vsLJwwgjL 1ZVTqBVR/DFSF8HHxztGhkVaa1htYI2F5l6Ux5Oms4Z1944EYZcl+YiIJHGsfJ0xcF1HAb3o RESVLcuKEEasTDhLAiGjFGk98mfdtlTehlAIkyI7tFTVDByCBCZZa9Fz05Vo5wqAZ+gVYyIb zzxDmrm2bYP98eM7zucKb29vmOcJTdMW2XWcJlSVw/l8xvlygdYa0zRBOsVSSuiaFnVDYN2z p5y82kSlzcuCuq7QNO2n9hFxO5CtLxVYAYDqW+sKo45M2I6ccqT+7fuOXRIUY9+2bXC5XKlh gGPm9XKhGF/XBa86Z3G73XA+nwsi+fnzJxSAms0F3ntczudPPKeUodu6IsRADHvbEfz54x// BGsNrtcbt5PVhchd14UXgAR4IRbEtXa9XLC2bal69m2HD/4ze8NEQEoEebZtQ4qRxTFyqyml yXnhd4QQMI7EgSLnEp9owXyhsGII+PHjR7HYHI9H7HuHeZ4LUjBa4+N8LrKtda6cutttxDzP RQQTwC/aewiemB11l6aFM0DOyACM2fm9PCzZiTXati1Wj0eJ0jmHwLo00VMRLS+e2DeKW8Ga T5q2uGOlYhKgrJRCVVfMrrcP1UbgFjc6NafTE1xVFZwoNBg9iy2bAkUtLA3/HMHCMQaybnPz lTzL5XyGYWOWIIbAp01C26OAJ4w6JOE8xHIAWJYVFlCFIiLspbj+DHcbMeu9pCZud3JV3a3K CuyhQaaYqu7OX3GvCcNjrYUO5OgSg9Mjxzc/iHDWmuKYsNayxLAXZqbhakicaoUnTGThc1VV eoIEsFOn2J1VUiz0qQeqTZCEXPPS3ie1trUc/ykkWZFbqXRyZZXF60JqmS/QwrMBSRZ5W1cy CDDWrBu2PbNN+vT8hIFFNGFtAFVwaYih1MSl9Y0fXlpHBE5ZazEGD+8D6T18SlO6W5ittcV/ JKBcIJ3ik3sYBuxs8hclQD5favRHk+mnRWT3hjiS5blsXT1oymxA0krzD9flYYRwzU2D5+dn iE9o0hp+p4cZDkNR3UqjEgPbtiV0ENjaV9c1Ou6qlTASQ0Dkl5LeHqM1Ou6RlMQUY8TxdMLt diss1LIsZK2uXHkXIVokU0vtLHG+73ss88xuOOqVFFZdNigyGJfnl1aXu4uNHSb/65//YzZG c6II+PLlC/q+x5VdZI9iknnIYOWqcVfUzn8nItYf//h/8PryiqYlv888z3h7eys7L9WCCGeZ tfUYQ6ky2rbFOi+lZUQrDW00Y8eElBParoNSKHHUWldOUt/3UAC5ODgBih4VQsDT0xO2dcX1 diun8t7mQqXy+/tPAKqUp49mCvJ90qGzr6+vaNsGwQeM04S+70uPsjSCyw4L3rTGQjFlP08z wSWuXZumQeYs+PLyghD2IuaHENB1bTFmSQYt/Ss5F6VP3Gt+30uHFZHBEcu6IKqI2hAX6ZxD 07QltsnVrqqKOmj5ZIp1RpJkI2HowWgqJ9F7j6fTqVQ0dV0hBGonEazati1yJNLHkhuWsuDC 9BEV40QPBb4WEn8AQNUaitXDx9Y2WRwhIoSKijFh4a/LqSmJRdqMRWwT3nDed+qaYEiyLiti ihC/O5n5dSFNFMd0CRHi5dz3/SG+6uIeI+OqxzzNxQdZMjNjzRACMu6KZeE4Y4TOd907sZRi f/x4w+VMPXwL993JiwlkoZND2O7xREps0uzwDSGga1sYa3H++MD7+zu6riH0z3hw455GANjY 0O9cRfZnDvJiWRmGgWIUS7KWyd6Gpx2M41ia3qd5gvfhU1uyZkkg47PdRRZa6nUhN+QQiJK5 7zsulzMyd7zt+8awzxYHSvRkSbSihQS2ahitMXMl4fcdln00QrA+llLDMHDGp1Pi9x0TZ9J5 WbBvG/w+oG5qxJhYwfNFB5qmqVxHyarCdTK6grOu+NK3dcO6rHCVQwwRt/EG60h73reN21ik iXSDUvqTDUUS5r7vCFwmCg7eNoJV0rpCFY0moz1n5o3NDiTjLtBKYdsojFhnLWYmYpuGmuD3 fYexj2bLx65+lDIxdR3VmcYW+5v4q8WD7aoKwQds+wZqsrdFhQS4CYATmWBBofa9J/VP5ACp lc1mUFekl1d1VQI+GEfmlEsFFIJHJPtmWbTgPVDgDoUegjipOO6kIUDsNFTzZ9Q19Y9TGWw4 s0dY0iE0nCOIs20bfAjoug5t6wrOkhgiJGfCvSlc2B/ZfcGUSlOn1TxTv3RV1ZCGG4l3RATE wjMWW0rwZMBiS7UQKQq0CV1LUwwc22HuoPne/FSYbnx2aZgHN5skGDmtSqmiVIrqqZQiXah8 rYP3FQmFwqlKsiA8tuN2u5UW3XIVtg07B2BB+1XlCm2vzWeDu5RepPzt3PpBdjtwr83OtbPI tBL/HCuUUghYx9q3sQgxQCuN4+EIKODj4wNqXfBowxaeQErJfd/hFdmbCT/S6d+2FeM4onLu 7nvMj925uSiXojTO01TiZZFJBH2Ia4KYnRkvLy+oKof3948yBaVpGu5X8fjrX78jpYSvX7+y J/xQamsJ9IK1pIu0Y3vyyp/10jS43W7ouh5t02Ca52K7dlUFx1Dky5cveH/7ibqqcTwdSxLa Pbtu6wbaGnz//p1Af99j23YMfY9t34terbVmX6PGhYnnqqoZeJsCoaT9xO876qbBy8sL9m2j EtoY9MOAw+GAuq7LgaPq7QT7+9/9Dl1P1+R8vpQfSuNhbPER1nWNdVmwLNT7/PT0xHGDhSGg lE2C0ygbsg+RNZen5yf0/YDz+cwe9Q5t12JdNz6Zhk4wMp5OT6hdhbqpPyWkuqqxrIQWXEUt zfSMBLaPhwNutxv6YWAh3xfUQU43MlDtu6dWaSaSPcdOQSxiKRRWf1kW9F2HfhgKA1Y6Zb/+ 8kvZuRRTuaaSZISCd87ierWYlxlaGxyPR45bRL9TsU+dsZFj1tD3BevFGND4FlVFlFvP3hn5 TewP4dHL5UKta8/POB1PUGU2jyqGgHom6aNmUe0wDLDOYZ4mtF2HmMiGSGZ90V2I9Rbbtfce fd8DOeOy78gAevahTxMhk8PhQF8D4Hq9wLkKLd+8e5irYO+U144QI2oWk6Rsk4yaeS4PmEW/ 40ya/UDAmozskSk0EasKQ8TxVtgciUUpxQDVLwYAAAt1SURBVFLXS5wV97C1lrL+uiEjF3mh UH2sQ2ulYJ3F5XLFbRxxu93w/Hx35RJBDFTsX/LMAXTMxMs0LFJVN3hP3KSYru6JbC1qJxRY mtFkfZYS7OfPn2ibBvswcIepLibTnBOu1xvmZYZMd6LKIRbtpqoqkgPmuVy9EMO9eZxnTGie cfb9+/dSw0oZRolE4XK50MivvkfwAetGnQUppmJECOyeOJ/PBWzP80zM+PVKgzv6viCKzCyR 1hrrspRxDABwPn8UAkK6YgHq5vW7R+JaPed7IxQZKyjDW/nAbdvw8fGBmVso9n0vzlyab0PO BSr7KBYuy4KcqaTaHik470vPNHCfUyYCWIqRrl8IWJg8VQDWqoL3RKk9Nk3Kog39QPJvpN5H qURkjI0w50LXXS4XrHzS5GdcrlfW1unEi59dNkCY8HEccTmfEVirMsbg5eWl2HtEbRxZdLOS LQsn6Bx3okaIn3qZZ6w8gcTxfy+EKFvghDERosM5RxSatViXBRkE+Od5xjRN+LWq0HYd0kNt XrOtWoSqmoUv8EmxzpYxEEJ8aI6/1E1JRiriGQMqV2EXJwQ/88aOYMnSj5bvit87ZwLmietr wcZEhlDF1HYdpmnEthJrZkUIl6Ty+uUVfT/gwhY3yWZSZklykBhF/dSkJO7eY89bcUqsDFUk KAtWlMrmer2WWPzYw504dg6HA5AyggnQRpcTfe9muE/PEnOTlJ/btuH5+ZnDBsrtWjhkaUWb RLp9LuJbuF4/OTUkTkpVtCwrM2RkFw+WnGzqv/2nf5ePpyOapsXlfEbdNPjtt9/KXJ7gPZ6f nvH0/AQA+POf/4xt24jL46tu+CEMDySSRR5vI/bg8fr6AueqeysdB3gRqgSYV87dveAcOo7H I7q2w7IupedH6LF935EhbXC5xF9p0RNduxhUmcUS5/Gf//xnPD8/f3JUFCdwjCwV06kk+01A 3w/FtSHlaIwRth8GPD+/QJhyEX0iA+xcEY6rXAUolEFHYs3TWkMrjcQGUsmo1lg0bQMbHawl cB5D4BrXYduILzwcDui7rghT1+sVXmQCzuJSUpIlRRXb8vPzc6HBhEJLKTGIjrD2znNSjG4K Y64U8Ic//C20IlJaPkM+jzyUEXVNKqNMK2yaBn7fkXLG4XCgmR8ZsN++fcNvv/1K8ifwyVLc tC2coYFyTdtAK41v375hmqbSyS+LKBT+o5A17AN8DKVHpW3b0usnPqOBwe2yLNR9xZrQSUhV ADFEVHVVmjK3dUPdEPEbeUyXfG7OmU86VS8CpYC7T/xyuSDnjNfXV4JP24Z5nhB8+ES3bZvj MT1UdNRM4c3zTAmnqlC5iqYevL6+4nR64vgxY9t2Yj+kqqkbagGOEdrq0nF6vV6pZTgDuycW W6BJ0zTo2g4hUqxSHGtovIspYhKNbgXWbcM4jmWox+l04rG0IOuyUmWs1zxRONBGszSRCkaV JCJ8alPXNPmKF5JG63BCm2cE79H1XZk5ebmcixeJdHLqt6kqx/JHjWGgJtG3tzfiQ9l2bVOi FE640BcCQSnqi0kxFvG8rmp8/fqVOUBdYIX3d45RpAP55TkxkE1lgdbmMxhnWVSsgJJBBUQL uxQYFsVE5gJpi94YPMvIV6n3tVbFnSE9i+R+I6rNM/4UHpbKwbaUhlSIyCw0D4BuXF03hQmT pGa0hn1//8D5g9wI67YWd2vOIHzGi7BvO1zlsO1bKSmnaSql5TRP2Lcd2mgymHqizq63a9FE ZOjvfZCdXDuyGYsr93a7lTIxcXvIOI4wlr2YD2NoQwyliWqcRtD0U1oEadebpqngWCkexPf4 48cPABnDcPgE3ud5ZrJYFf9Q07aYphEppmLZkb5NK3POhGQgMErZNbFyl1mbkNGHC1/BR7oN 4MkBe8C8zGXy6DiSlZrmQY6Q6XsEJb5TmSlGqIZofEka8zSVpqXL5YLA43TISgI0NQ/BZOJ5 28jA8GjGiizBSkkrzy4IgaowYsfFoy5FB7URNtg2OtXLumCeJtKy+KYZRQYGi5xZDApcY+ty 0rquK/PRZLHvLWk0+fQwHGhgMOM0IUvL9aU0jsBXRIgNqkgusNaVdpMiA4T7oKKW1cFt3zCN E9liYuIxNgbPLy84Hg/FCxm5E0sSZ84oEmyZqsqO3K64ejPDqa1oPeQJypBJfcEYdoWgvOe6 LDRFgUywpjRvyyQTSfNy/zPIBatAV2peFoQY8bd/+AMulwvO10uBGQ1nuds4lg4p8UqKD/P7 j++oq5qtMih1+2OrG003AWxFWbQODW7jDftK/d6vX7/cMSjHT7G5yChbcQQL6SCbG2OAjjRH V/psrtcL1jUXm0yMNEdI5go5R+64uqrw8vpK6OGhd9vGojn7gplEMpATUsz1bE2Rb/54f8dt HNG1LWquOrz31A7MMUgSBpVm9NA1+2wWjjPAfX6ZjDlUAKylKyvJ7nA4iomTtSKa7RhiRNro ajvnSqfEp3ZhTmo5J3h/lyYENj09PRcdKXiP3fsyo1w2epom5ETDS6S5QG6rldKHZjPiUxko s2jpweiaaKXYVG9KvJHWYzlNYDcGYU0iiZ+enh4M8rn8t2VZC2FgTEujHqyB3z0arcvQkcfh dbLJ1looxnPy2TKcPqVIsy85XAGqSAmyWQ3PUoNSOBwG9D3Ny7icL9gvFzRNWzZZINUw9CAb YkDHkxVijLCvLy+Qoe7H0xE5o7AdgWc+ACgcIxieSKklTY41t0pIA0/b3nux27ZFx4rjtm00 UtZafPnyK263Gz4+PgjADwNj04wxT4WfFGeYXLXH2ULzPD+UnBNkRnDR3Nm1QeUiKZNya/ph gNCIzrpPt0Jsf3QTDsXYNfQ9Qoz4/v17QSDGGNhvv/5a4MIwDFiWBT/f3vhq3Me+Ui1KwVyY 7NfXVxbNG1TO4TaOpXlokB2OsYyo8d5jGIbCvP/93/893t/fcTgcChstdTSU+tRoX4hhtqKQ +IZSHRljCCGwtiIsjyykfKboMlLiZnFNPJx8ayw63nyZWSSmrrZtigl3mmbUVYV+6Gnqs9Sp 67rifD7jT3/6E73YMMBVFZq65pQfC+lZVQ7Hw4EsfRXFKe8JzHdtW8ooaT2TSXzS1Z8ziolT rqa8JA1/u/+vDgQH1uxI29YNy7J+Av4EDtTd1fbgsC29NEqGe941crH/iQQiyqH4lwBqmHLW FvglWhXNCo7IKcN+//5XLMtaerCXZSnMtXSjiqUt8pBg8vAkUB8jzbAAqH4mQqLH5XK5Y7YH zw6QC3l7/vjgBsDMPdUKmevmumng/Y59o3mQOefy/2sQnOecxb57jOON4RjPjWzbMp1FiBRJ LNLsKbbmeZ7hXFUsMG9vb2UCi1j+xA8aQsDpdELTNDifz6AGUpKzreA2Aa1t25Z5aBv3Reec SxOnZ0VOG104y539kSLfCoPUPsxzLNlcKeqN7lp8//6jDCUiX/ndj7nvO97f34u12Xua+SgV irg/pFoSH3hVVWUmRgiBmCT2+Ehbs7h1nXNYloXseaBEexbPedtAEA2AchPl8263G4a+R4oJ 45hg/vHf/pv/nFPCxtlTayImho5aL/phIByWUpEur5druTrO3utu8aDLn9/ff8IZV5KTMYaG yWXg7fsbUko8LCSV5vNffvkFSikeHK+LeE+1ry4BXoK8CGsyCkJOYNM0GMcb2rbD7XYrlhwp E6/XK/9fT1LxmIsJQrrKjDE4Ho7c3M+ODi4qXl9f6WYBJNI5ew/IKUsAphgyz3PZQcFzkpmV Utg5M8q1pTZj8tRQTzdBqLquCZuGgMgOhtvthq+/fC0ZsW1DGe0qzDSZS2kAh1KqYDiBUNIs QOofDUJ6nC/ZdTSbB2x5oc7ZhK7rqcWPVVCJr8K6a/0wBhFEvAhNKKFOKZpwmrlw+L/GPgsJ 1ocCNwAAAABJRU5ErkJggg==" />
    <image
       id="FlashAICB_Patterns_New_Pattern_Swatch_9"
       x="0"
       y="0"
       width="125"
       height="125"
       xlink:href="data:image/png;base64,iVBORw0KGgoAAAANSUhEUgAAAH0AAAB9CAYAAACPgGwlAAAgAElEQVR4nN2dyZLjSpJlFQTA wT1zk///dyXdlZKdXZWvX9GdAwjUgnEMB9cRvehlQ8QlggRggw5Xr6oZwO7f/vl/lsPhUFVV y7JU13V1OBzqcDjUsiybf+d5rnmeq+/76vu+Xq9XvV6v6vu+7vd7HQ6Hulwudb1e6/l81t/+ 9rea57mez2dN01TTNFXf93U4HOr5fFbf9zWOY2vn4+Ojuq6r7+/vqqrq+76qqg6HQz0ej1qW pU6nU71er3o8HjWOY/V939ri/13X1el0Ko7v7++a57mOx2MNw1DTNNXr9aqu62ocx3o8Hu3+ x+PR5n+73dp4Gcs8z+3fx+NRn5+f1XVdTdNUwzC0+fZ93+TG9fM8V9d1rc15nuv1erX/c465 fn5+1vP5bGOvqrrf7zUMQ43jWPf7vaqqjsdjTdNUz+dz01/XddV1XZ3P55qmqY19OB6P9Xq9 6vl8tgboAIUyeBTddV0ty1LzPDeFMHj+7bqu/vzzz6ZUOnQ7FiITot/D4VDTNNXlcqllWWoc x2aQ0zS1/zM5JsV47/d7dV3X+hnHsc0L4WKsy7K0+7qua+O8XC41DEPd7/em1FRK3/dNHoyJ 6zAMlIRjcXRdV8MwVNd1zShsYB4r4+IcYz4ej61vn7MT5/lhGIbNRfM8byb/eDy4sP0ty/JD UOfzuYZhaAI5n8+1LEszJtpj4BgI7VRVTdPUBG4EsJd7AggL5eIRy7LU7XZrxocgn89nPZ/P er1edTwe2zi4zt6xKuB9L0aFkrquax7me+iP75gbzkJ/7/FXvV5zU4wdBiNgvsjGehqGoc3J cqQN+kydDnjEMAwbIdu6lmVpnVrAGEPf980YENbpdKrD4VB//PFH8yomwiDmea5xHBsk+X6E O01TPR6PjXfyN03TBoVoAwFYoRggRsh1eD8wOo5jUwDwO45jCwt937cQ45CFUdAnBn06nep+ v7c50BaOZk88Ho+bezESxm5Hw3Cv12tDaOSILEAx5sYxODa6Q8MQSjJcJHTcbrdmfcQ2rkMp xFJbPZPAgBAk0N33fV0ulzah1+tVwzC083yPskAmzwevA2ZtBDYKK4LxPZ/PJlBfg0HYkBkb 3sV1eB+OBMeZ57lOp1NDCBucFeyD8AZiAfHH47Hmed4gD+hphVf9iul4TloScINn0MmeUBz7 TbS4l3uYhCEIJSMwexoeQCwFcQyzbgslOy6aJA3D0DwbRMPoMSrGy7V8h4fCYTKGel6WZcZ5 FHM6nTb8yIqqqtaPw4JlhLG/jbKr5/O1CZEej+Ux4DW2DgZh1ojFcI0t3dBEKMDrmbjjnb02 BYagiVc2AKAZweGVWP80TZtx4D32SNokNHhsGA4KBmlMBpk3Y6QdGxXtMBfGydi593K5NMMz u6dviC1yNG8gO0E+z+fcDIT5Wta0WVU1ON1h4rZyznvwhkMmbo9G6Hi7lctAgH+87O1xQ71e K4NFcLBglMDk8TaU/nq96q9//WsdDlX3+5o2OQzZeDhvSMyUFaNwmrXHF2yAzgAYJ54PsmE4 7hd5HI9jPZ9TXa/XFi4Jj6SkyYVAZYdRiCZzaI7y9z++N0HDcRaSYg8gJhGPLHgLiQmR9zLJ 8/ncoPrxeNTpdGpxlnada9pT7S0ImvEZMjFWhMlkMTAT0eQr9g7PB6WZ3GXYAsqRhXNwjAUj Nm85Ho9tnGnY9/u9hUnQk89V1ebtDIz5Xi6XZmRONwcGyuSIizTAwcANUc7jbWnE+ufz2QZJ 5yZtFq4t1sQDo8EwbACMmwNy5jTFyrOB+nsrPNMl5usQ4fhutCLEoFCUQX/0STgkYzLyGeLH cWyFKo/Dxp9wbgek7XTI4f82WQ/WbBgFuKLkWOaUCQXaSwyHZrcmHNxPqmOh+WBCGJ9JGBbv OoC9EwO3h1pRjAehmp/Alo0oXOsYb4TAIDxPahDIw8gK0mJgtG3nc9tZS+GazLYGLMepli90 3oyQGdj9ft9U1vA0rN/phUuuxNRM7RzfkhQZJThMlkwOMxVkvP6Ofm2YNirmbDbsWgSGCDSb oxhZyMuNYAgfRHC4hCySkl0ul6ZYSDVjpG87ZpLxRMZ5nt9Ezlblmxg4QrJ12SOAchOY1+vV igPTNNU4jnU+nzfebegz1HIkgdpDoLzHSuF7wxwCddaRyGPi44qiPR1PPR7HmqZtqsScDfMJ vzjX5+e57vdhk+M7BI7j2IgZ895LWx1m7bjuv7WbaRYXZV6Y5AfLut/vjWDgCYZKM3uER3hw GmFv5/CCjtMlj8+pDmPiXtpzSElPNqTagGjXnmuhrpWy6Yds+APpELiVw/dfX1vlTNO0WUgB GYFv2sxwzPw9b2SNAbfMjIqQJ8YgDLFpbZ44RAs4RKD8S+7M9VnhQuAozzGY9tKjU4GMw6to Lo4gEK5HAM/nc5fVO82zUYKKNpK99Gsvo7GRugZRVRuG7n5dT/D4CaV2wL2UO1PNvu9rcDXO scQDN5ymd318fNTtdtvEXLzrfr+3jggDWGzXvUu3l8tl4yE2Kqc1acF7TNa8xKzY3m+hmSSa aHnOLtUSW+2ZZsp8xkgyJNjwLVuUx5hZt2CFj/Gb2RsFbdj8a6NkXE3pjuX+m+e5pUtmjClo PNe5rL3B1zIo2v38/NwoFCHY4zKtc4yycQJjXsqEQJqpO1sx47eS3Af5LQZbVZvvUIjzdcfv JMYZCmw8zs+T47iE7GzFDgmcEz7Mx+ysQ8KUO0TJDIwODYEuNboNe5UViLXRDwbgGGWDciqS 4Qf2am+yR1CMMOQasSyIDBV7nrqXYVApTKU7bO2FJXMZZOkDA8778v493aCX4/HYlphpc57n t6fbI1EKA3GumIQOUoFxoAwLh4F7INzn9Mq8ISfq7xzvQA0LGkuHdQPXWbSwwAhppJkW3O12 a/PLSplRz8JHwJnOWvhWoJdbnctnZmNmz/cOP0ZN0MiLXo2c28Izfhta0ktQpGNtttF1XUvb 7AlWJoK2xbsNo9DeOYTI5F2rr1pLr78T2Ol02swt5+I5gziugbu+n+mT55webz7gvpM8pi64 l/vNm9yfC0rp6d0//rxvsCfZ6l5neSREuQ1PLOEplyeJVc5XGShe48lZeHgeu2tYcTMBgzGb /V4ulx995VxzNZG2nBszNs8HY8k2/dk1BZM9iGUWzLjPXMVh00onfDo1fTweb/aOUB2LnNZY GHu164xpvs9Gkh6b4SKXEBMeM5ZBGqlkVa07YAzntOUwwZyu12udTqdNoYN5ALMI2k7A3JKo 2TAzlDhEmvsY7UAQQmEaX/bvEq0zlZSbUXigSJCWtJd+cFgwTvEyvhEvbdUwYreNIvns/NP3 7ZFJ1qNpE28G4tOzHO+xfO8/yz7MB1yn8DU24hyrsxrPJw3axk6/ZCTWh9GS2A0q2OF82Jlf r9eWyO3Bsw3BVsYkWbP1NWboucDiCWRebkaLFQPdFgRW/3q9t007j7WXP5/POp/PTXBZ1TNC JMNOOVB3ICTRD+N0pW1v0QXFJNEl5/7+/t6Et2V5b+7k/1b6XkaQTmkj8ve/+hx+FEzm+V38 z92eFoA3JfLnjvEmhO+9aRkL6duG5vZQeO6KcRihLZSMx1s49iLHwPSGJGCn06nBLuPKLVYZ Cs1NcqMJjB05Af1Z4Kp679kfx3Fj7K5ncG2mbvSbyHM8Ht+1d288QAlV68Z6HwkvbpTOPQAE wsLB4/FoE8UAcmCp8OQFtlq3tRdXbelOnYA6I5jvt0GblKWxJdvO9HCe56Y0hyUbN4fn4Ro/ WYNJqWv6RpUMPyahjHOYpql5B9DlbcGOdxxYEYJkEBa2OzXhSBiiuGFl2HszHPjIWA28Ot7l egHCqaoN3CZRtPfkjh7OG7JtVN5A6W1NSSidvSAjt8tYHSJSNv7eRpTOaNkN7GY1+/NFtkwG 57qxoRVrZUIsFz4ej/r+/m6CNOM0bNpC+df97TFwGG5OnvutLMfGjLE2HvMCX+fijjmNjcSG imN4376Nj772EMIhxlue6e9wONT5fG5hjMPGkAST64a9ootLi179sULSkiBdjnOgiL3ACpvn uc7ncxuYhcCAvTPF/budBlu/YJD+98Ztw/KYHJYcplCI95hZSQ4ThnSqYRj2siyNdOLhIFGi jNNn6g44l2Hd6wRW7F4IwzCrqgY2NvR93zrAkhGg2aDjhBWUsL7G1kPbqMAEDYPs/Tb5stCt pIyB3AcEvkPTWMuy7hnPYokNzu0gJCvTxozxm0CBBKCJjZfzjuWM3QaViuM8nzESDJpsZpqm RvL43jqhDTawvHXx61k2Ypa/9KQNvww6yYyNwTF1WZa631fhMzCTLT5zL5MG1lCYCQnfJbF6 e8m8GQcE0sL0ipsNgTEljDvu20Bs7BmikEnfr1W8jK1Wpo3R8kbBeD19oGgXehzijCAeU9Wv mM6igvebHQ6HDYn7HYt2fE94ZvkxvcoEj7a4Bhg1mXG+b9Lmz3m9ITgNxt5p+E8ixmITwrUH Ww7OVOh3nufNCpcNyR5sZRjtMKy93UXIPZdbc0XUCGSdDUAMDQEJ3t9lFsuAEQ4TYpsP5MbW xro523k57437TMg5vNGB722cIFTG1CSMRhgv0QK/cAfXJLjeNQzfw/ysDK5hsYc6ByzeaRfK MKn1PGwEjutkV0ZIh4qqdYft5XLZrGZ23bsOMxiibDV7/2I5dIah7G3St4XZiw3HSWTsnSiT KtqyrCVfWDsvFEh+YUNF0YzL5JO2KETZ4LjPijWCZAhwWuWw4L1tjuE2QKdyVvqel3osmVmY TzC/3Dw5juO6tIpynNJkXmwPMoS4soZ30KEhzdCDwRwOh/bk5v1+b4qtqs3bJJwSOU9FMY6D 7oOnaIBTBD8Mw2YHr5HCHCBJFkJ3yEhixr1eEEIJTgO5zqlohkqnbumIJrZck/vq7VAtE7El e7AmL54sHVjpFpoJRcbARADO+brX67XZTWOS6Ro30EfeuldSRQj0Zw80IQJF7ImOz/YUC3Ke 5x+lTgzRTNxHEleg2nDPvI2eDi82DmcTtLm304jzy7K84d1kyEq1kg1DxHzOuY7t/NREJYmR rfl6vTYo93NtvCsGQ3T48IMCucBjhCL87CEaf7kpwqiUxp+CzLb30OH7+3ujIJZNjRQYC/Pg yIqfQxlhw+Q29Zfh81c/P58p2/NyvCItP+MUcE1RAms1e7ZAUEpCqIshTrVcEs04aYbt/BfO geBcr88VsYR7x34bv2O2CacVQhuOu17hs5Izs2AOydwdThlbGo5lYcPl2cLtaoo8wR5qITpm +lHYPYE73eB7PJXB9H3fXibkCQHnDhcoDG+xYhlvemrm2l7f9/m9tizsNFaPP4sjvtcE2Ybm ncZcm6HRpNboZMP6+vra7HE3j6rabhereq9CDrZOQ4C9Ny3fMEMunu9y4TD0+H7OeWOfjer5 fNb1em3snUk59anaPpSYfYIMxDjHaRsHQvVcU9CkavTJOSvFcyQMZuhjLztr/SZ0yM+Gj5y9 GIaBJQ+gD4/vfr9vNqNO01Tdv//razEM2NOdGzMgrMewZ+bpci0lwNzV4TZRCsbg9Id4bciz 8dGWYc6xHePBUMwF6DtRgr7JQOzRVrAXqByiWBdnb5rlQSjyGO0oe1mCsxMjkwmoUQRyyX28 C28TOu25HpRjVw7K5MXWbWhCiBQ90sOSlHA/LJq6vCfsuGavdH5tT3VRIskq3+fOmQwvHluS IgzH7Sb6pBJtTB5rGjRGlUjmuSMnj90V0N9yM0560BZQkhcr0jtDGBADBo4ch/AMQxneQL8W AtcYRjP2QYggL1698sZG8w17H+0itOQb3JvZjRGG88fjsS6Xcy1L1e12a/OzEvZQK5Ejd+X4 QA+0AbJ43J4v7/PbeLpTJaw5l/uS1KAc/2G9lDXZT+bcmvb34mS2C2nztc637S1GC0+Y8WQs d+UxlWzh/K5AZcUn2Xy9tpVBO4wrfLTNvBxKk1Pt1Tky/8f5jE604z6r6k3k3LCF6DhkT7AX uEGEZ8ivqk0cM9wke2XwCXl7TNqkz1UoPrv9JKHuC+NhzIZE1xryMBum3cfjUX/88Uerwn1+ fv7YHuY5EH4oKdsQ8H4rOENkztVO4PmBgPQ7VG1fz+n80zHRg6Zj4g2dEFPMDUhNTC7yoQMP 2BNlHZ4+7NHJI6xUl2ghg7lbxyEFgRo9moBiXznHXqroTIOxcHgevpdzjHtvLSJlb9Lm+rrb QP5+M0jzdCyD9MJB3yVBx0pPGnJiL0Pg87y+C80v5EWAjucJ0b/zeCMDY3N89eKPizIpaCsr lWLDQiZ78bhq3WWEvFi8MXN2WgUi+r09jHOPABqFDfveam2CaIPzyiHXNKUbFuiYnJA3KwJB aXHk6JwnPWJvHAJgwI6bznv90B4K9KPGafEZ//yKL8dtjMykMZdGkytgNPZWhw8bh0kVxk+b fb++En2PiDKH30F5ZgVWunkKCl6Wpb2yzXrBCfVy592iXLO2YVjfp0p8er/xeV21cknRMMNO DwZmg3Fc67p1dwkI0HXbhx8tIIRqD8KKWUN2TR4yA2kFrunf7VFXsPdS9bpcLsWmEyqJznD2 0Aklgnj2RJRrj7YjZIZB37yODOVbZob3j4+P1p9fbjCk9XLg9efzqaUgt9utNfx4vBs7n8/1 eDzaS+5YRmRTBV5PwQLLd5/mDAjATD7H5s/plVb2NE318fGx4QQYx158XpZ1zR7vdPsYufel JUE0UeReoBWlEvbMAxLSM2Ox8TPHLIbR516ooq+qWlfZaNg3mHDxf5Sa70+jDT9ZwgAznrpe jSFZmVivi0P2HE8SYXot3+GF8aBMw6xjawrb9QSTTJM9b8+y59qQTQQhp4zL5Crza+5123u8 wsZhlDWpS6MaGEx2yOC/v7+bUoEVM2lbHBa8l9Zh5bZYlLCnSO7DOq1w/3lBgXBkQuqUy8aW 80yYx1C8W9dI87sSqomwjYCD0OE+smBFe85E8rxjutPt5AzWV1sO/x//8V+LGbStDgsBppym AXfEYi/lpcXTeb5pEmVmHWAvZbGCbARc492vVbXZgWOPza1LsN49pTNuzy0JoFHIxux+7Vgg E05Stb4vLsedqEN2kvKxwlNm3t/X2LtJyN7KE52ZOFhRPuxpVqxf1odRWAg5YLdnj8q+TGTs ESY3hmPmZMgjFED2EsHwzHmeG6rw2Yq2sfg7DBWY52kX2s75plc7M/C6AHPymyjcBod5VYP3 LP8x4D2odbEGxWVMZaBcl9DlIkeSjxy0hWYh7xU39sgW43L2wFySNZsMWvBmxe4/EcmhkfE5 neM7iCXxnbGYCCI3L7ok4XU/TkPTuB1Gm9LtGWbKVgL5JmkY1m7hZ3GFNr30563VGJuh3cKz sIA1lGADImbxvd8azRhtHHl4J44NirTv4+Njk/MjD3u0jdj8wgbBfjieP8tdsszHhS7QhXTP BTDm7pcjZXimbRetqlR7R2B0ZGhjzZv911gaivV7XvayATzFHgap8l47e7YRI4mSy8YuiPg7 5gGkOnSYWCX8J7G0l7iAhLxykYb2vE7B2J0Odt1ah+C97K6RQyIdl2mDPh+PR1tF8+/izfPc siKc2SuOA/8hvpkV8jC+88n8YTt7EIaAxfuhBgsPyHJchyxicFTkvBXIAgTecj2beXBdxl4b InNMY+A8KOK0zJ7oHJtxmr/YaI2c/GsOYhnguVnv91ycuSBvHMJjynlXqTiDQFGQFfcuxqy/ z+Z4hVW/3/J8qvv9sfFeYpMH5sngGU69gH/6xqCcEhkZHJ7MH7xdKQmeDchtGmkcGty/4y6H n+oxiWTODi0Z/21kHOYn3iJFe/4/YzFqE+JsdE3pX19fG+YOzBCLPz4+Wizu+76VXDEEarzv BxZOLfYzAD8xaehlYCBG3x9qWX7uP7NXmtRh+eyuSUW4lpDCNeIkCcOb81oM3gTQ95s/uEZh 3pPjt9ezGEWI5T4MyOjmFVC/LSTTzQy5G/buZ9DHcWxxATKD1RAfvUfcxMU7Valh87IcFwkY JJNil4kH5tUzhJ31ALzcCkgot2ARJl5PTE6lOzVyyEpkoE9KzlzrdoxcjNdpbxpmZiXJcxxq LBeHCxu9vZ+j4cnr9doU5fkuYdQCSebs9MdWNs/r6724j/Z46BHFmEVj1YZVcw7GkcTR0O0x O2UDzRgf33PYa0zKGKcFbC/2fVX1g2gm1Dsl86tKuA6y6zUDo6VffmjjQeHmDMxvsGXRqH9X hOfJHF8YVGtE6+I+58UW57kmXp+fnxso8yYMEykf/kx7TDaVlXUC/+uqmNtzOxxercv+CHc2 DEIbnpZ5Ptc4FNiYkQEPaWI8mX/n61fs2SaG1s+AcL2/ysSLgXKOjr3P3bGXzqpq8yosI4bf YnU6nZol20sJJdxL2/biqtrELNfWHWoSCRgfSkyESSOzjAhvNjhkYoJrpWVJ2J7ptQLLD6MZ x2Hz2jHmZo+302S9JXVYVTU4+cdqzHQdy5Jd56KD42iSl2TdkDivwiGoqu0Lc6z4LEX6tSCc J5SQjgHlJnl9v74W3Dk96ahRwXGVg++tTBv7aliHqlrLt85suM9yygLL87k6BIaH0v3iRsM7 c6QAZDJcVTV8f3//iG1WnOHVCwFYjmOWnzAFMTzJZK0IPfmC4RkFpLdwPZ7s+rMF6N0+e/CH J5o1u/+9+O000GzZXovTmKi5HRt0js+HnzHwSxzo37l4cqNEENoZEnYS2n9HioA8/wQVDWfa 5F8YtNKc+zNYBAoRdD3AgrYBuXDCGPK6jO3MjZq1vZb2PFe+5zPyMAM30sDi9xAOGWThZQ+e zQ1s6M4CzN49Py9+kYlV1fobLlxgZmgGaAu1kIkx3ufmUmNO1hCENXKt/2+v2cvxh2FoxRsb o63cRJB2vYOXuZjPZB/OHpiXjZI+vdPXVUyXnjmQS3KNDI12hAx1Vdtsw3zCTkIoM79qP9Fl AkcH3iGL8s0C6dgWaQFhOMRtD5iY/vFxrudz+3NaeNDpdKzH47mxfFfZ0qjMDTgsqOQHGLmV y5FeaQ9KtvxOtVaPY5Oow00q2l67l2oa+vfQivE7BTRa2Mi5lmOgYVehXAHCWsxIM0ZwjzcC GGoNRTn5+339IT/vpXOBAyUfj8eWQs7z3HL8TMX493A4bEIIwvPGQq6lT8furEHY0Gg/iZxZ tlGCwwbjhyAyc7DH5r1ZX7eMMR7CLoefcWu/tWqLSYLi+GJWjVCcMvhavCC934bDW6cdNxG8 X8m1Ehh2l677zGzpRiWUZZSw0VnBHFaCFZveYwPzixOq1poG92C8mW4iFyvdJHKapk393Io1 b6Etz2svBDT2Tof26LTmhAcbA7HTSjeBSKMC/jjvV5XkAgOP+1oIhnDGmIsqWPWyrMuWhtqq tcYPxFooKVDLJfNjF2BsIPmokpdlvTq2R/Row9mJMwJ7PqVkxo3uuJ+VUnOL7h9/3pd8XNcP PDimWAj+TCzOuG9rd9kz0cF710GS9FL6cphAuHsxl0kbApm8jRjBOnzRFgZpYsRczX2SK5hj wOa5HtmeTqc6nU5NaenN9HG5XNq6O2Nz3McACa92yNfr1dbbrd8BK7RyEUDGsYQPW36uB2M8 +eQJMdulW7NiG5DHkt5g9DCsOwsAWvc2SbqQYkZuNLNBYkTM0QrYQ0hXBKvWUrVTNcKC0YR0 j2oli1Fm8OZddkA7C7KCW/1Quq0jU609FmlLo2OHCMMphIuJe1OEMwbCBIdjblqqBezNGBkf EU4ikI3KnmwZoLgsxJhoMU48M4slJlz+y13BKdecj43MpNpGzDnzpnEc63q9bsZdVdtfYLTA 02JyopwHsinAGMoSNlludV7NYWi34fld9PkHfBolOOe9eQjapMqGa5LmeO6iBuN3zLUzmODm +jfGzZjYZ4hcOEcaS1jhHfn0Y16DjJM3uF5BGDX6VkWebuuiIW50R79Lk2wgXAdUWejkxkC/ Y749jc2EtJVFmjRWe4iNA86S1UaTo5wP/aEUBEoq5Eqcr8twaU83CUMWp9PW6zEajozz/r5q TUWdctMWRC7lNHgQmULYuy0MC5xKVP4SIPfBHsmXD4dDIxdm+w4lme8bOfp+fSLT/aRAEbTb xkvsyXm4TRTPo0gQKsZHSgn02tMcMjFwDAUDfG++eI+THUDIbxiG9gMJOE/W+7tufaOmQ6SN GHk5tg+2/swjkzDZEAxfwLorTMDV+TxW1diWJD8+Pmocx7rdbhvmaoNp+aQm4JiJ8Kw4e13m 9gjZcG5ySTv2SJTrJV+v2uHF9IPgHZ48BtridWIYCbUGp7HerfRuq2qef+4sttIhmDYuyxLZ VdX6Hrm9gRuiEtrNeL13jPyayfzrX3/W5+fnJp9FYewBzxjrz2wiMPtOCE6PNWlBgPw9Ho9m bLk0SXuG2Xme26PJINTX11dLu0zGzEmQjZeOvbfNC1Uo2tnNOI718fHxY+EGxHIO7zE4tXU4 tdK7//mf14UvGCSePU1TIx3uCGs3Kji3z2JGEgmHEteGaTcHabKU3MHjcY5vpEAYCIG2/Duk zJPQ4U0TTiVtaPkuGQwu/wzbfh2IDYx52gAxFK/1IzucgNCB3LjHRgkPIgwN3jBAI2bB+biM 82FgxZAGnLI+jeLwcntdVW1eRpD5OTwAWMXw/G52p4uMHQHQhmHf19OulYORoiCXQY1UVlDO aS8TagIffj5F6sNpH/fbObzJlO/dH4fRI8fcfnaTyadH+Dl0rAihGeYdAjxYQ2/GOwSc92Oh EBAEQTzPIodDSxI0hx57vbMJ2jCs25tQmusQyaRNnJIEO3ShOAwsN0Ny3jzGHu55LMvSHg33 fJ3Kmss0pfMGib3kv+u6zU90ZNHAjNJWZ3bplMaTd76eRR2uBdqopV8ul7ZdyFCelTJXB8nz c7+9YdrKMTm1MTKPVI5DAimmtyYbJWwk5GbnA0cAAA7xSURBVOT+KVGHD8do1yEIwVxr1LPH I2Pmy4bWql975AzBnqQnmqkOHbhY4O9dFHBMRPiO0QzSXIBB896UhM8UqD3Pc0BArsM7xXJb NgLzHFi2BcurViwrwon5jrOBJFle8zARNFqaE/GZdgifziiQKZ/hKi4zD1iAmaUt3HnlZqWm 2/6SEBZqS0vPtoU6/TKEOT2ET1wul6pa69lGEYzEbTFpV6eYuJ+vswAxLBuQP9MvfROTQafz +bwxahdsGENyB4cW5/jIiPGZ61RtX6FOfST5TWZLIGdVrb/hknERYWDhVhaTN5Pcg0AmYMsz 4WIwjqUmVmbMtOUCi+E4ma+Rxn2ZpNqAad8k1Z9Nrrhnz6gcR2nDWQjG7NIrbdiDbWB8ZzRj HhhByt3G7HBcpd9a9X4yxz4jAR14n7o9wamXOzbDfyu2q2laX6UBOcx1Ztp3Hd0W7L688Q+F +6lSrrFAbSxWMghD6mYF2CFSuDYOqpDcAzIQx5/PZyNh3Gf4t2y8K8ksflnWN1uYk9ngbZQN 3iFKpCe8K40H4/ywAh6J8F2By9iPZTm9IO3yJgTnj55w13WtDJnWz3iqqj1DxhgwWkIVhQ6X TqvWTY8Wlkuuy7Kupzt8mFX7s7MMkzorZU3vVu/McZvkoXQTOxun4dxI7AyL7AskrdLbpVxw wHMNKYZzHxQOfI8h9Xq9NmUhALfx+fnZhJYxkXaTCwCh5hxOB02KmBMKwct8v8fDd4zH6wQI 0u0iH4cMQ71TMowQOWAgJsFGFdrK0Ohr+IFiG1eSZhdymtKBMyAyb05YM9EBArMqZkNiAr7P MchW6z3dvM7M8OnUBUFwJB9A6H65Yebqhn7zBV63maw798eZaWMo/h04wyrGQpUviZ4NmPbt xQ4dJroOq1yPwtmd43kMvsmMm2IIXoJwXTABvrBAn+d+KwjBmSCRVjFAYI2FCTgF8d5pFeOl PcM1Y97LRBgb4zMUGl6H4VD3+7qg4VIzinFNwgjEPXAgrrWnepOFUdTIs/Kgn78by9wtf3s2 NQBnWVVaT3ccMUt03ZcBOfc28TK5MPFDEFzrx5/M2Bl0160vKjQDN/Fy5oAx2fM4vyzrRks+ ZzbAKhcw+Xq9Wuz368dBAQRsQvt+E8d5w9z3/vUqoUOGi1f2dFfvHPORM20xn0QyHBAjq/rF 3hG+46g9x97togSDIE55x8jr9Wo/eenJucDC9VSVECTe6J8Ac6aA4sx4/Z0/G7IRiPuiPwuc edHX6XRqCn08Hu3H9SxwKxRi7AzDOb89nrlmmGIOOII3lUJCQcLMAOBBRia3NziHyzzQZM6E xzHai/hmsAjEMdDKd3EijSHDQZIb5/dZbbLR+V4TRee1IBFECHQzWXMRxfyAuI/noWhv/fK9 mZ4aMdOTPVcbusMRh9O0cVwXi/bqDlW/KnJYoV8p5hTNlSwjAQ3CcL+/v5tQvR2XgRqa8TTX yj2BFAT3YTBO7ZiQx8sY8fzfFT7wTAzI/AWewRo3RkKF0Ez98XhsXm6M8bhtIyljcnqbMR4j NhpgeIzFsF1V9XyusR3iajlV6Se6Dof15zINxSZMGZvs4eM4tt8sMYy6fcdgcwIEz0AxCCbq BQz378WXvu9b2KEtV8gYg9+kAfxjoN5QYWTyOcIbTkJY83jsJIZWK5g2vZ3LhmonsdNYDhiO EYKCjzdfuuJZ9WvnDELLfVx4MZ1StCHNMzOkSPK79WcGmEzVg7eQgNys7yPARAG34w2XRiwT T4czM197kHfdON1zTpzkKfcP+LPhObMaxkchCRkSv5kPhuxVSowRo/ObKvxY2cbT03oypmbp 0aGAjQgswTJglxHNfI0YoIqVAS+w4Ax7Vo6Rh0m6D99jT8JjqurH+Hw4TzdHAUVAJRs1fdFf rqQZRZi/q205XtDIRkT7VmTGeeTrUNVSVsOPlz2TONGwiRjwBIOEUXrXjCt6CMuDM4zj3XiW CzVAutk1faTnu5jCNRm7yRher3Un78fHR3Vd1x7OcGGDeaMkjOvj46NBqtNBFEIKCBIgR2CZ 601GXS103m+j5Z6+X9/bC0eyPmwUjR9YcHsbDfx2o6q1sGGIoiPDpqEtJ2ule1KGfjNi+qUW byRx7o7Q7XEomfBEiviOudV+jsSkKiEXg3L8hdmP4wrfiRRWlGVqGST67WU16YB2HufxnGcu VEx/wDsvlTX8GhLMUJ2/eoIWtgeIssy4ncZB3AzrXmSh7730jTH6vTVJOCFuLkAxR/JY1x1y R46XPh0+7IXArw+HHRNHnMCpsYtYmbpirN7rQBsczlAsI+SQdYiqXw872Nu8P8wKRjlekMGL SAn2SEoWRhA+//d2Jlb1ECiKQwh+l4vHuVc/4B4/eYrCHSOZM3IwMhhGPQePK7lMog2wbYfx /+kXqHeJ1/WIPM9YnOI5xCS3YSy/5rt9OIE4R6Ehq145KTzA6OCBWUAoxvDmgWE8IAE5suO5 vdpEKa2fw+mWQ9A73z7X/f5o1zpVMjv3QgdGh2der9dNGdXE1/wAo7NMMN695/+8DuBrMSxz pORh5kj0beLX/e+vabHV78Vlp1H2mK7r6na7bRiqSZRhltSD71hv5v970MwE0/MYH7EdKya+ OXaTN5OvIxTaxlMzHhseHa8JCczndrvV5+dndV334wcGILXMAblhRKz1V607lHKzBMaITDA+ MifvvT8cDnW9XluNgHlQJGovGrLAsUQ6hOHSgL0WJfCUpVMkW9bGwtSO4S03K6Zx4a0oLRHH 95BKcc7Gaxj3OrZRibFZ+Uk+Gec8zxv0oD1vS/ZY7DiZxeCZe8TWyOb7MDKTT8sMzkRW1FI2 ExKXTh03EcTvlJZxlXsd15NVe3CO+27faGBB5H1V25+Z5npDasZq5sOLi3yksToum7cYRlEk BoExo4jkBDiVw9fhcNjs2jGs931X0zRvshnDtx3Iu5XQj/U3mB1jmYa6vcJBnqfDhGbHRytr 7xrHS0OcCy72Vq9Rozg81h7D9i/g1qmo557hJYmoS7s2Ms+Je4FyHtS0MVkW3G952Aiq1jw/ S8Vcm3MwB3ANxggx+NXbFgqeTFyzkpgYZMdw6MnlwbVO62D/hnQP1m9uMqn0GPeEjwHQlsuT Xsr9ndLtKT5PyOAhTf/iEgfjcThKx2DOHgNz9/gPh0N7YNL7AjBiIyzXu+BlnrVZT/djsk6/ uMFs0WTIxMPslUk4RXN8Aia9esXADUV73mfB8p1zf1v0PM/t9Rt7iIOQ3F/+eT3f83P6Z6Ez N+7JFNSZCor8nZyW5f0rydxvcltVm6dWzKUcXuAu5i3D+xeSt9tvaQRYw6PxGHsUMcZEMEuO KADYxQPNwg3bXjrMHBmjRLg+PHb+XG2zB9rDfWQ85zvupw8cxfvPki/s/WUuj2xd9bPDvV6v jeJzoSjRzUW0eZ43P4Pe7oNMGFod4xGu4WJZ1h/aZdJGA7flmI1SnYbBbp3SWOhu09+DOC5H WlG0Z4JI296NmmiSRoOBvquWVd/f9x/e7xzZn50r2zGS7OJMRhDmwE9nc3hrtBEKY8oVRraC YexVVd0/r88FmILiY2F7lTG+Z+eI81wXasze8QgmjkXzvcmjN3LkQgXjoIJnhHDW4RTSr0Xx faCUFZPwSRuZ995utxbPUa7HaNbv8WbGgSLcL+ENpwFp92Tw9fXVEMeptR0mUafq13YpclvH OMcZPJ6JoCSs03HSsd+1dr9WjMn6DxYOmuCJe+HDXuG6tz0lN1ymt2W42mPuzDc3auTLj4we /v14DIy6AOPLp4RtLKCaM5DfzcF8ILkExmGnaDE9Gaah2vBrEmevxrMzFnIer8XqjQDs5sy9 9k5LqrZ1AFfcXPdnfLBiv+nBbTFG18Dt5VY8DgGcJsv24VjvcGYjRnZ2JMfwDJOUgG0URoI0 Ujss50HijafbKl1vN7ljkni3vStjuYmbvSWFiscSr7gWC0eRbOFyH24PoVgAZqqgyJ5i6SeJ lmOzSSyG6phdtd0mjmK8LkC48xgwUN/r1M+GsZemcjjs+Dtk42yMdtqrv+kI73bJEkFzM7CF whiM/4/AUsiOu5fLZcMsTUZABFe9mKwXdEx6bKj2DHuXrzG08tlwShhKdLPQGSuKzHtox21a CSBIrqQxR29IcSqXKWMaPjr4y1/+siHCVb9q7wjNlglEAW0oGQticPZCT9ReaIhz5c0hw6zX e955a6IJFn34nSqO40YF1ucN6S6X5nYmGy7CNaxjsM4UvD/AynXxxvJxqmYjs+wct03s7OnM OZXNZy/aOPQOLuJjrSiSyg5e6t2bfGcLN0vGq7y/zbl4VpQMw3gd8Zu28KI98kgbaYQujjgu Mz+z3j0yZ0TZi8nMgwOh7y1toszkBs52Mq57yxb9JfnLOViPX19fP8LaAHzuWZFz7az2MJnL 5dIgz0TMcdnbh5NZQsYcq2l7mqb2ZIm9G4LjeL6nLG8lMnR6exjjtmAwLhsG9YsMFyABc/fD hQ4XMH+u8WYUK9/KTdKJMo0GLG2DcE7/jGSbmP/3P74Xw10y1nw+3fEFpdgo5nluv9aQ7xq3 l5GicR4UYSImMF4ccTzFOEACFGAUYE3be+xM9gzjDjl853MJlbRzOKyrY94J5NTOBsB5o1+m ZT7YaEGbOATfO0SZKGNsJpin02ndGJm7LbjBxRKUmPBt78Wi7b0oNZUFwz0c1gk7v8WwspTq uO1JOcY5pbQBoCyT1T3oRFmumiXx47xJkhVZtaZyyAPjzNXMPByykqs4HfXv2BsRGSsPMZow tj1ynrwn5QlxjS0qH9RLC/MDA1zDkyFfX19F7d/xHQPknoyBqSRQwQpD0Ht7Ahz/vr6+NsJ2 8eRw6Or53P4Agj0y08hEjddrfWCD7/yiIz8/l+E0+7BBO41kTp6b7zcpbO3/r/96LM6NDY0Y hGOal+28wuTJ2AOwMMOZUykG5q1GjmUevAkk3zmNw5uJqTZC73SxVxgObbAJ/1YM55yvA7Ee s0vFLhrBNThvpMr2L5fLjx8tdCbgVDdTO8+L/59Op/cWaOfAdMpkc8ttHmmtCN0esBcLud4o 8v9ybAhK1+1a+//PB2sL5lRGvb2No/8Nu3RAqgKiNzEAAAAASUVORK5CYII=" />
    <pattern
       id="Pattern_1"
       patternUnits="userSpaceOnUse"
       patternTransform="matrix( 1, 0, 0, 1, 305.1,285.65) "
       width="125"
       height="125">
      <use
         xlink:href="#FlashAICB_Patterns_New_Pattern_Swatch_11"
         id="use10" />
    </pattern>
    <pattern
       id="Pattern_2"
       patternUnits="userSpaceOnUse"
       patternTransform="matrix( 1, 0, 0, 1, 297.1,82.65) "
       width="82"
       height="82">
      <use
         xlink:href="#FlashAICB_Patterns_New_Pattern_Swatch_8"
         id="use13" />
    </pattern>
    <pattern
       id="Pattern_3"
       patternUnits="userSpaceOnUse"
       patternTransform="matrix( 1, 0, 0, 1, 305.1,160.65) "
       width="125"
       height="125">
      <use
         xlink:href="#FlashAICB_Patterns_New_Pattern_Swatch_9"
         id="use16" />
    </pattern>
    <pattern
       id="Pattern_4"
       patternUnits="userSpaceOnUse"
       patternTransform="matrix( 1, 0, 0, 1, 180.1,160.65) "
       width="125"
       height="125">
      <use
         xlink:href="#FlashAICB_Patterns_New_Pattern_Swatch_11"
         id="use19" />
    </pattern>
    <pattern
       id="Pattern_5"
       patternUnits="userSpaceOnUse"
       patternTransform="matrix( 1, 0, 0, 1, 305.1,160.65) "
       width="125"
       height="125">
      <use
         xlink:href="#FlashAICB_Patterns_New_Pattern_Swatch_11"
         id="use22" />
    </pattern>
    <pattern
       id="Pattern_6"
       patternUnits="userSpaceOnUse"
       patternTransform="matrix( 1, 0, 0, 1, 215.1,164.65) "
       width="82"
       height="82">
      <use
         xlink:href="#FlashAICB_Patterns_New_Pattern_Swatch_8"
         id="use25" />
    </pattern>
    <pattern
       id="Pattern_7"
       patternUnits="userSpaceOnUse"
       patternTransform="matrix( 1, 0, 0, 1, 180.1,160.65) "
       width="125"
       height="125">
      <use
         xlink:href="#FlashAICB_Patterns_New_Pattern_Swatch_9"
         id="use28" />
    </pattern>
    <pattern
       id="Pattern_8"
       patternUnits="userSpaceOnUse"
       patternTransform="matrix( 1, 0, 0, 1, 215.1,246.65) "
       width="82"
       height="82">
      <use
         xlink:href="#FlashAICB_Patterns_New_Pattern_Swatch_8"
         id="use31" />
    </pattern>
    <pattern
       id="Pattern_9"
       patternUnits="userSpaceOnUse"
       patternTransform="matrix( 1, 0, 0, 1, 180.1,285.65) "
       width="125"
       height="125">
      <use
         xlink:href="#FlashAICB_Patterns_New_Pattern_Swatch_9"
         id="use34" />
    </pattern>
    <g
       id="Layer3_0_FILL">
      <path
         d="m 15.55,295.4 q 3.85,0 11.05,1.25 7.2,1.25 7.3,2 0.1,0.4 -1.3,0.5 l 15,2.5 q 14,-1.5 33.5,-2 19.5,-0.5 91,-5.5 l 68.5,9 7.1,-3.55 q 12.6,-3 18.2,-6.65 11.2,-7.35 -23.8,-10.8 -35,-3.45 -141.75,1.7 -53.35,2.55 -99.75,5.8 1.75,0.5 4.25,0.95 5,0.85 8.75,0.55 3.75,-0.3 2,2.05 -0.85,1.2 -2.5,2.45 l 2.45,-0.25 z"
         id="path37"
         inkscape:connector-curvature="0"
         style="fill:url(#Pattern_1);stroke:none" />
    </g>
    <g
       id="Layer2_0_FILL">
      <path
         d="M 242.6,45.15 Q 226.9,24.95 200.3,12.85 173.85,0.8 144,0.05 112.45,-0.75 84.8,11.4 54.55,24.75 34.1,51.65 q -24.6,32.4 -9,139.7 7.8,53.65 20.5,100.8 l 195.7,10.75 6.4,-3.3 q 3,-11.65 6.65,-30.2 7.3,-37.05 10.65,-71.5 Q 275.7,87.7 242.6,45.15 z"
         id="path40"
         inkscape:connector-curvature="0"
         style="fill:url(#Pattern_2);stroke:none" />
    </g>
    <g
       id="Layer2_1_FILL">
      <path
         d="M 236.6,45.15 Q 220.9,24.95 194.3,12.85 167.85,0.8 138,0.05 106.45,-0.75 78.8,11.4 48.55,24.75 28.1,51.65 q -24.6,32.4 -9,139.7 7.8,53.65 20.5,100.8 l 201,11 q 3.05,-11.85 6.8,-30.75 7.55,-37.75 11.05,-72.7 Q 269.7,87.7 236.6,45.15 z"
         id="path43"
         inkscape:connector-curvature="0"
         style="fill:url(#Pattern_3);stroke:none" />
    </g>
    <g
       id="Layer2_2_FILL">
      <path
         d="m 58.1,194.05 q -1.9,-2.6 -6.5,-4.9 -3.75,-1.85 -17.5,6.65 -6.85,4.25 -13,8.85 l 1.5,11 1.6,1.3 q 2.15,1.5 4.6,2.6 7.85,3.5 16.3,1.6 8.9,-1.95 12.55,-8.85 2.45,-4.6 2.45,-11.15 0,-4.4 -2,-7.1 z"
         id="path46"
         inkscape:connector-curvature="0"
         style="fill:url(#Pattern_4);stroke:none" />
    </g>
    <g
       id="Layer2_3_FILL">
      <path
         d="m 255.8,223.95 q 1.6,-10.6 -1.2,-15.3 -2.8,-4.7 -22.2,-2.05 l -18.8,3.55 0.75,2.5 q 1,3.05 2.5,5.8 4.75,8.9 12.25,11.7 7.5,2.8 16.75,3.45 4.65,0.3 7.75,0.05 1.4,-4.35 2.2,-9.7 z"
         id="path49"
         inkscape:connector-curvature="0"
         style="fill:url(#Pattern_5);stroke:none" />
    </g>
    <g
       id="Layer2_4_FILL">
      <path
         d="M 53.85,86.95 Q 51.2,85.3 46.9,86.1 q -3.15,0.6 -4.85,3.9 -1.8,3.55 -0.7,8.2 1.05,4.4 3.35,5.65 1.55,0.8 6.2,0.8 3.8,0 5.2,-2.75 1.25,-2.45 1,-8.05 -0.2,-5 -3.25,-6.9 z"
         id="path52"
         inkscape:connector-curvature="0"
         style="fill:#a38164;stroke:none" />
    </g>
    <g
       id="Layer2_5_FILL">
      <path
         d="m 192.65,88.95 q -2,3.9 -0.8,9.05 1.15,4.9 3.75,6.25 1.7,0.9 6.75,0.9 4.15,0 5.65,-3.05 1.4,-2.7 1.1,-8.9 -0.25,-5.5 -3.6,-7.6 -2.85,-1.8 -7.55,-0.95 -3.45,0.65 -5.3,4.3 z"
         id="path55"
         inkscape:connector-curvature="0"
         style="fill:#a38164;stroke:none" />
    </g>
    <g
       id="Layer1_0_FILL">
      <path
         d="m 74.25,115.5 -1.95,-1.1 q -2.7,-0.15 -3.55,1.35 -0.55,0.9 -0.7,3.75 -0.1,2.5 3.55,4.65 3.75,2.2 5.25,-0.55 1.5,-2.7 1.45,-3.95 0,-0.85 -1.15,-2.05 -0.8,-0.85 -2.9,-2.1 z"
         id="path58"
         inkscape:connector-curvature="0"
         style="fill:#57413b;stroke:none" />
    </g>
    <g
       id="Layer1_1_FILL">
      <path
         d="m 79.8,124.25 q -2.05,1.65 -1.15,4.1 0.95,2.75 3.95,4.4 3.25,1.75 6.15,0.45 3.35,-1.5 3.9,-2.5 0.65,-1.3 -1.6,-3.75 -1.95,-2.15 -4.45,-3.1 l -2.05,-0.55 q -2.75,-0.6 -4.75,0.95 z"
         id="path61"
         inkscape:connector-curvature="0"
         style="fill:#57413b;stroke:none" />
    </g>
    <g
       id="Layer1_2_FILL">
      <path
         d="m 111.4,130.25 -2.05,-2.05 q -5.95,-0.3 -7.8,0 -3.55,0.7 -3.7,3.75 -0.15,3.3 2.7,4.85 2.55,1.3 6.65,0.95 3.65,-0.3 4.95,-1.1 1.15,-0.75 1.25,-2.6 0.05,-1.45 -2,-3.8 z"
         id="path64"
         inkscape:connector-curvature="0"
         style="fill:#57413b;stroke:none" />
    </g>
    <g
       id="Layer1_3_FILL">
      <path
         d="m 132.05,128 q -1,-1 -4.8,-1.15 -4.4,-0.25 -7.5,2.2 -3.15,2.5 -1.35,5.25 1.9,2.85 4.35,3.7 2.5,0.8 6.5,-0.15 3.45,-0.9 4.25,-2.9 0.55,-1.4 -0.25,-3.95 -0.85,-2.65 -1.2,-3 z"
         id="path67"
         inkscape:connector-curvature="0"
         style="fill:#57413b;stroke:none" />
    </g>
    <g
       id="Layer1_4_FILL">
      <path
         d="m 147.4,123.9 q -3.3,0.65 -5.15,0.55 -3.35,-0.15 -5.5,1.9 -2.45,2.25 0.85,4.9 3.4,2.8 6.95,2.85 3.25,0.1 5,-1.95 1.05,-1.25 3.3,-3.35 1.35,-1.75 -0.65,-3.55 -1.9,-1.7 -4.8,-1.35 z"
         id="path70"
         inkscape:connector-curvature="0"
         style="fill:#57413b;stroke:none" />
    </g>
    <g
       id="Layer1_5_FILL">
      <path
         d="m 168.3,119.2 q -0.1,-1.7 -2.7,-1.65 -2.3,0.1 -4.5,1.65 -2.3,1.6 -3,1.7 -2.6,0.3 -2.8,3.55 -0.2,3.25 2.95,3.4 3.5,0.15 6.15,-0.95 2.9,-1.2 3.25,-3.55 0.75,-3.1 0.65,-4.15 z"
         id="path73"
         inkscape:connector-curvature="0"
         style="fill:#57413b;stroke:none" />
    </g>
    <g
       id="Layer1_6_FILL">
      <path
         d="m 172.95,112.45 q -0.75,0.45 -0.85,1.45 -0.05,0.75 -1.25,2.9 -0.65,1.25 0.7,2.4 2.1,1.8 5.1,1.05 3.05,-0.75 2.95,-3.4 -0.2,-3.65 -0.5,-4.4 -0.6,-1.6 -2.85,-1.05 -2.6,0.65 -3.3,1.05 z"
         id="path76"
         inkscape:connector-curvature="0"
         style="fill:#57413b;stroke:none" />
    </g>
    <g
       id="Layer0_0_FILL">
      <path
         d="m 39.65,240.2 q -2.6,-0.4 -5.35,-0.05 l -2.2,0.5 13.5,49.5 21,3.5 -2,-13.5 q -0.95,-6.25 -6.05,-9 -1.6,-0.85 -3.45,-1.25 l -1.5,-0.25 q 0.95,-1.75 1.25,-5 0.6,-6.45 -2.75,-14 -4.05,-9.05 -12.45,-10.45 z"
         id="path79"
         inkscape:connector-curvature="0"
         style="fill:url(#Pattern_4);stroke:none" />
    </g>
    <g
       id="Layer0_1_FILL">
      <path
         d="m 35.1,239.65 q -5.3,0.35 -8.7,3.85 -3.8,3.9 -3.8,10.65 0,6.95 4.45,10.8 4.25,3.7 11.55,3.7 6.65,0 9.3,-3.75 2.2,-3.1 2.2,-9.75 0,-6.2 -4.3,-10.95 -4.5,-4.9 -10.7,-4.55 z"
         id="path82"
         inkscape:connector-curvature="0"
         style="fill:url(#Pattern_6);stroke:none" />
    </g>
    <g
       id="Layer0_2_FILL">
      <path
         d="m 32.1,240.65 q -5.3,0.35 -8.7,3.85 -3.8,3.9 -3.8,10.65 0,6.95 4.45,10.8 4.25,3.7 11.55,3.7 6.65,0 9.3,-3.75 2.2,-3.1 2.2,-9.75 0,-6.2 -4.3,-10.95 -4.5,-4.9 -10.7,-4.55 z"
         id="path85"
         inkscape:connector-curvature="0"
         style="fill:url(#Pattern_7);stroke:none" />
    </g>
    <g
       id="Layer0_3_FILL">
      <path
         d="m 34.05,270.3 q -1.55,-3.9 -4.95,-7.65 -3.3,-3.55 -9.1,-2.6 -6,1 -8.9,6.1 -2.5,4.4 -0.5,11.15 1,3.35 2.5,5.85 -3.5,0.9 -6.55,2 -6.15,2.25 -3.95,3.5 1.7,0.95 7.2,1.25 4.3,0.2 3.8,1.25 -0.85,1.7 1.65,3.15 2.65,1.55 6.85,0.85 2.95,-0.5 6,-2.55 2.5,-1.7 4.5,-1.45 5.55,0.7 8.7,0.25 5,-0.7 0.8,-4.25 -4.6,-3.9 -5.5,-5.35 -0.6,-1 -1,-4.65 -0.45,-4.05 -1.55,-6.85 z"
         id="path88"
         inkscape:connector-curvature="0"
         style="fill:url(#Pattern_8);stroke:none" />
    </g>
    <g
       id="Layer0_4_FILL">
      <path
         d="m 32.05,271.3 q -1.55,-3.9 -4.95,-7.65 -3.3,-3.55 -9.1,-2.6 -6,1 -8.9,6.1 -2.5,4.4 -0.5,11.15 1,3.35 2.5,5.85 -3.5,0.9 -6.55,2 -6.15,2.25 -3.95,3.5 1.7,0.95 7.2,1.25 4.3,0.2 3.8,1.25 -0.85,1.7 1.65,3.15 2.65,1.55 6.85,0.85 2.95,-0.5 6,-2.55 2.5,-1.7 4.5,-1.45 5.55,0.7 8.7,0.25 5,-0.7 0.8,-4.25 -4.6,-3.9 -5.5,-5.35 -0.6,-1 -1,-4.65 -0.45,-4.05 -1.55,-6.85 z"
         id="path91"
         inkscape:connector-curvature="0"
         style="fill:url(#Pattern_9);stroke:none" />
    </g>
    <g
       id="Layer0_5_FILL">
      <path
         d="m 34.1,283.65 q 0.35,0.5 -2.95,3.35 -4.5,3.9 -6.05,5.65 -1.3,1.5 -1.4,1.75 -0.05,0.25 0.8,0.25 3.35,0 6.1,2 3,2.2 7,1.8 4,-0.35 5.5,0.7 3.55,2.55 3.65,2.55 1.7,0.6 7.35,-0.05 5.2,-0.6 8.55,-2.8 2.95,-2.45 4.45,-3.2 1.9,-0.95 -2.6,-2.8 l -4.9,-1.7 q 0.5,-1.35 0.95,-3.5 0.85,-4.25 0.55,-8 -0.4,-4.95 -4.45,-8.5 -4.5,-4 -11.55,-4 -7.25,0 -10.95,6 -3.55,5.85 -0.05,10.5 z"
         id="path94"
         inkscape:connector-curvature="0"
         style="fill:url(#Pattern_8);stroke:none" />
    </g>
    <g
       id="Layer0_6_FILL">
      <path
         d="m 30.1,283.65 q 0.35,0.5 -2.95,3.35 -4.5,3.9 -6.05,5.65 -1.3,1.5 -1.4,1.75 -0.05,0.25 0.8,0.25 3.35,0 6.1,2 3,2.2 7,1.8 4,-0.35 5.5,0.7 3.55,2.55 3.65,2.55 1.7,0.6 7.35,-0.05 5.2,-0.6 8.55,-2.8 2.95,-2.45 4.45,-3.2 1.9,-0.95 -2.6,-2.8 l -4.9,-1.7 q 0.5,-1.35 0.95,-3.5 0.85,-4.25 0.55,-8 -0.4,-4.95 -4.45,-8.5 -4.5,-4 -11.55,-4 -7.25,0 -10.95,6 -3.55,5.85 -0.05,10.5 z"
         id="path97"
         inkscape:connector-curvature="0"
         style="fill:#ffffff;stroke:none" />
    </g>
    <g
       id="Layer0_7_FILL">
      <path
         d="m 32.1,284.65 q 0.35,0.5 -2.95,3.35 -4.5,3.9 -6.05,5.65 -1.3,1.5 -1.4,1.75 -0.05,0.25 0.8,0.25 3.35,0 6.1,2 3,2.2 7,1.8 4,-0.35 5.5,0.7 3.55,2.55 3.65,2.55 1.7,0.6 7.35,-0.05 5.2,-0.6 8.55,-2.8 2.95,-2.45 4.45,-3.2 1.9,-0.95 -2.6,-2.8 l -4.9,-1.7 q 0.5,-1.35 0.95,-3.5 0.85,-4.25 0.55,-8 -0.4,-4.95 -4.45,-8.5 -4.5,-4 -11.55,-4 -7.25,0 -10.95,6 -3.55,5.85 -0.05,10.5 z"
         id="path100"
         inkscape:connector-curvature="0"
         style="fill:url(#Pattern_9);stroke:none" />
    </g>
  </defs>
  <g
     id="g102"
     transform="translate(-0.02035928,-5.7915058e-4)">
    <use
       xlink:href="#Layer3_0_FILL"
       id="use104"
       x="0"
       y="0"
       width="268"
       height="303" />
  </g>
  <g
     id="g106"
     transform="translate(-0.02035928,-5.7915058e-4)">
    <use
       xlink:href="#Layer2_0_FILL"
       id="use108"
       x="0"
       y="0"
       width="268"
       height="303" />
  </g>
  <g
     id="g110"
     transform="translate(-0.02035928,-5.7915058e-4)">
    <use
       xlink:href="#Layer2_1_FILL"
       id="use112"
       x="0"
       y="0"
       width="268"
       height="303" />
  </g>
  <g
     id="g114"
     transform="translate(-0.02035928,-5.7915058e-4)">
    <use
       xlink:href="#Layer2_2_FILL"
       id="use116"
       x="0"
       y="0"
       width="268"
       height="303" />
  </g>
  <g
     id="g118"
     transform="translate(-0.02035928,-5.7915058e-4)">
    <use
       xlink:href="#Layer2_3_FILL"
       id="use120"
       x="0"
       y="0"
       width="268"
       height="303" />
  </g>
  <g
     id="g122"
     transform="translate(-0.02035928,-5.7915058e-4)">
    <use
       xlink:href="#Layer2_4_FILL"
       id="use124"
       x="0"
       y="0"
       width="268"
       height="303" />
  </g>
  <g
     id="g126"
     transform="translate(-0.02035928,-5.7915058e-4)">
    <use
       xlink:href="#Layer2_5_FILL"
       id="use128"
       x="0"
       y="0"
       width="268"
       height="303" />
  </g>
  <g
     id="g130"
     transform="translate(-0.02035928,-5.7915058e-4)">
    <use
       xlink:href="#Layer1_0_FILL"
       id="use132"
       x="0"
       y="0"
       width="268"
       height="303" />
  </g>
  <g
     id="g134"
     transform="translate(-0.02035928,-5.7915058e-4)">
    <use
       xlink:href="#Layer1_1_FILL"
       id="use136"
       x="0"
       y="0"
       width="268"
       height="303" />
  </g>
  <g
     id="g138"
     transform="translate(-0.02035928,-5.7915058e-4)">
    <use
       xlink:href="#Layer1_2_FILL"
       id="use140"
       x="0"
       y="0"
       width="268"
       height="303" />
  </g>
  <g
     id="g142"
     transform="translate(-0.02035928,-5.7915058e-4)">
    <use
       xlink:href="#Layer1_3_FILL"
       id="use144"
       x="0"
       y="0"
       width="268"
       height="303" />
  </g>
  <g
     id="g146"
     transform="translate(-0.02035928,-5.7915058e-4)">
    <use
       xlink:href="#Layer1_4_FILL"
       id="use148"
       x="0"
       y="0"
       width="268"
       height="303" />
  </g>
  <g
     id="g150"
     transform="translate(-0.02035928,-5.7915058e-4)">
    <use
       xlink:href="#Layer1_5_FILL"
       id="use152"
       x="0"
       y="0"
       width="268"
       height="303" />
  </g>
  <g
     id="g154"
     transform="translate(-0.02035928,-5.7915058e-4)">
    <use
       xlink:href="#Layer1_6_FILL"
       id="use156"
       x="0"
       y="0"
       width="268"
       height="303" />
  </g>
  <g
     id="g158"
     transform="translate(-0.02035928,-5.7915058e-4)">
    <use
       xlink:href="#Layer0_0_FILL"
       id="use160"
       x="0"
       y="0"
       width="268"
       height="303" />
  </g>
  <g
     id="g162"
     transform="translate(-0.02035928,-5.7915058e-4)">
    <use
       xlink:href="#Layer0_1_FILL"
       id="use164"
       x="0"
       y="0"
       width="268"
       height="303" />
  </g>
  <g
     id="g166"
     transform="translate(-0.02035928,-5.7915058e-4)">
    <use
       xlink:href="#Layer0_2_FILL"
       id="use168"
       x="0"
       y="0"
       width="268"
       height="303" />
  </g>
  <g
     id="g170"
     transform="translate(-0.02035928,-5.7915058e-4)">
    <use
       xlink:href="#Layer0_3_FILL"
       id="use172"
       x="0"
       y="0"
       width="268"
       height="303" />
  </g>
  <g
     id="g174"
     transform="translate(-0.02035928,-5.7915058e-4)">
    <use
       xlink:href="#Layer0_4_FILL"
       id="use176"
       x="0"
       y="0"
       width="268"
       height="303" />
  </g>
  <g
     id="g178"
     transform="translate(-0.02035928,-5.7915058e-4)">
    <use
       xlink:href="#Layer0_5_FILL"
       id="use180"
       x="0"
       y="0"
       width="268"
       height="303" />
  </g>
  <g
     id="g182"
     transform="translate(-0.02035928,-5.7915058e-4)">
    <use
       xlink:href="#Layer0_6_FILL"
       id="use184"
       x="0"
       y="0"
       width="268"
       height="303" />
  </g>
  <g
     id="g186"
     transform="translate(-0.02035928,-5.7915058e-4)">
    <use
       xlink:href="#Layer0_7_FILL"
       id="use188"
       x="0"
       y="0"
       width="268"
       height="303" />
  </g>
</svg>
