<?xml version="1.0" encoding="UTF-8" standalone="no"?>
<svg
   xmlns:dc="http://purl.org/dc/elements/1.1/"
   xmlns:cc="http://creativecommons.org/ns#"
   xmlns:rdf="http://www.w3.org/1999/02/22-rdf-syntax-ns#"
   xmlns:svg="http://www.w3.org/2000/svg"
   xmlns="http://www.w3.org/2000/svg"
   xmlns:xlink="http://www.w3.org/1999/xlink"
   xmlns:sodipodi="http://sodipodi.sourceforge.net/DTD/sodipodi-0.dtd"
   xmlns:inkscape="http://www.inkscape.org/namespaces/inkscape"
   version="1.1"
   preserveAspectRatio="none"
   x="0px"
   y="0px"
   width="156.55188"
   height="425.62439"
   viewBox="0 0 156.55188 425.62439"
   id="svg2"
   inkscape:version="0.48.5 r10040"
   sodipodi:docname="k03_polarbear_hill_01.svg">
  <metadata
     id="metadata40">
    <rdf:RDF>
      <cc:Work
         rdf:about="">
        <dc:format>image/svg+xml</dc:format>
        <dc:type
           rdf:resource="http://purl.org/dc/dcmitype/StillImage" />
      </cc:Work>
    </rdf:RDF>
  </metadata>
  <sodipodi:namedview
     pagecolor="#ffffff"
     bordercolor="#666666"
     borderopacity="1"
     objecttolerance="10"
     gridtolerance="10"
     guidetolerance="10"
     inkscape:pageopacity="0"
     inkscape:pageshadow="2"
     inkscape:window-width="640"
     inkscape:window-height="480"
     id="namedview38"
     showgrid="false"
     inkscape:zoom="0.55529412"
     inkscape:cx="77.751873"
     inkscape:cy="213.25"
     inkscape:window-x="0"
     inkscape:window-y="0"
     inkscape:window-maximized="0"
     inkscape:current-layer="svg2" />
  <defs
     id="defs4">
    <image
       id="FlashAICB_Patterns_New_Pattern_Swatch_60"
       x="0"
       y="0"
       width="125"
       height="125"
       xlink:href="data:image/png;base64,iVBORw0KGgoAAAANSUhEUgAAAH0AAAB9CAYAAACPgGwlAAAgAElEQVR4nFy9W5JlOa4s5gDJ tXdk1TWTaf4DkGkiMn3LNIwr6ZzTnRl7kQT04Q6uqJNt3VadFbEfXCAeDofD/rf/4/9KwJDg n+ZA8w5YIjLRW4MBMDdEAntttOZwN0Qk1t4AgM/3RL8a3teF378/uNfE//q//A80N3w+C/dc WGtjjAYAuOfC6B3X1bF2ICPwfl0wN/z5/gAJuDtgQHPHnAuRwPsa2Hvjnht9NIzWcK+JZg5v /Dlzx9U7YEBm4vOZiEy8rw73hrU3dmy4OUZvuOdEaw3u9fsGN35uAOjd0FtHIrGDJxUZWPfC X3//gmViR6C1hszk65kjALiZfj4RO2AGtNZgBmQk+A88RzND7w1rbUQkvt4X9g4kgOvqMBg+ nxveHL03zHvDDPDm2Csw10JrPLPYARhg5ni/BmIHIoLf57oG5lpY9wJg6O+BcfFB7x0wM8CA 3hwAsAAkgEwe6GgN358biYSbA5nwbrAF/Ne//uDrfWHuhczgYbrDzNB2IjMRkXAAy4B78ZBj J6wZ1g78el/IBHrrMOcZRSZSZrpldHMtWDq6O9KAuRcsgbkDhsQ1OvroyEzYNjRv6M3xPScQ QHPjFzODJeC94evL0ZrjvhfmXuitoZnjXgvmwN9/fcHdYGbIbeDzNf6cOyIT9z3Re8cYHdaB NMB0w5L2D8tEZCDq4rUGb3mMIBMwGBIBmCEzkZHw7vj1Glh7IzPRk88ogsYZO3C9nMYFwBrf sDd3hDmmGSJCFpFozWBuuOeCgQcyuqN3fplMAMkDNjf8er9ofWvDAPz69UYm8P2ZQALmDku+ uTtfe68N943mMqi5kGnwbrhax7bAjsDnXkAGrmsg3WFuaJ2/s4MWvdaG7cT1iw/2vhe8GdyA 5g3uhnlv3Gthr43Xa8Cbw5fDdfgRCTeDAcgImDteV0fswFob2xKj8Qwsgdc1MDe/r+kSpJk8 lMEBtN6ATMTecHc4DG00NDN4M8wVgM5zR8D1YFK3MhNI0HsE/w8MvM2v3vDnM7EWH7qbA5Zo oCEu8EJl8orU+ffPXDAAfTTsxdtlc2Fkg5shIxEI2GIIMB107EAaZNUNrblubqB7x+s94Ab8 z//nP9F7R2+OmZuvL5cH4PyzKbbkThge1z7Xwv256eZ7h1titI7eeBCZdKGtdR2WLmzj4bvp JgY9yZzzvGdGMgwAWGsh8Hi0vQO2A39081rfWHNjtIard0Qm5t6Yc6G5YS0aqDtDH28mw+M9 J+afjdYMYwwkgHAAmw+VN8HQvaE1w948aXNDyi1/7oXYgXExhMTkF/3P//o3DMDrdcG7Aebo jd/v/jhWLOwZ57YDQL8/E+NqGN7QhmMn4+vagMMRSOQOfPZEDx5igDHNErx5BnzPib0CvTu8 GfbeSKehuBvjcm6sNeEOuPEhu9wgAHRzLAvGJ19y6w1fXy8+POURvfNBMu7z76/REBm455SL dBhMsdJhAEZzXOPNGwFg7fIyhrS6XQ7wQsHNMdeCXwPNHAu8UYBh72BusAK7Of//WjRwOCKZ M7iVyzbGWwD3PbH0MF/XYOhTfhGhkJWGbrwUx3g7w8vaG5/viW8zuDle74HXNeitdsDAZ2KW mPdGprxGPfRxNfTW4K2hZaKjIYLu7LMmemtIGGIHZiZGb4zNcMbiHbhGRyZQUemeExnA6P25 1cb/MmzyNnhL7NhYi7d/XA7PxFr0GBmg17gGXeHcuOdCpqPJDTYZHdwQG9jBm9yOB7FjoK01 JlEA1grcc6H3ht7bCTE7aPQwh3eHhyE2c4jRlYSuhTV5c1MJWmbCYGjOBxHBHMYsMXqHD93c SHxiw80wXgOWwI5UvAZsG1ZsIBgz9t4w95M898bz38G4/tevN8bV0czwuRfutelxzLEi0Xrj eTkNGwD61QfgjGPeXMmkMW7PxWw7DdPWuZFIWtSuGP2ipRkMOxZuWVdlqqks2szQWkOvGK7M lA+PN6Ey59aZZUcmE52ZmKoAAFYWKUOy1rAn3d/rNU7G3NyA1rE3XW+Ch5iRmGvTCzSDbVMs N+zYSADykKdKMX2myMCaTKh668hcSAMcBrOG0TvPMx1d36cSNzM7Zzh6w+s1MBcT0ZUMmc0d 3Rt2bvz58wFgGBcwWqenA+Ct4a8vR1b+kYF7J/aO48EMATeDK6fovTH/AdDX3vCgS84E3Bvj Zu/AG/rC9HrYjJ/uzri0A3AmYGYOIGHu6BewJvC5J96vi4lE0qV7ufQIrB14vwbSAe+Oa3Ts TLQmy4ykVe/AnEtlEbP/iEAkgMaP9tGD/fv1Phl36+2URS15SIjETCZFzLoDcye8mcIAvUTz BlMClMgTq2PJQN1PJQK9FprpdQxLCW6qzE0kmjl2BOa9sZ3ega9Brwkkeu+4robP3Ljviddr YIyO1pg3zHvCnWdV5d3eKgcdGN55AQCM0ZXZ08NWudnrVuwd2CuxG11DImEJ9N5ZC24gjAf4 mYvxaHTeoDTG7d5gsiYMAGi4b9bAc36QAL5eF4DEikDsjdiN7wHg9/cHuzJolWaDuShrcnQg k3lHGlxYQn2e5kxEdzDerhV0kZFKVjuzfr/Qmkq9vZE7sBfgHuiN9X4kq5gKM5l0lVXd2GXY a9GgTDlBglWDMfjd92JIC5am6EDvrCS2EuG1N8Y10OGYa+Mzb6zNcPPXry/8+883n8VyZAaG HjbA163ybWcwJEQwJKi080avATP8eg987oXOLFEuWy7XrMoFxlzISiIDuflm5aoY51IlA+tK 37Tw+3Pj9b7orjYz9/rTm8MFxvC9dDhbmYErE1d2PloDjLnFllW7tQMaMK8zlm7Gh7nX834A y7omT2MwBAK5E5l2QA4zRwawVTsjqlrhjYnkDe3hBytoYzDrXol7Tewqz1y4hTvMed3qdjd3 9NEx10ZTCMEPz1KfJyL0e/SMyPX8nLzYDn5Xd4I2TUYBsGQN0MNto+fuZgm3BmtAJHj7FHfq wVrSpXk4whPWacmRwWTBGB5OgpGJ5ob3+8Vs1w3dGNtD8RTEfPhlQcs0M7gy3GYO73bqYHm/ c9BW9aMAkabSiwkVD3XFhjcn5gAebMpADACCNw26EcyW+R4NdPF+NZ5JdLTm5zX66AwVe8Ng cG/IttG2YzvjaSWZVXWsk2TptZFYa2FGEIBRPGfVEcBKjDEOQBOJc4appNgzEftHwlelEREd eqsMRADdGvYO9Lk2eudfNDcYGlzuKMFb5fVhGl1ulUP3PVk/eiAF1KxJz9B7Ywa5NwDCg6M1 bCTmWjQMlTr+A6lzq0SOiRAW4+5a+yR9Zo6Esmyn22vOrDyS8bmhI184SWGdA/OLPLBkQacV 5sqo3FV6rgDS5MX8uHp3wwZwGcNfQZxtdLhCwoqNq3fBrhsRfA+Xa10KZfdmmHq1hutqiP1U CL9+vdDchQHYMX4YHkzAmUsUtgHhJUjDiiVIlsDQjkD/fCbm3Cxd5PoK5CyrgoXKHpY/xHcr JQU+941PPklMa7So73XzgD+B3jp+fb2I6StWVhlSpVzKw2QmsGjZDiDoo86/r5IRxs94ahEY MvkwvTUlR/ReaDTqHUysdrJE+npddKdyPRHBUIYNT5aJfE/A4zqhwmBwJMalKuNHJZIBzFhY 94Z/mVy2vGUj6FUA19f74kPdSaQPjgRD1BgNo7vKSBpImmErce4XkT0zoO0GKATs2IiAPBjd YYYuZia666bMGYhorE3NH/c0hC4FsJIH4JH6Ao745pftzYnZGzNv04eZc2ODJVxU3B8NZsQH fj7olNuy5OHnz/p6dPhpGtATmKlRFIknBjRkBHbuA7gEEh6JlEFHBhO71mD2IzOPRARkOMBO llZZ5aFcKX+fydtnbr5HxWRTrb/pyebcJ5EkNkFvtFcwmQ3e8qZbutbG554AEqMPTDVSVgFf MPUTAm06FvKUbpCny0ihgo4xOsIDc+3jUfvX1/VkqUYrDQS8s+s0hHHPtZCLmT0isWXtANDd cb0Grt70YAUmmOEaAzsulXp8SJc3eGMjgB7FYJEICyFPTIC2YqAJ2TrxvL5i8jD5QAC4sbRR jHPh9C5PUHUqMXB+vnttjEEs/WTZutlInIYTIpERmLGx7n2MjOBP0kBh5zO1Ts+yfnTlLFyg SijEAb9vgkmjNwJj+7kcJiPgBaChoPMsItlUinjCL+rWC2xy4SRhhkASI+mJXklCJov7GZsZ sAMtHRUmlmDPil+hBO7Xrxf+fN9Ycx9rhgMrAn++b7yvzlIOrOfnYkvUdqiOHwcb35loAJyX Bjv5hQKBPZM3FoZWnyHZ0qxI03s7MZoZvhocQs72FvAC5gRz8UajJQLM+OciWsaEkqUQK1V6 gxaJaPmP92SrVnFWrUAaOVh1ZCK2UEgAoRDY3PE2Nm1Cpaab4zWIBo7e8P3nczwSMtDM2SfZ G5FMePXGMCXdfH9WMxUOmznGIEDTt649zJ+sttzySkT0f3gCujYhasJ0iR/rHqZhroUpI4gE Gh741Vrg+/uGu+PrfaksjFOaMdMtBA2CM9VZA2O5GQ1kLbr7MTpGI1o2F1ugozeWnwpNOwJr MQxYp/EiGZZ4oFAoMT04Gl73pl4C38vMMAZDU10OLIUlq/SfWUKaw1Tvs9JgzqFjY1dPydlz W5UUynvwTFXi6gEz0zd44lyocufe6E3oIRbue+q9mEPtCHSY0SKE5WbBN4p9t9yPGeFEurKt UwOuwRJjJ93WFhhSfW5vhpwpYzS8x9AD4vsUacGMjZdYhEsjcDpDw3n4ifqMptDRgOxwhaBk O17gBCuMP9+fx813q7NnNdI7kIG9gVC+ws/B2th1u5GCjPW0TA0bb455r2P8Ve5FBGCBtp6K QvUpDMIAVH93awoT//wTOzFTbVtUZcHPEsqPMoGmnIgvx7ouQSBpWHsAIuEwGYE+1zqJGzs9 +FHciynT22HQ7C30B0Jmg7npE4v4e01We99L4Am7QZeaHnNOLMVd/mweFC2VrEG3MdIQyVQ9 8zEgN+Cem5k+6C1GZyJ3z4UEyybPQLcO1+FFBAKO7oYwx71udsga0bJIwJ2J3r0WMtifb425 SmTgewZi53GjTT0DJLANyJ2ADCmUu9TZVLNEdw1X7+iD0DZhVeYMDU35SiBDOHv9R4DNfYfA JrF5Fp9H684W9CDa2ZyI5faGngGkE0DxVr0zqM+bWFDPXBQfb4m2/WTZ99JDdaCDrrFQNoPh M4Wh6+e3LHwnQZqv9wVz54NW4tSufrpeKcRtHRDEBXrIhSru3p+J1hteV0eisRGSwPt9oVll +s8NY5+ZGHZzQ3qDqcviYKy0KhXBTLzoWTuCpZzcLL2HwoIDHYSsq8GYVsgf3YHpTVwPlEkD zi2ta1+1fwguPawbU45hjs890TpOuec92G3ciYyFnuogJlR5JPp19fOAqsFQf1IJTMVcq4Av XD5RN+up2U9c0wsU1g79716BQJysM3YAwqFNLputXpMrj5ONJ1QWCZ0wANcYhGczhEzxobbO B0TQgu1RsnoM1pg33J+J0RvGNTAuft7UwTMXSHW8AHixMwQk+WbJqcZPihzSm9MzZlT1z2Sr sRlldfNpAWxHp2FNnoslkz/yD4O9gkjsVIML1fQiMFVVQlNH7aXSMyNlnAs5msAnnmd385PZ Fvzq54uVO0ys6lOLegS5E2R98CcumZLCqj/NWJbFCsw1D/fLu+NeE9Wj6a3akTgPfO/K1Hkr diRssZfdvGHGxmsMXL1jYvFLprp57akKmBwye/eAGDaJf//7D96vi7AqjBg5XHDxOnyAn2gX wJvkVnW2DEJoUGuOLKKGDM2bKwvH0+pVgtmaw5ojZ2DuADZv7jXIR9gwZG4kDBEb4Q7S5eLg CDsTuQIpKhdDAL1L7BBMzRDel27Q1k0xgIwW3WlzwPaPy1t1mxkcjS1PkQ/rgJrjWPWKfRoD LEsSY7QT88kaJeKUnqQKiZRA18gYuNdWwsdzXzsRwYfczdFGJ2lRJEE4MO91ErMiOSR44zNE ZboXDxpLxpqnQxWRME907/BGb3EOQi46NsusCg0r9sHBC5wyAE0syGoLF8qWAaA9F2Yph3Ab 6C964QaX2w1Y9GN4GYB3tVyneHJTfRCV4eQQAN7UPNqBXll2JUdlrZXEG0xEAC8vXT/OGz86 HKuuOOOfN7TupxpYYJIHJwWrFfSqfjkWb8sOQ2Ip6SFWz0O6sfW6Y1RDgl27v359qZv10Izd XUzYjfe7IZYw+NERK7DyAwC4Rmd4AJMiZucuN5inrMtk6/X7nuhLfIC90bzDVTeX8bLUXScM lKc8Z2ZPd87c8O5dlO71UM470b77c7Mc1s+2cFjj56lnUZUVjYAe0YUBmBuRSDV5SFABemsN K/b5oe/PjYjA+/2CG7njDlKpqrW4xD45JAA84H/dBFKIcELEGJ2EBayHhBEpQgB5Yqkaldmm oXXWnriJLL1eA70x02/b0ZTl0mBIT/r163U6eSG3bjq0ygf6aOjmuF6dDxVAhMsblEdjEufN cV2DVYhex91xvS6RKNnQ8Ebq1rbAVhgkEZIueqphtNUvvsYg2WPO00uIuR93HyyD/+M/f+P1 Gni/yHDasZHyGmQv04R6d3jlZ1lkTkfbgSXKdyIZyrpiDcCCnn1eNivWWkSUaPA/SgVmlMTK BTbsgDtLtcKR6a7oSUYzLDhy42TiBCB4Q+Kn9aJoyMAWd8zbk0fQTfPn1lrK/h8ufJXFvfvB vQvPh2BiMzY5XAydpzP1fNcTfvbDcnHV/wYmSpGCbEFPY87BBFdY2REYrePqzmGRCCFlIdbr 83lbYzJWsX7vzdKrk/zhZmghJpHC8tocAnF56gqbyOK/h4yfAxRoDX3twOvV1WAItE6KL9uk iy+uJErVAmB+PENkYuXj0lrLQ8LLQ3hgfVuo1xMjDH8+9wGE7EejBiDMCLlEQrVk3PCkRHi0 hxCxN2N/CEfoaIgkcSJ4znqQNKq9Aul8HVK9RZLYjOuVsM69DzOHB5AKT4G9Frw1rBbIxUvR q19xb1wvXgBnp0UPM3DLG7IfkcJIOtyZw6i5h+vqbOkmoW2GOxqoq7Kq2OF1zpanPON5EjAr Eku/73W6XWzv4XSnTucrU9kzH0yXKytrxjEG08EYYhHD773hngu//1RVQH53oUprbnqI1mBi mhCaNSF/ZMSSYrRFltRzz8T7Gnx3JS5WVweFt6sPnWwvsk9OzzBjiWKUwq7lxTIPT66Ywe52 cP0AvUU4+eaVuEeXJ1KcHaOx5KxRqR+DDOGVg4h00gET5AsEIv3kVzsC9/fC2pvMY3m06+qn RK33JM2NVYiFnb+fc52RtN66HUtplYGudRoZQ6NA1RErt50BhKkEUpJUiFUCWCqZ3q8L9uem hUcA9jzwiDgkAZfX2II7TSjhXPtg5Yy9OKHAXLx2hZMiCyIZQrKePypRe5xMtTfLy/TeBE4B 6XaS0b057TP64JSMSIcEo9gI2fIMzQxr8/N1Y5IYEfjMBSQ4JmWO7Y5uDgw7bFigwBg/REfi IDz/tZZYPjilp8FY1olIkTKi8kSmZLnyLHe+f3+/2PZMGF5Gq429YZpaMZ4uSxLTwxZdt6hR Vb+ryJMfZb3em9MiI0hUxANLDiVn5+9WPGgT/MTKJ86qsZDVyXoaOr0R1LlGp4u+aUB9tOM9 TB/v1Oz/CCsP1s6fk9cSosX+vf8wSrWKVe8XJlU9Chhd9vs96NHU/IFXX53hbogexsxaIdA4 uwdLkT0T/epom6jh/t7Yc+F3JgIvTsb4Q+asZ1IV0uj0Du4G7042bD0MU3uuaRbLjNg2W40N rqBu6k8XAMCbE8gVWKvCAxOrKT66O+lG8aMGd2/HxXEsiElZYdhLFOuojluG/KgJ+tWsmhVf X3Xy4iFHBt6D3PJyyeS250miCPHbaeUiyXezen+z8+9D1YJnnY+JTGlnkNHMEGgHIOmdhtga yZyx8rzmii1amckYH+56UxPq+56cUkHidQ0ifu5YK2j0myyfGimr0PeUnUZiMu0YDqDPuVWm JfqlqRHhuitYpqQ5MhZCzIKAmLFRt8TPDQoAplKHE54i8ZcVi6kTOzQ0yeRsafDxapzi2BHY t76YUKxQvVnsEAjpSiRyEw+whQM0edNDWft8aYAJVOx9YlURBz0SUCcuxC9rzofCxKhwi2Mv 57LAqgMJeaDEn899RpmIfIojUEni5uux329Ye+G+SYz4GW7YtavPr5m34ec2A8rB4Gi6DMif v6dLKoPoNXTXGl0k0sjvUtAHaB1mfubEvIkBIx55IU9/bk6fvMT74uEG3u8LyMTv7xsGuhtr hk+xRgYRLwTjThEXr0H2zt5BlJD5GF5OMiLJB6nKAQ9xIBNViu4QX32xchgy7LVJ5ug10SpK EsBbnELM5l6nZ11kztGHGDpxch96mhpq3HADrk7Ecs6l39EwhbiITdl2puYAIJJob2pjMw/5 er8IEEXCG/OsUBVQnqG+MwD8+SbW8tfX+2ArzRu8G/79+4POcR19GOcUSJ8aJAzWnaZgnk/X hZw5C1gUrJgi4efpDrlxDLgy+/fVFYtJDHz54Liy0X3CoeyypliEUKlcm8m8wAdFB8boWHNh xcN7q47aSQ4j9f3UE49n5iw2H+rrNfAaA90FW6py8dZOk+OEs3jqc/L0+fqtM9OHKNUmDvq9 NnrnhAoMB3+vzh3fL1keT7rxbq5KRuiiKUv6kZSGkLYVm0bnHAVPeaOajz8kC2PpPK6G/gAa +WPUVoOEm8MN3uSzdFhXH8KXOWNe9V/7UZ9urHPYoZKoaM4Va4iZk18XEbhv0n6fiZQHJUsl Om5ilBShsDfYZonnZjC5xHJr855onZ24KktbMwyM07c+nPsuurXyjsbsTq9naFATKgMRJh5e JYFVzjbgUmI5qLLxusZhBLHhkuTZARqS2KJ404AOrPwjhNQfyyJvFpmE1C+GpNQwKMe6HwBM SXDQIPrPOtx2PqQ6d+K2P+qc4olXlor8MfD3o/4u9xmFrduGbVqoexOmbcpw7XDuAJL99s14 /OrjlF69kdnZhkabNokSrNOLSMgvGfk0G+basFul6A70DjTrGEqgmpCyuTT0UOWPEr3mP76v jCmFrO0MGNgGve9ngKP3DlLsmBSzdtYZqi7fybbn6xr0Us3wMrJ+2Tcghfr66hqTkjeEHbpV U95UkPfaC2tO0sdq9CmfblvyIWiWzZ7pR7JEHd4eWFMhg65IfemqL5uy8nLDLVmi2bJDmTIl efe90DwJU/4AHr7/fWPvIPesNyD3ufUZ5LD3dh2kq0pFN7J0f7rynYJ0FZ6pI7OP8e4A2g5Y K6TMsCfFBcyAYYMMG+fNrZGjMsrjXlF5zobbPklW4ejWDGlMpL4/Ez+nYovDV/HY3DHMzuxB BIjIybhQY2fiKVa1NRpHowolrPtZyCaUK/y82G4gG/Z56Ko13RCBw7iohz96Z0ZpDtego6OE c8QgaY6XiARrMsHqvbM1avskXEU+bEKmEnjKn+a4QPbM9+c+t2wtCQGolKpQ1BuTr9gBKDS4 sGprJuoU8Ya9AncsTrEKnw7V8FWvA0njb9W9i2PAkJNysOScEXwvlZ81Em2uQQQYp36MCfCa HOG6Om9jeQLSvxwpw6ibzFLxKVljA2tOgjM+sO6bkDhYEYzXYHNFuUexjRKJWJs06MLTzYGa Iik4lxMVqsub4a2JTgPgi65xRz6Mz0wYxORwwESvdoAJoho5mT/iene4X4iLyVHocEenUELX rS1E75Q0rf2YkJHBueIuHtz8jGEZu0yfjzpZydJx7XzymAJcUqI+MsbDy9PhlpG4PShglZJ7 80GzXgcMnFwhOOLAwIF264HXnxqSqIkZb3ZmCWKzcWOXI3pHINB7x7/+69/w1wVvj2ABhFdQ aOhCr5k6E5a/9mZbz3j9iz3TBEUaHlKfe4P78zMGDjrUFAYSaJFIDTokgzc/dIE+ID/NgqXa lOVXPGytoetW//v3NzN0tubk5h0QQAFhytX8OTix4zQlQuGlV3YtY26NKhMbcdq/hSiaAQiT d3LlLO2ocJTkV8o4YY8eT2+sgLIwe93Y4tCNlpRX25tza1Pv4fQwa28KLql+J21qYe3E1ck+ 9uEIKWlxoog1vSXQuom6zlAw70nOg5nK8EYoYqvcMZgg2R/WtxOwRCwgQzNUneVIDQ8Ue6SG /koPJoWLUwvtSbYcnLhY6l71H7p1Dtap3uxop3XFv70Ws/ODzz5w5U9j3RF0o82w7k1xHrFU qmSaa2He/ySQ9O4IGeBOvkZiyRt1lk2qjadYq9fVYeZ8wAZcF8vQz2cShRxdwxuJjQWH4xol 6aIx8KQ2QIXIPvoPvoLBs+FSt/r7Q4261hwrgpUPAlgMw/ekF3xdFzKS8+2Zx0jve6IDahHm Q/ttcoURW3FFbUzFvLU3cgqt082pWFhjUQYmOhTjYRl2MOxCwoTH2wi40KoVwMhEGx1DrBKX q8msUiY4UZJMyJq7KgAgGw52vlcc5YtKvg8EbLxJXXo5NViwVFY5eKtwvhsQi0kiLwmZPKRG a94NMriDz3f8nIbNCCwEdhbnWDZn+EcSxlARWMgz/VK1W+xEeoCzQA8xlUn2ZrncAlcxiuuB nxo/0VNAgquzVZafwoFHTbGGrM4Mt0aH+yl7hFjpC2zVuq7ZtDBDxsYG4FEacIp93dCFAfhO hCt0VFaphkivKVWVa0skg6/e2Rr2hwFEgOcHbfqUW3nQMOYCIQIJkOFnVCpBV9wamOwomU2x VBwGk3qGZgkAY8fr6z0QMHy+FXebn8GOFMs1MxDqF/jBD5iz9NHw6uMMbM69nqHOCr8BETiB V3esrWaVjIZ5CPOor/dbD1uhzQ29SqXW2GHjBGacMoVui5KXCCo5NjNE0xy5DrCMYvSG5fs0 VnpzflmVHPW6rmbJ6/2iBacIBaeSYDvREi42fiUAACAASURBVD9CB5HA6hvD+tF1AYqrXvGT 1UcTrEvX78wLql7EOmQEzns1mB4KkUUDRzUhD1PX0Y4nu8Q/ILU7MVUzw1JzZpA8qMQRLLED Z3btugZv5ACwTJC34rk5dvoBWSAOHynPjurkWXK86vKB0VOdOpN8jAsqplFnGrH3kf0gS2Gu Mkb9aBm7B7NTD7rMTp8oIRsR8qzctj6MBhJIV/bDUGHo4F2v5Kos02WtW//+5AhIxFauliRW NAv1Clgnd2+wDOxlx4VXynnoVpHMzOUBZgQyClmrvr4dzLpEFvS2/wgPZpwvd3fsHvjcN/6/ //gXdgTerxf+/uuNWzJfbqS91udPIXORias1XNc4l6JQO+ZKxAoyKYjgroaYA2nt0NHovYCM R8GK+Ih0a83PLGI/DJKZZ5LSWtDdWajjZpLeUmetCfTYi6QG4YUzgD+fW1k4b9mf+ybs2TqZ KGCmH/Ia81tGJUwAuqHuBHmqFNxR/XvdGvMjO7bWliSoeO57qX6ndIhrIKCIExNBAzH1Fewp IxN8v9I5oA4bvzdFh8QJ8AfuhdFz9UbRJIj2vPXZ6095CjPD5Q121d8DFmxOFQRc/Ywx2pk6 qlL0DC7oZ1pnKRw7jygBx8w7PvdEZqC9LhpbBDoMWPdGdmBEIlolWimtk8S9GJua4pMh2fVK Z/KwAv2ICO8f8Gbg+883YMA1Lrze7OxW/GogY/QgT3H6OSjy43Nk/0x46s+cmw/WOrZpWnMH +gXKcALAiiJpn9hGH2SnM5VmUruSiIHm14uEERHU3NFDKWiWbWkcQ39fF2KUtOdNEKdRKInt 6n1e11oT7r6YJ+3/NscHSrPVpK7Zwzpe1fPIhG1g6WIcA1PJWJ4AwuX33ugFw2UmVgby5vhH V/b8+dycI3+/SMPVIHZzA7zhsyfWXvCtiYyqAFrj2HDvVIVQyda8wV/8RjW+tNfD7qQVk2BQ IgjFKnEH8odHQGqEtzcJFfOh9j7Ow4wd1F1Z1coUeqgpmoqfMMeEegYrgR5wK5lmqXKgFJri GGQsVjmn+6iuYtXNfz43eu/wqx1G7pn1U8ZVkqN009WFe5LWGIEmeLxEk+rfUbdn475JCH2/ Lo5RS7f29R5ASlNOnqe/3pf6wXR/M8l+rVntX19vasUAuKWi/PVi8rH14d9fL1zSS2f5xBf/ UpJ2Wqfymd4ozNea/8CRG8LESy85znudpAl4mgdAWb/hushd25Fw8D1L+7w3dvCqEsmgMhYA lA7s5ybvnO7eKJqIJfr1hm/gj2be3u8LORN/PtTG+/V+IVpgR1MzSY0ReSprD8ft832zTa1w Wb3w/PHdemt4v+jzp4yAs2c0hFKnGr2x+eSsgnZsvN7PZSgSxusaZwL5z/cHDmC8L/TRBNhn cggPefDovSi7mRH4/kz8+b4BJJbIjwDw999f+PN941+fb7yugV9fbzQHPivwr99/8LouAiY7 8PlMfKYYLeZqBe6DVh1nrjLtkCUTqLFflk98IEARBEQ4zESq2nDniNO4KNuZSzDneg7ZeNVQ UtqhztcjvNSQ+ejb7KU4K9zcm6FZh6+oNrqEDQXbgiBWfc+WJtHfPMqP4weV6pTMuiiEhRsR PsHWAbppeifBxkZFsHMx6pwyhfUzTxrKbfrPBkt10VIvHJhnIOBzU6j/JUv8zMmRHjU83AfM HJ/PTbfHFyRJYrQnWOczsuRuuIMjxmapjPnpCTMRiufmFHlQI7OBRCx227wZBymSD8zM8flN flkkoc+99xEEhrDw3rpyBYEYVsOPBeoYPOktqtljkhSNyH9ckupkkYChkmm042mKWEHJUzFd qgfhHT//nFl4NZHYxDFyB1KiyIOJbvMfuUcm5qa+PPnzu5pwNNww6sgV8F/l0+lxT2DGPMJ8 12sQJYtALL252qrd2fv+/maMb61hXJ21tkqm4mwfpmbGif+mLlnEPgyXiH3GggrC5a96QezA gMoR1sC9OG3AoTudg9ShF5Gyuk90tUUrliQJGN9f1+CFsAecputf2OmaDzjW/GSeAWTHQcR4 8BIQFE8uQYnTn1NBRTevXI70apw5+DCtVdmBnTdKa798e2yeW42PlxhhILAXc4++oug9LPj9 7edGcoZ8qKvVDy8sMg8efl0X1lz4fO5jGG8MrAzMz4S5Y61vXNfANYamPzmNkhlPzD64h9p9 wOGzn/4wHoUoqxCgcmZOiiNcozY7MFbvI/bLsrP504Ezx5H1DpVkpFrhoIFUhiD8Sg9FsEPt +qNEXdl+NIgm/Wjp7MU+wI7E59+/ebOvjlt8eL+kPWOgPm8I6JlLSpbiEWzKtlb5uObGGDgM INLT6fmaPCmHGYFMx5rsgfSmuS43AwYfgOhZkhwnFYlNB1Ohz8ObBogiesCdLhi0qasWERKa z1OGpJ6agSL6xSxhB5f4fGXy1RPWRTl/apBw7+dgXXBuCCwa4sBTIUIZdyRm7MOpu/o4u1nm XhoWeLqMa28tPuACn9Y0jzc3hQb0mWoCppUxAKfCoPtuSEvcd54cJHIrDDLlf9g5pr0u0ARL ArtCL0NZd0d2xxL2zxn3QvRU8ia7bNka29peSxJaQwn7NS5kIdgiX8cum5CsyJMxqsWOe04m Pe+LEK46as21/ySA7iF0Dtq6JCxaPPaMxNaDL813pB2ItQYBkU+dWtOy/HKhvKBuWWBUXDYR K7PYL4rBmsUPFx7fDeYD2+PpNtrj6muQEuoSQknVo4UXQNAoqhdRxI6q4c0Mf9sXNd3MYZed OpqzdHk6ns07QkqdtQUCmap8ClJ2qlI2O7KsVe6VtHogzxYnhgglclvuIlI6Z1KWgCzGzfDR ug4S7k0iO8w+M3BYMoXERaaSP5zwkZqnoqV2JEKdIEOqsZDM0OimJClOnXMxRRtVjvdeCJA5 GoXxJ2nV7mzLZibXjVQsVuZPBgrbvvdaGFn1u/rhiufzs/HX14uTpOvxNK3ZIWEkikcP4Hpu fQ1A7MVfOtJn70FASaXXIwtC4sO8BQlrYOjqA5+YCIihpB0vmYFhlAp19zPhW/EfdeODAFZr GyU53mvdVURqTRe54c2bUB8iSNfoeH09+HBNTO7YLMvAnWbrx0BdM8cMJnJrsR8emejoaJ6H IpwlPwo8tzEDMyCqsti26ohxMCJhzbHKfetLNikzfO5F0kNKJPCAUFLcEFNmzQlDP8zTQwqF aUsT6VBmGrHeOEnnnFy/VeydDLAPICMj/VpeKQ1rLmwvJSjg8+dDAuh1Ya+txQQOBBs379c4 lPBiGq/F6Vlzx5/vD0rx88/9QXPH++uF3Cyx+Rk41HHPR0qlH8mQVjE7z5dv7wa/ucdlXGJ9 TkKVQ+rGJf3JrJco3NpbuuOOPl5igmz46EeKdK5nId5Sc6H1hmvwkNZmnIaT1jxcpZScerFW izq8k2s/uGDv6QAemVGU+KEQM7nH0dvJBZ6cga58jKZ8I0+Ta0M4QHNcNgrQlFgCBxKraRIR cO3EIceAgn/VmKqNUrEfoQdLwCRgVCViyuMii/rFTzmGXLrn6emvtU4VRsLqUCn5AFvd3aSx xmy2BGwTyRbkNZCbVmhgd4sCFdUhM+y9cF1cQ5GKIeVLezNsUaD4BRPf6yZe3hoMrF+vq5/Q YGZ4XdwLs1cIRKl5tazsiDNdKInNmimvKRmc/nqJ93PxnwEatf5JkCjXD3Wl2Cp+RJJoZPy5 ULlorZPEaI5xhAgS4aHGFbn9sIeNlCBfnbHVz7iTu2NcwiMYI5jF72dzZBrQs+DZfdDPn3OC ehO0boe/d0ai9Rn6nz8fHAE/xbK1A2sa3Bfer47Ppghu740upztLi0zcnw/mXvjaL+xr4Psz aW09AdtknwBnbj2zMnnJeAzW6WcfWqiTp98Jk76dYOJYtZ4jkI106th1o+0IHDFTV0PCcIYC quNWRlsP+0i5qW4vvYjuQ6FDvH5BgizNf8zwRyKb3guU/MyEtObpleKUXPI+zc+bj04plLnW U3EoX/DW1Pxifc/5QJ7P5yZEXN6ZpenTM1hri6OgRhlvOpMxq2Sjd7wul5IEd5qaXEWCy3h8 +YOqvS7YpLXe95LyIkeO9t4kN/ba08LYSjIha/ItFs63PW7XEsjFhMvM0dOVrDz0IXMebvHv iklasT3xLP7pmYeX52aw5AHea5IunAWG2BkrZsgzASQP2PGz7EzUpOnGR0jemuTx7U1m7wZg vXBy0rxooExCt0KHN8mP7B/spf2ody4NY2Rzbd8IDBsoH1LAVQkfQHBsnU81iQCKG+qGUwe2 NgHV38EoxBvOw1iRsEjKiXqHhZ8hhFSC17qku5Q87Ejsz0Qthh2t6UElfv/5/oG4OYAlQIG3 ds0FoKMpLq3JL+zJm9vloSx/zHsV4OOas1vJ5lAA6A4L0q3mvZAXkPsR+itwrVWFkXjirRC3 goQNGjYsvboIwB5PA6e0eDl2lJFEtWb5YOqBQkmh4VkbcunyzL1F7PTTgs2e+Hq//9FyLkZS pIy+lg3lM+zYay9o1ZUsV5ZgTOB9ETrlzrASsuG7VE1+9XFgQhnZU6KMjrnWUWtg5prH7f6P v39p2wHRsRITpIH0M8JcRvWTqYsA0pn8EC9Xo8Jdw30cwDzsWak+ls27N4Ix9ZKG0wzqPxo+ BhyZruLROfwkkz1TLBhm+tUbaK1rFRfOrpd6D54Tp0mzScI0nxIWSI1yUb6l0E2DtOaUtH0d upko7DvP5qjawuGOQz8HgE6xXwO8H1dSYvfe6TJqzXRl6dWg50A8H2DDgyql6s4xOr6kdLGk QJgpD9AMw5kjRJCFWiO1TYe2xKXX8zgonKGUnrhuo9Z6ts71F2aGexly3efnGK/96UKBt3nO JT6/nZn6A9uqzm1Sueid8/a5OPf8s/JJsINX1UwBVGM0rKl+uRXViYpaACjtmRywgICVrVyk ZtKqxdxruCOZG3zuymHq+5WEGkPZXnFCN+x58P3qjs+Hi2qZgdKV22Y9PnfApQRd89UA5Hql jdaCA/Y/26Pqms29UdrtXmCPJD659UHNiEL85PrLhT0D/yITSjmyZDHOGlB5i7k5vpPIs8Ns 78BnzpPokKhI1kvvHREb16j9LMUYUreMVq/PkMeTEQ5Vp03hCdJuq2WDsYVgdjtat6UnZ4ZD vTLlMT/p09WFXOq7s6K5pDSVwE2d/R1x1K1r7UgGvcC9lnbAQOUzw3b//X3jo3XXW4U8O2Gq BzNJYRYXrXytwbRKep224BKq1txhwSUAtfUPeJKKckff9326ZxUChm4DMrFXUrMlEiv2ISmW MsTa82T2hfVXoyOQVMTQA0Ak5UjlyR5SjBoh4vE3eZMoEQD9DJqrquDO+PI6veEx6vYMPC6h bllIjKqXI+pvHKw4u9SzOmysCJYloE3NFd/nWnAfh0Fb68zqDzV0DClomR1KaQQo5AKSH6nE BVaMVcCdfaQnwQJ2asGdPQ2Yq11CzTbmYg1a4H9KCuSlfa5bKo4FXHw+SzGm6SBweOvV8uRK DiZuvePg7jwYJS1B3fOKmfXwWms4/Wo9qIhEtGe8qcgQbn4OvCqE2shA2LXyAHkVJYkQJlAO 7izamVLGXPqOaKd0PK3SrHFinN7A4VJu8vr2Dipn7iYJFnoiAxkzNU2EU5bmg4hKdJBk0aBM O2pqVVIdxy2Z0KsdmAk0/zGS5OrnqsbtDqzAD6IesA9yVpx1GYKs0WDYthGt5t0Nj2z20/Xr rbGF6RzlXShyBpfhvV6qDDRilD/KvqHGR+xEbwavikQrQHbG0b+51IWKrWU4VbJ1UwJasqak TFp7SrVao8n989R4vT9TAkPjaQWLo/5kjc8/Pircj7ByeVkX2heWx1OaQIWiqiOhy8ECpTZU NnfsKcXKq6GFYnrVtJycCMGKfqhDXRyvQM17tRPXGXup3IQgLGimW/hDPuw2oIcSPeAkFa/X ha/XILQLxrm9EpFk5VzD8RGLpqAFhougoI7cY7FMnsOC2poPauhNN8rAUajNkaAtLnmI8Ml6 Hk9SZyU+SCQOhqOLv3ccN+tuCGfD6v0a6KVpp575oX/tesiM30ODlWcW7zB78GxbFHDEThkJ oBDkDMVw6BntYDLXnLJsKxbQivsLeR2odVmzfA4MsU/cG67RzpKcjUSDnwVwZaUEb7iSAiCU O5dkrkQoWB4Ka0V74u2und/1pdam+L43x1wNP8eSL8lzAfyin+95IM6f40tHt94Dv39/YNV1 U35xXXooo519rNWQcE3JuIz65zLbIk+e723s92MC5nES0UrmSG5gts0QYHpVudt7MjTSH1PY 7wcyGTuYU4BQsCnmr129Bo4eM8mVbIsTPucqj597b+fZNUMlCvcjDWow6Ys+pRc7ayGu1z40 5VTpdObEgSONYcjDsCmvVjGy/6jpCduyOkgZoDd6i1q6U1sf+mhqobJte88tKU51Cs1Qi/Gs cVYdyDOgvxe/3zXoIt2MNXJoKsdTEC3vPN2ynf00ZehrPQsRdgBzzjOw4TDYVgEVfJhbwMqu RosMvgllBIjlV1lYRMqSV6lFuzsSW/y6EijuSc9T0NLBLLw4BDWf96NkKz4562/po4iAGAL0 mze065/wXvXfR/9v6zes1BtNDNHQlAjLCBgnLygzQqoutxHuE//eF3e1fdY8mPjaGyukW27P LvAKFVWyFVRLlwf8/dcX2T7u+OSk+8vEnJW0MeHaEWSj8CtyikfDiztp9M04xz+1IM9Vh5MD x6RyI5FrYRiX5hQnbt5KmCW4TAWt/nglIZlk5vAs5j2ZqeuCrE0ewIMlGQcqXNO8qfCcP9S3 Rxdx5RlQ7WYlO2U/rJdsykJzqiX3iMkn0MrVMcbeN62vFuLBGEf3En4dqfm0IFCjDxHxiArt XfrlfGDdG0J7QwtQmtqFdiQ9IRkSFBTJaZLwGoWKk6ASqeLmpVJfLliVpE3FTnNBmDh0LRp2 iSvamd3LBK6rbjCe4Qx94NQDfb34YO658Of7g/f7wvs12DAZHKrcmVxsqO2MX19vvEbH902G 8WsMYAx5WIazf/3+RiYFi96XRpcgFc69cLnh9bpQEqIA0Hek1knFqePqxraUcrHiCVExAIUC HWw7ELHOi1YMCu0HrSTQXXJjEYhOwl79gntlqWSmrojDTCl1pJpMcavJzY6SF9v4oV8n4YLW tUd2c/UXkotwiNMnMqTsoOELNf9Uyz/7VXp/6FbVcm0/2Ck7cBr1VUJNiSo3s4PEmdDCkDvm /lNn1SAD/VTTqne8Ls6ihTD3MtR/rjXtJ/cwGXWIWVPqz8cT/OOhx1KzIg/zlKDEz20H0qIJ NQqMHGxA+mjup2ZeW24q2VX6fCiMU0t4ISOo3S1LSVLrvBqVrbq2EZRMWW1kgsXBvs+QYJJf lgD6BmyUJ+AgAOW3yHFfEQi5P7p7KkSk/kP5LqKRo4lKVYxcqWVCB5gg3r0z/kGm2JsunVNA CXSghQiUroFDJboHTNKlqgw+NhUvhmjm1QNhniNeoT9jTrVHPY1yK1dz/Md//Ouwe2ooszPl YOwFAE99OStrkQbp6R0lxDhnObYnHBwvMtOyHHA+zL2fpKd1V7tVq57BxNHdgRAnrdQP1TQp 2HSbiB1VCSixaq6kTdh7lWgBINfCVvlpxthWMd8DZHUKkIlM5ElZuNmIO1nojkNw7TU67LQ2 2XShKkacKiC6mihqDplCwFqBmZQoeV0XjScYWte9WbG4430NtHc7MwSRHB4tRHKLYdRCGMNF QmpRtWpiiMrQBGjObnX96RQcUJBXHcvtBnGmMEq9oUDjU64pdpgCKjP5dtAhc4gb3892w7UI rzYdjrvBOpOXj3aYsEnArLePfqZaWnc0hPh2G6gGStXBBhg4Dl1yJHtP7nqDaRBK24WN1cKc ynB34KAbChEXEs0urKBu7O8/H1wXO4cNUt7aBb/WnnMil5E06hl1G3EQPJ6PIWD49bp0q/Ng 7GNQTvWDiUJxqXU3eaHQTkL9Gg0RTjGEWZsfJPzkhi/F8wrZANCrDehCmpi0GdKBtIIideuJ TKB2sWWE9NUT99poypLTitpreL/GGXxEUjHy9eLv7M0k7bou9MENDSX9CQB7avJEsba1hqtx dcZUTC23+CBfOHKeho3Whob6pcAMoI8HI68pl59OjJqv7I2Py3BZA9WyiQtcg0nsfa+jeZNg V6smZeg5ycEfPjCaIyFFzSyJls15fge+3hcHM7oL3+fGaheatSMeuRcZjoGcxQSQmyDSu40T Di35enFz5YrJoPsZ9FeZRtdusKQODQNY6obbeeBcGUE6sgfRu53sO9euUzPg16+/ydb8kD36 1y+u2fr+LLJwzA89t3WHK+4BgPV+SIU/958dSTB79HBKtK+2JJk5fHOWjHkHGzAFn0Ka7VVe hsIKVOtnSrdVTZfaAk3MOw+vvD5r5RxQP8CyiRJNDZk+SAC9P/cpRadq8evqFBO8qMt331s3 XmCUZMEru1raKwd3fO77TLaM0XA1Q/N+Slq6dfLpaqFAD+1EMbE1jwE4gfpEyXXlyUQLdCj1 ooq/paQ4C23qHf/z//2XRpuJnR9pL3f89fWF7/t+2CQKGdxuyBVdnrRU7jqfQEnWaxiiNT91 frJHdMga24SdA+qRO3Ys3B9SjV/XJZf61OYGJno7Am/r2CvwLfDo/aIO7Z8/H+xIvEaVmXFo VmbGw9VnmLd07jabUj8HGXtr+MylliqnWgu7v66BX/2FKTF/zgMJ7FnMf0YTVR0b+yMdPxfd Wh6S7dx1SCkAYP/7//l/p+tDIB/gIRK6mW80d0w1VIYmJarsqAOr3+tqmFDNmRZLEgaflaE6 TbyltYOcuutSttBUSFfmXFSfeo9Cs0z1vRlOglgARALPdsfUpIo7lR+UFN1zakOSi2Pezu73 6tKt2Ojm2gQZZ7okgLPU9xHdVagUixbySNzpwu98z4m9OQLeJZ/C4iPOPF3d0KbqpPenP/9o 5/A8mzOJTjzbG2t99teLOvGklO8fJIoxcNo9p6EiLrpwb3OgZ20qYqwot0+QonhyxHzlEJDz Wa19lsa1MgL+i9KVOVDpKc+YJ2BtvC4ieFyzzX0moz3COc2ecaKa4lhrU99GYsCRRVTgzR8S 362dspU41ioul8LDpbVZmXbm7QqyLrJmCfP/o7ttdnKgllpiIETOGmP95yP8QIVRCRC3M1lr MBlFeazRSBWv51DCzJah3TE147cwY50JoIhiEwB9x7Np2O2nlbLkuCXrVXXq0i0s/thpMIDl D0X9peselOswqyRLvfmThAHDHWaBlSXM63gNftC5VMo0w/AulegfOnCFPvEEDgGCvH2eZREL Y2t7QlBTtcSND+8u8/xerfvcVqQPAj0lNbrEcq1GDzl/TFJry/GJ8/GD1ZcS/gUf2gouGDiD iwqVrrn1pQUIod8zxw8JtYKTH2IL+xpl+P4MgApBhNjC/fNZGFfDSGaERayD8OTv7xvmhtfQ +M5+kJ3KKMsNLcW32qvS1Gxp4qnxc5GF8wnNaktGY0tZ0pvBWkeLxARXbsx7ARfwpVWX9yK4 ctShVXK17ug7jxhubVwoTtlpUvSGUo++Y50mUQFSXHnl6MlBgdzBaVR75t7LW5hT2XneC9sD r0zY6E+eoJ8vXLxKkQZDuy683/08lCPS1CgpvsV/d82sQfy4tdbxiJeWFZcooZ79UayoVeJX UYUA7mVraoPtXZKSz3+LUVM6ZW7AfgyZsUIMlZLDGsYS8DW0wtNrDms/zZWVdEFmyJ4oeW2q KE/F+4Vf7xffo7B2Zdc7E555yB61DAAdkgkJWAD3fet7kbBxjS7UTA2M039Wh0uJJjRcGclQ QWmuPC3Va3Dvuq7daULdwhpqBMudwEoKq7fCRWDoo9QkU3PpWxWJjLCwEdfsnUtfz41KVyH2 LVEnfvZN497CMr567b17Xre/tFW4RGx+qiyemfJUfzdw2ClmtPRiwyaEy0ftY+EHhQ4jduBe lb2SldL6QMlp06jaA4Ua+ffeHG/VxWsG/ux5kMKzkFc1fOHRIZClkh0uC2wYQtVgz0ZCyE3j B7NlJw3myHlHHtoxX88RpxvGmP71upiFn1k2ihqVYJDpc5iIFGyAVCuYjJ2irnUpUe3Ig4OU Fi+AA/bsSOzvqUXENYf4jDkddYtIwrb6vl1YzKOo8N8Jd2KWVlbJzPXHP8c+Y0CAtvtWEpNV U0LQqwh7GgsuUfyy9nEV+GB0trrFqfxgSiaLDB41cVptGE6U9yzCotdsnDuTTwik2fsoXboz cUXa0bcDiEFx+oTt3Ou6jrHXORU/oIQKOxy9cXkedGli78MB5DpPlk57LpEoqm/Pz8zp4UdE qaoqUpp5IS5JstRIFaeAGwAt0TV5bz3GgloqJPQlqLN3rrquldMAjvx2eYJMMk43nGCB3EhY nlKqa8wZlcGnAS1gzl2qnMmma133OoJ27o6Xjx/TMlBniJAiHyYtOE+54odwcU/uPCHGgDPH boI89+ZtnVtctyBTBymiJgKxVN4J+dp7YbSObFn4FEp8qIYZK68grmMw64BUMWvok+xaDR2K pYogmrY2pcWvPjjVm1V+LgSa1ns1Ttv4Ool06w0vSCrMpIAlAmQ1dSqvgOEwcgBw7eY9Jz73 wuvqeI+OewbueWPkeOprZYKhjLI3Snu8rlo6/0C1lYxuGVHx5bpxRnuuJ0kxB7FksFbdi67O zPH1HgAa5T7Ww/+u9ufagSwXLU/BpTeBey9cMNxr4f2+cA0mZf/+/c142pukw/yEJ+rq8Pfn 2qdBVG3aok4dKrEQu10ASGdfvIT7ugYVrLxXFkeem6jeGEcA8B/Cxt3huGgYOcX+lcqWGVYG YlLtq6sKmWsph1BVpfplbnrGBM7n75yjEvd8b/jkh6YVPtJY7BW7lJbpR02gBwTyL7mfKiEy k50iUYvt1uSIDCNaMFGbW3PtQervLjOmcgAAGQ5JREFU3miNlcRaXG7Hubg8ZZFHUGkJeZbh ORrME9h04VteYN4TluOQMW9N1gKG+661ZFy0E8mR31vG+devt0CXSvgMJf439+agItRlW3xP b473m5M95xZWuNNyvpJMn4tbLjJrZblyC3uGP6okpIHSAKBLc1280fcKhHKbTJwV6LEDH+2Y Ly/a596qbwkATNQedJZbJWRTpVkiD65bhtJ7Z9z06m75mSnjqqh2AJPMgBddSBGH4EGixpPg zMB/f9/aXhSAHvgY7R/1dY0gA0Ww4HfJRhf9GgPfN7dBXWM8ZY0OYUiDfUq9gcxaw6/3+0h1 1QxZ7MCaz4B/zaIxl+W41nTDr6+XtiRyWQETYqk7R5ytD79+vanpk1shBuQreHU9A806IrkW pLBzCYaga51XuW/TSFbRrULDIkCNSqE8FJOhYQa3ODexDcGQXnva+Ijm5EpOa4arNdw70JNa MOj9uO+ueDtM2nG6+Xz4i4bhDtwb9z2x98brdWFcHSOBjxGDfgu8SIiNKjeZznCQadjKsKEh S/bzgTY6rk4acOm0lMBPrco+c99z41MlmVN54zUGu2Cm9mYNayh7TlGQoRhbZVv1MIv0uNSp JOOnQB6GhBIz5qKFBNRQYtFEAwSIkXiTILHyp5paaQdXf3r7iarhyUn0SoQg+RE2JPxgyrH2 sQoO/f+wbsNpyps72x9CxnozIBs+c8oYmuS3RZiUcuR93yIiNlwCSqqLVwnW+zU4i9ak1Gw4 6FfsBJx95bWe+Wt6H6k84mHckltWq8TAWJDUsvv+88EYpCa1xh1ukYnv7xu/vz94XxcTtlSC ZI/kSkbic89zTu/XONUGBQikSKHQCGcH7OsoegHZtRe2P6tDfnYPe3d4EytGZM/ydJxVa6f+ 3ltbmoLDp2NQS6d3R0s7lUn/zIWebLtxS0Bo7JXuYTQ+RE6HOl6DD4PPuqDAG7jt8LRqDXUg 4W/tfwFvXtcaiq11IDDg9Ron2QipQY9OYKfmxCqTp1KiWLHVFzANYKhVWveErvBp0EChqQmo 2EHsAKqf60/x7tYO3GDHawy2Kz/3xL51uxo/X/HcX1fXlMvWYp9Aezfp7vmhR8Gpf58gruJq 73K2vRqohtBnDlUeAMSdoyzLPSfcqe5lpiFFXIieR1MfhtOTuFUKdoruARuO0HqLuiNLyNaS uFDRqMzp7pYUkVIQIMX2XTvC1JkSSkcC3VPLl4JC4cpdO97WTEDdOVd3rUCRevCRQdcK5iPw pw5mw0EAiEoz709Hby4OXDbRlWrCpG5sCp1rw3FF4vszMbrEeHfg833j87kxxsDXrxe1coSi /fmeKh8nty+54qvKjZqTM0GHh7otGDtjHcIIIE5baopI+UPlLekmhWliIJWMjkZW7VxMZkPn VvkEAPSi/2Qm5jfboePqcBhXVMv1c5EeP3z1kItb/XoNwIDP9405J17G2FzUHa9GdZUkZshG yTJL3u6ZWumpEgb6/9V6dH0Ob078X/mBocM9FSMVljTDtjb7yE3yJa4RUSJuT6+XHSyRMxt5 cJbUv7+ujrk37n9N0bKcfEDRo16DXmrOhe97nu/ozs3Pt/rlTQjZUvjYWdBvO1Spey3sRSUO l/RJQbE0VA5L1vZlq+pkbiQ4JbTGI5bYesdaE1Prvw4MW7u4zUwCAeKteYn7sOnfztwUs/Ze zQaNJPXW0H994Z7zzJI3NfmBpMITTGL2htHZL+awAAmI+f8Xd227jhw5Mpg3SW3P//+ou1uq zCT3IYJZ6hnMAvu0BzBg2G0fqS4kMxgXd7weok05e2jXpJ9wqAVQGitRrZXlVpqy8WoHqEn0 L7V48xJn7Pn4A16tEejCHChMCJQQfLzJ1/PFI2Ood4/nA3uTPrUumhq0XmUgMP9wy1pOsmm4 uHStYl9TJXsKNNGpaKsfVyBroQlhzOCi7SmN5mfPjJZwXuN/fv5GBH3vSzWM4Ms31zqwdsve w4C9RpWHiV9VhRQJbZrT8dkXsKH+bWf4+1zUn43HOKvFROwigLBAMREvNP2ipCUpuWtEgkwY PnCtjSFRveDx8+CxxN+ChdBbbMUExOTxLR0WA0UIWlKJ0+Cg90a/Nw1hXWfjvdJrppye7puA CdtUpcbe/ezCk51CC+7FlAWI1SMtW8qaDDjlPo9UrTc8emf7Cfbp9IyB80WxquSG41xt6I9G uZgxPjyTtobEEdtTvROkQKfmKS+qL5ndBagP0zkeEJ7soLghAs8xYHA6VngcyQ7JC7ghVBfb pdg5g6bWvRiO+8Pezt4fpG5tZ188Ibjx1ZuS2ABh1kh2iMAfD4S49bQj8wNjpg3J5zP/QMW4 cTQUi1MlauFq89iuOGnSo9WDKXCFfMu9U2hIihVOSeeKNc7Qur9SpICkGugaRwBLNmNO6nOr Ny6QcSTqUiSdDt0rzVzEJohpzPTozzIL2KElLd0wE0F+TydyUPipup6++VnwQSgQ6jXXWqfk 9laPd7sVg7dAB4eR0KDCvO9Om4wV+EymPT1GQ68Nay+tE4FuvMgc6Nib6U2r86n6f9WRZrlj Xwujk1J1TerY+2h49IHaTCxXDWbPgVJMcZz0qEvq0WlpQuOq9vGP8cLns7Q/UN8UduDu5MB9 MXIMaUUKRPq8A5Ra6HrnHOMRskpXN9ZgjZzWBZq9PxNrO2rhw1vH0MlkIU0mTOeCMKC534zR ZFmm93h+wMxEMUiS3AjEUNQP9GooyL54e8CeYNl6DxGJQ0eQgrWQq0c7XmoAeBwD4JPlp9eK x2PAEJhTK8uQwWAUmuzk71ALqQgsyPYLgBmh19E6HoPcuNfLMZe2eyqpqbypX2QR4gd2JudM i/i7v2A2j5ZcX5JD52HeEphptWlRQzLHtK0sGlp/wXQsdcGuULpDiYPLhzuiJIdOqOIqp88H 5JYRxCrmtdQCcNhM7XNdsPpkPygFowO5QmIJksigDpZ2DRwFt0dphInc2BDm/LPikDXhz0dq W5xhsOrL6X6Ux70MrmFJxCFGGgAX45UDOm9kukNnfEhAAJJxkfN6ltu1upDHbgZ8hCzWL837 mvdqNXfueaFWrJOR6tAmTLvzvbcO3FCJFoW8OkbnShYmr1m1GlbxIB3aDK2F7MorLJ0ApM4J LagqS/MXvQoH6m1BqVmmLBJKJwMn7d24dQu0CFJqUUN/kCnFGce89karDW1wpXnNKZsRuSdV CRuKHeSpFkN4OSBKq4YVjN2ak96ppGTRtSGZrk1lnVAiF0GlGODcXV+X2LCFbz7MMJ0qkHyS oV6JlOXKXSrTDGHl+KdvUcKqMIWUS2cAYbpLmdqF4wsL4JEFv36/KXnSOjY0bcMMbZYj3IDf urXtGWDAfTv7c0N5ED5GKYgdh2GzNP/UfnsBZAKEKSyBEG3o/y23y1oxAMyNw2HYKGh93NTn VlS6FsGKZG5UGfHslEiovaPyl08sHatUukRWWHOf1nFEFFrEnLKv8+OS1RarAvtxLkNMNy/M gJV7er75yRpN2XI6HqdZ/t6mYZKzR/bkViter8pwWvC0knkn6YtT5WvbSoJVokKhoA4OfJxJ KFbIVpCnBrTKZAUNZkXlO2AY4g8+noOMmdP6ikgpG764JKLIQxwBTWkcUR0leCTme+hsJTI3 SMsWExGGJBJHYzBNiOnBcskFhUpdp5Q00ax93iImBLz9QkCW1xqi0k8lgYPtjl7aWcMC9JEd XRi030qRa67zhkXoi6rX8ghTNYWLT6bhs+bGTL3WEBh94P35HG15Bt1SQ29AyO9dLQiW6hqt fyPwmTyepWHyVqUJY6QnANmeQo5SekBU/t+fi7NHq7BWDnZgZvAZJ0rkMxfX0CNhamrrrskM ODsesVpYAXj0hmtRTBHa+78/EyMC17qHxtfrQR18beTbp3XWISd8HaVej3Hckwj+ZxIBzs0b ox/zoYB4cR4AbpuM3HfTRos9OcC3EY7byEBvk2tXXiBlqGs/vr987mDi4bE9rc8GHvySQ3NC aQX7CqA4elRUrSLDAx8xgZIP5/m98EVZxn0Uqq3eNh9GAqJ74Pl6cADbUstGYOmcjAI8nw/9 PzQk+s0YLln9CqHpvRLl5FuZxguJYO/ww+/HTumYfGkjEFCAj/B6d8frMbDmxvt9YTfarbe9 A8uXOFo3pYa5IO1+y1R601Y6j3eJCBnulaAJSauhAFj1xebpYyM1rBUu/r/UHPeYKj/aUc5b fiZT7dDIOFWpj6/PUOwob+nrAma1BIuUr5v0+aj9fojsfqRyKMwqkKaEuaUzGHozjE7FaFqj AMp7QaBZPWKKRAGzzFop6DquERBqKNiMQEHIEr0cillP9Y2gb8q5bi6db6c1XOef3UUlX9eG 7pR8GehB7yY2RpoCDp1NodQFeZXpgprZoTg5NFwBzEH1JFfSKaImxankAkFI08h1KgQk3P6p vbXz9qTe2vTPk/KTRI5a5BFn95HEc1O4N17PQXGCy1/G+fm7bE8ZTGSHOHl25cH3vLeMAJ1H ug1oaq40/Z3rIq4hUKiVenrwNRdKGIczVa7Ue9TC2NETEKRhMn8v3bcmfG34IFw91f4YfcZN ZeQmUq2m9YoukwXfAWygCjSrtaIxT40fdoa2NZas0XVKLh0IC5G1miqOe7C4i2EORvq786DI WSJJ/5AovxT5n97HklJucsL7fZ3VZau3eoRWZTj+c4cdivx7LlJ47q8IJ8XYKtk0tZUzQd8/ AU8Rtx6erYcyB8qzbdMbmddne8Zu3MiciglLfhoulDQp2FTQaJayKgCqVmQAQDJb//n5Rvx0 9N51f5LFsw7mYXrjS1TsHWhVNuHwQwVfWw/YdW0uB+QLvlYGyNtZaWZcpbtj7kCxzWkdOFJa qkI5gIR6sglV4vMNBsf5HcSz9j6yqfiCWMMvQrUqpfc9SQ5O3ulzf7DnOqKFmp/FN37++iC9 XnHKuB3ULK23sqSbpn+OG1zUHPEigL0ETmrgu0QBAxJ7CBRxBgJxNpj0zmc12O7aCAb6aJro 42wDz7UPwrihP5/SplTnDiUmA7jh4Eox6Wh+OHjJ4NlOjKS9XkPTbaGVoChI2bs+n+smI4Ix nAQwOlBu66oGrgOPYqTeVuAWPOPOA2a4FiFUwjYREqxUzLVJ5APJBb3fQyJXqUTVjhDjHEWk sEGg1I6M7f58ruPVzrekwJdjFs+X++s9j3MeR9wlE05ptX3NHWNwH35Nfh4TgXSvLaJEmgYz x/ZOfSwoAdSSeweDFb5QGw6TP0y+5RGB1+uB4bcdKreNtErlDY1TZ2spbAegAujznhiPLgaU 4OPRlZ2qpUPR2TihdldJGo3/LlRGxhgoBqky4sCQx+zH4ggR0nQQQaYtj2hNKBXtxkurd574 +tqeqVckFJq0KLm08m1SXMauqeUii/Tx0EvNmn9oRp+lY5h21revzl1xoJuTIs3Xk9Xw1+/r tLtTaRCQZEImvgFvPKZube542mByojegtEGkUBSoOUM+AbhvYFXf7gn1/aek/FbOFqDSvj2t 0Gsx3nAhjhOLcLAVw6gMVE9Pt9oqQiRAtldx10UuDBAIaIOifZM92NZiYDQuAnJdaMUYuLMn Sqlnt848MsZCMz6DiUQ9XJJn0bJlJ5IpDolQ5UVwMWNrKXKpkqFw47k97T23b2zD2Xx9rkXh RW7OKjXv4HN2RAq9GD1ql58b8fPnm9ajiKMUNRh+CBTJXt56w5qySHO6WtbC779XCPFk2lME 0cS1Mk2KPvVrs1Sj3MBRsYL3+4PWu1i9BSYmTb5s29leko6TAFLjEFHQLWjuj7TfkD69tHPM 4qKg8qhRmBq0w0GP/1wpBl0VDzYtQ/33BwGgN4dpArbNnbm/Hb1X/Hg9j3K0FByNOPiisjRr C0jtfAE96u9+uqsj0JRZhnP0yj7+vc9urTBq2/3QvCwdpzwVKYSPkxf3kNkvJ2jGbEWAswno n1MgmphWrHTmWKft0Syw3mdqd5iu30pZtSXtKwBs2LrxjWQnj9HPbBABpOAs2bLJred44Oc4 3EK9gtOuDPtUEg04yUpZovM8G9sx9yJG31yh9a7yHzAhR3NxlVkry84tW+IEDJAdO+ftMM2E 5IquYpcxoAWZfkAeeA6XnLq1Er6AVTceT5r7HBmQJUZA4WBWr9tw0O6KIJAq3NFbPzq5kz4J HNlQlgWSRQK9OTagXg+ELno+aCmAALjM6lXwsvbjxwtOb2etlQ+06TSx4rZMLwUIZddqMncB QEnPer8veQ+UY5rQ6NkamM5wmIh0dE63iDh0ZxTjjfzar7s7ihes4ghlfYc+4JIBbysV9kjb EQEGZrDCaEkqOYkFsHRvDW8Tj67tngffwOANrOrjOX0nNLyFdrk7VuTJoxxGKqCKod9zgyeJ 4QMIeboLVCk6Q2+P47PKuaWcPftzGLbriKtTUEtBZi3nvF/EsNmiSAPiA65NuVIudL6m+BDo VaxgQ0pZZcARydSZxnj64MNVdJLZh/qWAUaNZ13dMP3LPup5AtfaMJ13k2C/Lpa9UTtMm9DD pS8y8FMv52R+m+T7vpMWng/g9ejovZI9qgoynh1dESHMLEn6M1AB1Jo8Nz8DWCuG/hx/rB2B QItMmdKlkalecfLzUk5tIMwZW/tto18Ez/r3Bc8zuZnBGjAqeypty6mESXw+4VeVA94kHYeT 1ZqDLWFmAU6JhpZCsYWqWgJjyeYpOaTGzaBxY2VLxOSvH8+jFchb1OaanCpbxbCuD0PAZa11 rCqT153Ox1bKcUBIrVoR3cgNKMHSWAxH+kyxAntbaEhaLiTMElgBHq2ji0P++3OdpzRbTg5N yx1JpS5maACOp5sTuXmOcapL5qFQE0y27VDNS617QIkP7prKAbr7izjUKoa1fK0AgwQXOH9Z EHHjFB9f1uGG6uV+0AodKRJcshMzkt6vhSa/aj/J1/d109Rb1c0XB8J3ObjB3o5LX573SDed 1t536hFLKDdsl5KJEwenQ1E9N9F9CxES/KiN2CWVKgGffcx9SjU0kC2T4TYH/cs1aeHRBvoM 86LOq3Vyw9aWw9OXi1SEw1HkODHPkdMAPNWTU0aUFYkijYXSVNp1sfNeOgK+QjciUyPKsfM4 njoJtADnXA0j7Jmc/a2X4kSgHRs3wd75zx1naIbe1PG4DZaWb0HKzrCForQoYSiMKAWAmwL+ /lxncaNLhtY6GbC1FSAMl2Qx+YtrqRgPO30sp+kwYAP46/WAydkxP/zeXMG2QvuukKthHhlI XABqkB0ynaWtdLklR2CJEPh8dMGzxO5jBlMZe79TF0xRneHYIThSurGttyzPw0UtJ4+n69po gyqZUu8hCwtw4/xSG46Y0dcdq8G3tQCp6wfODem90VbF5RtnBePBHn8tSY19I5TdXpu0auK0 uQY7iOSSjJ6zex+sau/PhRFdUmg+sZn7NueWrTtHnuP3noMK8eB1c+SQxAduyRoqmR7gGboU KVZLQXtWbG9f/K44ZAazO4YziQ2cgg19dFloFazC+BAzyFCQL/zaW15v3FKN0YCoB56lotWO 96yrvBKupKLk85lovbJU8gCNWgv+9ddLQEs5M0u6WiGYO9u73ToAqBUEkJ5xMA6+c7NtDRkK vq8Lz8648XSYuD4bsDjyJhJEpUQJO2KM82N88Ftr8DmxFgdfBxRXtsS6cWwURPC77D2xnZWW Jg6hFkRf+Ab1Yoa/lZP7aWZAA379eiNgeI6OHy/502weoXprmFqvkrFBPho3W1xDjt6x3PG5 LtpqqH/13o4FGBkl9VyAtcQ+qVUkjIlSWAVyoAlAzhk0AM5dflOPpJiBNzzc4avgMpHzjHkw dKa+o6bvNTFgAlyotsFZ7d43hOeLpCndAbw8G9syiT6kPPE7K5UmyBVJ1fr+4cvq58EKD9TB YTizUoeSGfd2/HjWu20IuAkDmjjxQ7NRplp5BNrRm3ncv+isNUgR5maoI2BnAtf3wz8/P0xm GEPrwXs1ec2J61qMw6wVr78HrNBI9/f7g9+/3/jXXz/0sN1GOk0K2oy7zCm9amWb/jD87Avu fPlPAoXGO1aJCpNcOtz/eGOLGX69uRYN50KklYbxaOcz/H7P899y0PyTlpVn7HTQsnPk4m7h fbHKGChcyKp1yZzgjANSESUUXo1PwJxTDxQzbDLggBoYnGx3mgmlPsHg8eWrX5R1F3TKaK0y T+wT9+RY9MQBnLwZvUV/E97EzAeX6Q2UX7J5Nkfhcai2W7vF3LaNVuiW1GqFtXaMhi5tkRiO x3bzueZhjtZqiNIQKzPMIOyfAE+DpLqTTs25j+6SAKeKs6u30ekq0TDh7pCrxLbj6JyAk6qt 5F12lL2Y+5Yag7NPtrcdZK6krGjNtEZrZLDkUkWo3A6RIXc+VI7nGLgkGMnvkpQ1VhnOBZ59 BzJ6Eh9zTlcqpqGOhj4q2nXNw+cCcMCKEPr/EB2q1YqyHdYlaBTm/fv3BwDguP1eSgHQuibW Aiz6nu/tiJG4ttCm+Lc+9n/8eTzYp2lODOQqvgkBzDzT//aTkaEu9Qki1a4UMNr/+l////+8 5+IxWQNgWp9mHk86W33//A/1qtcVqFJXYwAAAABJRU5ErkJggg==" />
    <image
       id="FlashAICB_Patterns_New_Pattern_Swatch_77"
       x="0"
       y="0"
       width="125"
       height="125"
       xlink:href="data:image/png;base64,iVBORw0KGgoAAAANSUhEUgAAAH0AAAB9CAYAAACPgGwlAAAgAElEQVR4nGy9UZIkOY4sqABp 5llzn73mXuYd7Yl0ZbiRwH6oArToWReZ6crMCHdzEgQUCgVo/8//+39yXgMRgcyEu2OtwF4P zB3uA8MNPhxuQCSw98bzbCA25n0DCSQAN8cchhWB7/cBYLjvCYdj58begTEcEcBeC2aG+3Mh dyItARjcDQa+EkBmYK2NOQfGGFhrYz18tjEGAIMZkFmfD6yVePbCGI69N8YY2HsDAD7XDR/A 3okdAXfH9/vgc90wA3YGLA1pCTfHjg1LwIbz33fgeRYMCfOBzMQYA24OcyAzAQBuBjPHsxZi bdgY+n1+l3sOAMB3bSABg8HMEAhEAGMYruFYi2tT7ztswAZ6HVK/N8eAOVcuM2HJv/95vphz YphrjYG59oI54O5wdz6wG0L/HbFhNmCZCG2HmWEMw8ZAJl6bFNjpyEzMOTEHDWZHYH83AsnN c0MOvr/BAAOSW4wMPmzy6WEuQzCDI0HbqL8DMhKZwA4AIxBwwAxj8Ptkhr5HwjKxZ8CTTzzc YdCCjXqvRJldJr8r16e+5XkZgHlNIGicGfp5M/6rJd9Jz1ovPi8/554D8X7TcEQEN1vPblpz /iFl6IaEwWEYrw2v/TFwDeecMAMCfD4AcGRirS3rRG/6dU2MQUvee7cnqDd1d8xBDwE7X+pY pGMOb4ugpRv/3Xg6rmvCHIBDx5pfKi37f7nZfr60oze0jIOfGICMwoyuJyJgkHFpH4DEDj5n ZMAM9GJ6n73r/WjEZ6Py9f0Bc8ecA9cYsGH63TinzPlIO3B+R18hIoA0JBJr0yBz0+i4/vy/ 358pY0rrnzMz+BxwH/B+c3kZLb27IVOeQf83zR3Z3zKxd8IMmG5YoN9M2PkZAJa1ggkzh9PZ AZZwM6TcIy02YMNwjYF0x87AWgtzDkx3bJ2u7IUxvfPrpI06PRUCHGa1Tfy9MgIzgyWwFz3L PSfMDXNOGbYjATxr0TXfgyfVuBkRG5hcXFgig1tvco170/3Pa2DO463qGRjqEgjo9AUQ9Fh0 QvX8AMzx/fnhR+nv369Mbr4lvWGELCi5LzRwHVY34EnAK7QAC4ncib22DgUNY9JVKCgbHzIT dJP4fYqRgFsi3ICd2LExfeoB+Xs+6HoDQGTiWQsDA3M4hhti833KxcVOBGggY9DdugH8ftEW zT+Z/j8NI5Lu03RqMhIxZAhj8Nj6OWmAwdyQcd43Qic+BjZdgDYSNF4kInafuHqzcqFLR3nY QBhPeiDh6TDQK8EBGxUaXUbNNXfF9ogg7sg+T0gk5rxhaYgM7IeG7DB+v4rhMjLZRn/XCpqK MbgGP2tmbJgrJhgEXgieMrkRgP+KSb9ecrFrb2QkHBfGxVjj+ry1FswmbEwMG8jJtV2b7jXk FpGvh7akK6vFDgjkBAGcAbn1AQbEEhAd9DzDHWPo9yMRCAAOd4WfMRTzk6fXCbxgQVsbijrl 4TPbP5vRJW8cMGjGjebGo2Pv8IHQm2TFfnmbzCA2SR6UFYnE5qkX4OX+lcfhaUnnwaC3O+Go LCbKFHQo5hzCbDrpkYlLXz4KVAmhj8GHbksaKQ9QYG4gEXrDgR0LOxNYyZgGw7gG4lm9EIxT J8a5wstemws4HEi6bkvFuY6FDD/ujPVbIHMMgrKob6+9qzgLLfAYOr16hvoeCBrYMCCdJxMB 2DRgH5xi5ph+FnrnpleM6LBiAm32ir0RB3kgEjbOmdk7MQZ/bxiAHHoPw6ifSzs7q3V/A8t+ vgoDi0Ze2ZI7D0K95ttyU8Am5IOHT7lDEFwJWJRrcweeZ2O4K77R1e8I5C4vASFMgqVvBGI/ mPPCbNd23F3uRMpFw7XpzvhK9xtAjE5jMjfmvBhWQCwSYOq11+bPG32OmbdLX2shwvH5XETX DiAdQ7E7+fFYe/EBlRGMlzvmWtQhSYyRGFmZAN8jNjEMjwA3xZR95DY88cUYk6ALhrBXGCGY 6FSrMIsb0+cDxbQvMoTIOJ63jDT5LAAw3R3r++WbDubCYwyi30zkYgxxbeDetCAzB9/PtUBM fRjYeaL2TsxpWNqgZwfMiKjX88WYfzB9IDx1ohN+G4YbniewKpauwJgXPp8LuS/sDGQkxpjK v5N5u+JD7uzTB6NrC4UsM8M9GWZ+vn/xPI7PdcEd+PfnwV4bnz83rmn4eXanRmMO3NdAJPD3 7w8QiXlfjSfmNLgx9mLjoOmyIKObNRjW2tg7cY2Ba0ziCiSGObGBwpgJTPI8MDth1kNL+67o 9250rwM6BjHG3guxDGNaZzLz87nx/S5kbLhyYsbbjYyNP//8aSTLXNdE4CysJzHmQIYTEgbt mcHZ4M7fGcNxDevQEM6FiQgsmetQ3DE3eVuaUuExAxp0ldUjsxcyM7GThzqRRL3mHUrGOFlK QOmgM+VcBgw4rlGgNLH13EYPz/iZitNjAoPxOCL7yKV+1+CNtsfQ8xlPnaVhFoonHtYJ9Hbn mfVRlZPL7RXIPuissly0fzLAgvs13LHXxpiOMSZcCzDNDHMOZLqs00QKKPXXBsRKslUGOBxz znZbsARCqdbLPZkZnueRmye5EgoLO0xMGy1wjtmARZgTYyg+YvQiVpwyq4UUIn+ha8bZhHs0 2CmG6oQyLsrazF3tMlwKUTvJis1hQLvHwLPLNXMTineoVLOwgmvzSAJuEU1K9yA3PypRkGvO 3YQV8mQzRUxlbkQYIjb21lpnYPrFNQ/02lVY4csxfGD4MZS5Hp7wilX72ViiMOc1CcwSnV+b Ga6L6Nhs9oKmNvxXaqNXBPDsgtoplCzPUfm3NmJX/NImRVN+tah5YmKaTgV/xwUOA2djr2vw v+U+3eUxIjvvJQgTF+HQ0c72JtzA38DIjEDN6vfr1NEclCoGvj+bwAym7TBc14CnaNHyEpWx /IrVwDCBa3e48xnW2vweK2H/gBuu9Q9lCPWiB+Xnlx3MHQF7kQLZoYiudq8Nd9dpZQxlbCTF ec2LG6g4Wx9aMX/OyVPy0GDmnBiDIaKQdUTQpafICNMXyLMxBQoPzQn9Gb1KVgclknRRFg7Z /R4OGktEIJSqXYOAde1kNiKaM87a9Sa8n6EMslCz0Q3itZxk1wap0L33IWfq5O3DQ7wZP/fC 2zKMPksn3x8XN57k1iG4WAewzu8RiRxnoeZ9zyYGuFHWG7UW8DxLPDqTe3e65dh0W66TVdZW RIZZwmzgugbWAhALNma7qyH8sNbGfjbg1mGA3iqxFwsKXDxuWBloBl2aX+V+ExH82R2BhOES 21YblpvEUmrRYNE5MSzbJfoQ+VOMX0IhxYV7ygBTRFbA4UBW/OUCuztT/mHtDSKLWSvW6OCN vQF3FnrMCN62PFnuE/IcDleIi90miSK95PtpU2vB/cJQGAIUtlJpDD2JyQWqWJGHXLnn4JeD ChiAmDB+Bw8DxhDtB/3cIZ+HaErm49zcOj08hc7CQH+N5t4QEWSvXnlxhRO6YShroIcoQ9kp Mgf0HnuTfHE3DLv4aSbuO7VBYPZRIShBzzWGY/wKH8IPawOTHD5PVx9Iblgwo4EBqWKKWbQh +6DX2HshwjAvednnlYs3PvbO4x3ED4z1jo0g+bPzFFLEF2RnW8AsP9/gSA9JxDvhYJlyPxsx Sew7HGlEr8R8cnPD4AnStCImnmf1UWNhIll2vacsmkUDpkaJ/eWpnz5wzclTG2gCBWAIccsm X4bKvvby9VbFilSFLA2JiodObsEN32cjNjfDTbw1DkArsDoGYDkOOxbRxEzwP8jrG06SrgMY CQwUCHQZbfHvSu8KUyDFnRu2Q1VKvVF5B53+qBStsh0ZRb5CjI9yAgdvze+zxFZNfK4BmwN7 0+1+/z7i9ll0qQXrMugGa7vPpiEbU7lMxnJ+MHn3vC66T8WrtQLXJSYwAtd1kQwREk8knrVx XQMbROmplGVOLsr3+yAjMMZHMZPvf11TKHdjrcB9XxjTsLdSu72VijG2PusBwPQPBuzYnW+z UENjevZGPIqRsq/7cyFdNW+ArJpqDGbAdc8GlW4DczCDWbGxVupZgRV8pjkHnh3kR8yRkVir cA098o7NWL4D876wd7Gi/H7kAVRWdWZbcDRGmUO0p+kvHbv55v9Vo30DKJaGxJsHIgzu0Xmx q0Z/TUdkYj0sz15jAsPwfB/8XT/4558PfA4kgBVceLpU4L4n8/tmwQ7pwlMzEBCvoHTpzbmT 2z5lWUvVnmV4AJ8DApid3onqBOTJ7NC20LOVF0GF5woHQFV5m/2L4uedrJkF8K6o7YwGm81z 8IERAp3AoawbYBrwfCkoMX2uueG+bphy/MhAWCDWKaHPAiYuzme3K2CZ0XzAEs3I9aarmpbh MJ9NPJjRYi8Bn73z95dywJNAJGNjuMGG43k2nmcRSRsfcI4Lu1hUiMxZCwABYayN+3MBBny/ BJDuF4Yo09RxzEzE4kZ50bGFd+1oB+ozqOQBkL9zXjOHz6E6venLEAdVnSAQjeQdDhvZ2xiZ MD0H8RNrDKyukams1K6MrEmX4GbTgLjjO/nTc04KU7Q3/e9PCPcojdNpns+z8Pnc/EJJtMiT 4YjYIlnrw8ZJK8BY9JRbqIdUiXWZAdj4+XmU8g0RI4x3Y7hCCQCRLiz6RH/hvQNrL4UKAcs4 /05BBenerNREAdSMBYzn2Yio5FuA8RcemH3qWE8nPokdXUErsDjkYayJlZOuwbW4OuUsfxqm O1aWO9/9XtMHxmUHr0A5tZkQO/pn68WSMLMiriUNk1kNPUgRUxGsPfiU8bnDlOnMlCrG3ako 0WbO4Yj5ElhAeC2LhDGE4j01ZPVwRRemHooudw5W677PQmxW08ZwbGysZ7eSprKIOUfn9mYA 9QqzN266AddspFzUqLkRzRKi65niPOcUUGtyJlHEYrFgzYRt0NAlbRpatFisCiYS8zM657YA +rz5AZvntOncqj5BYo+18Qx0qsYMKgsfK4ztPskVnsYAnlj4rgcTg5R0KGVNYFyDh8F/g9w5 77vzSf5wIFO0qdeJr9iIzgUDQSAnxoiHPQnoxDcD0WGhqNU6OQBa8Ei3rFOB6Jz2gTW3zt81 pZLZUor9bNgwET4X+exIrO+GeTbJcRaMBErVECI2Yu2WZhWl2sKNYM18DJdSxc53FtrOeGUN fvBDAHi+q/PyqiqeGsDZROrcuE6VjgUOBni7/RJRdqYRTEWHjU5LU3UJ9/IK2SF2Th+M52HK OROYfJyq9Z6jXoagGKdTFpFYSbScERgYQuj8kK3NdxUPytUXI3ddU/ltnvTFVExpNO1KoQrw SAk7XKRHuXYZRQawA+5TejHF90AvHvPygRQL2Ezbi57dKjwtlSmnHUAIbTVDC/pElZo2dmI9 SxkLYDYE+KKrYVvEGPWIpkUF3fFhXkR85cEi+jvXWpqpvh9ouno9G3/+uQU6sxVD89kbXvHJ 6BKs9nXwgUp9Mj6VD1e+aJjTEJuLEtt4ApV/QynEcO94iE0ygzIhxRgfAnvJsJKsd18qwuyd ACjqQMZh6RSGdiaFGiIu3jEpttS85WIRPJlJGVTFR3fHdCBgKh0TEzDs0ZXnTlBtFiRknNAr ZESeSo9EGkVp46A1CyAtXjyDdZwvF0BvSQOPE85Bqkqbl+fv8kU+rbVVaJLx7uCBNukF5L38 upSaNIAD1tKeGzljy8CzHny/3+bm19rYsQR4qDUvjVeBCT5XYD9f/PvzxbMXfFBNA1DJMgY1 8RRuBCIDPoDP5yIhogJFKOcec2C445oDcwysHVgPKeTSgD1rn8UxtMokE7jGwOcaHXbWWp15 7DDmvyoR/zw0eh8Xrjlb9bqeB8/zcFPF4JWnqJpBs36DiorcDEOkgzd8UC38588Nh2GvB4Ej PCnD+9/avKMP+P48yNhNgLl7n+Yhj/eff3/wn//8i+fZ+HN/8Of+YNLS3k6E7FMl+5dfyDmA Z4kqTeW1g0xf4RY35LiUn9PF2TQ8341UE0TrwfOc3pN7ZnubA3oqfvyOs1S5kB5du+oGKmQo MwiBIlKnKqbkwk4qVlquXGUNoaZo56mDkYFME04pd37+fRhFFjs2UCS1GXxUdsO097pmS61M n7fUOEEJhfVm1+mfGBjD8LPYWOJjYt6sf8TmyY9gjcGFVYafKuCYF9eYuR5+HoplJlm20Ytd G+iVe74sbT8LPzh69oBR7eHRv0fVSrlO78Wx0q5rH8/mstpVqL3NLymf/nwu1r22NyDJCPxV pjFGZQanXl1xNoLqFFacEtgSQibaK1nl54imNCMC0yXqgAvECbxJwjQvql5ShtLyKcXYko0X YfSrWUL/WZhmzouNIcOwC5sog9G36c8sIJzQZ0ViuAyScYPrF1TzABMl/mwalptVoKV0ck6t Vp4NG4Mq2YhADhMhkc1CJVcOiWy+urxCfVFLU6piAE7eTikzrcHkjkmZRp/4MUyCP3aqhEDO mCRnqt5PI6NbLGNKnaz6nu/Wo8FI0xvQFKu6Uz7/3JTltWEeDf2YA+tZLDWjdAJoo+/P8aEs ILH2OpkQTkGKglC1Ta31K2MpnmI6dQmhbLRS3OHACpWv3RqHzTmx14Mm+YucaZeLX/in+8uI x8iupTmOuCNFgdKK6qQmKjS4ANrGe+/b2KuoII3bOQRU2KTXvxe16/BZte7Z+eyO/TudsVN7 X7Q8JI5owjH68+fFdLGrda/vX7Sqm2GDej1E4vpc4sCJPxIVBryxQQjEIbPVsSxixC/Pyec5 bj1CapsEYIHnSdz3ZIhyo9GskrVNFcZM5dq3d2Cha++tjIjkWJWeJ6Tf5qbEL064DKG03Nwo 75jrTm1ZmjUBAbzajgC1Ph3ColAt34+nmCkOt1yR/ZcFuuPXQxOw8N/5pbLeHj5GFxjmUKdO HJAZns1dGxyRu1McU+dMxm7Z19rybqWS0Z4w7i78+dztPV7Ri5hHxliNlWGOQOXqdON//rm5 Pkr5hgN53eeZFCK3cnGuL6uSK6joHU6vd12zNx2gCmoMkTbGWgUATBuDBIXQptXiy72Pat1R 3jznUH0W7aaYolX1SgKATKwMDPHLAF45cugLaBOniSeoVKd+7oSbQb9/iJ29wO7OA46Ybpps RkahE0UjLQUQ08N8pV7I833ypXVPpV1DnEFvWAVsvL0YTeKkgMaK2ZsHeaFr8/Er1raO7/Wm XCuV410MoQ4dD+DG2qehoQ6YuwMTWOvB86QMk085h6kjIovTPS6b5qJ4trk4ptCwg2xamCMD WC07pjQZeMVJfQd7ibVTbFZhBndg76UyobV7fH4WfDqucTwMAGnaE+l3v3/lt6+/wPPsFxPF Mi+fbXe8f2/em18A+Mxvvp5171LczKY82wu8Mpp6GEqc1QQaGymm8boM35+HVOtkYStH4zwg jWXfTPh9YbrjkfTsugbu6b/y/NyJZ32RMNz3daqkKSlVlnvXYpSI3pyWPiZF+8Mc/8aDjAXI WsoFrxX45w916C5ufLZ6s3rdq9AxOg4Pm/Bbbj3J1hlIpT7PxvdLBe113/h+H9z31aeoNmvO q8vBwJF13TawpHH/XBfGVUUZcgE7KEHGNfH9fgEzfD63UqUlF8k8eE4CpfXsjt1u5AnsMqWd zP13JJ7nB5mGP3/uQxrFxuea2An8/LAxY16jQW7eAz9/H+QK+H3jrfzJDNz6u7USTz6Yc+DP nxuWLEU3P5DUOt73/dtLOvsYSHxp00kvElG76xSrSWyEYUH0qlnngLQsFR8ki64cPpCAOl8d zBXZR2YNjorjHsPwn78LFqVSFaUJ/rdZ4hJyPVw3waQP6y8bqk8P+y9vEEnPrZBR6iCGAIa0 MU+9ne5XmZkUs/XoBJhH9RqRiL0xbHZG4uNqz7Z24CvSJNrtK59fSjXFLVBFZp05nNo6YNLx zWnIOLoCUQhkAvt9vL0MRSQhr5tAbKTSU89UwQGHkdsbgv2mxWdKQYJBpTqdvSJ33K0Zp1af Xt6lPWHobpEqnRcykbFZtaJigUjdC8DQLYb6t/kspZ0r76W8enhTovzdl2xJWAI4f+XdgHBK mBHB5ywa1Y5enhsYkkOzA+NUF3V4qvafR8lboLOzirXw5veh+n69dyltXrCBz+Bc9dzyBsns wiUoPYZiBwAuVjGrKZU6BY3myAzUpIkSRsJYq53qEp0Slqcd8eJ6FnABIw4RM8bAsIFhzryy a+QqFgTA4oJjXpfAjPhuIVMglcKc8JAphO4nLqNAzVATxSPrd44eMR/wqE4ZtvvmlLdygjqg VK6nd7w4hHHp9AhcUsDIkSRjihTZUr88u1uP3SjOoAFQIDG8Np1epokYcdexsmVwUNyv73fk 0db7m5YNtDNrtoDp5Fv3yCUAbPTzzFmtPZui/PoFB1QeVC6adJeMq6cyVKiwFagwVZu0SOLm ixgpgSKZsZTChtx9jxkx5qSxdj9PI/7hGDF6caJPcq1V9qbVYrAj9ISjWEBVCiMSKcQ8e8O8 N714ApfWzBMUJJYqFZWX4/QMSApdfWlFMM1hMH+lVHu3sDSSNfQyjOHMlELzc0omdl2Tgx/q K7zIhcp0zMQX2G7u4k1ji5Hjqdg7qTpJKTEGsP5dZME6FUKXC81kPXHiaIvsAeQirB0qbbox BER5hbJcfYEA25DJoAGJwP254dDzaVjRnIkBE79ORQ9CDURpsGYTDbFYhXID0r1xQ2UHXbHD a6aOG3vN46hh3Sb8kntd70oXX3TtZ74LNjSsyIR76IIt89DV9RxgqGExhRVBJRHs2n4S2ME2 6gBQdiMMpoYhGqIxmG47oNddgFQCS39e7jNUsaHO6wgiepgNTs7OQ0V40y6pXJEl0OrQ0aM3 SoNtqAoUxRuZOO24KNEjv0RPnnpzRmJADPQsc7rq19F6utLe23DVrfMVRthPDzsgDkAzaRma G/P6yB06WVmaczudqfJiJekmW5ntAVMiiIC49YpTEsMb22AwBUa7H+CAD/5fec+3uy8P6jTm CgUkfwLXNfH5DNxSJ7sDvp5Hz13+sIgTbsE1HdfnYlvtNM1sEZBynsaSgCTOgxp0wmWVEckS qnJG7qny4SLs1Iw4FNuva+Dn+8X3+xv4VL4fyXk2rlr1flOcSlsqTfk+C8/3ObXy4RpTJrcP hpC1VTsn+qDAA2wg3BlqE4LUOl5Lpi99ABjAdHerEwgyhufZ2IuA1aEq4BiacHUmZcSOrmmU y6b8nOKW8hDXeIHeTTFrHyQcA4WffrxZBAlLj4l73khL/HyfXnhkCv1xg1hw4AfsZ2FeN24B imfTRCMT34ciBQCqgYs/Fs989yaSzjVzERnVUTJw3Tdd++K0laniBcOZyzMUObER+nIQ0HrW xnTH//y58KiU+Sg/N/rilmyxrdo6tFQKC+D8u0IUkuVNedVm2yrty9xYeebNMcZzrt73++D5 flVl4AlxH7Cd2Ckv5Ibvl89e/QOVfQjEM3+XVMvScV0XqmnCzPC5bkSypGqmAQwAp0sxyCs9 8YoJAonFUwtR12mulGBcE0MCytT7vFH36W2b2I3wJbuqlC2rnn7KvP6KGsQTIkXUPFcudNpo 2pZMWqF7bzq02rZCdflqKAQAptmJyozrOeh5ZFTyLM3YFa0MceN5cAh/j5sEAHs9nca9Ubj7 wLwGIBHn3oEnEhbvXjlQeOKaPPGaMeMCvFnvi/KYxDVuHETw87BEPWdX+zENJpECH8Td4Ja4 kqseL6EiVFUzerJfoGwF85pWiihlKKQfAiBWmYHerxdQeefOPJp1K9Koxo2ImFBLb8XcpdoB PQVTy3EdKpV5fqLn6AwBsjxDi9A/Ky1Z9X7ZexPqQ60Xf5jai/b5rBKgMIx8+NNJ+VNsvn8a 08YxHbmJTgCODKlul1qXGtZQpBH/gQf0lJ+5qZnELwTQJjZORiXdw/QxOLrDDgBYSRdbqJmi /RN/6dJEujiNIpgH4RqDiwB2R04feHQCiezRC3amSuC85EYdiQXKjjMSsaGWqcSYpEqLo6+8 2eYQUJuqrh3+f6vosjfk1U7sbfLEBzIX88AGlv/1fGWkpg3otl29XuHJjPPzqtmjaha1mWtF EzBjAA4OGGBXMOsY7tehWsVSchuy8QVQjCQ18/GzJJi+AM+DPfR95xgGpqeuBWQRP5GaNhFw zwZ6R3g30G21MCzzHg1WRAHXxJTAhhaX6Qr5YWtqlHNcT/GCaU/AcTX5+cs9Cj2vUqy8GTr9 r6VhLcm8vBCxsInesxr2uXAGW6YwpYWi0F9HFV0QeVcECzR2rp6lMQA5+P3SsRmRuhxza/uv MTErJRRpkwCuqXC2ifiJYfQ99XdIYo+cJIqOWpaDA69r/qrAzbU2NeCTi8VGvDPtwQx9Ql7L iUMLHUmuQDTMDtGx1KWSmbDLlMdqvIZ+wVAK2pO2sWElYbbFvSuGCd0nslGsvdkYEITtPV6j UKr6FsfcxYJxRJkoUqUVhpqWpSBkr7QyhbuzPikbLyD2r6G8GRvI0zBSoJWNOkctVO+dZV+g Vxx+WqxTzqeHFaQhx4uuRSBXFaBEsA3XMEdX5kDDm5lkfGYOFKibczZxUgMKappi9onizAam UqUOOY0Rw08XSalSWmcGtPvr/LwXBqdvTrGIbTloitMEYEIpSmvQs4gmIH1jmIt6fKlK/VVg iUBGkIuosBzQvNUqLB3yKJFNSjkOiKKHXFxskPLNBGLtroRd18RpaFww1RlcqtXO6fM1Y9aK CzGkV4aSR6ePk11ERBdsGsBm4tJU7udZyNLkfa6bInloegQ/giL8CHBSBboI8OulU0rL5ECB au6jVit6EcwoluCDW3eU9KGjT28Kl00Dzo14ETO1D4yPDBku0BahHvFkG7Dfl2Jqvkq8rimO xC5FbpjoxpKItRqmPldulDo/Ywfqru+jiQbKOgzqUJ0D358vxhyYY2I48GgzYa4DReNAnd5e w8TexDRVaOGUyhDLSC4/rcguV0Gw6GUKReI6yoUAACAASURBVBADX7GKd6Vs3++3T9DzrEae DsdeD9Zyyn3mEU5SdmOaNmUtSVrfra7O1OA64gXHOIALpHdd/PBeITaJGz8HhxEgEz97o6qq dcJHNQVGYP9Q+rzWVouyi0c4kqSdVe3iv3MxFuYY+HxuxIYKQyFMQl17SbhMAHc/uzUGa68T i6+Jec8+BCGA5cmsw0BpdAY3/Hk2CyHGGv+cA+NzNcInbzAb4CEN//775c+p/5/sH3sDq5um BjOsXRVHazk127CPt5tEoUVNnnozZ5vcOmXZ7qZ+xo+fO8RE/5VrLFci2n0VUj0nAmC6Vflj 0Y9rR08v7hxZVTBoKGEGZ9gVMi2jKNKiAOFhyPgdZzVl6pmftQGbh+GqadGDRFLV04sGrc95 FzDaC70VxE4qufTyysj6VX2CNbSpCBdTPC7l8Fb6Noxl6pmzY/h6dsulr8Gf7358TfzyecbB 1ASxSTbqxAG6Brk4L+1btb0OqV0SoTUYoFy6FtKSJ9kCPfqq3t/sQMGal1qb4k6NGxTTQl2h pFtpnSxeJL5bgKSsP141fahjtU6BDI5qmyrRZp+C8gg9hbriPdBKGm5EFYlKpj16rEud8rfx FZfhjpYpHSBYzyq5U2xEvadrKpY8XIGvtAQvQCjhqdRJl1jMTKwvGcDwS/P5aHwra6216fzS aLRetxtksj3Y3LB/NI5jAXYNChpytzQ34wUs7A32cFyrCIb3ZQFr1VSJc3qoI+PJmj6aUJnD jsixlCOK7/v1PFTKOGDxa5JGuUvXqocRyFUTRql8i10rT1QTN5xI7mQqrwSmPYy+eQsyMhsv 9MbTclRvYaPGXqcNmc9K0Qh9gaE0e6wyks51MwyT4Rn73+31LqnvQSfFNLSWYz7PVvC/9AVY rgTQV1wUgW81Xcp0bQYYy/nGA7gOGWJW94rwFBQTF30SKAF6n7ajFjms1lo1YsvJrccZiNf0 4+uYnRk5BAlMOx0AZ+uUPhewX8Zphl8GOf2WNo8bFFbaAsMJGa+8+XWiq+u25tTpB9GMwGuH WYEcsNi9KdVUYmb43LdOOcmsmhyJxR7A7zeapvXr6sO1H/It7qMxW33s5EactKRaWCOAvQrd gidvUtYbMfj107C2TtgAchE57x0aI2IYjp4CWZy8O2PrSDVLKt2o8NnTjLvmLRed1LxVfXyp 4PGWQeeWUCJYMBk+4GlN0YbaQ8q78L30eXAJQA/2YKm4Tg/+VwZTbdAlRqz0tbILh6ukaZrZ ipeZCjPEprGicE32s0XHTX6/GoYUyq7eU8HKiAo+mAGxF4DSNmrT53VJzkPkWfU8LjJjdg/n 6RbkaBEAQVyNwOCb1kREgk9rShEoT+BtdkPwnJ0q5LwLhRNkWbNbPJHnvev9vJQx/uKmf21M zaCJrs8fnFEFleRkKNTQg8R+uD3XmCcdtZqtg8OMQZtc07FHhUtJtqzU/wf8tQ7Ojnc613UA PijXXsoqSvtfdHgh9ntOBBI/Pw9/Lo0zZh0YGAieAv656PFaGPYelKvgIKByWUfGdIoe68tu yzEvPnAebGByZVU82A9P95FTBnY4Uxs13+EC1kMww4H9CUNgXteZijSHyp0SEoB9c/d9HUGi LPwNygqvxPZe4DKb/XAwYjF7bEpUO5NGs8Q4mUcmWqly0Hu+jIJgyBU+VmRbqAldRwClHPY6 KdBzCTeY8UCkxBw7pJzR+hcJViKYvsyniTFWPOd1cWY9jkecBuC6BvXmPw+u+8I9BxdnAz/P D+qbbs0xI7NDaPrnnlhr41lPF1CGT1WygO939cgrH8CfP7d624tgoCHmE4gkJTz8Pd5TnauR eL5fLGNP9wXgW7PorRaXoolvAN+fBz4MwKVrsCQTHkfBmxF9+q7hzeOP6eIamE6ttXGNic+f D+lMAa/D2/8GUHsHwmoypmOthzz6NfC5vNOYr9YNqFTLW0tIuXR0+peb73vPC3DJvnHaqa57 yOU/8HHBnTPz3+XqZ/Oz5vM8mDY7bYrg3Wqe7Oi8MDsWUC3K6hciOd4y9omrdc1U5eUA/ufP rdZgCiSHO+4SZiRVIFsCRDYaUKedYB5eRSAeAmsX9Q6tKeOgF/JOlYjm6V3q5opqIaY3csxr dI85cOI3J2NfUgoz9O3TBNf5NN0LyaxSm5YHGIMGMybFKA6KTOoGDf7Me77L6xVkAac74uHI sUi6GE9G7bUWrk91E+XBUiKlMkMdr0L/j0Bqd1iW/4G4Xyfrcw3vobT9ZZxzSAGoYoUzoFax aqs3jZpu6H23TscQYqn3KPfNeWhLhZQj2Nxt0T24qBSn1xmvVZMglaXrK9VJrEE7Z5GLY6+C imiB7l9zGMJKibuJW8zERRzeIBMkRpKhiqGnMgq1i72A4e4x6Icb6bAoRFc5fYnNUwCxgR1A Olhe4Xm+PIi3lLz77JfJ8H12PV2bYqf1iLps5YJatJPDZk+hqqHzNQHKkZ1TFrn/n39/ur+6 bo141mrVLLysXZxxHtnRGXDPYo/1BiklC1B9UssrMNQDeYIbmC+XWYtbvHrswEaVOrn5kQns EjOotKINaOYsrd1NqGxchaBVRppyzRlYcbCFGQmxMujfen+Tpyz8pGGMFz1u9a65D9RkzKH3 XUFQyhS72rK2NATHq/gYh9x21NVW0oz1h9O6sjZfdfFyb7TQAKSbrxMDcAPX8yjeMj161lKd nj9TY7W/34Wfn0d/Zye1Gw4qWazfs5Cv92bRMELPZu7tFSIPOcKT9/ICzcBJ8lSNjdpQ9/o5 /nZ1lqbx9kTX3xXA3WrkRFZWL57gXdVFfW/dmePE9nUZ4M7qdIkOL29j7eeSZwU0+UoUcmUB vKnC8dTgBBn9rPh2XAwVmRFVtCj3eBYNzqlOnO2igX0v1qlqxuaGP58Pvs/DLtfk3NYRNQbL yIpZsVBilcbNbhquDErDV/eZNu3vUoqob0vfAnNWfaBCATcgY7O/TV0rTOVEGlUrcXmQqRl2 aUhhHWV0Dd0yAjYn3AO5a8qULgyqtM5PJhE7FHsXLA3z5oYnqioWONeZECIOjSUVN4f39VxF 0a6WZkEz5Y51sXmTz9pTL0IWMFzD6/p0k8zfuXFSnCyegEDHNUAIVM1Q1H+o1WrtuS4yWyuk pnm7begzA79c7M6qtGaHBuDIjaphrxQrstr+e7o81Q3iTLAkd5BYdX9sp8ZvBF6nHYecwvFe pVcrrTl4oH6fYLUeVwGkpzeHWqwh4LmrmEXaufrM65lo3NLc+Svug6HJHRq2XOGFnbIh1TEP wVRqzbWdaargDI6x2BrRlRlYQE8r7Cu64kyjYt18NILPYOfJQUYiPYb3aa6GTFMOO936xqby 97E2lgzLh0kJymbKipWjPIW8AGDKnc/iBwzf9XQ86zJt0PKfB6AIvMCUNjcSKymKmP/crJtL +1aTI+HGolK8sEA3WPDPXFsOcfh+H9SEKPjgQMK1EJu3Rt73JbkUsMLx/Dxs7Qqe1kuNId8v ewMbW5hjx4PU4XjT2c+P7rQV7jmDjebAik3mzb1Fjex1vo6a9Xlk+S6357prPDmLZvKLmQ9c zhTInXHv5/sFErhvjqT+/jwIAPecWKF0b3CDCkzW69+fpznwvlp60K1/f34wxqxOTHat7mCN XoZmSYKnUj4g8PP9wofh87k4m06sXDdUOEmaPr0OXNfVIzgxvEWjdRIN1hOi+1AY69qcBDFY RbTqgOGGZa7yLwR4kkMnePvFPYdOr7yIsbgScHyuu36TAwkgWVrWPB1oTYDqHwSAWaCrJzyp j61uTzIIMChH/O9XmjUb9Pv12x1b/42164OZUr1s2VQxTbTw6scamp0yX+kb3dbzLCADOwbM T2UJ4OPOm0RFCzpVMEIEfn6eM6NFi+Uy6qJ196p4Ru80Rk2Dzn5f4ozsEZ1HBs11dce52jTO 9C3W+LltEYl0JZtWRSVXtiTxCkw3VFPONlSQUjpxlr5TOWUPkSR3ZDmzFhpwNdHV8D0hRbNf 7lmmhfRsqhXlzV81ZaZ5XP5qdQ6VJ2HAwInrT1C0l5l90uv+1B62n5obO46rqnQnS5Il0Ln2 YczuyenWIWMZqhQyowjJjk+8rrtkKlytXeNK+e/Vrh2Z+rnNBQ8if6pZ0F7i798vrsmbJVjw 0SGw4uHLHbMCCBSvX98diMWrSgOOa1xn5KoB8OxUuN63plxB8b7IpDLw2ceCe9lSqdpBUxJP MYQ6WV5bWx0nUJMhETBdpQ07dfStAQMlxmCuw6G5oTtR8RqyJ/TP0SAbz3f3uHBAGvi9Ma5b B5GISwOrEGuz9i+Wu66qqoUpFQkAyoblbeoazcjA82i+10DLtqM6ZPcZCED5OZVDnhyDys5d pX6WQJFVYDioQhPyNFu+CbD3i1mwNbkT/GGUPrGVvNpDJg/cqL712dHZzCRyd1kD6N7xexrR 2fyXgWQiN1Uypb3+9W8aC8LLA6BbhQC8EGhkdNPEjlTxhfNNV2zkAuVNKlMCaCOqLtr62LRz J+zQ8w4/M28AOzxCpaigmJOiSJ2+kjBvwKp+blKmrN3ETEBe0AbCg3e7gAzh0AQoxMZ93S3Z TlF37+s1ZS7/S3kDMHOpSMDvRv6kNAxFcA0bvEcmj7ikdPP3NTslXCnmE/XLRVKIM+cD0UJr Uf97Y8OOJOG3QRzJ1VoLuCaFguaweXqw9gPKg/QMJByyU6+KdT4Mt4uR2gvQ8P15jTO9IYiW DacQAZyZ8iXo4L3kNctuobSBFS8bdwyH2dUMWK3HITn8nOKs6pnSVQcQlW6htfGZ7OStOXcI ToA0lHgkX26fr62agtdIszzky2Axn4UlRU6kcaJm7QXtCn1ZL4CZwfKeV46XZ7piETW0nLLC 8gglB+pSxSuuKBfXYiDAm5OrW6SZJV4oQ87diwkQj20doytv5S1EGuflPB1jULW6M3Ra+Qzs TCILyMelNMr1fNtH6/DYuiauIAHofvbhjlT6xUeYkm+xjzwQ2E9027KZyBFEk0NbgFjaDX53 eaUxDWkDz3PSvq6rB4B5FLzlAd6htQ+mNjvfBJJK4msxveOUEbn3HYBfaMs76NLg2EgbrWxB S4/QLoMl3hdbp/+h9pv5JQKtjmWgOU0Oc04MifvWOldIy9/wpubkAL66g405t3J6xePi2w1D kySogcfkIvK9s/u55wTCTawWK1gZR106x7kVIWW8ZO5YeBnDkNvx7Ae3SpkpJREZvdGGjzzT OCIT+1nCFKPHldfVIlwHciEDwOe+OGN+54uJPIWoNurUDRSVPjqzjFDt5E0tz8yN9QTmNSiF Sua2aRxGkJm4NAyImmu5nVUNizegtKLuMCN3IQs1ie5xhtE/DxWgMMO4zhiuYXjNW+Wm9iBB AJdyVurvN67heEBlyZDSpE74rXz4u/TcSA77SxlREvV+bvZ0UwTh1OS3Kpgk1UddMt/QDBx5 F07LqvxXISWyJ1cWZTw01+e7HgDG+9qnITdr6gB6KFDovYqFe76LHUhz4FKTRnmWUinPa/Cy heTQ5ntofu3m2LPrnpRQdZ7+i4AEn9K97wepaRGnzxydIzdXXb/5ikVNZKCa6l1N/DqttwT4 OlkMjHSJdHMEgry0j1doZZw5KmNMwOxVdfKjqNmpC2XFe2Pyc906LC2NMCvCqGO6lCrVn+Ze peWXZBqVkx/5VH3/FiF2k6ZwiqOVrY2fjDc9V0itzOm6CsgZYrBnvZ67YnR5yoRK08mRoJn8 HSR7Cv58LgAEf8xGXnIpugg9uORS5taLs6VXe+eXEYFY3tq46rYgqFD+CfQdqz/7C2Tiup0D 792wittPKF1jurefU5MutecqYOenObIFgVWFUvpkccqwW2EIRqEmwiRwiF+K1X4vueHYG241 v7WGJJY7fV3nRdACg1q+7bXhtbiduXidiq41lEuvOTwFJ8OgypuKJTbhLdlG343Hbhmtlakc 3kCxijinqjmrxntOawki+Ocq7REts+/7ZBenj52y35DiQyxVoiteJaVCFgKmOgd5FtuNdEdN labrutsjsMNUg4Uy8f35Yio8VGer2SZg02J8v4+AqAFDKZMno/9Qyid03jNkiyCapEVj0+W+ iyG7hgukiQbmGlVsD4v2ir8Og0Jn/Vt3vKKeAagbLyq1le8hiK0NlUfyUeOfHBFHFGJQu9b3 IYj1o+yZw0czNmmmVOMEfwA9/blFKKhTWVOEAHgeOrY8vjFOP+ou5eWvRJnfn5/m9/NY0S9C oNKi8hgFHDuMWKlc81VXTyH1iWE1H4ebBlhPaagbKEgWquEQQ9GthI2J73PmwHHqhpRBGlxY BEsbTxEpeJEtagyd86X920W0BIaj+9sY2ry1DWYAfP4KLXuJlnWNRoU1BbzXxqPvEAjcn+sM LeqYbsX44CT8VfB/VWw4HYpvWtIofc/Ojwt117ZZskS6Fztk6n70vcRJK6/9/3u1gjU29h49 l7Yuzh1j4M+fD58hUm3GRzkTTpFZ19W9CAvFYxn6ejbm1IlshgqHTXvRzH1zRFm1QVhAMilE 58SlMCJUOaVRSAgaiDN9UsbbwxsS7JJ19MF738JcG3yWLnu9A+U5SleoMLBTU62AmaI/y71U cyItNoEIhO5PXexMgI8bZiziWxr81oINg78nISgm8V5xBhnGQRI0/KzfMFJHhp7EL2CzM+U1 RbwLGtM5aTlBy3vbT2YpbAATS7e1YCajsumI74MdphNDnrvR+9oCnuTrayDQL5LK0Ldd/Jp4 DRphlkYBNDKrtGs74AFgtICi2NTcG1tyrLWpZj3z74oil/fVnyySmj/ICwdp770pEbdxCmOT wEhyhVo4Byxkz1558bm75L6YXnyxmkLkYNykP994Sa3Qbu3nCfZySyxQx6UAWF8uL8t2N1zX B8/zqI26rryS0iRJ0kQBm2bySpxxwClPMt10G2UCY15HoKGiTCjfHXPgeajNvyYHKD0evUnI VO+fDCCKrBJXoNsduP/a+IRoZDYj2GRuHz1eBMBkD19p7bgN3vigDkfV9VOXGLMJkwa6bff1 plMFme9J2bjALCeq6lVI0DmbrLswQUD28+UGfK6bcXvQUzyLd4VB1JiZ4XNNrAhKppYAhTpl 2f/OmTBzTsqbxeZlnuH8b2awCJpSiTx9x0t2RW5rvON1TXwmZ7GHBb2L0sdMDtBfRZ1qAatF 6ClX7mcWz9DirWfDx8A/f+7Wsy21Vb/BoYOnbYiggqugpc+oSdvVURPruLMiL4+w8+x0cSA7 ExOmadbHxXEmbMD0oWsBPg3/o3DYrcole/71ShIikclL6l64PdS9AgSuvIhezXRJvFBqEgdU OhZ+5ti4Gey6+sutFdjacNatWUP/+/cL/HcIkAEOB2LTw7Q7j/IuKk26w7Ikx0TW9eXqaksz 5zTlpJKVz8tBhTWuLJwFJhqY1iAhQ3CYFY9xvFh0L5v6z19gEyDI28F0uObv1rDFwEKu4LWi hh7Pnr+SbLxSNf/VcycL45+lLKrdm+zsyG70N/08hF5NefPzao05DXPKIXP3YMCmK7WALcYD u1lM7827V4U4d2hmC3CNCb+qCCjaswJhfaFyp1lApwbuoqnKbvQv6y1EjdcbAKiL8txqutUC MmHhgAbuxdpYy5jqJVCztqIQYXESLXZwlpfrsgOh6ZKGc36MnYcVeKah63oU8fa86hsIUGLV o0qql91fDSBw1KhQgtBowPEWusyKqe4lHAyO31SMTMWKI3A4MQV4DdBRDK9GAEvDwNDYK+t4 1cP/QOnPIw19GZTPuiHCdFKY/w4/QGqreTvMdG2m4bpOPO95rwlYbI4etwP0TqFCoQIA7MR6 kRUnvTJwoCBOBypwZq26c6bMygfv1w5y43Th7BMggPnfBthXeelZ6uKduhjRHchqXnxjiHFA eP0D77V7PUiAXrzqHTtPWyxPLhopkh07tGuhwiV9Nj/Am5Iswt81s5WXAajxQIZH4l/XZMql UiVywEqAoGqtDUi+5GqbqhSmNq4qeu9X0RUFyjiTZjDtkQdLKqZYZJkAdJuFQ9O1nPKweM4i 14abvEIBvz+fqYFA7yfIAzpzY5N2F+OpiuZLqSudhahUNVNeRVW/mD2UHFwCiahbG3H6A8eU 1MxaW1fqHm76FlJ1iDhRP2Ue15tQEd/l8oWIR9+5JmRqGmc5TmpUm12fWNRoBK+WYkWMhESd nk4flTdTaJHYconewAYyTu9npRXV5khBG4ENw8j/7hujF+IzKia7q/FRebY6TCpPrrYjxsDN Jg95akBihVcrV7VVFbPHsaSvPN+9cQJDBk+wT07BQiYWtuTMZXyutT0HoFTK727azu2b+a2U bR9xPvndc1JqkA2H7ztcbTMDLtm0S4ZE2hHa26qbt9Fkae8GkK78UZOgVXg5J7PuiCO42ite IbncocDOrnJkHFbNDh8NsGlhbWtihrmyAT0Fk6ffxlAV8XDje4NFIOEDNj4QmLLbdnTr87MS z/dpF9taP6/TOdqY+RzeWrbIo5vzwUpigT/K0tGn/90DQPhxPDUpXpyDmC+s83p5FUaqjeac RrrweZ9xVJVn9vJnYA7XUBumESuYc0Z7i4CqIChevwomqUt5oFNtLzoRkjH5OICs8u4UDtgR akOiZLgWZbyMiBOfHV3Y7hefee3ds9jeClJ3Gky3D7+o1ZS6Z5jhn8/VIK1caZEoQzV5H1Mj vM97WJKMgZ2hR9VZCyi8RciHBsx0M/NwXYFCD/I8q/voinevzKCvReuMha95z5uDAxbrrvec RN0QCeM8je2CHJhwhLpHsCp1UxlybSwkpsZ+0k1DJUcWQICkuN/ZDkX1jmGnYcejLVHtOFUT SKBGeWQGrwrRRlgG9rbWntXtCQYWQziVUe8qzfxeHF9asufMBBZTI4yhVqY6LUMVx2gdQXXS fJ/qcHV8PsyDrX+XAwqHPj+S41ymAHEJJ+qgETN4dwJXWjmd415yJzAoe05L3NdNxlC6wULu HFRoeFZgiuhhFqaCkg3Aw7CgEWCQhmxtzkJPXqlR5UPMIwsqndxB+kWJstLFGx1XM2gsCwLv IPg8jEV1EkrAD9c4D690gxnAMANi8M5UAT3gfH6Fk7ovpk+BNq762AEI8PBzlTEe9xjVWq1L eLMMwFpR042CkkhHdZAk59Ku79KUzBPjM4BNECM1T5VUpxQxNVQZrQaqQUPprK13U6nluQZV Lp11h+zTTYnZFmVbcqkdPRqTZErNsjLstTmVwSj6D9sYuxizcrm1qK+SK5Efr35e1uqSd8O/ mRy4EY2auISEKMs4kx5rpGiPQhmnFr33QhcsUOKHgNUdsQJ+5dm3DLBQ/xA6TkSj67plGQBC E60qrM1rcJLWqzmjSqdbatk5au46b3EeRj6ASyOlsfiFTLTqB9DlQzhAtDKxqpEkIHkY5P2o M/iVypWnU0rL9R+dXcznWag7RMptGRgHnlwnzgmAvMmROmEFBBHZ6pB6jcFrMAtYtF0U4HED UmRHQJUn9oGXFffv1JDCWhgwXfHx0stDWnXWJFpMUBuUr2dHfWYQH1gCY7LZIdSI2Ubdkym5 GLXIY9Aoc1fWMLRRZRSV77G+EgWTBQTdS/ip60ECnXbNYXi+cTSKQzRyav4PKsM6BFWvQ6Jx RQH/+u6Tc9slU7JDFDhYEOC4bceYPA3u6NGdBRgAlgrTqA8D5MaEQvWkqAbEVoYKlu84Lmi4 9+Dg4ZysCjv1dE5YZBzleK1SoxQBou/Q4oLEtnOvCxlHGujGJu7QdvZkCgds8Rlc/eP0ZKR5 6+4Wxs8b1cBZLrQMwlsUCoy9Kbva0VKu0unVvTXRCpfavBJf6DvV88uCDCDewanAlQdgmNUh vlVfr7amT01ycCCWqEWoiG8nXtIQRp/s+mKFDmvp2CvGUx09meqQKZVLvvIwrLVYp/eBz0dt S0/0ZKZKt4rIANDN/CYKNZW6ZVaXLBPf6P76cuFKhYxgjm1MTNnKQ9QJ4iIF3GZPdmqCJQ1+ WXMRdeoNgDIwElr6+FCVL19CT4C4IRZD3xhHThU7upkUPNwdHgmLavtTbeaHl2D/IEMQWV6W oauDjr1sSLbjWnKoDUB6z0+JtMBa59Sb11nNiWbhwugit+Lq7LtXzpc0rVylGDVbxqYqRWL3 fmcE+Yrds3XcJGq0wfFi9kCR5CMQZ1B/XtT718kR+leTw96/GzgKN6y94TJwat5pyDtUoMEh nWoqcnlZL9160nN5sr05k3H7ebKFJ3Woalyaa801+5SGWIcnat/FI7CQAWW7rMyBQO6+Xd5N m/4oz62pC/W0SWvAuTbyMD0l84FULXPSleZ2pAVCV09jgqrQ/4qjUN7rRinVYK7CdGVvXeEV +OdzwbzYNtOmK5xEYsWD+56oWTfmA1kXCe3AXhyR5qOkXt78AcByYxkn35NebjgNIZf1rJfo RYY2nE3/a/EKb4c12m50vxMr2Yfu5jCN+M6EBgLqak2RSy7tX6rRpO6hoWysLifK9ixmwDZr gJa1aQLFBHJ5QGxlF0X/HdbsxVvnhoX3g/GqJ5EfcwoH6GfNAGPMG3Ngx8bz84PR95Hzk6/7 7vz8UTpRsTaEUqu4syMxEJqdwrZkNifwBH+uG2M6vt9HUumBntII4LqvY6hx8mkAumcutKni usfEznMF9pwT63kwrwv35T1+9FHO3xlAXeutG6GI4Nmn//NsXNelMEI3P2x0oeR5VMod0IRW nvm1OHRx3hMhb3JN5eNFuRq9LLXzNbGDA4hM37HYxJQeQGcRHY87LlspZEkq7E30yN5skh97 nxTn7QHO3d+mKzurzith306EO3h9NTXeb3UIcABHFgLPcp0UYTDD0Kl9DoquZyDVSR/HDc1z TGtdUS4ZFFikN/GUxg3ewYEGVXPgWjCv7ssQXMN9lgYJFIYJAkhT3p+632WYGip2jV/TyieV tfVcl/L2tDwTtLyMVbdT2cTeKfqYV9yWNgAAEP1JREFUHhfByxe2egTmOPRvaBaNN62aZyEq R6zSKov84ujFJFHGzOHybiyIHIq0LsMZcJE5ldsvCRdPnuz9WQ7eEjE0cuvZSyJC5alvEKc8 /OfnB31FVzF3qoTV3TM9jUr04DtcXXPC4Hj2wvfnYZHFaUT3vHBPVeZeXqhvWga9XkTyyvDC J+ZtWP1d1tI9tupft/Nd3Oept9ezjcMw1g3LNb8e0NCCShdDzSiSmx1VjoSiqZsv6/50+Rxt QlV8CqwV4eAa3iBKUnQmqT0DPDU1iUxcTVEw1CmtI5aacuQIl6jPgVw11oOYguRDcBrUHqqF V1omXtmAncxt3RI11o2XLJGxWwvIXEoVD/AxbXjNmo2EaN3A8ySuOSVoKJfAuFg3ShX3n2C5 LyXybx1beUtiTQkqDmPYSkoHplB2EUTFyPHynzr5xEzbqgtm/prFM68pTV1o4rWJfgWVvjjZ FQCOFKs6MaPMUU2WTHc4F43xVF0YXunWRjzRE6HvOXFdQ6cjhFSjH57uaL+EkWjKMTzge/wi f2jpZLR4oZ1E/5Nu6/5zo1JZIvyJqQV/ix1qXEjdElX//byGDe89gOTcWhi4qTjsFu+d4c3W RXeOsD7dFUG6mgdDDXLKi50ypXzxYiOL83Ho8gRx9tUrOGsCtWnSlQFDJJYA+PUa+ljgsBi/ qfTVwpBXTaJIPYJcbODEGT0LShBZaYPrxATQLbD5ZGEQIHl3abnBvVM3GIMjOjKbMatUyKEY ++73Bnq2qxt4m+PerZYB2IC4IxDPwzAUibp6puhZunimipqn9zK47C4Se82NkWIbz16/FEMs LVdnysa4nAqhSqlk5OynO4ejvOiW4NMmc+vq/MlULcFenjZ5PvdagFtfo5bglVuxpcGbBKhz ghRxHgwSYTCLBsk86c2Yc5F7AqEYnhy0C1NiOEoTXqdQrsrNNCct8OVb6AIAshMFftaS2/cy HJ2ieRb2nVYBTI/aAt1Rtz6a87Ynvocrewh8v2dKlfsReri7pNoCXlrgWiAqSNF3xsPL7Z88 PF4PtndgjuyNLdWsHDXwujOuXqcEylpCTdj4PUCJFclWCSnDYu8a6+uW4gDAwYUIla21D2tR hctZ/sVW8hlmdUseFHlATlk4AYgG/4goIJVqqJsaOHvG5WKZctFlyrWDgK9IkrqFPSmoPa5R U5BCIs2Qqyt3fO4bp7H937//QY3I5DWhDAFPJG+ikMyrqN+Kbzs0hwaUP/uUQFIkxt7R13D1 zQ/xzk4UljLVERT9bz11am88RaHKSHsQoPEw8H0P0LQinNKgzhEeLmfeblaI/iJNrW7azMTH b8A52i0j2e1rZbAGq162W7nskRtprosqOXtT1uuqETPvVC+72LXnCUxtxJZM2J0lWU6YcHHB oY1ZeHYQGQ9dyqucte4du8Sr40V2sFHANUKUX/i6bqy1sJ4HY17sjcsTh39+vm0omVD179ya sHcqp93tGbYYQTZfCukYJ1Ut9x7Ped8ThYTYCTt6dqwNSrSQDG2iwtF3zyRl2tN4YyTD0O5x nnMOsqRZ97sDP8+G2Wv8CYBrOK5h+HkWfn7+BSoTUmkxre5oP8LL+ffvF5/7EukyNMqTOWOP pdRilEG43PLedKWf6+5BQry6mRfKElDUUAKD2WzLpayaXmLFSa3eAkwOOmCsBej2LSsgS/T4 LPm+M/Ol58VlNqO2H7YorfW7DHtfF39/H5fd12aVd9ChCBkh26y5LoaaZS8VrlmHpxrgVMWO UL/+W6FU9HapdZlxBNaCPNwUVLLGIkWcRfAChJoLBD9DgU/xqbz3C71fFwUAW4X4R67iuijx 6XFbWTy2acEpEthrwf/5SPkScm2lCqna5kmb3I08fcRL0ZHtHYowSREWhnniabdgsXxZIzne 95juXXPcNB1jUINWXsmS4z96xfUioXJqDeg0sZK8g3dsHMMzoJsVquCy5e5ndwTzXWrUKCJb rLHXo5x7/or/RbXG3hKbnr515MEAPAzFxR99YNUZvt8vAMN1cXY/AMzP58J6tvq4T+WMlqFk P47rh1feyWUcTfz284q2FRsG9JCDii8oNEyP30rbADek7jMbczClTeMUqV+v1HUXtaQug8i+ 1dGtmvhojNdFT/PoHvY5z1DAEk+Q8sw+LWajf6a+j1X+HYLBbsA+XAPzZ0e1Kl1D7dIuLzMO b7D3ZqfNVTm5LhjKAx6RkNcpBu0MR6gCUuq/eTCgeTsAauIljhHP1OZNH2JzjuacBFaNA9EE CH99iAHzc2M/AVzSrHfuCPz9bmQe2tJeJ8vh8JF4Fs706Ti5xK8Tkqn6uLpBdWrdHUt8/DVL eyb1D4D7GlDRkKyWZtJ0jREnPaIL17BjnaD9LF1XN85BMGu0zrvi4le4cE9p2kIjTIGcuoJD UzABXcSTaMAL4EjQgpwDImBe5Wz0FMgyeigFrFCSXpcvHDEn5+JSlvXVwZkrVLQfg61Iz0bf TDhfud2kTMjtuDmA7nqtDeyzgA4CLjdeJR1hcOfdMMWjkxNgqEhNjaSOzjA/F9hUwXYp6XAl O2Yv+kBiuOmSvFTsrEYGCiRwkbjYSvEij2YMODx6WVlT0WDMTg3yCWc2Uu3VrBsw3n9FvdJr sdDjDvYP5LlYiCH55O25oQFIaIPJUg0DklsXkeQ99o0HOvpw1jHgz4x2+UXF7n2UsvX9ZjfX 1QnfjHdTMYAzzkRgmJivV3pSPdntVpTv2w5OTqzHjOOyKm0qyy4tPS/Kk4pnJOlZUZ5jkMzA pqAQYppG9WSXrrylQexovV4ESY/rChZuDp54A6zEUOq2sBF7nTRWiqFuhzTrz4UdPpx4r7gF MXPgAeLzKeZ2LaBSvurIZdnXhF3onauQdCJp6Qv2XsRE5YV0sPaiHP36sNJZ+oHpSCDVGpP/ pRDViUxoalOQoizVpw/HXgvXfTeVetWFrxG454ANcsA0DpZme2JVsun+j9B/Qiqa3PJede85 Q4tLzcoYTeCzvrpDxuhRqHUn7ZapiYx2KoE1VNigEeaumw9SPXX5EhiSGkRpz9R63xW1oR67 EkUM9YKHTqPplEgjTO5Bok56gzPt+S2H5imWAY4hVu7dtl0lXVLeDYqNsZz5uwxD6eqwVl1h fldJe8n0hFwU4FpcfuD7Lja2/dA9mPNOb4fB9QDlTlZE187fc9z5vo57asZ8RM84Y7hQ52gC 17yYw38XYg6MMZnuPRtuvKMtgx5hPQ9g1iPI6rNiU21raczzNUAwN7tSqI3jexPBB75fzU63 MyypTldt4BhUuQxzXBef/9mbnS6Arua6+hAYSqghQqbBVZVWTydQETxnTHgJJk1uG0zXAA0g 1HhzGDCp8v3zzx/8/Dz4/nyx54U/uud9FkV6Ll0HYCxzYni3EJuR4y0EWHy2CRn6qJy+yrL8 +69GkkUjNMW8BAKDtzAarwXZBokYN4ZueDJQYuS3tfsqKpKZmSK+EUfUSalnKw0/BZuvChgM 6XaEnJWqyZzZp0dDr0xjo1z0ybML1B48YD3ximngUc72HHgU1Xruf6eY5IwIpYiJBlxzdPi7 Lpn07lFhz9qSrrFiV3e4lPx7hQE43cEzgu07XNCUXJapmgflOoDBZ+XRZZnouFT5Y6F801iQ +jLeG3V4/tJ+uwQL65FkaBiGs4jy/FC1YkKi7LfL10zXgM8DXoq5OhOowZ+ttAyvzNJBYQhG K1FjbdgYuumBhl5cgvm5hpN16wMAi7cgZqmJV3qOlzF1ubmqZUBP/6irwDKAR7c9cAoIhyvR Czh8cFZ+KWQA65C7E3U5Nqnp4bqNcYsMe8mlOl1SulC3/mSaWoLOItLyK7YcvTeBp8ZpeKr7 FYq36vVSO86ZvMw+9Fyv8uc4jNLOzQvuotyqPg8gU2XW0xLZLMHPWQ/DlE+pXDP6tDKfVWpo lCl11wjAn/WTvxfQdCSWPEgVQDLyzHsXWiYV68IjBIjF6hkPXBNNmejwZwbMm/l8fHW5T56W KMj1sxqoTEOHrMaqVUOFSTpbHTmtsK2CS81DoSw8QQ016+GVGoRO/yFu6sVFrSHzO0o9gt4g DrxnqbVoasvzDs/Ditgf3WNaUykoh/4whXH6khrWw5nqBIR///4AMEx7lz/RBvx+3rrTvKZH WRrfP61l0Wau5yxxBDeqaFf34/ZZbMl+7iJSWB5OrZkuNvRTzy1XzytTar6WdeFLpahWFs0x UAModpLwqXtheUitaw4AwVwg8O/P5nyfqIOqTZ9uihFvKlQkgIAdT5Y1atSRAJByQYqhYa1h Q0JjNtAl24p7ldKxCT8Eig7Q42mpjdIqpXXF7epL5+qZ/7/2ri05bhiGQZTsTe5/106zksh+ EKC80yO0/kwmu5GsBwiC4ON+1b1MlKvj/Rm/Bk9nM5SZYLOGts7djDhVqEXhNpZIwWpeFNmI MMJjkSnJI3SdCy0zemLmpLTBI52csjT2cJGoA8Ip56qo1t1MaKklimhpMNOYPnsPM0jlqvNO 8Q/0HnwZz3IkPXKMPORGltVaS9UT2lGCyLUhVaOUG3NXjJGVrm8mX16vO9l6d8yZBrfaYVvN +viVvr3SoeLeMyVrZQgIqGjhYI7YGyE1RQCtAyqvj9iZnzaQHzgNdzTuXEBP4BoVLYiVPHNE jfwktrD2XBe1WIrnb1Lx5E5+2rMc/ZxhNFmKftbeaZwClI3ZNsjZA8BY29Fbtthyrkp3R4/s 0/l131X0dwZjJbBX9UkCHDlUpdFOTXLo7zrz6fHxWe2ymiR1PEwxwaC3aavfg5Js9Ra3TkwV XM1E6jqxCiQxUxYeqctzwHkStSADxhPBcao+BVylH9DdbAR63XIh19GOgFLuZqRdDQmwFGbg +AF0GjEacQNaOmCpS7IW1qltP8d0chbZyGBcHfd4IULi05zfX79m2aDoGYDiUKAhRYFzLfje uF9XDSICxRGrH+pg4WPwhRqPlUUp0d4Oa5024VHEhRIgRT5w4cyfheseGLBqcjcutbMmK9ez Djs8cI2O93vh91Z++8L47kTiDCdZzmsITLBA0RpA0+LyaRmGCx3zPbH3qlBqjI451eP8ys+p EMrhO/MR7uxLh0Z/dcOODKWMPn0Aq3+JxMcwyLHDd2BbLmDf52oBEhzeo+NnpgPk9+uuDSPe tlpzlsECf7ZTDn3dV4owkdXmVSpTroZcSsFwbrUUU8Dpz/Z1V5zuFa5kdQe4YzZNgTwCgzU2 jkTbe030141Bvj9BV+a7GfVCnZAUbx9eIHeU8vlJzeLjCSeYamcspEYq155oPep3prr14hlY IvUglEYPoDeMPjB90QiJNCtDVxVUtA7Yoj2LLMTEqyuEbATPAtGli8LjNFG6lWCMJg3yy0um LjN13ZKJD3IdxScwb2H8LGudqtW1sd4iYlqVJgMn9akMj3Cor433z8Sc6fxYmvFmuC4rBwsv 7l2a70OL6r6UZ6wSMVLkSjUKPEAlj3spWevxfOGiUpXY0ffkpFuFmEuGfM7QkdeQ2oWYsdNF U2dnHLxWBNMnqWMUTgC58LZSn87ZpDZQx7a7w+E0D84XL/VNzXst2gScZWwc8trJypZmed+b Zd9WtSETUdZabpqhcSwSHnAqPTKgzHZQ7PqXma8j+HccCwzdNTLjSQzAY2Ynx37fliFc10tT Plw78PipL8/MnZrN6DFj39G/sWV5xzxDs/PScUiallRruDNQJzZh+KY7VAsjqdHxWd2DY/xb oWI/uzJYwQLfiKCYRKXgegmRvrBlcV6DZEaO/8dHVw2z+n9dJxpNokraBUU9OGPniVrr7v/z bz1/AElvYbTSMoDWAAAAAElFTkSuQmCC" />
    <pattern
       id="Pattern_1"
       patternUnits="userSpaceOnUse"
       patternTransform="matrix( -0.83905029296875, 0, 0, 0.83905029296875, 195.8,108.95) "
       width="125"
       height="125">
      <use
         xlink:href="#FlashAICB_Patterns_New_Pattern_Swatch_60"
         id="use9" />
    </pattern>
    <pattern
       id="Pattern_2"
       patternUnits="userSpaceOnUse"
       patternTransform="matrix( 0.9566650390625, -0.291168212890625, 0.291168212890625, 0.9566650390625, 327.45,-11.25) "
       width="125"
       height="125">
      <use
         xlink:href="#FlashAICB_Patterns_New_Pattern_Swatch_77"
         id="use12" />
    </pattern>
    <pattern
       id="Pattern_3"
       patternUnits="userSpaceOnUse"
       patternTransform="matrix( 0.9923553466796875, -0.1233367919921875, 0.1233367919921875, 0.9923553466796875, 210.25,25.85) "
       width="125"
       height="125">
      <use
         xlink:href="#FlashAICB_Patterns_New_Pattern_Swatch_77"
         id="use15" />
    </pattern>
    <g
       id="Layer0_0_FILL">
      <path
         d="m 138.05,35.7 3.45,-2.6 q 3.55,-4 4.1,-10.8 0.65,-8.65 -8.2,-16.25 -9.25,-8 -19.5,-5.55 -8.9,2.1 -11.65,9.65 -1.35,3.75 -0.95,7.1 -0.2,-0.85 -3.35,-1.85 -6.3,-1.9 -21,-2.35 -18.35,-0.5 -29.45,3.5 -3.5,1.2 -5.8,2.75 l -1.65,1.3 q 0.25,-1.8 -1,-4.55 Q 40.6,10.45 33.15,5.5 28.6,2.45 23.05,2.65 17.85,2.8 12.9,5.75 2.15,12.2 0.4,24.8 q -1.55,11.55 4.1,17 2.85,2.75 6,3.15 l -1.2,2.9 Q 7.8,51.8 6.4,56.9 2,73.25 0.4,95.3 q -2.8,39.55 11.75,188.85 7.25,74.65 15.1,141.4 l 129.25,0 q -1.7,-60.9 -2.55,-86.1 -1,-32.05 -1.2,-95.65 -0.3,-81.05 2.05,-108.25 2.65,-30.4 -6.8,-68.15 -4.7,-18.9 -9.95,-31.7 z"
         id="path18"
         inkscape:connector-curvature="0"
         style="fill:url(#Pattern_1);stroke:none" />
    </g>
    <g
       id="Layer0_1_FILL">
      <path
         d="m 106,74.2 q 0,-2.75 -1.95,-4.7 -1.95,-1.95 -4.7,-1.95 -2.75,0 -4.65,1.95 -1.95,1.95 -1.95,4.7 0,2.75 1.95,4.65 1.9,1.95 4.65,1.95 2.75,0 4.7,-1.95 1.95,-1.9 1.95,-4.65 z"
         id="path21"
         inkscape:connector-curvature="0"
         style="fill:url(#Pattern_2);stroke:none" />
    </g>
    <g
       id="Layer0_2_FILL">
      <path
         d="m 17.65,75.3 q 0.4,-2.15 -0.55,-3.9 -0.9,-1.7 -2.6,-2 -1.7,-0.3 -3.15,1 -1.4,1.3 -1.8,3.45 -0.35,2.15 0.55,3.9 0.9,1.7 2.6,2 1.7,0.3 3.15,-1 1.45,-1.3 1.8,-3.45 z"
         id="path24"
         inkscape:connector-curvature="0"
         style="fill:url(#Pattern_3);stroke:none" />
    </g>
  </defs>
  <g
     transform="translate(0.0518732,0.07440191)"
     id="g26">
    <use
       xlink:href="#Layer0_0_FILL"
       id="use28"
       x="0"
       y="0"
       width="156"
       height="425" />
  </g>
  <g
     transform="translate(0.0518732,0.07440191)"
     id="g30">
    <use
       xlink:href="#Layer0_1_FILL"
       id="use32"
       x="0"
       y="0"
       width="156"
       height="425" />
  </g>
  <g
     transform="translate(0.0518732,0.07440191)"
     id="g34">
    <use
       xlink:href="#Layer0_2_FILL"
       id="use36"
       x="0"
       y="0"
       width="156"
       height="425" />
  </g>
</svg>
