<?xml version="1.0" encoding="UTF-8" standalone="no"?>
<svg
   xmlns:dc="http://purl.org/dc/elements/1.1/"
   xmlns:cc="http://creativecommons.org/ns#"
   xmlns:rdf="http://www.w3.org/1999/02/22-rdf-syntax-ns#"
   xmlns:svg="http://www.w3.org/2000/svg"
   xmlns="http://www.w3.org/2000/svg"
   xmlns:xlink="http://www.w3.org/1999/xlink"
   xmlns:sodipodi="http://sodipodi.sourceforge.net/DTD/sodipodi-0.dtd"
   xmlns:inkscape="http://www.inkscape.org/namespaces/inkscape"
   version="1.1"
   preserveAspectRatio="none"
   x="0px"
   y="0px"
   width="383"
   height="218.77499"
   viewBox="0 0 383 218.77499"
   id="svg2"
   inkscape:version="0.48.5 r10040"
   sodipodi:docname="mound_modular_1b_al1.svg">
  <metadata
     id="metadata25">
    <rdf:RDF>
      <cc:Work
         rdf:about="">
        <dc:format>image/svg+xml</dc:format>
        <dc:type
           rdf:resource="http://purl.org/dc/dcmitype/StillImage" />
      </cc:Work>
    </rdf:RDF>
  </metadata>
  <sodipodi:namedview
     pagecolor="#ffffff"
     bordercolor="#666666"
     borderopacity="1"
     objecttolerance="10"
     gridtolerance="10"
     guidetolerance="10"
     inkscape:pageopacity="0"
     inkscape:pageshadow="2"
     inkscape:window-width="640"
     inkscape:window-height="480"
     id="namedview23"
     showgrid="false"
     inkscape:zoom="1.0078329"
     inkscape:cx="191.5"
     inkscape:cy="109.775"
     inkscape:window-x="0"
     inkscape:window-y="0"
     inkscape:window-maximized="0"
     inkscape:current-layer="svg2" />
  <defs
     id="defs4">
    <g
       id="Layer0_0_FILL">
      <path
         d="m 198.6,218.7 q 0.23398,0.0469 0.75,0.05 -0.2375,-0.006 -0.5,-0.05 l -0.25,0 m 11.7,-0.15 0.05,0 0.5,-0.25 -0.55,0.25 m 25.35,-4.2 q -5.7,0.25 -10.2,1.85 2.85,-0.95 10.2,-1.85 m -79.5,-62.6 0.05,0.15 0,-0.15 0.1,-1.15 -0.15,1.15 m -67.4,41.8 -0.8,0 q 4,0.2 6.55,0.1 l -5.75,-0.1 M 155.3,103.4 q -1.35,-2.15 -2.75,-3.25 l -0.3,1.3 q 2.35,2.75 2.95,3.95 0.55,1.05 0.55,2.75 0,10.05 -7.55,12.2 -2.65,0.75 -6.85,0.7 -2.3,0 -6.55,-0.2 -1.95,0 -2.85,-0.4 -1.7,-0.8 -3.5,-3.55 l -0.8,0.35 q -0.5,-1.15 -0.9,-3 -0.4,-1.8 -0.4,-2.6 0,-2.85 1.4,-6.15 0,-0.1 1.75,-3.55 -2.5,1.45 -3.95,5.7 l -1.5,6.15 q -0.45,1.8 -2.9,4.35 -2.55,2.7 -2.65,3 -1.25,3.1 -7.35,7.05 -3.1,2 -6.65,4.2 0,2.05 0.15,5.1 0,0.5 -0.2,1 -0.1,0.2 -1.15,2.65 -0.7,1.2 -6.05,5.8 -4.95,4.95 -4.95,8.95 l 0.15,4.25 q 0.25,0.35 1.85,1.95 1.45,2.1 1.45,5.3 0,2.65 -2.4,4.65 0.65,1.25 3.35,2.95 2.3,1.45 2.3,2.65 0,1.7 -4.75,3.85 -4.8,2.15 -4.8,4.95 0,2.95 11.4,4.55 7.7,1.1 13.5,1.1 2.15,0 3.35,-1.65 0.95,-1.35 0.95,-3.15 0,-2.1 -1.6,-5.1 -2.8,-5.25 -4.95,-10.85 4.25,-0.75 6.2,-3.1 2.6,-3.1 3.25,-10.6 l 0.15,-1.05 q 0.65,1.2 0.65,2.5 0,1 -0.75,12.45 1.15,6.75 1.15,6.9 0,0.75 -1.25,7.6 -1.3,7.35 -1.85,8.25 l 1.1,0.2 -0.4,-0.1 q 0.6,-0.05 2.2,0.1 1.7,0.1 2.1,0.1 3.9,0 6.6,-5.15 2.85,-5.5 1.9,-12.8 -1.55,-2.8 -2.2,-5.45 l -0.15,-1.9 q 0.55,1.9 4.2,5.75 l 9.25,0.05 q 5.1,0 6.3,-0.2 1.75,-0.25 1.75,-1.45 0,-12.3 -4.55,-21.9 -1.15,-2.45 -2.55,-4.6 0.7,1.35 1.3,3 2.5,6.7 2.5,11.95 0,6.7 -0.7,8.05 -0.4,0.7 -2.6,0.7 -15.85,0 -19.15,-8.25 -0.4,-0.9 -1.35,-5.65 -0.5,-2.6 -2.1,-2.6 -3.4,0 -4.9,2.55 -0.75,1.25 -1.75,5.6 -0.9,3.9 -2.35,5.55 -2.15,2.55 -6.65,2.55 -0.75,0 -2.6,-0.3 -1.85,-0.35 -2.65,-0.6 l -0.8,-0.55 q 1.35,-1 2.35,-2.7 0.7,-1.3 0.7,-1.7 0,-1.1 -1.2,-1.9 -1.65,-0.95 -2.55,-1.5 -3.8,-2.15 -3.8,-6.25 0,-2.8 6.25,-9.8 6.05,-6.8 7.95,-6.8 2.05,0 6.1,0.8 4.05,0.75 18.5,0.75 2.9,0 5.25,1.75 -2.8,-2.95 -6.25,-5.15 -3.15,-0.35 -4.9,-0.75 l -1.25,-0.5 q 5.05,-1.75 7.4,-2.45 4.05,-1.25 9.8,-1.7 1.5,-0.75 2.2,-1.5 0.7,-0.75 1.5,-2.55 l 0.55,-1.65 q 0.75,-1.85 2.25,-3.15 1.65,-1.2 2.45,-2.05 2.8,-3 3.05,-12.75 l -0.05,-0.35 q -0.3,-0.4 -2.4,-3.65 m -27.7,74.4 q 1.6,0 2.75,1.75 1.1,1.7 1.1,4.15 0,2.45 -1.1,4.2 -1.15,1.7 -2.75,1.7 -1.6,0 -2.7,-1.7 -1.15,-1.75 -1.15,-4.2 0,-2.45 1.15,-4.15 1.1,-1.75 2.7,-1.75 m -49.85,15.3 -1.95,0 2.45,0.05 -0.5,-0.05 m -49.8,-16.75 q 0,6.9 9.5,11.8 9.45,4.9 22.85,4.9 l -0.2,-0.4 q 4.1,0.75 10.55,-3 7,-4.05 7,-8.85 0,-3.6 -0.7,-7.45 -0.75,-3.85 -0.75,-5.6 0,-5.75 2.7,-8.95 2.85,-2.4 3.25,-3.55 -4.25,-0.15 -6.05,-0.45 -2.3,-0.35 -3.85,-1.05 0.8,2.1 0.8,3.75 0,3.5 -8.85,5.5 -6.75,1.5 -13.75,1.5 -9.9,0.2 -11.7,-1.1 l 3.65,-4.55 q -3.55,3.55 -8.8,10.3 -2.65,3.4 -5.65,7.2 m 21,-5.5 22.95,0 0,11.55 -22.95,0 0,-11.55 m -24.1,2.9 -0.15,-0.15 -0.15,-0.1 q 0.143945,0.0998 0.3,0.25 m 6.25,-19.9 q 0.35,-0.5 0.35,-1.2 -4.7,0 -8,-1.65 -3.25,-1.6 -3.35,-3.85 0.05,2.9 2.95,5 2.95,2.15 7.15,2.15 0.5,0 0.9,-0.45 m 18.8,-8.7 q 3.8,-10.25 9.4,-11.15 0.3,0.65 8,11.15 0.8,1.1 1.5,2.15 -0.05,-0.65 0,-1.35 0.6,-4.3 0.4,-4.85 -1.5,-4.75 -5.7,-7.3 -3.45,-2.1 -3.4,-5.7 -7.5,5.65 -9.9,13.6 -0.7,2.3 -2,7.15 -1.3,4.55 -3.4,8.3 1.2,-0.85 2.55,-4.55 1.55,-4.85 2.55,-7.45 m -8.3,-43 q 0.65,-1 1.3,-1.95 l -0.75,0.45 q -0.25,0.7 -0.55,1.5 M 152.3,82.3 q 0.25,-0.55 0.65,-0.55 0.25,-0.2 1.55,-0.95 1.3,-0.75 1.7,-0.9 -4.6,0.05 -6.5,1.65 -1.75,1.45 -1.75,4.75 0,1.75 1.55,3.2 -0.1,-0.3 -0.1,-0.6 0,-0.9 1.15,-2.95 1.3,-2.05 1.45,-2.4 0,-0.75 0.3,-1.25 m 0.25,-38.55 q 2.45,0.1 5.25,-1.05 -6.55,-0.1 -9.6,1.5 1.7,-0.6 4.35,-0.45 m -14.5,4.45 q -2.2,0.5 -3.85,0.9 -1.6,0.4 -2.7,0.75 -1.5,0.45 -2.15,0.85 l 8.15,0 q 3,-1.3 7.5,-3.8 l 1,-1.2 q -1.25,1.05 -7.95,2.5 m 173.2,133.95 q 1.85,-1.45 2,-1.6 l -0.9,0.65 q -1.35,1.05 -4.6,3.6 1.35,-0.9 3.5,-2.65 m -37.7,10.35 2.55,-0.15 -1.7,0.05 -0.85,0.1 m -7.35,3.45 3.4,-2.25 -2.35,1.35 -1.05,0.9 m -60.25,-4.55 q -0.7,-1.15 -1.65,-1.15 l 0,0.45 q 1.65,1.9 2.35,3.45 0,-1.6 -0.7,-2.75 m 15.3,-39.7 q -0.4,-0.05 -0.8,-0.05 4.75,1.3 10.5,2.2 -5.75,-1.8 -9.7,-2.15 m -45.8,37.3 q 0,3.75 1.2,7 0.7,1.8 2,4.65 l 0.6,0.75 q -0.85,-0.7 -3.3,-3 -3.35,-3.2 -5.4,-5.05 2.7,4.7 7.35,9.6 2.5,2.55 1.8,5.5 l 10.35,5.9 -0.05,-1.3 q 0,-0.85 1.25,-1.8 1.8,-1.15 2.85,-1.95 4.05,-3.25 4.05,-8.75 0,-2.5 -1.85,-7.5 -2.1,-5.8 -4.4,-7.15 -1.15,0.35 -3,-0.45 l -8.15,-0.55 q -3.1,0 -4.3,1.1 -1,0.9 -1,3 M 169,188.4 q -0.15,0.45 0.05,1.05 l 0.15,-1.4 -0.2,0.35 m 8.65,-10.25 q -3.95,0 -5.35,1.2 -1.65,1.4 -1.85,5.7 2.8,-2.65 4,-3.65 2.05,-1.7 3.65,-1.7 1.5,0 4.5,1.9 5.5,3.4 6.3,3.85 1.8,0.3 2.75,0.3 -2.25,-1.05 -6.6,-5.05 -2.85,-2.55 -7.4,-2.55 m 14.35,-8.95 -0.25,-1.1 q 0.25,2.8 0.3,5.6 0.5,1.9 4.2,4.65 -1.75,-1.4 -3.05,-4.45 -1.15,-2.7 -1.2,-4.7 m 0.8,-20 0,-0.6 q -1.05,2.05 -1.4,3.6 -0.25,1.25 -0.25,3.9 0,1 0.55,5.35 l 0.65,-5.15 q 0,-2.35 0.45,-7.1 m 8.35,5.5 q -2.35,1 -3.7,2.5 l -0.1,5.9 q 0,2.65 0.6,6.55 3.25,1.95 6.45,6.2 2.7,3.55 3.35,3.55 2.3,-1.15 5.15,-2.3 5.7,-2.3 9.55,-2.3 0.3,0 1.8,0.35 1.8,0.45 2.4,0.85 -0.8,0.8 -4.45,2.1 -4.15,1.45 -6.4,2.95 -8.05,5.4 -6.8,19 l -1.25,-3.1 -0.05,0.9 q -0.1,1.15 -0.35,2.1 0.5,1 1.15,2.3 0.4,0.9 0.4,1.6 0,1.25 -0.8,1.7 -0.5,0.3 -1.9,0.95 0,2.3 -0.5,5 l 0.2,1.1 q 1.25,0.25 8.4,1 7.55,0.8 9.65,0.8 6.45,0 12.75,-5.8 5.3,-4.9 5.3,-7.05 0,-4.15 -2.1,-12.7 -2.1,-8.5 -2.1,-11.35 0,-3.1 5.35,-4.85 5.35,-1.75 5.35,-3.5 0,-2.95 -1.65,-5.75 -1.85,-3.05 -4.95,-4.5 l 0.75,1 q -0.05,0.2 -1.05,0.2 -0.15,0 -18.15,-2.7 -2.45,-0.5 -11.5,-2.55 -5.05,-1.15 -6.1,-1.15 -2.3,0 -4.7,1 m 9.2,-6.9 q -1.45,-1.55 -3.35,-4.05 -4.25,-5.7 -8.75,-5.65 l -0.2,1 q 0.85,-0.45 1.05,-0.55 0.3,-0.1 0.95,-0.1 0.05,0 1,1.8 1.45,2.2 4.05,4.25 2.3,1.8 5.25,3.3 M 228.6,117 q -1.5,0.75 -3.8,1.8 -2.45,1.1 -2.75,1.15 0.15,-1.05 0.25,-2 -0.35,-0.3 -0.35,-0.65 0,-0.05 0.4,-1.5 0,-0.4 -0.05,-0.8 -0.3,-4.15 -3.9,-6.85 0,7.1 -3.45,12.15 -1.65,2.35 -3.55,3.6 -0.15,0.35 -0.35,0.6 -0.75,0.95 -3.25,1.05 l -1.3,-0.2 q -0.85,-0.8 -1.65,-1.9 l -0.35,2 q 7.3,4.75 13.65,13.15 2.1,2.75 3.85,3.75 2.45,1.35 6.75,1.35 2.65,0 3.3,-1.65 0.4,-1.05 0.15,-4.15 -0.4,-5.7 1.7,-8.85 0.05,-0.25 0.15,-0.35 0.05,-0.05 0.1,-0.05 0.55,-0.75 1.2,-1.3 1.05,-3.1 1.05,-3.15 0,-1.7 -1.4,-5.1 0,-0.25 -0.05,-0.5 -0.2,-0.95 -1.25,-1.6 -1.3,-0.9 -3.1,-0.9 -0.9,0.6 -2,0.9 m 1.95,1.35 q 0.75,1.7 0.75,2.3 0,5.25 -1.7,9.1 -1.75,4 -4.3,4 -3.65,0 -5,-0.9 -1.1,-0.75 -1.1,-2.65 0,-3.2 2.95,-7.05 3.1,-3.95 7.65,-6.35 l 0.75,1.55 M 206.1,60.7 q -0.3,-0.4 -1.25,-0.7 l 0,4.65 0.75,-1 q 0.15,-1.85 0.5,-2.95 m -5.7,-0.65 0.2,0.2 q 0.15,0.35 0.15,0.95 0,4.35 -5.3,5.85 -3.05,0.85 -9.35,0.85 -4.9,0 -11.7,-1.6 l 1.3,-3.3 q 0,-2.95 3.4,-5 3.35,-2.1 8.1,-2.1 3.5,0 9.3,0.65 -0.7,-0.65 -5.55,-1.05 -3.65,-0.35 -5.9,-0.35 -8.05,0 -13,5.45 -3.1,3.4 -8.05,13.9 l -0.55,1 q -0.6,1.7 -1.15,2.6 1.7,-1.2 1.95,-1.75 0.3,-0.7 6.35,-5.3 -1.4,11.3 -3.5,15.05 -3.55,6.1 -12.7,6.45 2.95,2 4.35,4.55 l 0.1,0.8 0.2,-5 0,13.15 q 0.1,0.65 0.65,1.6 0.5,1.6 0.5,5.75 0,7.3 -3.4,14.25 -2.2,4.5 -3.7,5.85 l -0.05,3.45 q 0,9.35 5.65,17.1 1.45,2 4.05,5.25 1.95,2.75 2.2,4.85 0.9,7.75 5.95,9.75 1.85,0.7 8.7,0.7 2.2,-0.6 3.9,-1.8 2.15,-1.5 2.65,-3.45 0.25,-2.25 0.25,-4.9 0,-2.65 -1.2,-4.8 -1.25,-2.15 -1.25,-3.05 0,-1.2 1.65,-3.25 1.65,-2.05 1.65,-8 0,-2.9 -2.95,-12.85 -2.45,-8.5 -3.85,-11.9 -2.15,-4.4 -3.6,-7.75 -2.7,-6.4 -2.7,-10.6 0,-2.4 0.5,-6.45 0.55,-4.4 1.2,-6.05 l 0.35,-0.85 q -1.35,15.2 5.3,26.45 2.6,4.4 5.85,7.05 3,2.45 5.35,2.45 2.5,0 2.8,-2.8 0.1,-5 0.65,-9.55 3.35,3.9 3.55,4.15 0,-2.05 -0.95,-3.6 -0.4,-0.6 -2.65,-3.15 -4.9,-5.6 -8.35,-14.8 3.1,3.8 9.85,9.9 3.9,3.5 6.45,9.55 l 0.5,-2 q 0.0383,-0.15313 0.05,-0.3 0.05,-0.0875 0.05,-0.2 0.35,-1.55508 0.35,-3.2 0,-2 0.1,-2.35 0.5,-1.35 6.95,-1.25 -12.35,-5.5 -18.75,-10.7 -7.8,-6.4 -7.8,-13.25 0,-3.05 -0.2,-4.55 -0.4,-2.85 -1.65,-4.3 l -4.2,-2.15 -0.4,-0.25 4.2,0.15 -0.45,-0.1 q 9,0.15 12.25,-0.15 3.15,-1.9 6.45,-2.95 0.2,-0.3 1.35,-3.15 1.05,-2.7 1.5,-3.95 -2.6,0.1 -3.95,0.15 M 176.35,92 l 0.2,-5.15 0.15,0 q 0.85,0.55 9.05,12.25 8,11.45 8,11.7 0,1.15 -0.3,2.45 -0.45,1.7 -1.1,1.7 -10.85,0 -14.45,-10.65 -1.55,-4.5 -1.55,-12.3 m -13.15,17.85 0.1,0 q 3.6,0.9 11.7,14 8.7,14.15 8.7,22.75 0,2.65 -1.75,4.2 -2.9,2.5 -3.95,4.25 1.45,1.4 4.1,3.2 2,1.55 2,3.45 0,3.75 -5.3,7.5 -4.45,3.15 -6.5,3.15 -1.8,0 -3.25,-3.95 -1.55,-5.45 -2.45,-8.45 -3.45,-11.65 -9.4,-9.35 -0.95,-8.55 -0.95,-10.2 0,-7.3 3.25,-15.9 3.4,-9.05 3.7,-14.65 M 176.8,48.7 q 0,-2.3 -3.9,-2.7 -6.4,-0.6 -10.05,-2.25 -0.8,0.1 -2.2,-0.2 -1.4,-0.3 -2.4,-0.75 l -1.3,1.6 q 2,0.55 4.35,1.1 4.75,1.05 7.95,1 l 0.1,4.25 q 0,2 -3.95,4.1 -6.6,3.45 -10.55,6.75 -5,4.15 -7.2,8 -1.35,2.3 -2.65,2.3 -10.1,0 -20,-8.2 -8.65,-7.2 -9.1,-12.1 0,-0.5 0.6,-0.85 0.55,-0.35 1.4,-0.35 -0.45,-0.1 -4.35,-1.55 -4.4,-1.4 -7.75,-1.4 -8.25,0 -12.2,3.05 -3.5,2.7 -3.5,7.6 0,3.15 2.8,3.65 4.85,0.15 8.8,0.35 0,0.1 0.95,0.2 -0.85,1.25 -1.65,1.8 3.95,-0.55 7.6,-0.45 0.35,-0.1 0.8,-0.15 0.85,-0.1 1.2,0.3 3.6,3.05 3.45,3.85 4.35,5.75 4.9,6.5 3.8,5.45 3.8,7.2 0,0.5 -0.45,0.85 -0.45,0.35 -1.05,0.35 -0.8,0 -6.05,-1.65 -5.3,-1.65 -9.1,-1.65 -5.6,0 -7.95,0.85 -2,0.75 -3.45,2.95 -0.95,1.4 -3.5,5.65 -3.05,4.45 -7.9,9 -0.2,-0.3 -0.45,-1.3 -0.35,-1.15 -0.35,-1.85 0,-4.4 0.35,-6.4 0.65,-2.9 1.3,-6.3 L 84,80.5 84.35,78.65 q -2.2,4.05 -3.2,15.6 -1.1,13.05 -1.55,14.65 -0.15,0.5 -4.8,7 -4,5.6 -4.25,11.2 3.6,-1.7 11.35,-2 5.25,-0.2 5.25,-2.95 0,-2.5 -1.7,-3.85 -2.3,-1.75 -8.2,-2.35 0.15,-0.6 1.05,-2.55 0.9,-1.8 1.15,-2.1 0.25,-0.85 0.85,-2.05 0.9,-1.6 2,-2.7 0.15,-0.25 1.6,-2.2 1.5,-2 1.9,-2.4 1,-1.2 2.25,-1.7 1.85,-0.65 5.55,-0.5 5.2,0.1 9.1,0.45 0.25,0 2,0.2 l 7.2,0.7 -0.7,1 q 1.35,1.1 1.85,2.9 0.4,1.55 0.4,5 0,3.9 -4.5,8.65 -3.9,4.15 -5.35,4.15 -1,0 -7.85,-0.75 -1.05,0 -2.75,2.95 -1,1.8 -3.4,6.55 -5.1,9.5 -9.9,9.5 -1.45,0 -3.55,-1.8 -0.8,-0.7 -2.7,-2.75 -0.15,2.95 -0.55,6.4 -0.35,3.05 -0.35,3.3 0,0.2 0.2,0.45 0.45,0.5 1.6,1.15 6.7,-0.8 9.7,-0.9 l -7.45,0 q 3.6,-0.5 10.65,-4.9 7.9,-4.95 10.3,-8.05 0,-3.35 1.25,-5.7 1.2,-2.4 2.95,-2.4 l 1.35,-1.65 -0.35,1.85 1.75,-2.3 0,1.25 q 7.6,-0.85 10.65,-5.9 2.6,-4.35 2.6,-13.5 0,-2 -3.2,-4.1 -4,-2.65 -10.3,-2.65 -0.85,0 -2.65,0.25 -2,0.25 -3.2,0.6 1.7,-1.2 5.7,-2.05 3.25,-0.75 4.8,-0.75 0.35,0 2.2,0.55 1.85,0.55 3.3,0.55 3.35,0 4.55,-2.2 1,-1.85 1.35,-7.5 3.5,4.15 4.3,4.7 1.8,1.3 5.55,1.3 3.65,0 4.9,-0.75 1.5,-0.9 3.4,-4.7 l -0.2,-1.15 q 0.1,-1.3 0.65,-2.75 1,-2.25 1.8,-2.65 1.25,-0.35 2.6,-1.25 2.15,-2.95 7.45,-5.25 5.25,-1.9 6.1,-2.6 4.5,-3.4 5,-5.8 1,-4.85 2.95,-8.3 0.2,-0.4 1.2,-1.5 1.1,-1.3 1.9,-1.85 l 0.35,-0.25 q 4.4,-1.75 5.95,-2.55 2.6,-1.35 2.6,-4.25 m -2.5,-20.2 0.35,-0.65 q -2.65,0.35 -3.55,1.4 -0.6,0.6 -0.6,1.95 0,4.9 5.45,7.2 4.15,1.75 10.75,1.75 2.2,0 4.45,-1.05 1.7,-0.75 2.95,-1.85 -2.4,1 -5.05,1.3 -1.5,0.15 -5.35,0.15 -5.85,0 -8.9,-1.5 -2.9,-1.45 -2.9,-4.05 0,-3.4 2.4,-4.65 M 172.1,5.65 q -0.25,-0.1 -8.6,-3.95 -5.15,11.85 -15,11.85 -2.95,0 -4.25,-1.2 -0.8,-0.7 -0.8,-1.65 1.6,-3.5 1.75,-4.95 -1.2,-0.5 -3.2,-0.5 -10.4,0 -17.3,7.5 -7.35,8 -4,18.3 -1.1,-1.35 -7.1,-1.95 -8.4,-0.75 -8.55,-0.8 0.75,-1.9 1.2,-3.2 0.8,-2.4 0.55,-3.5 l -1.85,-0.05 q -5.65,0 -10.65,8.2 -2.85,4.55 -3.7,5.6 -2.15,2.55 -4.45,2.55 -3.15,0 -4.3,-2.6 -0.8,-1.75 -0.8,-5.3 -2.4,-3.45 -4.3,-4.7 l -8.8,11.55 0.3,-0.35 q 0.55,2.2 1.4,2.9 0.45,0.4 1.25,0.9 1.25,1.5 1.25,13.4 0,8.95 -5.4,15.05 Q 61.9,74.2 56.35,74.2 52.9,74.2 51.6,73.55 50,72.7 49.45,70 q -1.6,2.9 -1.75,3.15 -0.6,1 -1.95,2.95 3.25,15.55 -17.5,32.1 -7.85,6.25 -15.95,9.9 -7.85,3.5 -10.6,2.3 -1.1,1.25 -1.35,1.9 -0.35,0.8 -0.35,2.5 0,0.05 0.9,4.05 1.05,4.35 1.95,6.3 l 0.4,-0.3 q 1.35,-5.9 6.7,-9.8 4.2,-3.05 8.05,-3.4 0.45,-0.45 13.2,-12.2 6.7,-6.15 12.2,-15.25 l 0.1,0.7 q 0.05,0.85 0,1.45 3.6,-4.55 9.1,-12.9 2.9,-4.3 6.5,-6.95 1.85,-0.9 4.35,-0.8 3.2,0.3 5.3,0.3 0.5,0 1.45,-0.4 0.95,-0.4 1.45,-0.4 0.75,0 1.75,1 1,1 1,1.75 0,6.6 -3.05,15.45 -3.5,9.95 -7.7,11.55 -8.15,3.05 -15.8,8.45 -5.5,3.9 -9.3,3.9 -0.75,0 -2.9,-0.3 -2.7,-0.4 -3.65,-0.85 0.65,-0.9 1.25,-1.65 -2.65,2.85 -5.95,5.9 -0.5,0.45 -8.95,7.85 -4.55,4.05 -5.95,5.95 -0.45,1.6 -2.4,3.9 -1.95,2.2 -2.9,2.45 L 5.2,142.8 Q 6,146.25 4.45,149.05 2.6,152.4 2.6,155 q 0,7 1.6,8.65 1.15,1.15 5.6,2.8 7.25,0 12.4,-2.75 5.1,-2.75 5.1,-6.6 -2.7,0.65 -5.55,-1.55 -2.9,-2.25 -2.9,-4.9 0.55,-4.45 0.9,-8.15 l 0.1,2.15 q 1.75,-8.85 2.15,-10.4 1.05,-3.95 2.6,-5.45 1.65,-1.6 5.1,-1.55 2.9,0 9.7,1.3 -0.8,-0.5 -2.05,-1.5 -1.45,-1.2 -1.8,-1.7 5.9,-1.25 9.15,-2.4 5.8,-2 10.05,-6.15 6.2,-6.05 10.8,-9.05 2.95,-2 6.1,-6.1 l 0.1,-0.3 q 0,-0.05 1.15,-5.5 1.1,-5.4 2.05,-8.1 0.7,-1.95 3.95,-7.05 3.05,-4.7 3.05,-4.85 0,-2.35 -1.4,-3.25 -0.75,-0.45 -3.1,-0.8 -4.55,-0.65 -4.55,-5.25 0,-5.05 1.75,-7.7 1.75,-2.6 1.75,-4.85 0,-1.8 -0.9,-5.35 -1.2,-4.7 -1.6,-7 l 0,-5.3 q 0.35,3.75 4.9,6.95 5.25,3.7 10.3,2.65 0.15,-0.05 2.05,-1.75 1.75,-1.55 3.05,-2.05 1.45,-0.85 1.75,-1.35 l 0.55,-0.3 q 3,-1 4.65,-1 9.25,0 17,3.5 3.55,1.75 5,2.4 2.4,1.1 4,1.1 1.95,0 2.7,-0.2 1.2,-0.25 2.55,-1.4 2.05,-2.35 2.85,-3.55 1.15,-1.7 6.7,-13.35 -0.2,1.05 -1.65,5.8 -1.65,5.25 -2.5,8.95 1.15,-1.2 3.55,-2.45 3.45,-1.75 6.85,-1.75 1.85,0 4.9,1.1 -0.7,-0.6 -1.15,-1.1 2.95,0.9 7.45,0.8 0.6,-1.95 0.6,-5.75 -0.2,2.3 -1,3.3 -1.15,1.35 -4,1.35 -2.45,0 -6.15,-1.05 -4.3,-1.2 -4.3,-2.5 0,-2 0.25,-4.75 0.4,-3.9 1.05,-5 0,-2 1.45,-3.4 1.45,-1.4 3.5,-1.4 3.95,-1.45 5.55,0.2 0.85,0.85 1.25,2.6 -0.4,-2.4 -0.4,-2.75 0,-1.5 2.15,-3.4 2.4,-2.1 3.05,-5.05 0.25,-1.25 4.1,-3.05 4.6,-2.15 5.6,-3.05 M 23.1,161.7 q 0,0.75 -2.45,1.3 -2.2,0.5 -4.35,0.5 -6.45,0 -9.85,-3.1 -2.5,-2.25 -2.5,-4.8 0,-2.65 1.55,-5.65 2.1,-4.05 5.6,-3.55 0,9.4 6,11.25 3,0.65 4.15,1.1 1.85,0.8 1.85,2.95 m 167.85,-139.25 -3,0 q -1.7,0.85 -4.75,1.45 -3.85,0.75 -7.5,0.6 0,1.65 -0.1,2.25 1.6,-1.1 7.55,-2.45 4.35,-1 7.5,-1.45 l 0.3,-0.4 m 27,9.15 q 0.75,-0.6 1.3,-1.25 -1.45,0.55 -3.75,0.95 -3.5,0.65 -12.35,2.1 1.35,0 3.1,0.3 1.75,0.35 2.5,0.7 1.15,-0.35 2.35,-0.6 0.95,-0.05 1.85,-0.1 2.8,-0.45 5,-2.1 m 13.7,-10.5 q -0.65,0.95 -3.35,0.95 -4.1,0 -9.25,-1.25 -4.75,-1.3 -5.85,-1.55 -6.7,-0.15 -10.75,-0.35 l -5.9,0 -0.05,-0.55 -0.95,-0.15 q 1.1,-2.85 1.2,-3.05 -4.35,1.25 -6.5,3.85 -1.1,1.4 -2.2,3.4 4.35,0.05 10.55,0 l 6.65,-0.15 -0.7,0.1 0.3,0.05 11.2,-0.4 5.2,1.1 3.35,1.25 1.8,0.35 q 1.9,0.3 2.5,0.3 4.5,0 6.5,-1.1 0.35,-0.55 0.8,-1.2 0.45,-0.7 0.8,-1.25 0.15,-1.2 0.35,-3.3 l -5.25,-2.9 0.15,1.65 q 0,3.4 -0.6,4.2 m 61.25,126.05 q -0.15,-2.1 -1.1,-2.1 -8.8,0.25 -13.9,4.1 -5.1,3.85 -5.1,10.1 0,1.8 2.25,2.85 2.25,1.05 6.55,1.25 0.75,0 1.55,0 3.45,0 6.6,-3.25 0.05,-0.05 0.15,-0.15 3,-3.2 3,-6.65 0,-6.05 0,-6.15 m 56.65,17.7 -1.5,0.2 q -4.3,1 -8,2.4 l -7.95,3.05 -0.1,0.05 q 3.45,-1.15 8.75,-3.3 1.8,-0.75 8.8,-2.4 m -17.35,-30.8 q 0,-1.25 -3.35,-1.25 -10,0 -13.8,3.35 -3.85,3.45 -3.85,12.6 0,3.05 0.75,4.55 1.35,2.85 5.3,2.85 3.35,0 9.15,-8.5 5.8,-8.5 5.8,-13.6 z"
         id="path7"
         inkscape:connector-curvature="0"
         style="fill:#76664d;stroke:none" />
      <path
         d="m 206.2,206.5 q 1.4,-0.65 1.9,-0.95 0.8,-0.45 0.8,-1.7 0,-0.7 -0.4,-1.6 -0.65,-1.3 -1.15,-2.3 -0.3,1 -0.95,2.85 -0.45,1.65 -0.2,3.7 m -85.85,-12.1 0.4,0.1 q 4.25,1 15.7,5.6 8.65,3.5 20.4,4.65 l 0.65,-0.65 q 1.05,-4.35 0.5,-8.1 -1.15,-7.35 -8.8,-7.35 -3,0 -4.35,1 -0.7,0.55 -1.5,2.2 -1.55,3.2 -7,3.2 -1,0 -2.65,-0.15 l 1.1,-0.8 q 3.1,-1.45 4.25,-3.45 0.8,-1.5 0.8,-4 0,-1.9 -2.1,-4.45 -2.9,-3.25 -4.6,-5.55 0.95,7.3 -1.9,12.8 -2.7,5.15 -6.6,5.15 -0.4,0 -2.1,-0.1 -1.6,-0.15 -2.2,-0.1 m -2.05,-26.15 q -1.95,2.35 -6.2,3.1 2.15,5.6 4.95,10.85 1.6,3 1.6,5.1 0,1.8 -0.95,3.15 -1.2,1.65 -3.35,1.65 -5.8,0 -13.5,-1.1 -11.4,-1.6 -11.4,-4.55 0,-2.8 4.8,-4.95 4.75,-2.15 4.75,-3.85 0,-1.2 -2.3,-2.65 -2.7,-1.7 -3.35,-2.95 -1.15,1.35 -6,6.35 0.35,1.05 1,5.25 0.55,3.85 0.55,4.5 0,2.05 -0.55,4.3 l 0.4,1.1 5.75,0.1 q 11.3,0 19.2,0.3 5.25,0.2 5.95,0.35 0.55,-0.9 1.85,-8.25 1.25,-6.85 1.25,-7.6 0,-0.15 -1.15,-6.9 0.75,-11.45 0.75,-12.45 0,-1.3 -0.65,-2.5 l -0.15,1.05 q -0.65,7.5 -3.25,10.6 m -19.5,-40 q -1.25,2.35 -1.25,5.7 0.25,-0.25 0.85,-2.15 0.75,-2.3 3.35,-5.95 -1.75,0 -2.95,2.4 m 46.95,2.8 q 1.55,0 2.65,-1.15 1.05,-1.2 1.05,-2.9 -0.8,1.8 -1.5,2.55 -0.7,0.75 -2.2,1.5 m -8.7,5.8 q -1.7,-0.4 -2.35,-0.4 3.45,2.2 6.25,5.15 2.35,2.4 4.25,5.35 1.4,2.15 2.55,4.6 4.55,9.6 4.55,21.9 0,1.2 -1.75,1.45 -1.2,0.2 -6.3,0.2 L 135,175.05 q 1.45,1.6 6.45,2.45 4.75,0.55 4.8,0.55 2.15,0 4.05,-0.4 1.15,-0.8 2.35,-1.95 0.95,-1.05 0.95,-1.1 2.6,-11.65 -4.1,-22.85 -1.7,-2.9 -5.45,-7.8 -3.2,-4.15 -3.9,-5.8 -0.75,-0.75 -3.1,-1.3 m 17.65,-16.7 q -0.8,0.85 -2.45,2.05 -1.5,1.3 -2.25,3.15 1.1,-1.55 5.6,-4.75 2.55,-1.8 2.55,-6.35 0,-1.15 -0.4,-6.85 -0.25,9.75 -3.05,12.75 m -126.9,38.8 -0.15,-1.85 -0.35,0 q 0,3.85 -5.1,6.6 -5.15,2.75 -12.4,2.75 l 2,0.85 q 5.9,1.1 10.2,-0.25 5.8,-1.9 5.8,-8.1 M 7.1,140.55 q 0.95,-0.25 2.9,-2.45 1.95,-2.3 2.4,-3.9 -2.25,2.9 -2.8,3.6 -0.9,1.1 -2.5,2.75 m 2.85,-15.5 q -5.35,3.9 -6.7,9.8 5,-2.45 8.35,-6.3 4.9,-5.65 6.4,-6.9 -3.85,0.35 -8.05,3.4 M 67.8,107.9 q 3.65,-3.25 3.85,-6.25 -3.15,4.1 -6.1,6.1 -4.6,3 -10.8,9.05 -4.25,4.15 -10.05,6.15 -3.25,1.15 -9.15,2.4 0.35,0.5 1.8,1.7 1.25,1 2.05,1.5 1.65,0.4 2.55,2.25 0.7,1.55 0.7,3.5 0,3.05 -2.35,9.05 -3.45,8.65 -8.85,9.3 0,0.7 -0.35,1.2 -0.4,0.45 -0.9,0.45 3.65,0.35 4.9,0.15 1.95,-0.25 5.3,-4.35 l 2.7,-7.2 q 0.8,-3.3 2.9,-8.25 l 2,-4.3 q -2.3,-0.25 -6.6,-2.55 -4.15,-2.35 -4.8,-2.65 l 1.15,0.4 q 1.3,0.45 5,1.35 3.45,0.8 3.65,0.8 0.9,0 2.3,-0.75 1.45,-0.8 2.5,-1.9 -0.9,0.5 -1.8,0.85 1.15,-0.8 3.4,-3.25 1.05,-1.6 1.4,-2.05 0.4,-0.65 2.7,-2.85 1,-1 10.9,-9.85 m 72.9,-25.6 q -0.8,0.4 -1.8,2.65 0.5,-0.15 2.25,-1.7 1.85,-1.55 2.15,-2.2 -1.35,0.9 -2.6,1.25 m 0.65,-42 q -2.4,1.25 -3.55,2.45 -1.1,3.75 -1.85,4.8 -0.7,1 -1.75,1.55 1.65,-0.4 3.85,-0.9 6.7,-1.45 7.95,-2.5 1.4,-1.2 2.2,-1.5 3.05,-1.6 9.6,-1.5 l 0.15,0 -4.85,-3.05 q -3.05,-1.1 -4.9,-1.1 -3.4,0 -6.85,1.75 m -14.2,6.2 q -1.6,0 -4,-1.1 -1.45,-0.65 -5,-2.4 -7.75,-3.5 -17,-3.5 -1.65,0 -4.65,1 9.9,0.15 10.7,0.2 3.3,0.25 7.85,1.7 l -1.2,0.05 q -6.5,-0.45 -13.5,3.25 -1.8,0.95 -4.8,2.65 -2.35,1.2 -3.85,1.2 L 85.5,48.9 q -6.4,-1.3 -7.15,-4.55 6.65,2.2 6.8,2.2 0.75,0 2.15,-0.2 1.4,-0.2 1.8,-0.4 Q 84.05,47 78.8,43.3 74.25,40.1 73.9,36.35 l 0,5.3 q 0.4,2.3 1.6,7 0.9,3.55 0.9,5.35 0,2.25 -1.75,4.85 -1.75,2.65 -1.75,7.7 0,4.6 4.55,5.25 2.35,0.35 3.1,0.8 1.4,0.9 1.4,3.25 0,0.15 -3.05,4.85 -3.25,5.1 -3.95,7.05 -0.95,2.7 -2.05,8.1 -1.15,5.45 -1.15,5.5 l 2.9,-4.45 Q 74.9,95.75 74.55,95.3 74.2,94.8 74.25,94.6 74.3,93.3 79.5,84 l 0,2 q 1.75,21.7 -9.55,31.35 -3.55,2.95 -10.85,6.7 -8.05,4.1 -11.05,6.3 0,0.1 -0.15,5.9 -0.15,5 -0.7,8.55 -1.75,11.25 -8.15,12.75 -0.1,0 -2.6,0.3 -1.25,0.95 -5.6,6.6 -4.8,6.2 -6.15,9.15 l 0.15,0.15 0.05,0.05 0.05,0 0.05,0.05 2.95,2.5 q 3,-3.8 5.65,-7.2 5.25,-6.75 8.8,-10.3 l 2.4,-1.7 q 2.1,-3.75 3.4,-8.3 1.3,-4.85 2,-7.15 2.4,-7.95 9.9,-13.6 -0.05,3.6 3.4,5.7 4.2,2.55 5.7,7.3 0.2,0.55 -0.4,4.85 -0.05,0.7 0,1.35 0,3.45 1.45,5.05 0.75,0.8 2,1.4 1.55,0.7 3.85,1.05 1.8,0.3 6.05,0.45 -0.4,1.15 -3.25,3.55 -2.7,3.2 -2.7,8.95 0,1.75 0.75,5.6 0.7,3.85 0.7,7.45 0,4.8 -7,8.85 -6.45,3.75 -10.55,3 l 0.2,0.4 q 4.25,0.05 9.55,-0.1 l 5.95,0.15 1.95,0 2.7,-2.15 q -1.4,-0.8 -3.95,-0.75 -1.4,0 -3.8,0.2 l 1.65,-0.5 q 5.05,-2.25 6.45,-12.1 0.55,-10.2 1.2,-11.85 2.55,-1.9 4.4,-4 2.3,-2.65 4.4,-6.45 l 0.3,0.75 q 0,0.1 0.6,1.85 0.6,1.7 0.75,2.05 L 92.3,155.9 q 0,-4 4.95,-8.95 5.35,-4.6 6.05,-5.8 -4.95,5 -9.05,6.85 -3.05,1.35 -7,1.35 -2.45,0 -3.75,-0.15 -1.35,-0.2 -9.8,-1.4 l 0.65,0 q -1.15,-0.65 -1.6,-1.15 -0.2,-0.25 -0.2,-0.45 0,-0.25 0.35,-3.3 0.4,-3.45 0.55,-6.4 -1.9,-1.3 -2.35,-2.3 -0.7,-1.35 -0.7,-4.9 0,-0.4 0.15,-2.2 0.25,-5.6 4.25,-11.2 4.65,-6.5 4.8,-7 0.45,-1.6 1.55,-14.65 1,-11.55 3.2,-15.6 l 1.05,-2.75 1.95,-3.7 q 2.2,-3.1 3.55,-4.15 1.95,-1.5 10.1,-3.95 0.8,-0.55 1.65,-1.8 -0.95,-0.1 -0.95,-0.2 -3.95,-0.2 -8.8,-0.35 -2.8,-0.5 -2.8,-3.65 0,-4.9 3.5,-7.6 3.95,-3.05 12.2,-3.05 3.35,0 7.75,1.4 3.9,1.45 4.35,1.55 3.45,0.15 5.2,0.2 3.15,0.1 6.25,0.1 0.65,-0.4 2.15,-0.85 -0.5,0.05 -1.05,0.05 -7.55,0 -11.95,-5.65 l 1.65,0.65 q 0.55,0.15 3.75,1.4 2.05,0.8 3.95,0.8 1.45,0 2.8,-0.8 0.6,-0.35 1.75,-1.4 -1.35,1.15 -2.55,1.4 -0.75,0.2 -2.7,0.2 M 90.8,63.35 q 0,3.9 -6.85,8.1 -2.2,0 -3.6,-1.4 -1.75,-1.7 -1.75,-5.05 0,-3 2,-4.85 1.1,-0.95 8.6,-5.75 0,2.3 0.8,5.15 0.8,2.8 0.8,3.8 M 233.7,117 q 1.05,0.65 1.25,1.6 -0.45,-3.6 -1.7,-3.6 -0.45,0 -2.65,1.1 1.8,0 3.1,0.9 m -8.05,1.05 q -0.6,0.35 -0.9,0.6 -0.95,0 -1.75,-0.3 -0.45,-0.2 -0.7,-0.4 -0.1,0.95 -0.25,2 0.3,-0.05 2.75,-1.15 2.3,-1.05 3.8,-1.8 -1.7,0.4 -2.95,1.05 m -20.8,-53.4 0,1.05 0.75,-2.05 -0.75,1 m -29,25.1 q -0.65,1.65 -1.2,6.05 -0.5,4.05 -0.5,6.45 0,4.2 2.7,10.6 1.45,3.35 3.6,7.75 1.4,3.4 3.85,11.9 2.95,9.95 2.95,12.85 0,5.95 -1.65,8 -1.65,2.05 -1.65,3.25 0,0.9 1.25,3.05 1.2,2.15 1.2,4.8 0,2.65 -0.25,4.9 0.7,-2.15 0.6,-4.35 -0.15,-4.35 2.35,-19.95 l 0.15,15.65 q 0,9.6 -0.65,11.8 -1.45,4.85 -7.45,4.85 -2.15,0 -4.8,-0.5 -1.7,-0.3 -6.35,-1.3 l 1.55,0 q 5.3,-0.2 8.05,-0.95 -6.85,0 -8.7,-0.7 -5.05,-2 -5.95,-9.75 -0.25,-2.1 -2.2,-4.85 -2.6,-3.25 -4.05,-5.25 -5.65,-7.75 -5.65,-17.1 l 0.05,-3.45 q -1.95,0.65 -5.5,3.4 -1.8,1.35 -3.25,2.6 -2.45,-0.5 -4.45,-2.15 l 0.25,0.8 q 4.25,3.65 8.35,7.25 2.85,2.4 7.65,6.35 l 0.15,-1.15 -0.1,1.15 q 2.4,1.5 4.15,7.15 1.65,5.25 1.65,10.05 0,1 -1,8.6 0,1.8 1.1,3.15 0.65,0.85 2.35,2.5 3.45,3.7 3.45,10.65 0,1.7 -0.35,2.2 -0.3,0.45 -2.05,2.3 0.75,5.4 0.75,6.3 4.3,0.15 13.45,3.8 0.7,-2.95 -1.8,-5.5 -4.65,-4.9 -7.35,-9.6 -0.15,-0.25 -0.75,-1.8 -0.65,-1.6 -0.75,-2.1 -0.2,-0.6 -0.05,-1.05 l 0.2,-0.35 1.25,-3 q 0.2,-4.3 1.85,-5.7 1.4,-1.2 5.35,-1.2 4.55,0 7.4,2.55 4.35,4 6.6,5.05 l 0.25,0.15 q 2.3,1.35 4.4,7.15 1.85,5 1.85,7.5 0,5.5 -4.05,8.75 -1.05,0.8 -2.85,1.95 -1.25,0.95 -1.25,1.8 l 0.05,1.3 4.5,2.85 4.05,1.5 0.25,0 q -1.55,-1.6 -2.65,-2.85 -2.15,-2.35 -2.9,-4.7 5.4,-2.75 6.75,-5.1 1.15,-2.1 1.15,-8.05 0,-3.9 -0.95,-6.25 -1.4,-3.55 -1.9,-6.4 0.1,0.05 5.95,5.35 l 0,-0.45 q -0.45,-0.45 -1.9,-3.75 -1.55,-3.55 -3.1,-5.45 l -3.05,-2.7 q -3.7,-2.75 -4.2,-4.65 -0.05,-2.8 -0.3,-5.6 -0.2,-1.8 -0.2,-2.95 l 0.15,-3.7 q -0.55,-4.35 -0.55,-5.35 0,-2.65 0.25,-3.9 0.35,-1.55 1.4,-3.6 0.1,-3.05 0.5,-4.45 0,-0.9 2.9,-5.3 l 2.85,-4.25 q -3.4,-0.95 -5.35,-1.05 -0.4,-0.05 -0.4,-0.65 0,-2.25 -1.8,-4.05 -2.25,-1.8 -3.2,-2.75 l 0.5,-0.1 q 5.25,0.5 6.15,0.3 4.95,-1 4.95,-7.1 0,-1 -0.2,-2.55 -0.2,-0.25 -3.55,-4.15 -0.55,4.55 -0.65,9.55 -0.3,2.8 -2.8,2.8 -2.35,0 -5.35,-2.45 -3.25,-2.65 -5.85,-7.05 -6.65,-11.25 -5.3,-26.45 l -0.35,0.85 m -13.8,-11.55 0.25,-0.1 q 0.55,-0.9 1.15,-2.6 -0.55,0.6 -13,4.3 -11.3,4.45 -11.75,10.25 l -0.25,-1.2 q -1.9,3.8 -3.4,4.7 -1.25,0.75 -4.9,0.75 -3.75,0 -5.55,-1.3 -0.8,-0.55 -4.3,-4.7 -0.35,5.65 -1.35,7.5 -1.2,2.2 -4.55,2.2 -1.45,0 -3.3,-0.55 -1.85,-0.55 -2.2,-0.55 -1.55,0 -4.8,0.75 -4,0.85 -5.7,2.05 1.2,-0.35 3.2,-0.6 1.8,-0.25 2.65,-0.25 6.3,0 10.3,2.65 3.2,2.1 3.2,4.1 0,9.15 -2.6,13.5 -3.05,5.05 -10.65,5.9 l 0,7.4 q 3.55,-2.2 6.65,-4.2 6.1,-3.95 7.35,-7.05 0.1,-0.3 2.65,-3 2.45,-2.55 2.9,-4.35 l 1.5,-6.15 q 1.45,-4.25 3.95,-5.7 1.35,-1.35 1.7,-2.9 0.3,-1.15 1,-1.4 1.25,-0.35 20.4,0.2 l -0.05,2.3 q 1.4,1.1 2.75,3.25 2.1,3.25 2.4,3.65 -0.05,-0.85 -2.1,-5.35 l -2.1,-4.3 q 3.05,4.25 3.6,5.15 1.3,1.95 1.95,3.5 l 0,-13.15 -0.2,5 -0.1,-0.8 q -1.4,-2.55 -4.35,-4.55 -0.5,0 -1.05,0 -1.3,0 -2.65,-1.35 -0.95,-0.9 -1.2,-1.7 -1.55,-1.45 -1.55,-3.2 0,-3.3 1.75,-4.75 1.9,-1.6 6.5,-1.65 2.75,-0.55 3.85,-0.85 l 1.8,-1.1 0.2,0.25 M 166,57.6 q -1,1.1 -1.2,1.5 l 3.1,-3.35 q -0.8,0.55 -1.9,1.85 m 29.05,12.35 q 2.45,0.2 4.6,-1.25 0.95,-0.65 1.85,-1.7 -3.3,1.05 -6.45,2.95 m 10,-58.45 0.7,-0.15 -0.8,-0.05 0.1,0.2 m 45.45,86.4 -0.8,-0.65 q -5.25,-3.85 -8.55,-6.1 -11.55,-7.8 -16.1,-10.95 3.1,-0.05 5,-2.55 1.75,-2.3 1.75,-5.45 0,-6.1 -4.15,-7.35 -2.95,-0.65 -4.8,-1.2 -3.4,-0.95 -6.3,-2.8 0.15,-0.8 0.85,-3.15 0.4,-1.35 0.4,-2.85 0,-2.15 -1.15,-5.7 -1.4,-4.1 -1.8,-7.95 -0.35,-3.05 -6.8,-4.55 -3.3,-0.8 -7.25,-1.15 0.15,0 6.8,-0.55 l 1.15,-0.55 q -0.75,-0.35 -2.5,-0.7 -1.75,-0.3 -3.1,-0.3 l -9.05,3.85 q -1.25,1.1 -2.95,1.85 -2.25,1.05 -4.45,1.05 -6.6,0 -10.75,-1.75 -5.45,-2.3 -5.45,-7.2 0,-1.35 0.6,-1.95 0.9,-1.05 3.55,-1.4 l 0.95,-1.1 q 0.1,-0.6 0.1,-2.25 3.65,0.15 7.5,-0.6 3.05,-0.6 4.75,-1.45 l -2.2,0 2.3,-0.05 q 1.1,-2 2.2,-3.4 2.15,-2.6 6.5,-3.85 1.65,-1.9 2.05,-2.2 0.45,-0.35 2.7,-1.75 -2.7,0.25 -15.4,-2.25 -12.05,-2.45 -14,-3.3 -1,0.9 -5.6,3.05 -3.85,1.8 -4.1,3.05 -0.65,2.95 -3.05,5.05 -2.15,1.9 -2.15,3.4 0,0.35 0.4,2.75 0.55,0.9 1.5,5.5 0.9,4.2 0.9,5.15 0,3.8 -0.6,5.75 1.9,-0.3 2.8,-0.75 1.25,-0.7 1.25,-2.15 0,-0.4 -1.1,-6.1 -1.15,-5.7 -1.15,-7.3 0,-4.1 8.55,-7.3 5.4,-2.05 11,-2.9 -2.1,2.65 -8.2,11 -5.9,8.05 -5.9,8.2 0,3.1 7.1,6.45 6.7,3.1 11.7,3.1 l 8.75,-0.15 q -2.05,6.4 -8.75,6.4 -1.45,0 -7.5,-2.3 -6.05,-2.3 -9.4,-2.3 -1.35,0 -5.7,0.5 3.65,1.65 10.05,2.25 3.9,0.4 3.9,2.7 0,2.9 -2.6,4.25 -1.55,0.8 -5.95,2.55 -1,2.3 -2.1,8.2 -1.45,8 -2.15,10.8 4.95,-10.5 8.05,-13.9 4.95,-5.45 13,-5.45 2.25,0 5.9,0.35 4.85,0.4 5.55,1.05 0.6,0.1 2.3,1.8 0.85,0.85 1.6,1.7 1.35,-0.05 3.95,-0.15 l 0.5,-0.9 0,1 q 0.95,0.3 1.25,0.7 l 0.6,-0.3 q 0.6,1.2 2.35,4.05 1.5,2.85 1.5,5.5 0,5.75 -1.85,8.85 -2.4,4 -7.95,4 -0.8,0 -7.9,-4.35 -6.95,-4.2 -9.2,-6 1.25,1.45 1.65,4.3 0.2,1.5 0.2,4.55 0,6.85 7.8,13.25 6.4,5.2 18.75,10.7 2.15,0 4.45,1.45 1.2,0.75 1.9,1.45 3.6,2.7 3.9,6.85 0.05,0.4 0.05,0.8 0.15,-0.6 0.4,-1.5 0.8,-2.9 0.8,-5.3 0,-2 -1.15,-2.55 -0.55,-0.25 -3.5,-0.5 -7.25,-0.6 -13.95,-5.75 -16.8,-12.95 -18.05,-13.95 2.15,0.95 24.55,7.15 17.45,4.85 17.45,7.8 0,5.05 2.15,6.65 0.3,0.25 4.65,1.7 3.15,1.05 4.7,4.15 2.1,4.35 2.1,14.05 0,3.9 -1.25,6.15 -0.9,1.6 -4.45,6.7 -1.15,-1.6 -2.25,-5.7 l -0.9,-3.8 q 0,-1.45 0.25,-2.05 -2.1,3.15 -1.7,8.85 0.25,3.1 -0.15,4.15 -0.65,1.65 -3.3,1.65 -4.3,0 -6.75,-1.35 -1.75,-1 -3.85,-3.75 -6.35,-8.4 -13.65,-13.15 -0.75,2.7 -2.7,3.45 -1.6,0.6 -1.6,2.05 0,2.15 4.25,6.3 2.25,2.2 5.8,5.35 l -0.85,-0.15 q -1,-0.4 -4.95,-3.8 -4.05,-3.45 -5.1,-3.95 l -1.1,3.4 q 4.5,-0.05 8.75,5.65 1.9,2.5 3.35,4.05 2.15,2.3 3.35,2.65 2.75,0.75 6.75,1.2 0.4,0 0.8,0.05 3.95,0.35 9.7,2.15 2.95,0.25 7,2.45 3.15,1.75 3.95,2.6 3.1,1.45 4.95,4.5 1.65,2.8 1.65,5.75 0,1.75 -5.35,3.5 -5.35,1.75 -5.35,4.85 0,2.85 2.1,11.35 2.1,8.55 2.1,12.7 0,2.15 -5.3,7.05 -6.3,5.8 -12.75,5.8 -2.1,0 -9.65,-0.8 -7.15,-0.75 -8.4,-1 1.45,1.5 4.95,1.85 0.65,0.05 4.15,0.05 l -0.05,1.05 q -0.8,1 -1,1.15 -0.4,0.25 -3.1,1.6 l -0.5,0.25 q 9.4,-0.35 15.1,-2.35 4.5,-1.6 10.2,-1.85 5.8,-0.15 13.45,-5.15 5.05,-3.3 17.1,-13.25 l 1.05,-0.9 q 0.65,-1.2 1,-2.65 -4.95,-1.9 -10.5,-7.3 -5,-4.95 -5.3,-4.95 -1.8,0 -3.2,1.8 -1.4,1.85 -1.4,4.15 0,2.25 0.6,4.2 0.55,1.95 0.55,3.65 0,3.3 -1.35,7.65 -1.6,5.35 -3.9,6.2 l 0.05,-0.3 q 0.95,-3.9 0.95,-5.15 0,-8.9 -3.05,-14.7 -3.1,-5.8 -3.1,-11.65 7.75,1.8 11.75,-3.25 3,-3.8 3,-9.6 0,-4.15 -2.1,-6 -1.35,-1.15 -5.2,-2.35 -4.4,-1.3 -6.6,-2.7 -3.8,-2.4 -6.25,-7.15 l 1.85,0.9 -0.6,-2.15 q 0.8,0.15 5.3,1.85 4.85,1.6 7.95,1.6 3.6,0 5,-3.1 -1.65,-4.05 -2.05,-5.1 -1.45,-3.75 -1.45,-5.1 0,-2.85 1.75,-6.6 1.8,-3.4 1.9,-3.95 0.35,-1.9 0.15,-8.1 -0.15,-5.1 0.35,-5.1 0.5,0 0.15,0.55 -0.35,0.5 0.15,0.5 2.05,0 0.85,-3.75 -1.5,-4.75 -8,-12.35 l 0.6,0.6 0.85,0.65 2.55,1.6 m -7.05,-32.65 q 0,0.05 0.7,5.6 0.65,5.5 0.65,6.2 0,0.5 -0.45,2.95 -0.5,2.45 -0.5,2.95 0,2.25 5.3,7.65 5.45,5.5 5.85,10.15 0.7,7.95 2.05,12.55 1.35,4.8 3.8,7.25 2.55,2.6 5.75,6 2.45,2.1 5.85,2.1 2.35,0 3.35,-0.55 0.95,-0.5 0.95,-1.65 0,-5.6 -4,-12.15 -6,-8.9 -10.1,-16.45 7.9,-0.5 8.85,-0.7 1.85,-0.4 -16.95,-20.8 l -1.65,-0.25 1.45,0 q 0.2,0.15 0.4,0.3 18.5,13.6 9.7,6.8 -4.65,-3.4 -6.65,-4.9 -1.35,-1 -2.25,-1.8 -0.3,-0.2 -0.5,-0.4 -1.05,-0.95 -1.45,-1.6 6.35,-0.45 8.1,-1.15 3.85,-1.55 3.85,-6.4 0,-1.65 -6,-5.85 -6.15,-4.3 -9.15,-4.3 -2.15,0 -4.05,1.45 -2.9,2.25 -2.9,7 m 17,30.45 q -0.35,1.15 -0.35,1.95 0,1.6 3.65,7 3.65,5.4 3.65,9.45 0,2.6 -0.4,3.45 -0.5,1.15 -2.15,1.15 -6.05,0 -7.45,-8.55 -0.5,-9.6 -1.55,-11.8 -2.05,-4.35 -6.9,-11.15 -3.45,-4.8 -3.45,-7.6 16.6,5.35 21,11.6 1.8,2.5 0.15,3.8 -1.65,1.35 -6.2,0.7 m 20.8,85.05 q 0.7,1.4 2.15,2 1.75,0.75 5.4,0.75 5.85,0 8.95,-3.9 3.7,-4.6 4.2,-15.45 -0.3,0.55 -1.85,1.6 -2.15,1.45 -4.35,1.6 -1.3,3.25 -7.45,8.05 -3.15,2.5 -7.05,5.35 M 274.6,165.9 q 1.75,0.5 1.9,0.5 l -3.95,-1.15 q 0.3,0.15 2.05,0.65 m 22.45,-47.3 q -4.25,-3.05 -5.15,-3.85 -3.1,-2.7 -5.2,-6.55 l -0.15,1.4 q -0.8,4.3 -0.8,5.4 0,1.55 2.8,5.25 2.75,3.7 2.75,5.05 0,2.55 -2.15,8.6 -2.5,7.2 -5.5,10.4 -6.8,-3.85 -10.6,-6 -7,-3.95 -8.55,-3.95 -1.05,0 -3.6,1.55 -2.65,1.6 -2.65,2.55 0,4.35 4.9,8.4 5.7,4.7 6,5.45 0.7,1.65 1.2,6.5 0.45,4.45 1.2,5.65 5.45,0 10.05,-1.1 -4.3,-0.2 -6.55,-1.25 -2.25,-1.05 -2.25,-2.85 0,-6.25 5.1,-10.1 5.1,-3.85 13.9,-4.1 0.95,0 1.1,2.1 0,0.1 0,6.15 0,3.45 -3,6.65 6.5,-3.9 6.5,-9.3 -0.25,-2.2 -0.25,-3.2 -0.1,-0.55 -0.05,-0.75 0,-0.15 0.1,-0.3 0.2,-1.75 0.95,-3 0.1,-0.2 2.2,-2.55 3.15,-3.65 3.15,-11.75 0,-6.65 -5.45,-10.5 M 324.7,98.65 q 1.4,-0.75 1.4,-7.75 -1.5,-1.05 -5.8,-3.55 -4.55,-2.65 -6.3,-3.4 -0.15,-0.05 -0.35,-0.15 -1.8,4.5 -2.9,5.4 -1.55,1.35 -6.35,1.35 l -1.55,-0.15 0.05,-1.25 q 0.9,-1.35 2.1,-2.2 0.85,-0.65 0.85,-1.15 0,-0.75 -4,-4.45 -4.55,-4.2 -7.75,-4.2 -1.45,0 -2.6,1.4 -1.15,1.4 -2.25,1.4 -2.95,-0.35 -5.85,-0.3 -5.7,0.1 -5.7,2.05 0,3.85 9.35,12.9 8.9,8.65 14.1,10.65 6.95,2.7 11.8,12.3 3.9,7.7 3.9,12.7 0,2.4 -1.1,4.2 -0.25,0.45 -2.45,3.15 -3.55,4.35 -3.55,11.55 0,6.85 7.85,8.35 l 7.15,-2.4 q 0.8,-0.75 8.4,-7.2 5.05,-4.3 6.4,-6.15 0.65,-4.55 -1.05,-7.3 -0.15,-0.3 -2.4,-2.55 -1,-0.2 -2.2,-1.3 -1.05,-0.95 -1.45,-1.85 2.1,-1.4 3.05,-2.3 1.6,-1.6 1.6,-4.55 l -0.35,-2.9 q -0.95,-0.45 -3.7,-1.05 -2.55,-0.55 -4.8,-1.85 -7.35,-4.25 -20.85,-20.9 2.1,1.85 4.45,3.1 1.25,0.65 2.9,1.4 1.35,-1.1 3.25,-1.1 1.1,0 4.2,0.25 1.8,0.15 2.5,-0.2 m 4.15,34.15 q 3.35,0 3.35,1.25 0,5.1 -5.8,13.6 -5.8,8.5 -9.15,8.5 -3.95,0 -5.3,-2.85 -0.75,-1.5 -0.75,-4.55 0,-9.15 3.85,-12.6 3.8,-3.35 13.8,-3.35 z"
         id="path9"
         inkscape:connector-curvature="0"
         style="fill:#6c5d45;stroke:none" />
      <path
         d="m 160,186.05 q 0.05,0.45 0.65,2.85 0.5,1.9 0.5,5.2 0,3.55 -1.35,6.6 -1,2.25 -2.3,3.4 l -0.65,0.65 9.4,-0.1 q 0,-0.9 -0.75,-6.3 0.2,-1.2 -1.8,-6.2 -1.85,-4.55 -2.6,-5.6 -0.25,-0.25 -0.55,-0.45 -0.5,-0.4 -0.55,-0.05 m 0.05,-19.55 q 0,-2.3 -1.15,-5.3 -1.7,-4.2 -2.7,-9.3 -0.7,8.45 -0.7,15.3 0,1.9 -0.6,4.1 -0.55,2.05 -1.3,3.3 0,0.05 -0.95,1.1 -1.2,1.15 -2.35,1.95 -1.7,0.85 -4.95,1.55 -3.8,0.8 -6.3,0.55 l -1.25,-0.05 q 5.2,0.95 6.85,1.2 2.45,0.45 7.15,0.45 5.05,0 7.05,-5.95 1.2,-3.55 1.2,-8.9 m -76,-19.6 q 7.75,0 13.25,-6.1 5.45,-6.1 5.45,-14.75 l 0.35,-1.85 -1.35,1.65 q -2.6,3.65 -3.35,5.95 -0.6,1.9 -0.85,2.15 -2.4,3.1 -10.3,8.05 -7.05,4.4 -10.65,4.9 l 7.45,0 m -3.6,44.05 -2.7,2.15 0.5,0.05 9.7,0.4 0.4,-1.1 q 0.55,-2.25 0.55,-4.3 0,-0.65 -0.55,-4.5 -0.65,-4.2 -1,-5.25 -0.75,-1.9 -1.6,-3.35 L 85.1,174.2 q 0.05,7.7 -0.95,11.25 -1,3.4 -3.7,5.5 m -36.55,-50.1 -0.8,2.05 -2.7,7.2 q -2.1,3.5 -3.9,4.65 -1.55,1 -4.2,1 -0.85,0 -5.75,-0.75 l -1.3,-0.2 q 2.4,1.05 5.65,2.05 4,1.2 5.55,1 2.5,-0.3 2.6,-0.3 3.15,-1.15 4.15,-5.95 0.55,-2.8 0.7,-10.75 m 31.65,-45.35 -0.9,1.4 -2.9,4.45 -0.1,0.3 q -0.2,3 -3.85,6.25 -9.9,8.85 -10.9,9.85 -1.75,2.25 -4.1,4.9 -2.25,2.45 -3.4,3.25 0.9,-0.35 1.8,-0.85 1.7,-1.45 7.35,-5.2 5.6,-3.75 8.5,-6.25 9.7,-8.4 8.5,-18.1 m 159.5,50.35 q 1.05,1.15 3.7,2.3 3.3,1.35 6.1,1.05 l 4.3,0.15 q 2.85,0.5 4.95,5.25 1.75,4 1.75,7 0,10.2 -4.9,14.15 -3.8,3 -10.35,2.2 l -1.15,0.35 q 0.75,0.45 2.3,0.9 1.6,0.45 2.45,0.45 5.15,0 8.65,-2.25 5.15,-3.35 6.45,-11.3 l 0.15,-1.15 q 2.25,3.9 2.65,5.6 0.7,2.85 0.2,9.35 -0.15,2.5 2.9,6.85 3.1,4.35 3.05,5.65 -0.35,1.45 -1,2.65 l 2.35,-1.35 q 2.35,-0.95 3.95,-1.2 l 0.85,-0.1 q 3.55,-3.25 8.65,-4.15 5.45,-1 5.5,-1.05 l 0.25,-0.35 q -4.2,1 -11.55,-3.8 -7.2,-4.7 -7.2,-8.05 0,-0.45 0.55,-1.3 0.55,-0.85 0.55,-1.5 0,-3.05 -4.75,-8.8 -4.6,-5.5 -4.2,-8.85 1.05,-6.9 -2.15,-10.3 -5.25,-4 -9.05,-7.9 0.55,1.5 1.15,4.05 0.65,2.8 0.55,3.65 -1.4,3.1 -5,3.1 -3.1,0 -7.95,-1.6 -4.5,-1.7 -5.3,-1.85 l 0.6,2.15 M 183.25,70.2 q 2.45,0.8 5.15,2.5 2.85,1.25 8.5,1.25 7.25,0 7.95,-8.25 l 0,-1.05 0,-4.65 0,-1 -0.5,0.9 q -0.45,1.25 -1.5,3.95 -1.15,2.85 -1.35,3.15 -0.9,1.05 -1.85,1.7 -2.15,1.45 -4.6,1.25 -3.25,0.3 -12.25,0.15 l 0.45,0.1 m 71.5,6.2 q -0.2,-0.15 -0.4,-0.3 l -1.45,0 1.65,0.25 q 0.1,0 0.2,0.05 m 26.85,-9.5 -2.25,-1.2 q -0.85,-0.45 -3.45,-2.2 -2.7,-1.8 -3.35,-2.35 0,6.2 -5.3,10.6 -5.1,4.15 -12.2,4.35 0.2,0.2 0.5,0.4 2.75,0.5 10.7,1.55 2.8,0 5.05,-3.4 2.25,-3.45 4.7,-3.45 5.2,0 5.8,-0.55 0.5,-0.45 -0.2,-3.75 M 261,47.75 q -0.6,-0.45 -5.4,-3.35 -7.1,-4.3 -11.25,-13.3 l -0.8,-2.35 q -0.9,-3.3 -2,-5.3 -1.1,-2.05 -3.45,-4.65 -0.05,0.75 -1.1,2.65 -0.35,0.55 -0.8,1.25 -0.45,0.65 -0.8,1.2 -1,1.45 -1.45,1.85 0.45,0.3 2.2,0.55 1.45,0.2 2.4,0.2 2.85,0 3.7,1.15 0.7,0.9 0.7,3.7 0,5.6 -0.5,6.8 -0.8,1.95 -4.3,1.95 -4.4,0 -7.45,-5.75 -1.65,-3.45 -2.6,-5.2 -1.65,-3.05 -3.5,-4.8 l -3.35,-1.25 q -5.75,-0.25 -11.2,-0.3 3.1,0.45 5.8,0.95 4.15,-0.2 5.95,1.2 1.3,1 1.3,2.6 0,3.3 -2.6,4.65 -2.1,1.05 -7.55,1.5 -0.9,0.05 -1.85,0.1 -1.2,0.25 -2.35,0.6 l -1.15,0.55 q 10.45,0 11.35,8.3 0.45,4.15 -1,8.3 0.5,0 0.6,-0.35 0.1,-0.4 0.6,-0.4 0.05,0 -0.25,0.9 -0.25,1.15 0.15,2.25 1.35,3.55 8.95,5.45 2.3,0.55 4.9,3.5 3.05,3.5 3.05,7.15 0,5 -3.35,8.5 -2.65,2.75 -5.05,2.7 l 2.7,0.35 q 4,0 8.3,-4.2 4.9,-4.75 4.9,-10.8 0,-1.4 -4.5,-6.6 -4.35,-5.05 -5.05,-5.05 -1,0 -12.95,-6.45 0,-3.05 0.95,-4.2 0.95,-1.05 3.45,-1.05 5.6,0 11.6,5.25 1.5,1.3 3.95,3.6 1.9,1.65 2.95,1.65 1.8,0 4.35,-0.95 2.5,-1 5.9,-1 6.45,0 11.95,1.5 -2.1,-3.35 -5.05,-5.55 m 36.7,61.5 q -6.55,-4.8 -10.55,-8 1.35,3.2 10.35,11.4 7.8,7.15 7.8,11.65 0,1 -1.25,8 0,1.35 0.8,1.7 1.85,0.75 4.05,3.15 0.3,-8.5 0.3,-9.5 0,-8.5 -4.7,-13.05 -1.8,-1.7 -6.8,-5.35 m 3.35,34.85 q -4.2,1.05 -4.85,2.3 -0.1,0.15 -0.1,0.3 -0.05,0.2 0.05,0.75 0.05,0.35 0.15,0.85 0.3,1.25 0.1,2.35 0,5.4 -6.5,9.3 -0.1,0.1 -0.15,0.15 -3.15,3.25 -6.6,3.25 -0.8,0 -1.55,0 -4.6,1.1 -10.05,1.1 l -1.4,0 2.4,0.8 3.95,1.15 q 1.9,0.6 4.6,2.1 1.25,0.7 5.1,0.7 3.5,0 5.3,-0.45 1.2,-0.35 4.25,-1.4 2.2,-0.15 4.35,-1.6 1.55,-1.05 1.85,-1.6 1.1,-1.65 1.3,-3.95 0.1,-0.85 0.1,-4.75 0,-3.8 -0.15,-4.8 -0.4,-2.85 -2.15,-6.55 m -35.3,-45.2 -0.65,-0.85 q 1.55,2.7 8.7,11.05 6.35,8.4 6.35,14.3 0,5.15 -1.55,7.2 -0.95,1.25 -2.3,1.25 -1.25,0 -2.95,-0.75 -2.4,-1.05 -4.2,-1.8 11.1,12.4 11.15,12.4 2.8,0 3.65,-4.65 0.55,-2.95 0.55,-11.45 0,-6.9 -8.15,-16.25 -0.1,-0.1 -10.6,-10.45 m 68.4,31.05 1.95,1.95 q 2.25,2.25 2.4,2.55 1.7,2.75 1.05,7.3 0,5.55 -4.3,9.45 -4.35,3.9 -10.5,3.9 l -7.15,2.4 -2.8,0.95 q 1.5,0.25 5.05,0.85 3.35,0.5 6.35,0.5 2.35,0 4.2,-1.1 2.7,-1.6 3.75,-1.95 l 0.15,0.3 q 0.15,0.45 0.15,1.05 0,0.1 -9.8,9.9 -10.3,10.45 -12.3,13.2 l 0.9,-0.65 q 5.05,-3.65 8,-5.4 5.5,-3.25 10.75,-4.6 l 0.1,-0.05 q 5.75,-3.65 8.85,-5.8 5.6,-3.9 5.6,-6.95 0,-2.2 -1.25,-3.2 -1.3,-1 -1.3,-1.1 0,-0.7 1.45,-3.3 1.4,-2.65 1.4,-7.9 0,-5.35 -1.45,-8.3 -2.35,-4.65 -8.4,-4.65 l -2.15,0.15 q 0,0.25 -0.7,0.5 M 335.7,97.25 327.8,92 q 0.2,0.2 0.6,1.3 0.5,1.35 0.5,2.45 0,1.45 -1,3.9 l 3.05,0 q -1,1.4 -2.45,2.05 -1.65,0.75 -4.4,0.75 -5,-0.15 -9.35,-2.75 -1.65,-0.75 -2.9,-1.4 -2.35,-1.25 -4.45,-3.1 13.5,16.65 20.85,20.9 2.25,1.3 4.8,1.85 2.75,0.6 3.7,1.05 2,0.95 9.85,1.4 3.5,0 5.2,3.25 1.05,2 1.95,7.25 0.9,5.25 1.9,7.2 1.6,3.25 5.05,3.25 4.3,0 5.4,0.35 2.7,0.85 2.7,4.25 0,5.15 -9.15,11.8 -4.8,3.5 -11.6,7.3 l 1.5,-0.2 q 23.35,-4.95 27.5,-6.25 5.95,-1.9 5.95,-5.05 0,-4.3 -2.35,-7.4 -1.6,-2.05 -6.05,-5.45 -11.35,-8.6 -16.75,-18.1 -3.75,-6.65 -8.35,-12.1 -5.75,-6.9 -13.8,-13.25 z"
         id="path11"
         inkscape:connector-curvature="0"
         style="fill:#4c4336;stroke:none" />
      <path
         d="m 88.75,193.55 -0.4,-1.1 -0.4,1.1 0.8,0 M 148.5,145.4 q -4.1,-3.6 -8.35,-7.25 0.7,1.65 3.9,5.8 3.75,4.9 5.45,7.8 6.7,11.2 4.1,22.85 0.75,-1.25 1.3,-3.3 0.6,-2.2 0.6,-4.1 0,-6.85 0.7,-15.3 l -0.05,-0.15 q -4.8,-3.95 -7.65,-6.35 m 11.2,-37.75 q -0.55,-0.95 -0.65,-1.6 -0.65,-1.55 -1.95,-3.5 -0.55,-0.9 -3.6,-5.15 l 2.1,4.3 q 2.05,4.5 2.1,5.35 l 0.05,0.35 q 0.4,5.7 0.4,6.85 0,4.55 -2.55,6.35 -4.5,3.2 -5.6,4.75 l -0.55,1.65 q 0,1.7 -1.05,2.9 -1.1,1.15 -2.65,1.15 -5.75,0.45 -9.8,1.7 -2.35,0.7 -7.4,2.45 l 1.25,0.5 q 1.75,0.4 4.9,0.75 0.65,0 2.35,0.4 2.35,0.55 3.1,1.3 l -0.25,-0.8 q 2,1.65 4.45,2.15 1.45,-1.25 3.25,-2.6 3.55,-2.75 5.5,-3.4 1.5,-1.35 3.7,-5.85 3.4,-6.95 3.4,-14.25 0,-4.15 -0.5,-5.75 m -87,82.75 q 2.4,-0.2 3.8,-0.2 2.55,-0.05 3.95,0.75 2.7,-2.1 3.7,-5.5 1,-3.55 0.95,-11.25 l 0.65,0.85 q 0.85,1.45 1.6,3.35 4.85,-5 6,-6.35 2.4,-2 2.4,-4.65 0,-3.2 -1.45,-5.3 -1.6,-1.6 -1.85,-1.95 -0.15,-0.35 -0.75,-2.05 -0.6,-1.75 -0.6,-1.85 l -0.3,-0.75 q -2.1,3.8 -4.4,6.45 -1.85,2.1 -4.4,4 -0.65,1.65 -1.2,11.85 -1.4,9.85 -6.45,12.1 l -1.65,0.5 M 20.1,147 l -0.25,-2.35 -0.1,-2.15 q -0.35,3.7 -0.9,8.15 0,2.65 2.9,4.9 2.85,2.2 5.55,1.55 l 0.35,0 0.15,1.85 q 0,6.2 -5.8,8.1 -4.3,1.35 -10.2,0.25 0.2,0.05 12.35,5.95 0.1,0.05 0.35,0.25 l 0.05,0 0.15,0.1 q 1.35,-2.95 6.15,-9.15 4.35,-5.65 5.6,-6.6 -1.55,0.2 -5.55,-1 -3.25,-1 -5.65,-2.05 l 1.3,0.2 q 4.9,0.75 5.75,0.75 2.65,0 4.2,-1 1.8,-1.15 3.9,-4.65 -3.35,4.1 -5.3,4.35 -1.25,0.2 -4.9,-0.15 -4.2,0 -7.15,-2.15 -2.9,-2.1 -2.95,-5 l 0,-0.15 m 54.25,0.8 -0.65,0 q 8.45,1.2 9.8,1.4 1.3,0.15 3.75,0.15 3.95,0 7,-1.35 4.1,-1.85 9.05,-6.85 1.05,-2.45 1.15,-2.65 0.2,-0.5 0.2,-1 -0.15,-3.05 -0.15,-5.1 l 0,-7.4 0,-1.25 -1.75,2.3 q 0,8.65 -5.45,14.75 -5.5,6.1 -13.25,6.1 -3,0.1 -9.7,0.9 M 56.9,117.75 q -2.3,2.2 -2.7,2.85 -0.35,0.45 -1.4,2.05 2.35,-2.65 4.1,-4.9 M 79.5,86 l 0,-2 q -5.2,9.3 -5.25,10.6 -0.05,0.2 0.3,0.7 0.35,0.45 0.1,1.6 l 0.9,-1.4 q 1.2,9.7 -8.5,18.1 -2.9,2.5 -8.5,6.25 -5.65,3.75 -7.35,5.2 -1.05,1.1 -2.5,1.9 -1.4,0.75 -2.3,0.75 -0.2,0 -3.65,-0.8 -3.7,-0.9 -5,-1.35 l -1.15,-0.4 q 0.65,0.3 4.8,2.65 4.3,2.3 6.6,2.55 l -2,4.3 q -2.1,4.95 -2.9,8.25 l 0.8,-2.05 q -0.15,7.95 -0.7,10.75 -1,4.8 -4.15,5.95 6.4,-1.5 8.15,-12.75 0.55,-3.55 0.7,-8.55 0.15,-5.8 0.15,-5.9 3,-2.2 11.05,-6.3 7.3,-3.75 10.85,-6.7 Q 81.25,107.7 79.5,86 m -36,8.9 -0.1,-0.7 q -5.5,9.1 -12.2,15.25 -12.75,11.75 -13.2,12.2 -1.5,1.25 -6.4,6.9 -3.35,3.85 -8.35,6.3 l -0.4,0.3 q 0.9,1.75 1.65,4.45 0.55,2 0.7,3.2 l 1.9,-2.25 q 1.6,-1.65 2.5,-2.75 0.55,-0.7 2.8,-3.6 1.4,-1.9 5.95,-5.95 8.45,-7.4 8.95,-7.85 3.3,-3.05 5.95,-5.9 2.2,-3.15 3.65,-5.3 2.55,-3.9 4.7,-7.05 0.3,-0.8 0.55,-1.5 l -1.1,0.5 q 0.1,-0.85 1.1,-2.7 0.9,-1.8 1.35,-2.1 0.05,-0.6 0,-1.45 M 87.3,46.35 q -1.4,0.2 -2.15,0.2 -0.15,0 -6.8,-2.2 0.75,3.25 7.15,4.55 l 6.2,0.65 q 1.5,0 3.85,-1.2 3,-1.7 4.8,-2.65 7,-3.7 13.5,-3.25 l 1.2,-0.05 q -4.55,-1.45 -7.85,-1.7 -0.8,-0.05 -10.7,-0.2 l -0.55,0.3 q -0.3,0.5 -1.75,1.35 -1.3,0.5 -3.05,2.05 -1.9,1.7 -2.05,1.75 -0.4,0.2 -1.8,0.4 m 40.55,0.75 q -1.9,0 -3.95,-0.8 -3.2,-1.25 -3.75,-1.4 l -1.65,-0.65 q 4.4,5.65 11.95,5.65 0.55,0 1.05,-0.05 1.1,-0.35 2.7,-0.75 1.05,-0.55 1.75,-1.55 0.75,-1.05 1.85,-4.8 0.85,-3.7 2.5,-8.95 1.45,-4.75 1.65,-5.8 -5.55,11.65 -6.7,13.35 -0.8,1.2 -2.85,3.55 -1.15,1.05 -1.75,1.4 -1.35,0.8 -2.8,0.8 m -43.9,24.35 q 6.85,-4.2 6.85,-8.1 0,-1 -0.8,-3.8 -0.8,-2.85 -0.8,-5.15 -7.5,4.8 -8.6,5.75 -2,1.85 -2,4.85 0,3.35 1.75,5.05 1.4,1.4 3.6,1.4 m 114.4,113.9 q 0.5,2.85 1.9,6.4 0.95,2.35 0.95,6.25 0,5.95 -1.15,8.05 -1.35,2.35 -6.75,5.1 0.75,2.35 2.9,4.7 1.1,1.25 2.65,2.85 0.2625,0.0438 0.5,0.05 l 0.25,0 q 0.95,0.05 1.75,0 l 8.95,-0.2 0.55,-0.25 q 2.7,-1.35 3.1,-1.6 0.2,-0.15 1,-1.15 L 215,214.5 q -3.5,0 -4.15,-0.05 -3.5,-0.35 -4.95,-1.85 l -0.2,-1.1 q 0.5,-2.7 0.5,-5 -0.25,-2.05 0.2,-3.7 0.65,-1.85 0.95,-2.85 0.25,-0.95 0.35,-2.1 l 0.05,-0.9 -1.1,-2.8 q -0.7,-1.55 -2.35,-3.45 -5.85,-5.3 -5.95,-5.35 m -33.9,-2.15 q -1.7,-1.65 -2.35,-2.5 -1.1,-1.35 -1.1,-3.15 1,-7.6 1,-8.6 0,-4.8 -1.65,-10.05 -1.75,-5.65 -4.15,-7.15 l 0,0.15 q 1,5.1 2.7,9.3 1.15,3 1.15,5.3 0,5.35 -1.2,8.9 -2,5.95 -7.05,5.95 -4.7,0 -7.15,-0.45 -1.65,-0.25 -6.85,-1.2 l 1.25,0.05 q 2.5,0.25 6.3,-0.55 3.25,-0.7 4.95,-1.55 -1.9,0.4 -4.05,0.4 -0.05,0 -4.8,-0.55 -5,-0.85 -6.45,-2.45 -3.65,-3.85 -4.2,-5.75 l 0.15,1.9 q 0.65,2.65 2.2,5.45 1.7,2.3 4.6,5.55 2.1,2.55 2.1,4.45 0,2.5 -0.8,4 -1.15,2 -4.25,3.45 l -1.1,0.8 q 1.65,0.15 2.65,0.15 5.45,0 7,-3.2 0.8,-1.65 1.5,-2.2 1.35,-1 4.35,-1 7.65,0 8.8,7.35 0.55,3.75 -0.5,8.1 1.3,-1.15 2.3,-3.4 1.35,-3.05 1.35,-6.6 0,-3.3 -0.5,-5.2 -0.6,-2.4 -0.65,-2.85 0.05,-0.35 0.55,0.05 0.3,0.2 0.55,0.45 0.75,1.05 2.6,5.6 2,5 1.8,6.2 1.75,-1.85 2.05,-2.3 0.35,-0.5 0.35,-2.2 0,-6.95 -3.45,-10.65 m 22.3,-18.2 q 0.1,2.2 -0.6,4.35 -0.5,1.95 -2.65,3.45 -1.7,1.2 -3.9,1.8 -2.75,0.75 -8.05,0.95 l -1.55,0 q 4.65,1 6.35,1.3 2.65,0.5 4.8,0.5 6,0 7.45,-4.85 0.65,-2.2 0.65,-11.8 l -0.15,-15.65 q -2.5,15.6 -2.35,19.95 m 48.3,-19.15 -1.85,-0.9 q 2.45,4.75 6.25,7.15 2.2,1.4 6.6,2.7 3.85,1.2 5.2,2.35 2.1,1.85 2.1,6 0,5.8 -3,9.6 -4,5.05 -11.75,3.25 0,5.85 3.1,11.65 3.05,5.8 3.05,14.7 0,1.25 -0.95,5.15 l -0.05,0.3 q 2.3,-0.85 3.9,-6.2 1.35,-4.35 1.35,-7.65 0,-1.7 -0.55,-3.65 -0.6,-1.95 -0.6,-4.2 0,-2.3 1.4,-4.15 1.4,-1.8 3.2,-1.8 0.3,0 5.3,4.95 5.55,5.4 10.5,7.3 0.05,-1.3 -3.05,-5.65 -3.05,-4.35 -2.9,-6.85 0.5,-6.5 -0.2,-9.35 -0.4,-1.7 -2.65,-5.6 l -0.15,1.15 q -1.3,7.95 -6.45,11.3 -3.5,2.25 -8.65,2.25 -0.85,0 -2.45,-0.45 -1.55,-0.45 -2.3,-0.9 l 1.15,-0.35 q 6.55,0.8 10.35,-2.2 4.9,-3.95 4.9,-14.15 0,-3 -1.75,-7 -2.1,-4.75 -4.95,-5.25 l -4.3,-0.15 q -2.8,0.3 -6.1,-1.05 -2.65,-1.15 -3.7,-2.3 m -30.2,-22.4 q -0.35,-1 -0.65,-3.75 -0.3,-2.45 -0.3,-3.4 l 0.15,-1.75 q -2.55,-6.05 -6.45,-9.55 -6.75,-6.1 -9.85,-9.9 3.45,9.2 8.35,14.8 2.25,2.55 2.65,3.15 0.95,1.55 0.95,3.6 0.2,1.55 0.2,2.55 0,6.1 -4.95,7.1 -0.9,0.2 -6.15,-0.3 l -0.5,0.1 q 0.95,0.95 3.2,2.75 1.8,1.8 1.8,4.05 0,0.6 0.4,0.65 1.95,0.1 5.35,1.05 l 1.15,-1.6 -0.85,1.7 q 1.05,0.5 5.1,3.95 3.95,3.4 4.95,3.8 l 0.85,0.15 q -3.55,-3.15 -5.8,-5.35 -4.25,-4.15 -4.25,-6.3 0,-1.45 1.6,-2.05 1.95,-0.75 2.7,-3.45 l 0.35,-2 m 6.6,-30.05 q -22.4,-6.2 -24.55,-7.15 1.25,1 18.05,13.95 6.7,5.15 13.95,5.75 2.95,0.25 3.5,0.5 1.15,0.55 1.15,2.55 0,2.4 -0.8,5.3 -0.25,0.9 -0.4,1.5 -0.4,1.45 -0.4,1.5 0,0.35 0.35,0.65 0.25,0.2 0.7,0.4 0.8,0.3 1.75,0.3 0.3,-0.25 0.9,-0.6 1.25,-0.65 2.95,-1.05 1.1,-0.3 2,-0.9 2.2,-1.1 2.65,-1.1 1.25,0 1.7,3.6 0.05,0.25 0.05,0.5 1.4,3.4 1.4,5.1 0,0.05 -1.05,3.15 -0.65,0.55 -1.2,1.3 -0.05,0 -0.1,0.05 -0.1,0.1 -0.15,0.35 -0.25,0.6 -0.25,2.05 l 0.9,3.8 q 1.1,4.1 2.25,5.7 3.55,-5.1 4.45,-6.7 1.25,-2.25 1.25,-6.15 0,-9.7 -2.1,-14.05 -1.55,-3.1 -4.7,-4.15 -4.35,-1.45 -4.65,-1.7 -2.15,-1.6 -2.15,-6.65 0,-2.95 -17.45,-7.8 m -43.2,-37.9 -0.35,0.25 -3.1,3.35 q -1.95,3.45 -2.95,8.3 -0.5,2.4 -5,5.8 -0.85,0.7 -6.1,2.6 -5.3,2.3 -7.45,5.25 -0.3,0.65 -2.15,2.2 -1.75,1.55 -2.25,1.7 -0.55,1.45 -0.65,2.75 l 0.2,1.15 0.25,1.2 q 0.45,-5.8 11.75,-10.25 12.45,-3.7 13,-4.3 l 0.55,-1 q 0.7,-2.8 2.15,-10.8 1.1,-5.9 2.1,-8.2 m 20.15,17.2 q -2.7,-1.7 -5.15,-2.5 l -4.2,-0.15 0.4,0.25 4.2,2.15 q 2.25,1.8 9.2,6 7.1,4.35 7.9,4.35 5.55,0 7.95,-4 1.85,-3.1 1.85,-8.85 0,-2.65 -1.5,-5.5 -1.75,-2.85 -2.35,-4.05 l -0.6,0.3 q -0.35,1.1 -0.5,2.95 l -0.75,2.05 q -0.7,8.25 -7.95,8.25 -5.65,0 -8.5,-1.25 M 172.55,23.85 q 6.1,-8.35 8.2,-11 -5.6,0.85 -11,2.9 -8.55,3.2 -8.55,7.3 0,1.6 1.15,7.3 1.1,5.7 1.1,6.1 0,1.45 -1.25,2.15 -0.9,0.45 -2.8,0.75 -4.5,0.1 -7.45,-0.8 0.45,0.5 1.15,1.1 l 4.85,3.05 1.1,-0.35 -0.8,0.45 q 1,0.45 2.4,0.75 1.4,0.3 2.2,0.2 4.35,-0.5 5.7,-0.5 3.35,0 9.4,2.3 6.05,2.3 7.5,2.3 6.7,0 8.75,-6.4 l -8.75,0.15 q -5,0 -11.7,-3.1 -7.1,-3.35 -7.1,-6.45 0,-0.15 5.9,-8.2 m 46.95,1.25 q 0.75,0.55 1.25,1.1 l 0.35,0.55 q 0.35,0.65 0.35,1.25 0,1.4 -2.2,2.35 -0.55,0.65 -1.3,1.25 -2.2,1.65 -5,2.1 5.45,-0.45 7.55,-1.5 2.6,-1.35 2.6,-4.65 0,-1.6 -1.3,-2.6 -1.8,-1.4 -5.95,-1.2 2.1,0.3 3.65,1.35 m -14.65,-2.7 5.2,0.4 q 5.45,0.05 11.2,0.3 l -5.2,-1.1 -11.2,0.4 M 237,21.45 q 1.05,-1.9 1.1,-2.65 l -0.75,-0.65 q -0.2,2.1 -0.35,3.3 m -10.6,3.25 -1.8,-0.35 q 1.85,1.75 3.5,4.8 0.95,1.75 2.6,5.2 3.05,5.75 7.45,5.75 3.5,0 4.3,-1.95 0.5,-1.2 0.5,-6.8 0,-2.8 -0.7,-3.7 -0.85,-1.15 -3.7,-1.15 -0.95,0 -2.4,-0.2 -1.75,-0.25 -2.2,-0.55 0.45,-0.4 1.45,-1.85 -2,1.1 -6.5,1.1 -0.6,0 -2.5,-0.3 m 107.9,132.35 -0.15,-0.3 q -1.05,0.35 -3.75,1.95 -1.85,1.1 -4.2,1.1 -3,0 -6.35,-0.5 -3.55,-0.6 -5.05,-0.85 l 2.8,-0.95 q -7.85,-1.5 -7.85,-8.35 0,-7.2 3.55,-11.55 2.2,-2.7 2.45,-3.15 1.1,-1.8 1.1,-4.2 0,-5 -3.9,-12.7 -4.85,-9.6 -11.8,-12.3 -5.2,-2 -14.1,-10.65 -9.35,-9.05 -9.35,-12.9 0,-1.95 5.7,-2.05 2.9,-0.05 5.85,0.3 1.1,0 2.25,-1.4 1.15,-1.4 2.6,-1.4 3.2,0 7.75,4.2 4,3.7 4,4.45 0,0.5 -0.85,1.15 -1.2,0.85 -2.1,2.2 l -0.05,1.25 1.55,0.15 q 4.8,0 6.35,-1.35 1.1,-0.9 2.9,-5.4 -4.5,-1.95 -7.45,-3.25 -3.95,-1.75 -5.15,-2.35 -6.45,-3.2 -11.75,-6.55 -6.15,-3.9 -6.65,-4.2 L 281.6,66.9 q 0.7,3.3 0.2,3.75 -0.6,0.55 -5.8,0.55 -2.45,0 -4.7,3.45 -2.25,3.4 -5.05,3.4 -7.95,-1.05 -10.7,-1.55 0.9,0.8 2.25,1.8 2,1.5 6.65,4.9 8.8,6.8 -9.7,-6.8 -0.1,-0.05 -0.2,-0.05 18.8,20.4 16.95,20.8 -0.95,0.2 -8.85,0.7 4.1,7.55 10.1,16.45 4,6.55 4,12.15 0,1.15 -0.95,1.65 -1,0.55 -3.35,0.55 -3.4,0 -5.85,-2.1 -3.2,-3.4 -5.75,-6 -2.45,-2.45 -3.8,-7.25 -1.35,-4.6 -2.05,-12.55 -0.4,-4.65 -5.85,-10.15 -5.3,-5.4 -5.3,-7.65 0,-0.5 0.5,-2.95 0.45,-2.45 0.45,-2.95 0,-0.7 -0.65,-6.2 -0.7,-5.55 -0.7,-5.6 0,-4.75 2.9,-7 1.9,-1.45 4.05,-1.45 3,0 9.15,4.3 6,4.2 6,5.85 0,4.85 -3.85,6.4 -1.75,0.7 -8.1,1.15 0.4,0.65 1.45,1.6 7.1,-0.2 12.2,-4.35 5.3,-4.4 5.3,-10.6 -2.2,-1.85 -6.5,-7.85 -5.5,-1.5 -11.95,-1.5 -3.4,0 -5.9,1 -2.55,0.95 -4.35,0.95 -1.05,0 -2.95,-1.65 -2.45,-2.3 -3.95,-3.6 -6,-5.25 -11.6,-5.25 -2.5,0 -3.45,1.05 -0.95,1.15 -0.95,4.2 11.95,6.45 12.95,6.45 0.7,0 5.05,5.05 4.5,5.2 4.5,6.6 0,6.05 -4.9,10.8 -4.3,4.2 -8.3,4.2 l -2.7,-0.35 q 2.4,0.05 5.05,-2.7 3.35,-3.5 3.35,-8.5 0,-3.65 -3.05,-7.15 -2.6,-2.95 -4.9,-3.5 -7.6,-1.9 -8.95,-5.45 -0.4,-1.1 -0.15,-2.25 0.3,-0.9 0.25,-0.9 -0.5,0 -0.6,0.4 -0.1,0.35 -0.6,0.35 1.45,-4.15 1,-8.3 -0.9,-8.3 -11.35,-8.3 -6.65,0.55 -6.8,0.55 3.95,0.35 7.25,1.15 6.45,1.5 6.8,4.55 0.4,3.85 1.8,7.95 1.15,3.55 1.15,5.7 0,1.5 -0.4,2.85 -0.7,2.35 -0.85,3.15 2.9,1.85 6.3,2.8 1.85,0.55 4.8,1.2 4.15,1.25 4.15,7.35 0,3.15 -1.75,5.45 -1.9,2.5 -5,2.55 4.55,3.15 16.1,10.95 3.3,2.25 8.55,6.1 l 0.8,0.65 -2.55,-1.6 -0.85,-0.65 -0.6,-0.6 q 6.5,7.6 8,12.35 1.2,3.75 -0.85,3.75 -0.5,0 -0.15,-0.5 0.35,-0.55 -0.15,-0.55 -0.5,0 -0.35,5.1 0.2,6.2 -0.15,8.1 -0.1,0.55 -1.9,3.95 -1.75,3.75 -1.75,6.6 0,1.35 1.45,5.1 0.4,1.05 2.05,5.1 0.1,-0.85 -0.55,-3.65 -0.6,-2.55 -1.15,-4.05 3.8,3.9 9.05,7.9 3.2,3.4 2.15,10.3 -0.4,3.35 4.2,8.85 4.75,5.75 4.75,8.8 0,0.65 -0.55,1.5 -0.55,0.85 -0.55,1.3 0,3.35 7.2,8.05 7.35,4.8 11.55,3.8 l -0.25,0.35 q -0.05,0.05 -5.5,1.05 -5.1,0.9 -8.65,4.15 l 1.7,-0.05 q 4.65,-0.05 17.35,-3.15 12.35,-3.05 14.3,-4.4 3.25,-2.55 4.6,-3.6 2,-2.75 12.3,-13.2 9.8,-9.8 9.8,-9.9 0,-0.6 -0.15,-1.05 m -69.2,-59 0.65,0.85 q 10.5,10.35 10.6,10.45 8.15,9.35 8.15,16.25 0,8.5 -0.55,11.45 -0.85,4.65 -3.65,4.65 -0.05,0 -11.15,-12.4 1.8,0.75 4.2,1.8 1.7,0.75 2.95,0.75 1.35,0 2.3,-1.25 1.55,-2.05 1.55,-7.2 0,-5.9 -6.35,-14.3 -7.15,-8.35 -8.7,-11.05 m 26.8,16.7 q 0.9,0.8 5.15,3.85 5.45,3.85 5.45,10.5 0,8.1 -3.15,11.75 -2.1,2.35 -2.2,2.55 -0.75,1.25 -0.95,3 0.65,-1.25 4.85,-2.3 1.75,3.7 2.15,6.55 0.15,1 0.15,4.8 0,3.9 -0.1,4.75 -0.2,2.3 -1.3,3.95 -0.5,10.85 -4.2,15.45 -3.1,3.9 -8.95,3.9 -3.65,0 -5.4,-0.75 -1.45,-0.6 -2.15,-2 3.9,-2.85 7.05,-5.35 6.15,-4.8 7.45,-8.05 -3.05,1.05 -4.25,1.4 -1.8,0.45 -5.3,0.45 -3.85,0 -5.1,-0.7 -2.7,-1.5 -4.6,-2.1 -0.15,0 -1.9,-0.5 -1.75,-0.5 -2.05,-0.65 l -2.4,-0.8 1.4,0 q -0.75,-1.2 -1.2,-5.65 -0.5,-4.85 -1.2,-6.5 -0.3,-0.75 -6,-5.45 -4.9,-4.05 -4.9,-8.4 0,-0.95 2.65,-2.55 2.55,-1.55 3.6,-1.55 1.55,0 8.55,3.95 3.8,2.15 10.6,6 3,-3.2 5.5,-10.4 2.15,-6.05 2.15,-8.6 0,-1.35 -2.75,-5.05 -2.8,-3.7 -2.8,-5.25 0,-1.1 0.8,-5.4 l 0.15,-1.4 q 2.1,3.85 5.2,6.55 m -4.75,-13.5 q 4,3.2 10.55,8 5,3.65 6.8,5.35 4.7,4.55 4.7,13.05 0,1 -0.3,9.5 -2.2,-2.4 -4.05,-3.15 -0.8,-0.35 -0.8,-1.7 1.25,-7 1.25,-8 0,-4.5 -7.8,-11.65 -9,-8.2 -10.35,-11.4 m 9.15,47.05 q -0.1,-0.5 -0.15,-0.85 0,1 0.25,3.2 0.2,-1.1 -0.1,-2.35 m 43.25,-6.55 q -1.35,1.85 -6.4,6.15 -7.6,6.45 -8.4,7.2 6.15,0 10.5,-3.9 4.3,-3.9 4.3,-9.45 m 29.25,4.2 q 0,-3.4 -2.7,-4.25 -1.1,-0.35 -5.4,-0.35 -3.45,0 -5.05,-3.25 -1,-1.95 -1.9,-7.2 -0.9,-5.25 -1.95,-7.25 -1.7,-3.25 -5.2,-3.25 -7.85,-0.45 -9.85,-1.4 l 0.35,2.9 q 0,2.95 -1.6,4.55 -0.95,0.9 -3.05,2.3 0.4,0.9 1.45,1.85 1.2,1.1 2.2,1.3 l -1.95,-1.95 q 0.7,-0.25 0.7,-0.5 L 337,129.3 q 6.05,0 8.4,4.65 1.45,2.95 1.45,8.3 0,5.25 -1.4,7.9 -1.45,2.6 -1.45,3.3 0,0.1 1.3,1.1 1.25,1 1.25,3.2 0,3.05 -5.6,6.95 -3.1,2.15 -8.85,5.8 l 7.95,-3.05 q 3.7,-1.4 8,-2.4 6.8,-3.8 11.6,-7.3 9.15,-6.65 9.15,-11.8 m -39.9,-50.2 q 0,-1.1 -0.5,-2.45 -0.4,-1.1 -0.6,-1.3 l -1.7,-1.1 q 0,7 -1.4,7.75 -0.7,0.35 -2.5,0.2 -3.1,-0.25 -4.2,-0.25 -1.9,0 -3.25,1.1 4.35,2.6 9.35,2.75 2.75,0 4.4,-0.75 1.45,-0.65 2.45,-2.05 l -3.05,0 q 1,-2.45 1,-3.9 z"
         id="path13"
         inkscape:connector-curvature="0"
         style="fill:#5e513e;stroke:none" />
      <path
         d="m 85.8,101.95 q -0.4,0.4 -1.9,2.4 -1.45,1.95 -1.6,2.2 0.45,-0.5 1.75,-2.15 1.25,-1.7 1.75,-2.45 m 18.9,-1.55 q -1.75,-0.2 -2,-0.2 -3.9,-0.35 -9.1,-0.45 2.6,0.25 5.5,0.3 1.6,0.05 5.6,0.35 m 36.25,41.2 q -2.35,-1.75 -5.25,-1.75 -14.45,0 -18.5,-0.75 -4.05,-0.8 -6.1,-0.8 -1.9,0 -7.95,6.8 -6.25,7 -6.25,9.8 0,4.1 3.8,6.25 0.9,0.55 2.55,1.5 1.2,0.8 1.2,1.9 0,0.4 -0.7,1.7 -1,1.7 -2.35,2.7 l 0.8,0.55 q 0.8,0.25 2.65,0.6 1.85,0.3 2.6,0.3 4.5,0 6.65,-2.55 1.45,-1.65 2.35,-5.55 1,-4.35 1.75,-5.6 1.5,-2.55 4.9,-2.55 1.6,0 2.1,2.6 0.95,4.75 1.35,5.65 3.3,8.25 19.15,8.25 2.2,0 2.6,-0.7 0.7,-1.35 0.7,-8.05 0,-5.25 -2.5,-11.95 -0.6,-1.65 -1.3,-3 -1.9,-2.95 -4.25,-5.35 m 14.8,-33.45 q 0,-1.7 -0.55,-2.75 -0.6,-1.2 -2.95,-3.95 -1.1,2 -5.25,3.6 -4.05,1.5 -8.05,1.6 -3.95,0.1 -6.6,4.55 -3.2,5.35 -3.9,5.7 1.8,2.75 3.5,3.55 0.9,0.4 2.85,0.4 4.25,0.2 6.55,0.2 4.2,0.05 6.85,-0.7 7.55,-2.15 7.55,-12.2 m -25.4,71.4 q -1.15,-1.75 -2.75,-1.75 -1.6,0 -2.7,1.75 -1.15,1.7 -1.15,4.15 0,2.45 1.15,4.2 1.1,1.7 2.7,1.7 1.6,0 2.75,-1.7 1.1,-1.75 1.1,-4.2 0,-2.45 -1.1,-4.15 m -58.45,-8.7 -22.95,0 0,11.55 22.95,0 0,-11.55 M 59.3,134 q -5.6,0.9 -9.4,11.15 -1,2.6 -2.55,7.45 -1.35,3.7 -2.55,4.55 l -2.4,1.7 -3.65,4.55 q 1.8,1.3 11.7,1.1 7,0 13.75,-1.5 8.85,-2 8.85,-5.5 0,-1.65 -0.8,-3.75 -1.25,-0.6 -2,-1.4 -1.45,-1.6 -1.45,-5.05 -0.7,-1.05 -1.5,-2.15 -7.7,-10.5 -8,-11.15 m -16.65,0.3 q 0,-1.95 -0.7,-3.5 -0.9,-1.85 -2.55,-2.25 -6.8,-1.3 -9.7,-1.3 -3.45,-0.05 -5.1,1.55 -1.55,1.5 -2.6,5.45 -0.4,1.55 -2.15,10.4 l 0.25,2.35 0,0.15 q 0.1,2.25 3.35,3.85 3.3,1.65 8,1.65 5.4,-0.65 8.85,-9.3 2.35,-6 2.35,-9.05 m 36.85,-22.6 -0.05,-0.4 q -0.25,0.3 -1.15,2.1 -0.9,1.95 -1.05,2.55 5.9,0.6 8.2,2.35 1.7,1.35 1.7,3.85 0,2.75 -5.25,2.95 -7.75,0.3 -11.35,2 -0.15,1.8 -0.15,2.2 0,3.55 0.7,4.9 0.45,1 2.35,2.3 1.9,2.05 2.7,2.75 2.1,1.8 3.55,1.8 4.8,0 9.9,-9.5 2.4,-4.75 3.4,-6.55 1.7,-2.95 2.75,-2.95 6.85,0.75 7.85,0.75 1.45,0 5.35,-4.15 4.5,-4.75 4.5,-8.65 0,-3.45 -0.4,-5 -0.5,-1.8 -1.85,-2.9 -1.15,3.7 -2.75,5.4 -1.9,1.95 -5,1.95 -7.75,0 -12.2,0.45 -2.75,0.3 -11.75,1.8 M 60.3,83 q -1.75,1.15 -6.85,6.95 -5.6,6.35 -10.55,10.25 -0.65,0.95 -1.3,1.95 -2.15,3.15 -4.7,7.05 -1.45,2.15 -3.65,5.3 -0.6,0.75 -1.25,1.65 0.95,0.45 3.65,0.85 2.15,0.3 2.9,0.3 3.8,0 9.3,-3.9 7.65,-5.4 15.8,-8.45 4.2,-1.6 7.7,-11.55 3.05,-8.85 3.05,-15.45 0,-0.75 -1,-1.75 -1,-1 -1.75,-1 -0.5,0 -1.45,0.4 -0.95,0.4 -1.45,0.4 -2.1,0 -5.3,-0.3 -2.5,-0.1 -4.35,0.8 2.9,-0.6 3.8,-0.6 0.6,0.05 7.8,1.6 0.55,2.6 -2.8,3.2 -5.5,0.95 -7.6,2.3 M 45.75,76.05 q -0.3,0.4 -2.05,2.2 -1.8,1.8 -2.1,2 0.7,9.15 -12.25,22.35 -13.1,13.35 -25.65,15.8 l -2.05,1.95 0.05,0.05 q 2.75,1.2 10.6,-2.3 8.1,-3.65 15.95,-9.9 Q 49,91.65 45.75,76.1 l 0,-0.05 m 22.5,-39.55 -0.3,0.35 -2.3,2.6 q 3.2,1.9 4.85,4.6 1.25,1.95 1.25,3.35 0,1.15 -1.85,3.15 -2.85,3.05 -5.75,10.15 -0.15,0.45 -0.6,2.15 -0.25,1.15 -0.8,1.7 -1.4,1.5 -7.7,1.5 -1,0 -3.45,-0.2 -0.85,2 -2.15,4.15 0.55,2.7 2.15,3.55 1.3,0.65 4.75,0.65 5.55,0 10.4,-5.45 5.4,-6.1 5.4,-15.05 0,-11.9 -1.25,-13.4 -0.8,-0.5 -1.25,-0.9 -0.85,-0.7 -1.4,-2.9 m 69.25,14.2 q 3.1,0 5.3,-1.1 2.2,-1.15 2.2,-2.7 -4.5,2.5 -7.5,3.8 m 17,30.1 q -1.3,0.75 -1.55,0.95 1.5,-0.3 1.85,-0.4 0.4,-0.15 5.25,-2.3 -1.1,0.3 -3.85,0.85 -0.4,0.15 -1.7,0.9 M 114.05,67.65 q -0.65,1.7 -1.95,3 -1.3,1.25 -2.35,1.25 -9.05,0 -13.05,1.95 -1.25,0.6 -12.15,8.65 l -0.4,-0.65 q -0.65,3.4 -1.3,6.3 -0.35,2 -0.35,6.4 0,0.7 0.35,1.85 0.25,1 0.45,1.3 4.85,-4.55 7.9,-9 2.55,-4.25 3.5,-5.65 1.45,-2.2 3.45,-2.95 2.35,-0.85 7.95,-0.85 3.8,0 9.1,1.65 5.25,1.65 6.05,1.65 0.6,0 1.05,-0.35 0.45,-0.35 0.45,-0.85 0,-1.75 -3.8,-7.2 -0.55,-0.75 -4.9,-6.5 M 109.4,63.5 q -0.45,0.05 -0.8,0.15 l 2,0.15 q -0.35,-0.4 -1.2,-0.3 m 48.2,-40.55 q -0.4,-1.75 -1.25,-2.6 -1.6,-1.65 -5.55,-0.2 3.65,0 3.7,1.9 -2.05,11.9 -6.15,11.9 -1.7,0 -2.1,-2.55 -0.15,-3.85 -0.4,-6.45 -0.65,1.1 -1.05,5 -0.25,2.75 -0.25,4.75 0,1.3 4.3,2.5 3.7,1.05 6.15,1.05 2.85,0 4,-1.35 0.8,-1 1,-3.3 0,-0.95 -0.9,-5.15 -0.95,-4.6 -1.5,-5.5 M 143.45,10.7 q 0,0.95 0.8,1.65 1.3,1.2 4.25,1.2 9.85,0 15,-11.85 0,-0.1 -1.95,-0.65 -4,1.8 -12.9,2.25 -13.3,0.65 -15.6,0.95 -19.4,2.5 -24,19.05 l -0.3,-0.45 q -1.1,-2.5 -1.6,-3.5 -0.85,-1.6 -1.95,-1.6 -0.05,0 -6.05,1.85 -6.6,1.95 -9.7,2.45 -2.25,0.35 -4.55,3.6 -2.7,3.9 -3.65,4.5 L 81.05,30 q 0,3.55 0.8,5.3 1.15,2.6 4.3,2.6 2.3,0 4.45,-2.55 0.85,-1.05 3.7,-5.6 5,-8.2 10.65,-8.2 l 1.85,0.05 q 0.25,1.1 -0.55,3.5 -0.45,1.3 -1.2,3.2 0.15,0.05 8.55,0.8 6,0.6 7.1,1.95 -3.35,-10.3 4,-18.3 6.9,-7.5 17.3,-7.5 2,0 3.2,0.5 -0.15,1.45 -1.75,4.95 m 55.85,170.35 q 1.55,1.9 3.1,5.45 1.45,3.3 1.9,3.75 0.95,0 1.65,1.15 0.7,1.15 0.7,2.75 l 1.1,2.8 1.25,3.1 q -1.25,-13.6 6.8,-19 2.25,-1.5 6.4,-2.95 3.65,-1.3 4.45,-2.1 -0.6,-0.4 -2.4,-0.85 -1.5,-0.35 -1.8,-0.35 -3.85,0 -9.55,2.3 -2.85,1.15 -5.15,2.3 -0.65,0 -3.35,-3.55 -3.2,-4.25 -6.45,-6.2 0.9,2.4 5.5,15.55 l -0.7,-0.85 q -2.95,-2.95 -3.45,-3.3 m -7.4,4.85 -0.25,-0.15 q -0.95,0 -2.75,-0.3 1.85,0.8 3,0.45 m -13.8,-6.2 q -1.6,0 -3.65,1.7 -1.2,1 -4,3.65 l -1.25,3 -0.15,1.4 q 0.1,0.5 0.75,2.1 0.6,1.55 0.75,1.8 2.05,1.85 5.4,5.05 2.45,2.3 3.3,3 l -0.6,-0.75 q -1.3,-2.85 -2,-4.65 -1.2,-3.25 -1.2,-7 0,-2.1 1,-3 1.2,-1.1 4.3,-1.1 l 8.15,0.55 q -0.8,-0.45 -6.3,-3.85 -3,-1.9 -4.5,-1.9 m 13.65,-11.6 0.25,1.1 q 0.35,-3.9 0.35,-12.9 l -0.65,5.15 -0.15,3.7 q 0,1.15 0.2,2.95 m 1.05,-19.5 0,0.6 q 0.5,-2.8 0.5,-5.05 -0.4,1.4 -0.5,4.45 m 17.55,-0.8 q -2.95,-1.5 -5.25,-3.3 -2.6,-2.05 -4.05,-4.25 -0.95,-1.8 -1,-1.8 -0.65,0 -0.95,0.1 -0.2,0.1 -1.05,0.55 -0.2,1.4 -0.45,4.65 -0.25,3.2 -0.25,4 l 0.1,9.45 q 1.35,-1.5 3.7,-2.5 2.4,-1 4.7,-1 1.05,0 6.1,1.15 9.05,2.05 11.5,2.55 18,2.7 18.15,2.7 1,0 1.05,-0.2 l -0.75,-1 q -0.8,-0.85 -3.95,-2.6 -4.05,-2.2 -7,-2.45 -5.75,-0.9 -10.5,-2.2 -4,-0.45 -6.75,-1.2 -1.2,-0.35 -3.35,-2.65 m 8.05,-39.65 q -0.7,-0.7 -1.9,-1.45 -2.3,-1.45 -4.45,-1.45 -6.45,-0.1 -6.95,1.25 -0.1,0.35 -0.1,2.35 0,1.64492 -0.35,3.2 l 0.65,-2.65 q 4.2,1.95 5.5,4.6 1,2 1,6.55 0,2.25 -0.4,3.35 1.9,-1.25 3.55,-3.6 3.45,-5.05 3.45,-12.15 m 12.9,12.5 q 0,-0.6 -0.75,-2.3 l -0.75,-1.55 q -4.55,2.4 -7.65,6.35 -2.95,3.85 -2.95,7.05 0,1.9 1.1,2.65 1.35,0.9 5,0.9 2.55,0 4.3,-4 1.7,-3.85 1.7,-9.1 m -69,-42.55 -0.25,0.1 3.95,3.95 q -2,2.3 -3.2,2.9 -1.05,0.55 -2.95,0.55 -3.7,0 -5.75,-0.8 -0.05,-0.05 -2.1,-1.25 -0.15,0.35 -1.45,2.4 -1.15,2.05 -1.15,2.95 0,0.3 0.1,0.6 0.25,0.8 1.2,1.7 1.35,1.35 2.65,1.35 0.55,0 1.05,0 9.15,-0.35 12.7,-6.45 2.1,-3.75 3.5,-15.05 -6.05,4.6 -6.35,5.3 -0.25,0.55 -1.95,1.75 m 3.1,-23.25 q 3.95,-2.1 3.95,-4.1 l -0.1,-4.25 q -3.2,0.05 -7.95,-1 -2.35,-0.55 -4.35,-1.1 -1.95,4.5 -10.9,9.8 -8.2,4.85 -11.7,4.85 -2.5,0 -8.9,-2.2 -7.4,-2.6 -9.55,-5.25 0.45,4.9 9.1,12.1 9.9,8.2 20,8.2 1.3,0 2.65,-2.3 2.2,-3.85 7.2,-8 3.95,-3.3 10.55,-6.75 m -2.1,55 -0.1,0 q -0.3,5.6 -3.7,14.65 -3.25,8.6 -3.25,15.9 0,1.65 0.95,10.2 5.95,-2.3 9.4,9.35 0.9,3 2.45,8.45 1.45,3.95 3.25,3.95 2.05,0 6.5,-3.15 5.3,-3.75 5.3,-7.5 0,-1.9 -2,-3.45 -2.65,-1.8 -4.1,-3.2 1.05,-1.75 3.95,-4.25 1.75,-1.55 1.75,-4.2 0,-8.6 -8.7,-22.75 -8.1,-13.1 -11.7,-14 m 13.25,-23 -0.2,5.15 q 0,7.8 1.55,12.3 3.6,10.65 14.45,10.65 0.65,0 1.1,-1.7 0.3,-1.3 0.3,-2.45 0,-0.25 -8,-11.7 -8.2,-11.7 -9.05,-12.25 l -0.15,0 m 22.25,-28.5 q -1.7,-1.7 -2.3,-1.8 -5.8,-0.65 -9.3,-0.65 2.8,1.1 4.95,1.95 0.7,0.3 0.7,1 0,6.1 -12.65,6.1 -2.8,0 -4.5,-1.95 l -1.3,3.3 q 6.8,1.6 11.7,1.6 6.3,0 9.35,-0.85 5.3,-1.5 5.3,-5.85 0,-0.6 -0.15,-0.95 l -0.2,-0.2 q -0.75,-0.85 -1.6,-1.7 M 20.65,163 q 2.45,-0.55 2.45,-1.3 0,-2.15 -1.85,-2.95 -1.15,-0.45 -4.15,-1.1 -6,-1.85 -6,-11.25 -3.5,-0.5 -5.6,3.55 -1.55,3 -1.55,5.65 0,2.55 2.5,4.8 3.4,3.1 9.85,3.1 2.15,0 4.35,-0.5 M 202.45,18.9 q -2.05,-0.05 -5.95,-0.55 l 0.05,0.55 5.9,0 m -14.4,3.5 -2.3,0.05 2.2,0 3,0 -0.3,0.4 q 2.95,-0.25 7.95,-0.45 -6.2,0.05 -10.55,0 m 16.8,0 -0.3,-0.05 q -8.45,1.55 -17.85,5.35 -9,3.6 -14.2,4.4 0.05,-0.25 0.9,-1.75 0.85,-1.55 0.9,-1.85 -2.4,1.25 -2.4,4.65 0,2.6 2.9,4.05 3.05,1.5 8.9,1.5 3.85,0 5.35,-0.15 2.65,-0.3 5.05,-1.3 l 9.05,-3.85 q 8.85,-1.45 12.35,-2.1 2.3,-0.4 3.75,-0.95 2.2,-0.95 2.2,-2.35 0,-0.6 -0.35,-1.25 l -0.35,-0.55 q -0.5,-0.55 -1.25,-1.1 -1.55,-1.05 -3.65,-1.35 -2.7,-0.5 -5.8,-0.95 l -5.2,-0.4 m 23.45,-0.35 q 2.7,0 3.35,-0.95 0.6,-0.8 0.6,-4.2 l -0.15,-1.65 q -1.6,-0.6 -9.15,-2.2 -7.3,-1.5 -8.45,-1.55 l -8.75,-0.15 -0.7,0.15 q 1.9,3.45 10,6.4 4.25,1.55 9.95,3.1 l -0.9,0.1 q -0.65,-0.05 -2,-0.55 -1.5,-0.55 -8.9,-1.3 1.1,0.25 5.85,1.55 5.15,1.25 9.25,1.25 m 31.8,75.6 q 0,-0.8 0.35,-1.95 4.55,0.65 6.2,-0.7 1.65,-1.3 -0.15,-3.8 -4.4,-6.25 -21,-11.6 0,2.8 3.45,7.6 4.85,6.8 6.9,11.15 1.05,2.2 1.55,11.8 1.4,8.55 7.45,8.55 1.65,0 2.15,-1.15 0.4,-0.85 0.4,-3.45 0,-4.05 -3.65,-9.45 -3.65,-5.4 -3.65,-7 z"
         id="path15"
         inkscape:connector-curvature="0"
         style="fill:#827155;stroke:none" />
      <path
         d="m 79.45,111.3 0.05,0.4 q 9,-1.5 11.75,-1.8 4.45,-0.45 12.2,-0.45 3.1,0 5,-1.95 1.6,-1.7 2.75,-5.4 l 0.7,-1 -7.2,-0.7 q -4,-0.3 -5.6,-0.35 -2.9,-0.05 -5.5,-0.3 -3.7,-0.15 -5.55,0.5 -1.25,0.5 -2.25,1.7 -0.5,0.75 -1.75,2.45 -1.3,1.65 -1.75,2.15 -1.1,1.1 -2,2.7 -0.6,1.2 -0.85,2.05 M 59.1,76.5 q -3.6,2.65 -6.5,6.95 -5.5,8.35 -9.1,12.9 -0.45,0.3 -1.35,2.1 -1,1.85 -1.1,2.7 l 1.1,-0.5 0.75,-0.45 q 4.95,-3.9 10.55,-10.25 5.1,-5.8 6.85,-6.95 2.1,-1.35 7.6,-2.3 3.35,-0.6 2.8,-3.2 -7.2,-1.55 -7.8,-1.6 -0.9,0 -3.8,0.6 M 33,87.85 q -1.9,3.05 -4.65,8.3 -3.2,4.45 -8.2,7.35 -5.4,3.05 -7.4,5.45 -8.15,8.8 -9.05,9.45 12.55,-2.45 25.65,-15.8 12.95,-13.2 12.25,-22.35 -5.05,2 -8.6,7.6 m 32.65,-48.4 -3.9,4.95 q -4.7,7.35 -7,13.2 -1.3,3.15 -3.15,8.25 2.45,0.2 3.45,0.2 6.3,0 7.7,-1.5 0.55,-0.55 0.8,-1.7 0.45,-1.7 0.6,-2.15 2.9,-7.1 5.75,-10.15 1.85,-2 1.85,-3.15 0,-1.4 -1.25,-3.35 -1.65,-2.7 -4.85,-4.6 m 86.95,58.4 q -19.15,-0.55 -20.4,-0.2 -0.7,0.25 -1,1.4 -0.35,1.55 -1.7,2.9 -1.75,3.45 -1.75,3.55 -1.4,3.3 -1.4,6.15 0,0.8 0.4,2.6 0.4,1.85 0.9,3 l 0.8,-0.35 q 0.7,-0.35 3.9,-5.7 2.65,-4.45 6.6,-4.55 4,-0.1 8.05,-1.6 4.15,-1.6 5.25,-3.6 l 0.3,-1.3 0.05,-2.3 m -42,-34.05 -2,-0.15 q -3.65,-0.1 -7.6,0.45 -8.15,2.45 -10.1,3.95 -1.35,1.05 -3.55,4.15 l -1.95,3.7 -1.05,2.75 -0.35,1.85 0.15,1.35 0.4,0.65 q 10.9,-8.05 12.15,-8.65 4,-1.95 13.05,-1.95 1.05,0 2.35,-1.25 1.3,-1.3 1.95,-3 0.15,-0.8 -3.45,-3.85 m 35.4,-18.1 -1,1.2 q 0,1.55 -2.2,2.7 -2.2,1.1 -5.3,1.1 l -8.15,0 q -3.1,0 -6.25,-0.1 -1.75,-0.05 -5.2,-0.2 -0.85,0 -1.4,0.35 -0.6,0.35 -0.6,0.85 2.15,2.65 9.55,5.25 6.4,2.2 8.9,2.2 3.5,0 11.7,-4.85 8.95,-5.3 10.9,-9.8 l 1.3,-1.6 0.8,-0.45 -1.1,0.35 -0.15,0 q -2.8,1.15 -5.25,1.05 -2.65,-0.15 -4.35,0.45 -0.8,0.3 -2.2,1.5 m 4.8,-25.55 q -2.05,0 -3.5,1.4 -1.45,1.4 -1.45,3.4 0.25,2.6 0.4,6.45 0.4,2.55 2.1,2.55 4.1,0 6.15,-11.9 -0.05,-1.9 -3.7,-1.9 M 161.55,1.05 Q 160.1,0.95 155.7,0.4 152.35,0 149.05,0 q -15.5,0 -44.2,11.55 -10.35,4.2 -19.15,8.55 -7.95,4 -8.95,5.2 1.9,1.25 4.3,4.7 l 0.2,0.15 q 0.95,-0.6 3.65,-4.5 2.3,-3.25 4.55,-3.6 3.1,-0.5 9.7,-2.45 6,-1.85 6.05,-1.85 1.1,0 1.95,1.6 0.5,1 1.6,3.5 l 0.3,0.45 q 4.6,-16.55 24,-19.05 2.3,-0.3 15.6,-0.95 8.9,-0.45 12.9,-2.25 M 200.2,133 l -1.15,1.6 -2.85,4.25 q -2.9,4.4 -2.9,5.3 0,2.25 -0.5,5.05 -0.45,4.75 -0.45,7.1 0,9 -0.35,12.9 0.05,2 1.2,4.7 1.3,3.05 3.05,4.45 l 3.05,2.7 q 0.5,0.35 3.45,3.3 l 0.7,0.85 q -4.6,-13.15 -5.5,-15.55 -0.6,-3.9 -0.6,-6.55 l 0.1,-5.9 -0.1,-9.45 q 0,-0.8 0.25,-4 0.25,-3.25 0.45,-4.65 l 0.2,-1 1.1,-3.4 0.85,-1.7 m 4,-13.3 q 0.3,2.75 0.65,3.75 0.8,1.1 1.65,1.9 l 1.3,0.2 q 2.5,-0.1 3.25,-1.05 0.2,-0.25 0.35,-0.6 0.4,-1.1 0.4,-3.35 0,-4.55 -1,-6.55 -1.3,-2.65 -5.5,-4.6 l -0.65,2.65 q 0,0.1125 -0.05,0.2 -0.0117,0.14687 -0.05,0.3 l -0.5,2 -0.15,1.75 q 0,0.95 0.3,3.4 M 166,82.15 l -3.95,-3.95 -0.2,-0.25 -1.8,1.1 q -4.85,2.15 -5.25,2.3 -0.35,0.1 -1.85,0.4 -0.4,0 -0.65,0.55 -0.3,0.5 -0.3,1.25 2.05,1.2 2.1,1.25 2.05,0.8 5.75,0.8 1.9,0 2.95,-0.55 1.2,-0.6 3.2,-2.9 m 26.15,-24.3 Q 190,57 187.2,55.9 q -4.75,0 -8.1,2.1 -3.4,2.05 -3.4,5 1.7,1.95 4.5,1.95 12.65,0 12.65,-6.1 0,-0.7 -0.7,-1 m 12.4,-35.5 0.7,-0.1 -6.65,0.15 q -5,0.2 -7.95,0.45 -3.15,0.45 -7.5,1.45 -5.95,1.35 -7.55,2.45 l -0.95,1.1 -0.35,0.65 q -0.05,0.3 -0.9,1.85 -0.85,1.5 -0.9,1.75 5.2,-0.8 14.2,-4.4 9.4,-3.8 17.85,-5.35 M 224.1,21.1 225,21 q -5.7,-1.55 -9.95,-3.1 -8.1,-2.95 -10,-6.4 l -0.1,-0.2 -3.45,-0.1 q -2.25,1.4 -2.7,1.75 -0.4,0.3 -2.05,2.2 -0.1,0.2 -1.2,3.05 l 0.95,0.15 q 3.9,0.5 5.95,0.55 4.05,0.2 10.75,0.35 7.4,0.75 8.9,1.3 1.35,0.5 2,0.55 z"
         id="path17"
         inkscape:connector-curvature="0"
         style="fill:#928164;stroke:none" />
    </g>
  </defs>
  <g
     id="g19">
    <use
       xlink:href="#Layer0_0_FILL"
       id="use21"
       x="0"
       y="0"
       width="383"
       height="218" />
  </g>
</svg>
