<?xml version="1.0" encoding="UTF-8" standalone="no"?>
<svg
   xmlns:dc="http://purl.org/dc/elements/1.1/"
   xmlns:cc="http://creativecommons.org/ns#"
   xmlns:rdf="http://www.w3.org/1999/02/22-rdf-syntax-ns#"
   xmlns:svg="http://www.w3.org/2000/svg"
   xmlns="http://www.w3.org/2000/svg"
   xmlns:xlink="http://www.w3.org/1999/xlink"
   xmlns:sodipodi="http://sodipodi.sourceforge.net/DTD/sodipodi-0.dtd"
   xmlns:inkscape="http://www.inkscape.org/namespaces/inkscape"
   version="1.1"
   preserveAspectRatio="none"
   x="0px"
   y="0px"
   width="103.07413"
   height="117.53"
   viewBox="0 0 103.07413 117.53"
   id="svg2"
   inkscape:version="0.48.5 r10040"
   sodipodi:docname="plat_tile_center_03_snow.svg">
  <metadata
     id="metadata49">
    <rdf:RDF>
      <cc:Work
         rdf:about="">
        <dc:format>image/svg+xml</dc:format>
        <dc:type
           rdf:resource="http://purl.org/dc/dcmitype/StillImage" />
      </cc:Work>
    </rdf:RDF>
  </metadata>
  <sodipodi:namedview
     pagecolor="#ffffff"
     bordercolor="#666666"
     borderopacity="1"
     objecttolerance="10"
     gridtolerance="10"
     guidetolerance="10"
     inkscape:pageopacity="0"
     inkscape:pageshadow="2"
     inkscape:window-width="640"
     inkscape:window-height="480"
     id="namedview47"
     showgrid="false"
     inkscape:zoom="1.18"
     inkscape:cx="50"
     inkscape:cy="100.53"
     inkscape:window-x="0"
     inkscape:window-y="0"
     inkscape:window-maximized="0"
     inkscape:current-layer="svg2" />
  <defs
     id="defs4">
    <image
       id="FlashAICB_Patterns_New_Pattern_Swatch_11"
       x="0"
       y="0"
       width="100"
       height="98"
       xlink:href="data:image/png;base64,iVBORw0KGgoAAAANSUhEUgAAAGQAAABiCAYAAACmu3ZJAAAgAElEQVR4nFS92a5syXae90U7 u8zV7L2riqcxScg8EihfGLYewVc2YNi+EPwAfh6/iS9875egQVqABB1K1CGrr71WdrOJ1hcj 5tzFAxSq6tTauTJjRsT4x9+MVP/n//E/V+88zlj+43/8I77rsJ0n1YpxjufnV4wxhBC4XC54 5xiGgXVdQSnyFsk5M44DHz5+4IcffiDGwO9+91uen1/4f/6v/5uvvvmKr373NUvc+PDVJ0qF 7779nnUN/Oa3vwPgp59+AiDnhLWWmBJff/U157HjcrlwuVzp+4EQAuu6cT6fcc5hSsF7i7WK rz69knMkpczHD5/44fsf+PnzZ56entDa8HjMOOeIMVFyQRvN+TSxrivLsmCtld8dI1SoVG6P N373uz/wxz9+x//7t3/H//g//Q98/fUT63wnhUSl8tOPP/J8fmLwPfPtxvsvn7HaMA4Dr9+8 EuJGLRlrDffbDe96rO24Xe/EFEm5Mq+J777/Cau0Zl0XVDdgrcFag1KKnBLWOzrvUAqc7dnW Be89XedZ14W+83TTmW3bqLUQQ8A72/6MAirjODKeJrquYw4rtRa0tpxPZ57OmpQSpRRQYLTB OYf3nm1b6fueGAOlVrz3jOOIMYacC6AopeKNxhhDShvLslBrIedMSomu63DOUUolxo11XeV9 1QoKSqkA1FLZto2UEn3Xk1KilopSimHosdaQciKliFIAEGMkhoA2sl4xRsiFFBNKKWotbNvG uq2EsEEtaN2jtZGNnBIxRlJOPOaNy3Xm7e0NO4wD728ry7ZQaiWlRAqBohTTOHK/XcglY60j hpXOW0qOvL//Quc7ejeSS8YYDciHUAq+//57fvzhB26PO6f1DMgnCVug1EBKEWscxjtyTrLb tWkPvCOliDGGx2MlhohrJ1NrzbpuaC2vNz9mlBoJYWXtPcYoSsps2yofOCWMSaSUCCGgtUah UErLQ8mFWiulFKyxWGfJJbOFDaUV1EyMkbBt1LYxtNZs28ryWBinCe8cCti2lZITtRZKhaIL xhi01sefVSgUhhQzSimMMdQqG8NZh/38JserlAK1YK3FaU3IiXVZcM5gjcYo8F52PyAnoXNM w8iyLJSSWZcZgPPTWV6PyvvlQjd2/PYvfk8/9JRSWNdALZVUEso6Qojt3yNay0Ld7w+G8UYK gRACwziiFLKgShZUa412lmHoUUo2RcmJCoQQud1vrOuKcx5rLUZrYoztujKyWwGllZyc9vpU qLVijSWWjZwTpWS01lhrgSpXTYrUWvCdR1XIMaK0olIxWtN3HZ3vqCWTcnvvWjZMSkmOmlLU KhvZe4dFwR/+5R9kV60r99sd6zum00Q/DNzvN8ZxJIZA3AL3ciWXgrfyMGIIpBiwTq62GANa KTrvCCGAUjzmGaUUXdexbBs5JU7jmVIqtvOU8mWXdn2HVpq+7+m7jjnKdQj12PGlFLRWaK1J pWCtwxhLionH407fde2hKbmdlJIHYm3bKLSrquC8k8WpkHMmhECIgUrFO4+qCWONPECjyDkR Y6XWimvXeamVnOSBOWtJ64bVhmEYMNbKtVkzpWRSTMSQyamgj/dY5BTGiP23//u/5fL2zr/7 2/+PdV3RWuGsYZln3t/fmcaJmitxi+SYyUruTGccYQ0Mw0jOiVrlTZacqbUwDgOd9/TjgHEW 33lCjpSc2/VgCClyvz+otR7HWiFv0DmHbjVFKblmQoik9udrhVIyl8uF19cX2fkFQgitbpRW pA21FlKMx+v2ndzlKaVW68BYg28nSStN1bJrUwzEGFBKdn1KkW2L1FKOazrEjbQFeufp+5Ec IxqFsZpSMigFFVLKpJzIOZMLKK0xRsuGarVbP+aZv/mbv+FPf/ovoOSH5I1EnLVQFVRF3414 16GVwbseVTXrsmGNpe88JSeoFWsttchDUQqss0ynE/0wUGvFGNOOPaQYeTwelFIotVCKFOS1 3ddyvciHKKUc/w5QayGEgLWWrvPknIDK6XTCe8+yLMQotadWiEkWQmuN9x7nHCh5gNu2Acip 7HsBA9ZRGkCIMR6nLBf59/16q/JmZDNpjbVSB7131FoJIVKKbKJfn86SM7l9FmMM1li5gv/u 7/6Wf/8f/j0oGHpBUrXt4GkaSTGjleHl+QVnPcu8EbZASgVnPSGEdmcHSs14Z0kp87jfud9u hBAw2lByYX48ZFEa0im5oLWma3etnApNyaVB4My2td+XE6mdRIBSCiFEKZRKc7vdWZaVfugb StvIKeOck13fakPJhdgK/LquhBBYlkV+PufjtO479nQ60XXt5BjdboB6LLyC41qyptUkpdqJ l6LurMN5QY9DP9D3/fFZ91OstJKr+COKV+sgZu7rRjIeO050/UiJGectKOiHjn7o0UaON6qy bgtVKQpQlSIlQRfLvPB4zDwec4OqFqqGbEhbBWWp1hJ04fXpmcF7aso8n86cx4maMhZF7zxO d4Q1kUPlaXpi6ic65+l9j9WGEBZS3jAGluWOd5Z1WVBKdvw49IRtIWwrr6/PnE4D49BRa8ZZ gzVOrrF+aFejXCGy9RXrvBLWDSiUHOjHDtd5coFSDb3rIYNC87g/WNYVZRSxZvzYM3QWqzXn 8UTYIiEkPnz8xDANGKtYt5XpNFJJKJ2w3337HVRYlpVlWbHdIEczF0IUdOO9J7Uj1vU9zjti jPiuY91WFOpAMXtxNkZzPp85Pz0xjiNhC+SS8Z3/UgdKlZNVCsuyoADf+eMo7/XAOSfXJ4Jg rLE4ZzFGkxtsNMYIInROkE6upJyx6rglyFlqjzGyo40xB3LTre8IMXC730gp8XR++oKujDkQ kdENdPiBwRlKSZSUCdbgvSPGwLatKCopBaw19F0v7yFlwraRYqLUyrZuaCtrW0rB/qe//3ue Pnxk8oasDd0wyqLWinUOlBJsnjMxyV26PyzvPbVUqqrtn0srWBmtpY85n08451jXhRQTXd+T WuE31qDa9bPf46Z1y3vf8Ljdcc7y/PKCVorH405MSa6Vdh0Ybei6DqOleNZS0UqTS2Xb5IEr pY5NUK08nP1OV1qTsjRx3vlfgQtZsHKSayqlxLZtKGWIMVLzQk2KGIM0pCWSqyOlQM4RlBcU VmRz5CLr9phn1m0VxFgrNQsA8V2H3j/ADidzKazbSlXw8dMnUk5S6H/1l7GyAF3XyfXV/re/ xlGgjEErzbqu5FIEHrY7OJeGeIYB7z2m3b/OWoZhaOhKscwz1jr6rmPbNu73e4O/mRgTznm6 vmecThhrWdeNECPGWOkjYgQU1rrWu0ijlmJkmRdqu/PDtjHPM1A5n05M03Rsrr2B897Tdz3D MNB1HdTKui7EFA5gkpJ038oo+qHndD6jjJy8fX2XdSHEiDYa62z7u2McR/Rf/Pmfk1Pidr1R c8E7j/NdQ0cTvvMYaw7UsxfALQQu16t0mqUSwkYIofUbUgR3ZPR4PBj6Hu/kqiu1SMfe/ntK 0kkvy8L98eDxeLDMMzlnXl5fUAputxvLuuCdxzvpcULYMMYy9APjMKJQLOtKDLKJpInUx8Oh 9STedxjzBU7vDdq+kZSShRJIalFKk1uvVKkHQlrWhXXbiDGjjcE5j9IalDquxUqDuyljrEVp dZzaruvkfRpDpaG0b776mutjxiwbxreFRI5sbkc9Nd4lxIh1jmEcQKnjAaDkl+47qdQKtbKt KynnA47e5wfrtqGVJmXpVIdOOvC+6+SqaxyYNobz+cx8f3B5vzAvC8PQM7wO3G53Ygh0vpPu 1krPUhuK2iFmyRXYEQ8s64q1ltOZBpe7gz7pfMfT05kKXG9XOi83gPcepYV7CmHjcX8Qtkrc AikJqiwl4X2P8hVKJWr5zLkotvlBynKSnXOoh2ILG6VUaqtf3TDAZ0XKCZtiZBpH3uaFkCLX 2xWU4vnpTMyZeZ7R2jAvM9u24TtPjIm5dd/CjFaUVgzdgDGax/2O1qpBUhgGQVq19SnatsWr sutyluvMWrnCpCdZhbdaFlKWmtR1HcMwcr3eiClyPj8xTYKOdu6q7/u2ibI8kFoxWnZmzpmc CzHIlVdKPbpzAN91hE1OujEGnbSQna7BVud3So7T+czQDZSUud1uWNtBLaQSUdpilKJW1d67 bpwVpLZhaivw1lpeXl75/sefyTljf/7pJ2zf452nANpa0BrvBUHd7ne874ghNg7LE1NkXVem 0yToSAllNjSuats2vBPUpZWmHwahHIIgM+c9xsmVti2BbV3Zto3T6cQ4jtRSWJf1WCjnHArF um5YK1RHbj3MOE6AoMQYE+MoV46cFLkGfOex1jE/FmJM5F9dlTlloUqK0B+gjpq2zDPKyOLt HNrenA59zzRNPO4z2xahzlALNWcU4IYe5zpSWo6+KedIzkmuLiVXm1aa0+mEdQJk9A+Pn9go jKdnrPKUELC1UENmeQ/0vkM35nccBiiF3necTyc+vLyiga7R9F3ncd6Ra0Y7g/H2oMR3RPMF orqj+1WtidrpF9o1OD8e9M9nTq/PvD1uvN9vpFpYw4a2hi1sXK6XL4SeNaQi3FOphZiivF6V zjjEDaUrOQeULnSdxfmOoR9FL5kflCLaTggrfd+B7pmeBko1GDMxDh0fnj/Q6Scelwvr4wol 4YwhbkIFzctMLgFU4ml6YfAjFI5Nq1RF6ULMK8YbcklM/cByv2Nt13N7PKj0OO9ZHzMpbZiq 2daMH2S3DI36WNaVrus4NSQyP+5M09SYTyn83nuGYcRZx2N+YJ0ViqTWA5Ut88K8zBglqArq F0olJUKI4BWmFqw1jONITonr9UKIgWkYhSWoPdu2Mo4jfe9RVCgCNY0xGGOIKaKV7PBdb4lR GOYdEu//c94DVTZSe0+qsQYlF4HWVGjko/eO1BgB7730LUoK/2N+cB5GKkKGKqRPW7dVmu2+ O3SWvvecn87oP/yrvwbtWLbQyMGEUZXOazqrmsIWj927c0TGaO73+/GhS6k8HjPL0kQs70k5 MQyjwMoQDtphp0R2mCwPcGgEYjjEn0O5qzAOA6dpopYvjZn3HSkl1nX9ZwKW0nIVdF1H3/WU XA4i0RjTFtIfQpxpItPev2ilW73J+Ea9dN4zDD3n8xljNNu6EloDSK14ZxmHAecaPR8jYd0o JeGcwXmDUhVrNeMgDIK1Fu8s/eD58PGV83nCfvr0Df/+P/yJX375TDd01JoY+x5rFIHUmim5 bkyjl13jbubH3Mi3wLzM1CKE4tD3KK1Y15XTaWo7UB2IrVApteCcp+YvDzlnYUZLKRhrD84r bgHTd0zjJM3ZulIrdN7z9vYzXecJYcEadRCC3nUMvZzqEMPxMBQKbTSmsb1gDulWiENhFMK2 NeZXBDetlMgKnWeJwoNRRWkMIWCNQyuN1RptHcaA1pBSwHlhnNdNdKPz0xmlNPOyNP7P8fR0 RmuFPZ0mPn74wI8/vhFDQJlMSIEtbIQU8Q19GNNkzJy5P+5UkO66EWjypgRTK62JIcoHDNIA aa1w3ouCp3aNwhFL5H6/H6Rc2DZKrXTe47uu7dTEMkvD6axFKcXjfiN1HX0/8OHDB3788bum Dqp2iuRqlMZQwEiwDabXRk7GgFIW74WeSVmgfUqRUgrOWaHb15V5fnC5vAvqSwma/KsU5JR4 f3ujbzC57z0lByqFSm0gJBFjYl0DzheMsSzLyroFbrc7Shmhrv70n/6IoTANPVUrtCtoXenG CaU7YvvF27axrhvee2zr1I0xxLDRD6J9C6uqMNaQU2KapsZtVbQWvX59rGhrDrbTt4ektW58 U26UgtAJ67pijCWGwP12YxonnHXMW2BOM96pxvwGcgr4zh+McM5ZdPTWi+z1K+UknXMurR4I ijK0E6Skc+58x7LeRdfP0rjGEDCNZi85ELZNlMiUmvLH8bPWaj68PElXri3DMDHPgev1gXcd MRSUrlwuN0qB2+2B/sf//Efi8kBTmMaBaTqBtiQUl8eCborWft8bY/6ZuibSbz1o7HXb2LaN ZV2OIqm1HPv9ytJqNyYIAJgmMUFAPSiUGNMBNbtWk2oVV4pIo75BYinCfS+gRLgQWfQYIwp5 YPv7Fwl5JWxBuDStD7LTGCP9RudbLYCU4qHzKGTBvRdiclsXtm39FcUvfX8MUlu0VhjjCFsk pYJRlloUJSuM8VjTYa1HYYihkGJBf/XhhadpoKQoJBlgvef09Ew3nUSqdJ6npyeen5/p+/6o J9aao7jWtiP3htBaR9d1lCycUynloCn2hyrckXzAWoRO2SExcNzt0lWLpKtaLRKzAlJgt4C1 rimF+XgItVZ8Jw8uxHBQNNu2EVNsxKQmJ9FadhjuGu919CqNfd7/WTelL+fcBC0RyFKM0oM4 aSLHYWSeF67XG9fLjdv9wbJsaG3pugGlLLUqvJc1dK5De5VxqqJygaxwbsB3E3484YYJ03n8 2PNYF+7LTCyZrMCNPa7veTwevL29Hcd/Wb4IXLfrjZISb58/E2KkmwZ83x/USu88qlY0itv1 ilYKoxTP5ydyTOQY6U8jqWayKrixA294n+/cwkrUsKTMcBLKI8eCVRarHTFm0IbOC1+UUkZr c2geu91HWARzGCCWeWZeZkopXG83KBqjFTFmrD0LqaQfhOWNs3+i0wP39wc1VXIM5LShdWUc e6wzxAjv14VqPOPzK5d55j7POGt5miZsMqz3jYohVoV9u15JpaMfR54+fqRYxfy4Mt/uTSMQ rmf7FaUAsK0rb2/vlBDayREualtXQUi1Mg4DyyIUSGknADgKnfieBt7e37nd7kynSYg9Kxp8 qZW0iTFu155jTEfNcc5xPk+CYJYF2yw+y7JKza0QYmRosmyIsYlXipRpOnxu12+U0+0czjiq F2a2pkhF0NRjfrTex5JyJqwPMEZcNLVgnUdp2fUpZR6PBWtGaoPBw9DzV3/1V9Qs3f+8zBQy hUKtGW0U9nd/+Rf84z+9o12hKsW6LNSUMRVez2dCkkZwF4u895SGrPbeZIe+e0Heto0YgzR7 xnA+n+Q1cjosNyVnjDGsTWodxoHT6UQumcfjgVZahK0iXJE8BNOkYjmBSikRjmplnmemvqNr WrbUH2n8nBXTw+12ZX7MjNPYrlx7AIucM0qJHrMbMWothBhRSuO7Dt9YcG0MuWTWNfJYA1or Xl6eGMaeXFKj/zXaONDw+9//ntePHzg/vfCYZ779x2/RFV5fXrlfLygjlqhSEzZrQygF0+rA FoJ8yFxQ1LYjqmgaTfCvtULXiyvx5QXnLI/HnYo8oHVZCCEwTZOILg1VrTEQQ8AaK71NhVxE qPJdJwaJJgQpo+n6nudJOvJ5nr/8/lJJNQtrYAVSpxhZa6H3Du8dKKkxWxDDhK3CnWmjBRAo dYhEUrdEqtZKsaUo/Fazk+7iXEyRECLbJuJZTBmlhaZZQ2x1NGKdRlvPtgViXKgK+nHg+fWV l5cXLm/vfP75M+Z6AUQmV4C2Cvunf/yWmA1PL69ULCH8jHOG2/2GUSvj83TAQrFVugNdee8J zSYTQqDrPFuDfMZonp+f+d58SwWcE1dgBaw1GO2Ju8EgyHVwPp/5s2++YV1Xbn//93z3/Xf8 +V/+5eFa3IvrXnz3q1NrhVY0uVVhtCLlXzk8SqbW1gs5K7C8qZYxxgavN5QWsEJtsq7SVCuy sO86zuczp6czvgsH32ad5fx05tOnjxijuF7fyTniO3FkmgqX65XufuPrWnj98Cr1ttL6m5lU MsbLlW+3LWDMWVwh28wWAr4b2WJA1cSLfz1OxY6eBK0IAiHng6Z4ejqzrEtDP8I/QT2YWe89 riEm166GmGvrFzbujztP6zPrurYH5/jxxx9JKbXfLWRlzkJbD8OALuKRstbgjUErRU6Z2Ly9 XTPi7Tp3zpmuIa9SCtM0gVJcb1dqLNS+Hj5jbQxbWPGd5/X1lQ8f70zTiKqpSduOquV22MLC NA30g+f59SPjJBzbn/7hT6TG8n7+/Jnb/c46S4fedR3rtgjray3LtmE740kF3t7fSVUxjiPP H15Z140UK5fLOyll7vc74zgeRFwpVZSwxiPttpwYIjSa+scffsQYSyGSmxE5teNfWtNWlaEC 4zjifcfleuGXX35hnmfOT2fhhEKglIxrfqrQ7KVaa57P07HLu+YTVoqjttS28GLylk1xPp+b m/+9CUeiOqbmGZD3GXGKQ5x7PB58/vzGL58/M3a7Tm/ANB+cKqDFYnq9v4M+45zlD3/4A5fb lWE64ftOPGedWKK2ZeX55ZW+H/HjhDYO+81X33CfC++XXzDWcjqfeHp+xtiZWjVDI+GMMYef SO5dzRYCP3/3PdM0YYygHmM1H/wrSitR/D7fWGNoBKQ0ZilGYnOcvHz8xPVyPfTlGIVK2RtN 33Xc73eRc19emgMmiWujXZspRuzO7IaIc5ZOWzE8l3yc5pQS4zTy/PzUhDfN7Xbl+flZ5AAh CwghkHJsnrGeUgv3h9Dqzjmenweuw8Ztmfnw6ZV1XcQw7h1KVzF+bxZrJ5HCp4l+HKhKWIyu F55NPNWKXCrWevEg/8M/vrPFyH294oee+23jhx++wxrL89MT7/OG8140czdjjOF2u2GMlW51 e3C5ZJ6fX7jfr1wvF776+ivJXMwLP3z/Ax8+fUQB8/2O1WJ80FZxnk5crless/RG6AfnHC+v r9Lpty7dGUuOCacNL6czXlse9ztGG+b7TG8tJVfmx8zz85PAXgrOd/Ru4ueffyaExDwvOOe4 XK+8ff4MVLZt5XqT4v90fkIpkXpvV+Gd/MkToqaWhK3g4jPb+53H28+ERyWFF57Pz/z4w/f8 0z/8I19/9Unc8BF++NP3vJxntHNoYynW8Ha7E0Pk7fMbVhum6UyuCut7Yq7YX375TFVwv99x KaKM5f39Qi2Fx+2Gxgih13C/1pp5nim50A8DwzCSkpgfHo8Hn98+o40hhA2tr3z73be8fHil 6zpxDMbI8/MzCpqRoTnuvTtMBn3fS1HV+qgZwzAwTqNkK5qDUaCqOYwVGkdpsrPzPRXFPC+U UtprChhYG5CIMeGdsMPzPAsVby21VPqhxxrLcB6aXiO0TQgb46D59NVX6I8jyTXqpcIwjozT BFXUypgSt9uD08sT98eD1GSXL7qPQHrtHMPTk1Aw/+K//hfM60J3GRlOE9PpzPV6k+AJYLRt 6GSnJir3+8S2rpyfzjgvV9f5fOY1JYZh4JtvvmFtjSRr5s9+82e8vr4yjhNlvv+K+NsYX56b +Vkf1MRutkspsS1ra6pEL9m27XhoEoOoTat3jL0gN9rVUGslRUlkiRnCHFxWTvJ7dstobhSP sZa+748rLoZ4UDTGaTGMoxlOJ3QZeV8e5JzQ1uKdaT6EB1rBvG48fXrh5fUjjySQvxt6dFUM 4ygBn1xYt41ffvmFNWxYQRg3bvd7O1pi8+mc3M1vl88YIw/l+em5uU02chEFLUShkoUviqT2 S7YtMM8Puq7jx59+op9Gaeiaydlay+l0QrerT7rlrVlupPB3vmP6+IHr5XoISusiurhWqhF/ 4oRclhlNIWwrVNFkSlUNZHB09+KKUQzjgM/+6H1qrVgnyE309EX6lCWybSvzcufxmPmH//IP /PjTSs0Z4sD7fBFUF4MIUdawLDOdd+Ijuy7c1o17WNladqVzjvvlilUG4xxxXSjGCBuhjBw5 33m6vmNZFi7v73z96StqqazrxjAo1jXw8vJyhFyc840CyZxOE1uIfP78xtzc7OLnsvzp+1/Q YSOVzDCOmBjoWvaj6zouj5lScvN1iWuk1kpOif7pmZrFWFZrxTsnPqgQmMaRp6cnSpEHt1ph EXIDHErpZlrLzRBtmrlZPFDGCJ2TYz4Yhh1B5mZdcs6hDFhteDqf+Vd//Vf8/i9+z7x8j0Hj 9Quv6ivpxYKkusahR2sYhoFlmQlLwvie3hoGZ6m10HtPbz1WGU7PZ27zzBJFctDGGuoeQ2gM qkI61nWe6bxnHCecc82uqSlFNGO5Pgze99QK67ax7h2sEufKvMw8PT/z1VdffQnHtHvU7T6w IpqJWPxVo/e/eMIEEjvmZT469l1nsc7x/PzMNI2CZoYelHicFKo5zz3TONEdsm1mfsw87o8j 6rDbUmspbOt22FUp9Wg+/6s//z1fffMVaI12nuH8jOt7zs/PPL284rqOqjTKyGcbxomC5v16 Y143UBpjHd730HIwu0HOWEGJdtcC7vc7BY5YgEKxzAvdNDWM3zULpuzAWhENoxmsjbWM4yRN YIOgFej6nq+//orz+Yn6/XeUWpkbtWK0/Ny6rk1XEcJPNQ+WqIxSu3IW4tJacSHuCSkxTUsc QdXW67T69/T8xLoIPeI7z7quTQ3MR1B16E9C3zRubPdqiSUI+l70nFISpTa3YtjwpwFtHI/r zDhOaGvJSyXGtdGnsrlePnzkPj9Qvnl3Wz3ewoZTpqXBNN5alFHoUitd31GpPO73L0xqC8J0 XhqnfujF79RSSMK0nlFKsTW+SxZRdILUGr9lWZjnhbf3N5ZFYOfWiti2rkcnrZqzfFlWSkNe KWUJ36wLl8uF2oSoGAOPxwNjBIUJwrujlOL8dGYcR2wrzr7rKE1Am+fH4Yrph57T6SyLpERy Fs9tOOiZ3K67cZyYphHrbKuDFuMc87qyrJLu3bZAqeC7nq7vjwyj+MDkAYXW5MYovrb9WjQt 5fV4PLBbWlFaM/QjNUOJhRyS2Dqdbt7U1OyacsfGKHxV3wshua5b+xCanAu3212aKt9RUmJ+ PHj75TPLY8b3HTlGSkpYY3hc75CE+e2sRftOtIjrlRIT9TQdzZRtPuJ5mbHG0vU99/cH1+uV cRz5+puv+fbbf6JQWWOA+41tixSFaPvOCTuwBbR1EkleN6w1nF9e5ORTeSwPjFb0/UApievb FYvCm8xgDGlWzHVmnCq2JDrd8vVAZx2PeXxjOH4AACAASURBVOZ8eqLWyvvtnWEaUVZLHZ1O wgb3A0FpUqncbzMfX7/hbJ6wfd8jmUpFiuUoqKVFEoTp3M3QVszMKR676Hw6HRD11uCyVkry HAq++eabBjuF9lgX+fO7Epiy+IVrC05i1QF799NmjSUrYVjHYeC3v/ktOacDxU3TxOXtF263 ++ExXreNmAq+k35CVEXTBgOEw7x3Oj9RcxGXO7UZMiQ7KP2LO6LQOyzPObFtYJw0ubtpPJcs bHInXrY9CldrxTQDtjYai6PreqzWmMNjrFpyoIVRtNJAETNCC2kOw8C8BHSSQu5CJMXUUJYT CFtF8/Btsb13rQj7Q+58f3/j49dftdMVxaPb9zjnWbdw5EF2HWPvAYSYlGzJtm4CNhogUCiq rhhDo27MMRjAOstyf5CSJHSVMeScxFnpXNNqxO9VDzAhkeV9eMGeZSxZbFDbtpGrMLzOeQqC ziQ41LxpTSfaSdQdfIQQ0FZIrxQTtRRKyUfP8msB0Eq+OrPMM+sWG1FY0dYwTCPzGg+75zSN YqdvrvYQArGF/seWI6e2lBCiYc/zwtbo+ZSSZBnHAaMUl8sFlEZrgZpK66ZPf8lxxxi4Xq6U Ung6n1FKAvreeaZx4Pr+S+vqzQFXSy4t4WUb4sqHCaG0XIp4bdMR0jFtI+xGPGOkjpbyxQtc kOz50/MTy7pgjSat6ZAnci6HNBGaHr/DaLVn1FvEW9z5udVsK7sDsN46nLNfZNaWAZkbRbwL PPuCxhgxzdwwjCM//vCDmJNbYdztpLuHV2ySkm5V92uDl5YYIvfbjWE6tUStQOi9ydw1D43I qloLr7Wb3XaVMEbppkWT0c3A0OJhbfeGbaPvhyO5Owx9+zwZpaSWieT6wDUHomm2pD2a3XUd uahmtugJKbQgqVzRu4JacpbcZUuTGaOpSowftf3c7uTPMQknqF377AZ7eX9nC4my2yadJ6SA dRbne+znC85LEGWcpsN4ppRm3VaGfsB30qts28bL0zN918lDae7u8/ksqSPfkUuRZq0teIzC qsaYMKYeDsY95dp1Fmtacktrsdi0q0nyIf6g6PuWfdTGME3ipN+z7Z1SbO21dy+YzDv54oTf 65aMzhCr6zR0MmDAOlSp7LNUcnM9ml+ZA/cJE4c1tQp63P9baGGlrsXmdjWyVkVnxOdmvfPE +CUObJ1QCVvYyOz8zhcrzJfRFnIVXC7v9MOANZbb9SpvAnUs7N797r3A1iBr1/KL27YddMUe /pRhLbCP55C4A8ffa7OhPj+fD2ZA4nE9y7oIjd2aWNn1rcOP8chp1Fr+2c7eex/vJCu5ha1l Jm17OHJlSbajXTmpQANC+w2zha2tEWxbOB5wTlIvXLsed1uUaY6Y6oS+0V3XtTzGcgQv98UO IbRpNpITr0gB3HXvdWlzRIxpKGwFFH0vJueh75kXmXJzuVwOg1wIoU30qccJ2bkqCczEL4bs NjFn2zbCuh5OfK10+31y9w7DwNSyIrXZjPYG1FrbfmdqACK2QH85epa9Sd2vXIWABe/dEdrc GQbvvRgd8pepFOLklMZ5aw9/v7aNEcSZU6a23qPrOsZplD6pgYb7/Y6+Pm5kKrlFDWLKdH6g 8wNUQ9wCJWXJLzxmnLHMj4cgK2s5DR3n04TvHf2pp5jKljaMVZgGAWstPD2deX19wTnH6XTm 9eUDzu1eWDFM7HZP1+aSuFY7bOOgUi6EmNhCJKRMbLr5PjXh7f1NNkMvyqNWitM08JhvrHEh UogU1hhbWEb6IJUVvevQVWGVQRWFURZVlOgqnSWm2Ga/3AlrwBnHy/kFM3Zc1wdLDlSjiDVh vEU5w/PrM9lotpyISYATKZO3QI6B++3KGitVJXLc6NSAXdcV7zoZMHO9t0DnhkwxmBjHsalp qpF26phAYIzm8X7B94XcrgPrnHStKTENI5fLhQ+fPjJOI8smaEtJioO+75n3BJZqdInaRydJ IdQqHw9tW8V9IkyB1AGrDfMinfzTecI2A8M+DYL22kM/gm6TdxpXJhlKMV2jhIWW+SW22Wel qfQ+Hz3IzlaIKbwcrpUdMaWcsaWQU2IL4QiaUsuRV9yBkvNC++AcXg/CzY3jSNcNuLerRMDa goiBTB9JJwlPmuNKiDFQijlivWsIR1T6cX8cRofduvO4P/j+px/55fMbz0/P3O83Hq2jF4QU D51870MkAVsYhh7vOsImU3okltyLR3d5cL3euN3ufHx94XQ+sW4bvhV8KZpgnaO09211K8be o5VrfixDSkJKUivGiSZvrJJ0LbSBM2KDXdcVWxLQxmM4hzYGq9QxL8VojTLS8Chg2ocwNJuT sxZVBSj0fY91HrsbzvYCPI5j61bNr07Cl5/Ztq115hKg/OrjB7QxzJuMJNJao6rEAVKIfPr0 Cd9grzaGrvO8vDxTcuFxu7eONnG9Xo/iuBu5pUsvPD09cVtFs9lP1+Mxs20rtcUF9uEvALml p7Q2GOvQWrxgKWeo6oDXlS/DcMZxQCHwu+SCc/LntWkbqxRSTl+KdC6YUpEUtDo26u68p+51 p42RyumwQuWSDsOdoXJfVoINhJiwj3lmHNThu3JOYmg5Z0Y3NrpBTklshmXnpN1XSKqUKtRD TZLlUyhO5xO1uVWmhmDGceT9cvlnEQERiFoj11zkUlzLkWoSknI9+DGtNPflzv1+55tPH7HW MfQDOWXe3y+sWyA1ZqG2hyPXYDlOe85y7exssbUG13kqYsJASUp4Wza87wUNxnTIwPaIVIgv eB8duJs4aq0NpRWGcWAfN7LLz2hQRpHXgBYIidYWuywL1riDytZKt6C7TFFb15W+3yPOsgOd dQfMU1rR9T1PNOPX4yF4Pffk2OJmQ3/A4BiixIiNPdKtOcl9bYxBl9KY2kGAg5d6orQSgexX ON85x4fXD4Rt5Xx+ou8HHvMDUXS+ROdQ4vddg0i32cnpzqmAiuigeMy6paYMnfFHv1HaBApa GPUY6dFsteyT7RpSNFmGCIBoTDVEjBIZwXpLKoK0UpZwKiVxGkcUmlIVVgYx5qN27IVtHza5 W/37vj84p1wKyzKTUsY6w3iaOJ1PLU2UIUtmRGsxU/ddx+1+Y37MDR4KtV5LYR9vdIy8aBxW LXLvbqsMmlzmmaEfiDEd18DOFvz04w9QhJHufEdFkRoDHWNiGEfWuLEuqwhhFXxDcVVlckk8 5gcxyLRT6yw5SXh0GAZ8G1RD/TKCZB8xGFM+fM+mNYi0erNTQTsQcs6hqgEN230j5cxkLa6z vF8ezPOC3f1WOUNlaSPoYuOT4kFX7H+lFI/dXsuOUITdtVY4rRwCcYtSSxrZJq+ZOJ1PGC1N pEwjVfSd5+l8lsZuERFp3TbYVs5Tz2maoNZjGNm8LCiUjH9Vmh9//BFVC89PZ8lptEWyTk71 dJpg0Y1SyRglTvqaCyFHrDLHQADT3I9bc2eO/fjPaKV1WQ9x6zANtrphrEWXL4PYNOCMkfBO 0rhOfMfaaq73G6VmalFo3aF05fnlFdu1xs5aS9gCrrZAjBL5cwsypnWPsOk2MHMYBmQUq2dZ Vrph4P5YCNvG2Hn86MVji2YJmceykVKl6kIyqeHzyPqYKU3hS0Fg7NPzic/lDahMzx8IpbDE wpPxKKcwzRsbS2XdHvjOMnROkq6pcrnd8M4LI+A9y7zQDx1r2ChVuK0aN+lXfn4XROY6jJIu PqYsniznME4zTh21Bl7OHmMSuaxMzxOFSlpEYl7WlcvlIqMNuw7dmIeMvJ5TmhgypchQtNEt UiuV5nKZKevKf/+vX7C0rEZsLOXO5+wdeN91bZxSRTfSDL5QDrnZNHNDXXunr5SkZOdlYTqd mMaJxyyx6d3yb7RkyPe0k0IKqfQgXwZbbmE7ZNv3tzdSzjw9PTU93PD6+opG7D1aCTgx1mOc FG6tFY/HgxA2mSqRZPeu68owjAJQlKLUKoGedm1rI3mTddm4XW/ML8txVW45sy7rMd5vj9ht 2ybcFhzXnLVSL2mxvlK/DPE0Sm4o5Sy9M+iUc9ME5Ae2sAm9niSR2vX9UURVO7q1YefSaoB1 7uiQdz5HKO8W7OwkFG+dpaSMs5ZxGHk6nWRKDxz8VwiN6MsSsd7Ryj5sTJq+3EYE7rVPtPBd Hi1FNspelJWSCTy1fqE+dqrDWRleU38FW3ODxwJe7FG0tTZ4J6dJKS2zt9qf64dB6Po9m3Ig yHbVNs/A/hl2Zhjq4SFTSqF3yLZn44xuQciU2oDKfBSsHWPvBV9rzdPzc9u9wnqu6ypGiEaD 7IPIRDWTZmjoe4xSbMt6DCxWSqYPDX3POMp4VYU6IHbJmW3dmMYJow3Xy5XH/cE4jtxuN7Zt Yxwlj7LLBF8kgHSYC2JM7f+3DQAIEBHhSG6Lx/3B3Ibe1FJxrmOaznjXtQcvGwe+qIVaKekr WvHeCdVaGvFY97SvORwzWwgyZUKL1+12u2Fda+djowDGNvHGe8+6iXgv0wv2DybRg5wEveRG Kp61YRzGNpFTkMXj8WCcpsNkoFrx75yXwrnKmKJpOkn3um28fnhlGifmeZGUrnVoFCkICfnh wwe8c5KYmqZj+o+1htPpRCmZy1USV8M4AUIyaiuLtSyzJKqsxMq8902ASriG9mQ4WmTbQhuE LKhXwIJMEkoxS96wLfwWglDy7cTmRqO4dkr2K2wfpqm1IsRMIuKnkeAsIWwynklPWtr7ViP2 ubi/zpLvSGOHxOLUcwe03KfGXS4X6jQydC+cponf/PY3LMvC29sbP//8M9fLlbe3N7rm2drH Q12vVxlStsx457ndbhJp+Okn2cE5HZrK7st93B941UZIMXC9XPCdb5q4Ypomln2slOpwVkaA iK3UEtLaJh2F9nmFM9vHJhktTbFsqNSCn55xPJFQhJQOmLvDYddk7R3q6uZj290le/RbAkES 7dPtQS3rgt0tPEKMIRi+QT7VutLd1SewU4r4um4yR7HKwMwYYyPCW5B/29D6hW+//ZZSK7/7 3e/4l3/4lwdPpYDPnz9jrOHTp6/o+p5hHI7u99NXn8TLGyRPLvNH0pf59CkdfcHT+cz5NLIP HPDekQvHiNlda0GptqHsIQPQZlrttSNs4RC/SpEJ1DIITeqcDOD0aL2iVDkWEzj+uSL5/K4Z 7VDgvES6RffXh77Uht62SXObmBxyky+18Uyn8zHpTHgd2YHjODC2uVfybQORZVk5OZlsfb/f 8d5zOk2chv4Yj/Sb3/yGexOJxmmU4cn3xxcp99CVFX3XSwg0r3z8+AGjJRQ6jW180uOOVbIo axWt4+3tyvy4Y7TQNrUU+nEEbbn8/LN03n1PbJTFPvWBZg70rolWpTDPC7ckIpv0ToGcShvT IWPLtxBkBO79IWPOdT2K917Mcwu07le7mCHkpC3zgtK6hVeF89uHI3jnsH/2Z39GTMI23h8r 9X4/3ILOO7bbLA3UvGKeXylRJk933lOSxAG814R1RRfN1DmRUreNdQ388E//RNd3PJ8mcgx8 bi7vYRjIZLw1lBTYFrGIOqPQaOb7TXbxshK8IKKaMigtw+23QImJ62NjuW/cLv/En//uz9DK kHLmdrvjuo7r+zvDMBJSRGvDy8srl89XTuczJcHwfKLmTM2iV/S9hFRjTsRa0c1YbrSi1owi U/KGd5pOi6u+5CK1IhWKymgtgwPKVihJ1qsUcH0H1nF7zHjfi2VKV7777nvGZs621+uNcTqx D63cwsayrWxxYxh6uq6nUlnb1M6d/zeNXKtUxmGU3YkMYolBZo6cTtOhYe+zGIUwlDrlncc3 qGiabWbbtqP4Oe/po1ht9nq2f3VESlleD7G0fnz5it/+/rdAJZWMdjeMd3z14WNjWzPGyLjZ D58+ie5+PnE6ndHIxKH77cppmjDeEVIgxMiHpyeGvufjp088P0l0oja76TQMLPPcerQvLYFc 8eGLk6V+mQO5w9+dohq6nqg08/3Ougbs9XoF9LHYp/MTqYXp120jh/gFvsZwxJh3On5tA2Gs MSK3trvd6C8zp/Y7dhf2awv1O+/kqxtaFDu3h9a11Os0jiyP5egtgMO4J9kVScxaa3l5fcVY mQp3f8hfvu+JRsaFGGOxNlMuF2JKrOsXgYkqAwpul4uw2Z1ni+LYP/U9YQsy3a5tTucs62Ul tPn4MudY6oDwWwJ3uzbNaB+sc4yIaptS+g6HMZkYC8Y4bK2Fx/w4hl32g4y+SFmK+uPtim/O OmOMqGAZtNEs64a2Yr/c560jzQ2hebG00ccEa5rzXGnV5qjvo//20XdCi7umgQ+9xLBrRYwP jTY3RmNbqkm/K+Z55va4oUyV7zQ5nVptykQEmIynSRLEWWZy5ZqZphOmxZO1MZIZaQ5LpRW5 PbChH0RRjUFGSe0AR3Hs/n2BoQ3arxx9m7W2rYs5tJV1ngUyx0wM4jzxrhdysRZZUGM7csqs YRM/rXcY1+JsWkYWhesVlRLWOSEfnSSZtFJc3i8oKp2TUOU+tWc/bfvI8t1QcL/fSVs8BsSI gft0xCL2a8pZyxbE2R5bgHM/dd55Vj3zWBaUgcJ4oK+cxAwHvXT1zbJaSjmI0MdFWOjTONJ1 vUw/2iMCKG63Gwra4ACZxrqPYsq5gGlyRZONs5ar1CBDEWivFVLCJhGm9i/QUUBpA9xk/B/o EGML2HTHVwqFsLEsM/f7vR2zZj7Y+ZqwSWStfR1ETjJyaf82gP119oEvlXp8N9PB8SA2Ge9l DOuvKep9Qfe5JjIcxhy+25xEV8mC0w/i8/T8JEmtBiZP08TQ9XTOk9sXgfkmm4593xZE6BWB rF9G/e2j0HdFM2xCNkoKWZDhnvLaezPVNPudrJVZv7GxDOvBYuzd/W4/kgSvxViN3q0/u9pl mkK4K1+pjY8QykTLEGVUm8YmD29dt3/2nU97R5/zPitdNdpg/+4Oe3TX+xHeR4LLXbsHP9VB 8qGg63penl8YmsxsjOHpfCKEwN//5//E5XZt4o8Qf7mZIJwxws9tAV0Vy2OGUrm9y0BNEeak R4iNdhHtRMjSfQFlRotIDufzmd/+5rdtc31pAlUzZ8j3pXBkX3ZTRcpf5sHIOkk3opXwXJoK XS9s59J8TMf18fSEaqGZUqUYD7+a1S6ilCxiCPFwEIb4xT46LzMK1YzM+pjIsFMwvknBwjKr Rgjmg6qx1lJyOfIUwzh+GWZWxMBgjGUcR/76r/+a/+7f/Bv+4i//kn6QVNc+w6o0QUxr8X6p WlnnBaoMLbD7sM8i5yu2U79fm4KWvkTjdivruq4y/z3GoyY65+kbeRmb5cgY3aReDg+whJPk gWxhlZxkrAXtHLbzPNaZy/VCpTBOA1AOwWaaJhmN14bKgEzi8cpw6nssis44VAFVFL0fybFy 6ke5l0th3lZyE3bGfmBwHU47rHFQFCVVSpa5V2GNLI+1fQGLHO91WXnc76yb7P5aKxjNY37w v/0v/yv/7b/+b/j2P/8X/t3f/p24TDSNklgPan1ZV15fX7ndhWfrBwdIffr08Ru06QhbYhon 2Vid53ye6Kee23KX7Hs/UGKmBHkPrvFt3ovotbYo92k68fHjB5ZZcpSlfTtPDBvQbKlppR87 Yi0Uo7E0gm1ZNrE2No/RMs/4zh33vXTYgsi6rhfBvhRK/sLmoiQl+/b2RimZvqETs9PRxpJ0 OhS1vSNOORNzPOjyA400en3XsVNM3O7C7FZqmyaUmaaJ3/7mN/zxj3/P3/zN37Rvxen5/Msb SSthjo1GWck9GmvZUpR+ZXeNKNrn+TIavKhyjFgXQ4YnF6GVdpdLbfyVrFvBT174scZIgIh5 ympc35Gr6Oko6fz3fGPnPafphM1J8gqxFR8apiZXvJ/IW2GZF3LJYhHaOaWmeVtr20wpGcbS tRGxMSb6Hi6X9xaGkesuF3nY9/ud6/WKs92R+0utmPv9CyHrF6Jz53/itkfuXEMxcmV99/33 XK8Xzk/ngwpSSmE7//9XdSW7lSTX9cSYcz6Oqq62tHALkBfWBzQMGIaX/g1/if/OMKBdA24Z kC10t0ouFqvI917OGZMX90ayvC0CZJEvM+LeM0IrWj5DSvTBCAFIiZAikg+QoHsqwxxgzmLd V8R9PSgEbQi4tMYeiLDznlCLGLHtOx+niaMNHYwh6dMeAwcn7ISXHXcT7VT55+pcE7Hx5eN2 Ote0pmSFr4+MTLbkkdMYihh3OwkhBIDAeShZlJzbNjP5NU0TtnWD1frAhgBBImdkPzk91dKT QcgLj5z85vadk+co76rrezw/P+GHH35AWVKuyKenT9i2HafTDZQlAZv3njA6reGdo0lMkDo/ +Ijod6RISENZlyR8C2T0p5D/4kgUyjGyQuAw9mR2kBIhuPbDGEDQQ7NvG4RhjsdS1mMMpPVK nOhwPp8Jfh85sa2wliopJKGhjjtBcjft68srhBQ4nShAYHqdUJY0CretIrl9oNih3ACQj4h9 37F5h2VdYdlTTnm5+pD2ZLV7LttynMKglELUBko7xGVhmpWOMrrP6IP89PyKpqnZPCQPwsnw EaSV5hZRskxLpWCkQooEMIooEFjiE3hSSzKh7Vrc3Jzw8nqmLK/xCu8JisnwezaSjsNEogb+ P76lEaVjbI4pwe/74UbzIWDjkDZZVXTGFxzXStQoebU/P38+ePW6IrT31PfUgHN4BOk1XNYF l+sVC2cu0rFFkeFZ9xpDQFM3uL29hS0K5GohCJpqiNAh3W5MiQRnhLIQI8cKwBA8q9Pbg5OZ GNrouu5IGBVCADHBKiLFcntB4GPCqGyFjpTVqzXH4qZDdZ+7D3Pmr2BPCbGq7tiZ3sZYeUyA eczPOFYIgZQrKxmi3voayZlljIGWwJGNrjXN1GVRwBaGHEnzyjuEOrKm8tFSlSXKpiT/uNLH VkodIzuc92jaBg1fsiFFlCXpf9dIF/rKFoMcqVeWBf3iYD1uyNOJ50klh85INCX5ObJG6vbu FkpKXM4XNE2LoqSapLqijpF5XqiIZXcURBkioNkbHwVEoux5CwtbWtze3KK27H5KFAiaQcG6 bjBNM2ZWP87zTOqWsiSgMUSoQqGuSgzTSD0i3kOwR36ZZvRdh8IW8NvO+i8Lfbq5gbUl3OsV 3js6XyP9UfLyRe03Edu6ct2oOBYeoYgLLwr6MJ1zvIWCmwNyCD49OSSUeAMdl2WnfwvsTNIa kauuq4p+Oecdc9NkW8ggH4kT6Ij7/vvvsSwj/vjHH6kdruuJ++Ya1KIoyDiaeP2MkTLlJf0+ ZVlCSwYKeU+ASPgy0Ieb0+cs349SqQMuIc6fOqjKsoR3rEgBKdzjkI69KxNw27Jy1vAbzhVT hHTrCLdPiMJDWgXblFAFXbDb5hBSwDSPeH39Auc27NuK4BwQArq6wr4ugA8QQUAJg2XaMF4n uh+4juhyuUAIidubW+zbzoUvNBx0bUtBMXwM0N8qHekRebzNmbq5qGtdVghBppp3j49wy4rr yytKdkBdhwFQEraqsHmHp8/PcN5hHK84v35BCg5tXeI6TpAxQfuAfR7h0o6iI5veOq3QukRT dyikhYGGgQZ84uaDiLbroK3FHjyqtkEQCWvYoEoFLyM+vXxBFAF1bZH8gugWiLBDImFbF+w7 1YP46OGRoJdlhi0qFo/RU2s01afWdU1CtkhbOp2PCTls0hgDUxgy57OVraoqlFXF6njPeYiG uJWyAC50IOVLXEpJ6CxnboUYMI4DPZF1TYGU6q0JrvjKM+6cO6IAf/nlL7BW4vb2BufrFRvj TXVFbOO+OwRP2Y3ZLpehHhFpYtv2HcKyysXTChBCxLKsuFyvR8FA1ldlniayNGnlpqD89mdK 1/vAJJdkBShd8vu+s46swr4PhIPd3Nzg7v4el3HG6gK6poO1BtfLDCUl+r5nHhiHHIca1gje UFZjW3dobQ+7G0XKOpxuehRlwRkfxJcsywwB2mFoRKRilJwvogsygm4rNdxQNi+Dm8mQGZVN QTkw5tSf8If/+hH39zd4ZD+8ZKBvdzusJy0AeG8qq5I4G44lbLSFTbToSkaoHYg6EKyYz5qC iv2UB0cjSLGTtQfZ4nZk44eImAK0sWR4kuKQ5WYtQl6+pZTQStJZXZUVErj5zBAFWViD4TrS k463N6QsCRy0RYFxGvDlywuWeYVzVBdUFBbzvB/VElVV0d0S37pscxfhvjkMX2WsVFXFczrR AjmMJhNTiYXYIQQKMEuEc5HxiO6+zOCFRNB2wQ9ERiLoqaaQhLIs0NcdSWiVhNeCAUZPIQJW H5a7FIkdlUpi82/+9Jyamqv1Ci4Xy1+TikWI24Z5XqAUT3NZXP4VYaXXZUFgz4dYd1zOZxIX LDNcYeG9OyQr2ahJ0ksq6tX8RyelN42Rw3XAdTjDFgbPn55R1TXGcYBi5y2Nwxn2p5+hlYZH jv+OsHVxBL1QtSu9Fdu2w0vaqGeWpj49PeF3v/s7xLjjfHnFOI7kwtWsSP/KnpBbfrK9G0q+ cRvAseUnhlCseas88pxppZSCASBYqLFtGyG5PKaXZQnF+5O1EglE247ThHVZ0LY9X+Ikb9o3 x2YiQEuecJSkJOmUKHSFKrnDsZwRRL4fIyb5rj3mZUHbdnj//j2c83h+fiYViJZoGqrS7k8n 4iys4URRWiC7rsUyc9R4SbDKOE1ASmi7DsYYjOPI0ESgflkhkCThbRs/kSEGfPfb73C9vODp 0xOGYYBxHnXTcMx4OBSEmValxmsPIQ2WZQF2sll4BaSU5T7mwOz2fadghEiJRIJtGVlK+rWt I0+aSin0fc9JeSRNRZnQNA1iSBjcRPqzna1xRkPnKAzyayQOQ7FIMWDz/lhY8mWV89RzxFBd V7CW6khjnA9Ope9bsguX5cE7a+4yXFfygFdleZj3SdhgDoLIcO3ePE8oeax0zuHm5uZNDyxJ Q9bUDYIPaNsWp1OP8/UCzzora+wx5VIyggAACLBJREFUwgsQ3kaVF7Tk5alOpDc/PATRvjHR UZ0YQcgaASUVlCR7gma5avCe1PIMK2VcLB+tdV2iaWqkRIDrsmx09KZAS2eirHs9jSPCAwNc nizHKSZ4t7PphtNx+GLLGt8cZqytBrDh9fUVwzCSGKAqUXNflGMdk40lmr47BNhvfjzxVtoF oK5qOO/IDbztuFyu6NoO80KV4Hd395CKzl6lFWZWffz443/i/v7m4GwCgLKqURgK0U/xrTrW ceNCURRQgmgEJSTzIDtzP+TqkkJAKMLdnHOYl/m413KbAlLCyvdJhl0yj54teUqRfz9/n3w0 3/QdjLGYp4W665UU2NYFbVMjJdqKhRKISNDWQFoDh4j+9gYP37zD6f4Oi98RBCCtwfPLGREC 8zrDlhqn2w7rOmFZyIlrrMXTpyfERCb9daPNvG4ansboUguRzlNqpM7xFvR1pRVOpx5d2x7Q jueprGsq7G6FNBL/+/wR40oCtr4nEThkwjAPGOYBUURsfoMsNWxTIMiIfd3gYsAcHZKm0mI4 SkNVhUUUBkJVaLp7CCUxLRdAOizLBr9bKsXk5dPwHZkEAB7nx+kCIRLO5zOu1+FQ6QuRUFYG 0zrB+Z1ogBSgqVpIQUhW+E0Lz+q0B5iipGxZxoUoxLGAbTte5nIGFUliZF0ffsFlXdF1HZqu RYoRr6+v1JywbVBSYV8phbRt22Nep71DHhbrd796hxPfQdM0MwyuUTEjmE0y7969Q0LkO2Sk +88HdP0tagjMZkaugvVZk8uZjUJKyrDPFgIAUWS5UkBCRFla1E2FsrRwIWDdHUJMiBEHn65Z YxZTQtOSNKppGnRd/2bVSzjYx0wtSKkgDeFZenfUyGaVYbAweyroMmu0gdt2pPAWa1QYi5vT DcshxcGESSmYJpXHyLcsC7759j25jRhGWVdiAhET+u5EeI5/+x7bTmK5dVnRti2qskLbdrhe r/j5p58BATQ1QfB932OeJ3z48AFtV2PfNxJOW0PRegns8loOIHFdN+TwG/JukDXAGnv4BB1H iVSlhZYS3lKR/byMh5fGmGzuUUx1Ww7God5Futg136/xyEwB3qzmbicTrds2WrhJdk+5ga/n My1HihIZLpcL1mXBMAxHG5mSkvcU3lAT6aratsXd3R26rqNSSe8xDgN+/vknvHyhTKscDpbT 5O7v73B7d0dgZC4INpawJB4i/vLhA8ZxRNs0+M2vf4P379+TPUKTF0VpjXVb8cvPv2BdKXul rmvUdfP/wpazn4XuP2r+zEbTEMncmt8cqSR1LcaIaRnh/A4gYtsWXK6vGKcr1m3Bus5HdJTR dJcs63roC9ZtOwaVcGjQJHJfFnFO1DiRuR797a//Bv/4T/+Mh3fv8e//8Qf8+adf8PHjRzRN jbv7+2PRyoxgTiBNoChtCsHcEDkBgZp2IrquRdd1eHx4RI76Vnw8aG3gkztK4q0tYG8tpKIo p+fnz1iXBdfhirqq4YPH58+fMQzDQSrlOvFlWdC2LbZtQdf1bIvGoaLMRhmKAmy522RCDjxL ABQn6GU5q2P5jjIJViUsy4xpGFCUBX7/+7/H/cMjPn+e8Kf//guGkeJIcvU32cgpBrbg9lGA RCCJE+xyeh7tRQlIAsF5eL9D/eu//MO/1U2L6zgjpIS//e63gBCYl5kiLYoK4zRBGdLaJh4V hVKU6pDefkBOMLXGoO9adG0LJchH2J16aKOP3N08Pn74618P2U9mGPM2nWJCwVvy9XrFy+sL VfOttAXXdY2+b9G0DV5evqDtGs5TTEgQtCCa3HlCjWorp4jSdISjcUcKwawg8Tvk7JLw+4Lb GzIJSQG8//Yd7ShFA6VIWwAAfd+TeJAT9jS/AYpdVZQgx71WiWSwKQGFKtH3HdZlwr6v0NM0 4enTE6AsbNWSqWa4HrlPARFQZE6ZNzoSQorQwUMaDREIu0n8qqdItOTKounL+YzrOKA99Tjd 3SLH8OVw5Lu7O8750BiuAwQrXE79CXe3d5TW8M03BN5tG8ZhwMePHxGYmcxcxev5jMf5AUVZ oG015oXiNpRS2FYij7Z1O4oEpKQMxEyAueChnUNKdGRLzcK3IGFMgXlc4H3ENM64XifU7QO/ ZYRfrdvKOw6wbiv9LZLhqu/qCKrOoj/F8H1RVGiqGkNRYitL6H2nTMPVRahiwJ/+5894fHzE 3d09sX+GRsyEBBM8TEE1dJCCRMkLGftTjAfGlM2YuQCm4EItw9PYNE1cDUGR4CtHzu5uh1wy BE9Vq3nXGIYr1mXFOI14Pb+S4M5S7lRusKElbMY8L1iWDZpLiPNeQP26b2VgMRDptHOLaCgo IbUoLD2IQiIG4nmoYY4YqvPlgmlOmKaABPq567qi5WxKt9LxFFMEX7HEXqa3XSWXAvgloq2J r08xQFJiG6Ctwfl8xryscCGhalpAkQuVykYKGG2p52+m5UhJid1v8MEhJtpfIAQ2zrRyTDqB oeq8Gtd1g6auuVeK7HD77jhtTeFyueDp4xO+fPmCkAJ82LG7Dcs2wwcHZRSEEvDB4fl8hTAW d/f3uDl1AP+i2hTo+jsopSn9QVIk4bxtSFJgCx7CaPjVQSaBuqjgdw8lyIKmJIOKXYXNrTAF ZbKs84pCWcABy3XFvDpUdQelCnhPcR1KKKKJY0J0G/ZtQUTEEjc4meAVIAoDW1cwlYaL1PRW lSW0LQr86t07DMsOoQvYikya1+sVjw8PsJacp0oJ1E1DOVFcAq+0xsPDIynu+I3wjjpwtVJH mmiuAMdMu4CpKfUhwxEL7yZlVaHgDK1tX+mtXDRLj+IBZNJERFxIgMTjwy2apkZZVnTBdgmm qFHVDUM7hu8S/TZF8si7K037VQioqhpt28JFDxcC2r5D8BP6psdclBDRo21bCKEQQoF5TvA6 8E6UUNfUNUK5xBwVsi6wVQldWAit2K5NCsq6qqGTIEjFLfBa4P8AI8YkX/9XlacAAAAASUVO RK5CYII=" />
    <image
       id="FlashAICB_Patterns_Unnamed_Pattern"
       x="0"
       y="0"
       width="125"
       height="125"
       xlink:href="data:image/png;base64,iVBORw0KGgoAAAANSUhEUgAAAH0AAAB9CAYAAACPgGwlAAAgAElEQVR4nM2dW44kOZOdjRf3 iMjqfpr9A4J2IkA7ELQLDQb4p6sywt1J6oH8jIdeJT3oSQEUuisr0p0Xuxw7ZjSG//Lf/kcz PsEsxWQpJTMzK6VYztl/Xmu167ospf6dUopd12VmZp/Px7Zts9frZT9//rTjOOzf/u3fLKZo 7/fbzuO0Uoo/+zxP27bNtm2zUorVWu31elkIwb6/v621ZjFGCyFYSsmO47DWmj0eDyul2HEe tuXNcs52HIellCzGaOd5WgjBHo+HmZm11uz9fvvvppzsOi8rpViM0fKW7fgclnO2GKMdx2Ex Rosx2ufzMTOzlJLlnK21ZqUUf+55nvbXX39ZCMGucllO2WqtPp5aq8UYzYJZrdVqqT6fEIK1 1pe+WbPrvCzEYFve7DxPq63a1+vLSik+djOz9/ttKSXbts3HmlKy67rsPE+LKVqwYKUUCyFY CMGez6evsZlZ3vfdruuy4zwsWLD8zLbvu5mZXdflv5hSspT7wrbW/M+2bfZ+v83M/N/YrH/9 61/2er3sOi9/IQtaap9MrX0hmjXfWDaklGI/fvywWqtt22YhhL6x12k2RJVNYLNzzmZmdhxH 34whlPu+27ZtU7jHRiIQzfp8dL6v16t/5/O28zwt59wF8Dwshmh//fWXbyBzs2CWt+xKchyH bdtmj/3hGxwsuODws1qq/x0BCzFYjtmsmQsJ/22tWUrJNxSFCiFYrdXX1p815jSe36UzWHBp rLV2zUnRPu+PhRBs33fLWza+zwCZ7Ovr5VIaQrCvry/XMjPzjfWND33jQxmDaX3jEBoswHVd 9vl8FmmPIS7WyMIU0P2xdy38nC5g/DnP047jsFKL7dvu1iGE0OffhmaauZb6OIbg5pwtp9yt yfPRNXRsOgKYYrIQg0Xr40SQXXnGnxCDXWcXSmu2WEKUpNXmv8+a877H42Gfz2dZN7UkrElt 1ZXEzCxjwnLOyyJv2+aaW2vtDx5SepXLJXPbN0s5WU7D/NU+8OfraTFE+1///r+6huRk7Zxa zESZQIjBrE4hUjfw+Xxci2OMtu2b5ZrdMqgQsEhYBZX+8zxdKM3Maqv2eDzcVLfW3FKwYGbT KpzXaXnL7mLO47TzOi3Fbl6ZW4zRQg1uCY/jsM/nYzFG2/fd11S1PcRgW9osxeQCEkO0GroS IvjuZmoXsP/85z8tWFfKlFK3NKnP4f1+d2vzOfx9fdOPj+3b7gtaa3XfrZt+HIdPyjU9mC/w +/12DJBSsnIVa7GZta6ZOWW7zsvOq2tgiMGSTXdhrQvedV3+bjTr9fWyGKZb2NJmMUVr1vxZ +777ONmoEMPionLurovNvM6r+8Dwu7lF+I7jsOfz2d9jYXEr53lardVKLG5iERoVPLQQrf98 PnZd3XIgdFjT1pq7JJSDf+dn13V1QXp/LKVk+77b8/n032W+aPvdMmc23DVlbDIar2YUSQsx WGjjoefVB54nyDmOY/HDy2dod4rJaqhuXUIIbl1YQCb7fD4txQ7mjs/RBSnFubkhTLA0JBqX YTZNZc7dPYUQ7DgPO4/TUk625W2ZJzgDzdHf101TpeCDpl/XFCjmBfj9HB+3WICuZs3C2df0 vM6u/Z+wuIUYo4+fjXw+n/Z4PBx4IogoDSY/pujrkZF8/xODtdon0qy59J3Xaa02938AMX2x BbNyFZcuNdMKJlJOPtk+u2lCWbScs08glP5d/LGdZqkmFyAWGc1hM9S3sUj8PxYlhGAlFF8c hA0tyyk7bnD/XqaQnufYoLF+Krg5ZX/OYk1af9bz+fTfL6W4a9zyZle5PIrZts3yli2GOa+v ry+zYI7FmI+Z9fGVKSjNurLWMoQXifU/Fi2m6GYQkx6sAzGkRsGJ+8k2/HFO1q6OxgFWikYx /6UUez6flmt2MwWY0ZCHDa+1du2Jc3PYIHzq33//7SFeSsnHXJuA1fFHfb0DOrBAHoCqDcsR k4+FsBZ3dEf9/pwUrdUuaM2a+2vG2lqzmOKMiKzZvu2277t9Ph/71/Ev27fdQ1usL9iANaq1 2lWuqSxDQXV8AEUzs0wIoH4kpWS1dc1QS8BCHZ/D/42H8kJ3AylbyMHOoy/o9/FtZtZ9T21u Rksp7gZ+/vw5Y9thljHj6ircHI6xfz4fjzh4LnEr30cLcU+YasaPcBO1sJAIFvii1GK11N/i eMbLpsQ4Ix82psW2WAKzbhm3rbuX8zw7pzGE8Ov1Zb++f3l0Yma27Zttea6Fh2dl4iwiCtay leEmX8/OSahpUinEFPngxmKyCLyQ2BdpZwLHcdh5nj3UG4vl4cnwj2gVv8/79P0IIqb/KpdZ mWZd42uzGa+f5zmfQ9QxiCUIDOUbeB7ujc21YFZLdbSsMTBjxGWVqyyAFz+qsbzOB010cGzr eLZts/pPD7eaSdgmWEX3DbIJMMm7FOvUWrumY/tTSl26a/OFUlADeo4huiSpOVapBhwibTH2 BSA8umstz3TgIYCoO0VbJjz4jY6og/lEa6uWQvK5BOtazVxa6/PS8Su65nkpJksxufUCmfOM bdt6tHAeDkwt2TJnwlh+pmEdykbYyRooDsHC+dyGYOgGKvCNMXaOIE0iB6xgZpZat4TZkaL4 o1KHVg9AB0lh1gEU33t/Or2qFoDB5pwtprig/rx1MHEcRwcXaUh6jQvKjGFqApJ6XZcLDfjB zddYWDQPTeK7KoCtNattklD4Xd6PZViUwLrvZfEBXGZmj/3hi8sm8Z5SSmfnRCFYaw+vYrDr 6G4kP/IUpmEx/vrrL1+DeyS07ZuHsiglyqGht7936+PMn/fHrnR1gmUssjX7Ldwptbi2EMqo tOLLEJ5Sivta/Pbr6+UbU1u1ltoyULNBroTm3/OowoKVVlxLMe0IAh+ldt2a1OLaW2qxchb3 86/na3EPzkpa37jj7HF/DNFqGqFZm3NXS6Abel6nlassqF0JplKLtdrsx9cP+6SPW8cQg/tg UDugl7XCZ295m2uek2MlcIqydKqYGcIAmhGUqmxWCN3PXaVrcUrJCReYIpIAaLmSA6WUvsm1 OYhiARwfjH9n4RRho2WhhiVp4XHyQOa68TrxWqqVq/j7oFuZX8p9Pg64huAgrC6QQofybsJK 9fE8A+oXF5biBHzXeXUBlOfBewAQt22z6+xEzHmdHgKe1+luyxk9dZdtKtOWtyVCiTFafr1e y2QZNIvCRiq/y0ISyhFuYZrUx2/bZo/Ho3PRw4qkPblZdbNVzWqoDoBcastlW9ic3esznJvb /xrcJ+atM39OjljnwFkQtJYFOI6jRygp+CboIkJE1TbNpYdBIqBqLVAM3INaMAAx63mUwzdY BQalOc7DXW2xOf7aqgsU68x4CCdRLJ6JVcrQl611TSYF6qZoLNx5de7dma/WrcLr62Xfv749 PAKkXNdlv3796nE4LNhx2HVd/e9XsM/n42RKrR0hp5h8E5X2daZs0LcIKmNt1jzVys/V3aiW 8ncW3lnIcxI2zKNcpQtsmIwaKN/MPMnkAjU0DMHa4+7WRdPWCp7x36UUiyn6muQt2/v7vaRi 2VDWQ/mF+x8+brlzslyy5eM4HDwxUCTxui57XI/V7Fl1n3uWmbsmk6Oby0DVp4XQefoYo71e r3Uz4owQWET1zwweRvA6L0fSW+6achyHc+yASt4BmlfQpgCQvysvoaEVG877NCkD+dT/YpMU GgqC+9G8tm4a7+HnWDA+KI6updKyCoRrmZECuYhSZ/SRHQm3+puZN5t5aV0INW2QN600K61Y u6Y/9EmOSccY7fl8ToQ7cugKNkotjsyZPGGLxtWwUiwI1qW1EWMPJk3Hn+Ka+85bz1UDqpTw YRMd89xMulnn/9FS3aSFZwjm9DW/q+uDRemyMnPtIPi71ioy15hef86awOyZjf0de5yVguTL SD8LmVKyvGXny0HyGqqwcEg7z/T0Z+xmC/rwOA4rV3GzA3niixtsRhBtBUpmw3yORf9TyISE Mz+PTMaC4iYsmJ1Ht2opJy9+IM4GqJ7nudDDRCZ8MNVKXPHh/91ljLViPtCsjBcLolaoWbPQ wqKQCLUqjYbMOedZfFKiW9KMhGhi39kqa4vpYSBoabDgixtDNEvTfwzRd8pWFwBze56nvV4v dylogsecQ/qtzfx2TNE1lufyLCyJmkGELMQZ2xONHOdhj/3htHMMkzTxOP1GM5N0cWA7WLcQ pwvSjdaxKPAMMcxQNcy1UWEBr6iw8+Fd78/bcppcAPuDG4H2xaLVWjuQ49NaM6vWfbbEovj4 xdQMlwDqRAj0O601e71ey/NJBrCQmkY1m2VNbNI9QeFxeVjdi5IRZubWCem+zwHt3fJm+77P 4gaqTMKsEfRsoCy2hpxO9oTqfIe6AjT2Ty6ylLJUDYHEmYu/A3M+ohQfQ+pgWxE7SoXFU/7F 43QWXs2Qauw9x6x8ucbTmGSkvtXm6B8TzMJjdohz2ShHqrUtEoum4Fo8JLoudxvnedpxHg4K oUFrq7/l6CFh/vnnH3s+n44Poo0sXi0eD7MmqnHQ0cv8x0e5dvXdbIqORa3seZ5LDK4CrYAX vNJar1wiV2DX+m7lQFKYADUruQDgYgNDCEvBxGJehhsgxONn1qxXxKTJHvHBvGzbtuTUeb+G Z745bYZm5I+b9fCy1trLlQafABnS2nQ99zhaQRkLrSgcTW61ObjzaqA6zS3WAKIHLINVYu3O 41zCxvscNaoJIfSKozbrBJUbaW34dZsVPiShzvO0ox3Oc6iLrqVajZJwua7LNziGOMMEeG5M dpylQmbmCZKwhyWnDAmQc/YFcUthUrdmM1dPdgmTxkRTTpZDtnd9m5VOo1Jtcl2XXeWyHz9+ TKZraDTp2OM4ejhZ1yJH3vt8Pm1/7D4v3IaaX35OLvtMp/tNZyaF21fCxImsoVCKAcBLVLMC eN1EW/NaRb6L4HgYLImqRbhNEmQSzyOc2dN7o7SHYrrn87kSCRbdjyuQgYdXWlNdAhPHT1Ej p4Pf8mY2soFYm5SSV51SnPF4PBaq9zxPrya5rstiiF4yTSJJNclJpeH/IKbQgD9x9ikmezwe E7COxSNlzO8yf6Ib/k7UQyEF1SuPRweQhFQagcBF1NbdDzVwWBLwk/Ls+HXlNHChygc8H8/u 0xm8hjchdAow57xqQptIVP0Mg8U/8WHxFfXyniXGVP5caNZae04bd6HfAxPchcilPc/KUh0/ phiXwZxqq16RyzMoqMD6uFAEW+bO5ocQPPMGbiAkQ2EAsk4eock5LblztVAaPS2lUWJlAZE6 Hucg2uQK8nVd9nw+Jw2a0lIWfB5TY1hoXq6xIWyXAj03k5LvVk3CsvAdTBWEBqANtNpqs6tO lk0BVGsjIXTZMkHMsAuQmYd8CIyzjZjhwTeAeDHZWEMEotZRphTikuBRsmhhzFr32aX2Ezrk L1iLbdscHJ42lUURvBIx+HM0X/35HWB7BBKs07CY3iUTxUKMRfiTNmPO+BBHB+u18Ve5evHg cdr39/cS/2IlcC0pyOmZ2qyGqV1awAH1ykZj9ojn+bABtVVLlpaF0hBOPx41tGqpTaKG2nb8 ts81Rnvss4RZN4aQzmyygu6va/PUreYDtjCrclkLhEcrjAFyj8fD0pWm0gwhdYwWe81ji7Mg tJNOo3jQbPLQvMDMPH5dyIVbrKk+jmec52lnPO3r68t+hV8z5yxJ/tZaB2JiNTSxEkOcpUdx FmRg8vGVIfRIgvwz8f3d5N/BmUYJCBaLjT8uV/frRBzHcVirE8vgW9loFjflDjprqfY5Po5L +IMAqOCx5ho+g+DVf3ukJTyFCp1a1HulTkqpp1Zj7NLAhL30ZvgYjdl5sIdag8n6U3zISwin qH7BOuSce9JlABzN1OE/lcdWv8r3NM7dts3B2efz6YcKhbPH1Lmvu7ksfa9HM3lNVV7x8gXH 0ilhgnCadXf1eD18vRivrmfOeXFtStDw77gJ1vjz+dh1Xvar/XIBwyppahhF2h+7r1dKyTKx rWq6lt583h8foC64b0Rt1uIK6BwUtX6atZTiyQsoXN00AN7COYsfUp/bZ2Se0dNQBHCEVtTa 6+D1AIBzA6X+NhevsAkzycKc3XRbWARDa/XvZp0NeTwea9ZxmN/7ZmoFDntAdWxrzRE/YI5N DWWSWarpim1QmBhj9+nv99tr1szMU61qIu8PuCNazBIbn1LyhAjayEa7uQrrwQMz87CslGJX nROD2AHoqGvh3RBBOraU0jwxMphCCB/fBBPeu5lZmubfq3Bv9e36QUGUBCql2Pf3d3c3Yz0o asQy/pa7v8Xrij8QdnVF9/CS0I0cgu9FXNPHWYsNNHS72rX4uRAkuTLOkXkyY/wbJ1T3x76g 4q+vL6u12q/vX+579XmUTcMwaQIFAehzDi4Y+MO7STProA5zX0o/adJqB3rbvi0bSjLmOq/F vSDAcNcIS07ZCxLV9yJAarEej4edRz8pq/XqWkChPhtBvNPfRFe1VLM0wt8RihE9WDN3x5/j Y602d53XdbmL/fnz5yyBdrNqk4HScmeVFDPzciaPR4cps2aOTklfMpHn4+mLygT1TBgCwaLo YEstngJ1ombfnAZW1EzoklLywwQhBKduFSSWUpaUr24A1KvPnXi+9EISrBQVRqRL73z6tm2u bRxPMptn40rpIRzn7hUf3V0qQo05v855QgnqlSweaF/D7H3fLTuPKwCOP9d1ed0aH6SzxrXQ 3sy8eoW41uPVIY2KjtUfPp4d7ByfYyk9gi8wm/lzjgCXWizU9eyYCjB/PtenL3SKZtfcEK2s 8Zh8bNhCBcc1zeuRyyBQvF4/dDDM+mhZ0+P5cLfEmimjeV1Xd01tJp0Yy28bTkjbpgvjU1v1 Clwtsbq76EwMXlv1Q28pd38ca1xfJmiXRQC93uNY16obWPLBWOvUbrClC8N5nm5hAGFoxb7t Llj4v8fz4RGGAy6prMVNmK1RQ9zmidJa60Kzqq+HkPFElEl2sVSLW/zNNGP+qZcndvbkh4BX zQ0gMCaFHfu+/6YsaDMMHPMCG8EA3je8tZFA8hiuTY47xeScNiiZiV7lsnDMExg92M8LuNj3 3cIZnKVDOzhUyETM+ob/8/7HSimzguSaLBj8N4clQN8swHmc/m49xKCWCa1CYJfYNQYr55ry 1WiFxYYbUBqa96tgu5uMfU2D9R46GoKmnBaswntg30otdtrpbha3iRVS4cV835WSMS2l4JAz Wkak6LS1WafNvwF8NExSYMIE9sfui21mfuKSgThYCfMYkJuqMCnJlJIzeS7J5++U75JRsqlx dwCKBcLi1Fatfq8lx+pL0XIOR+haMG89H4efvc9RFeS6LnuEh22P7TcBc+UaSZmUk1tgty5D 8WAfHYgPF4VCKQ2rgptS6j4dckFNFwPREEyLHGCVNIZmMdUv+YLGsIAYH0DOju7RbKRYj9oC uggBNaTR8MV9+sj336nX6zN9J4Kkz2HOpHvRMN0Y3dj78SsFlJ4xFJKLjVK3o+uOia61OhPI eiHgutb//PzH9m3v/W3yrBJCMLRcjIgil6tYDXWJX83MTbZvXAx+MPA+aTJnfPduMWrtPpZE h0oqk9HnQa/+888/biXQqLvwHedhqUgbk0GNYubZhJyzHzxw69SiXe1ahNs37KpeuInQU8al 3bK0RInvKcCNKXqKGBNOJwswC//GpitZxulZgDF0twtzmLkQ5yXO0zHN5/Pp2p/6yZiccw/Z 1AxoKlG1noliemkgoOhdta5Z64uWoptU/o3DCjQsUu4dC4LvZ/JKZWoYgyA5epd+d8TygDVr c5M0nua/fwJFFqYCtNasnMU3ptTiadQlNr96c6QYomXLNg7YuFW595bRuTm4HGB0y5tddrkC fr+/3QJQy65jxgo+n08rtdj3r++phNazmhnt5KUsuBIYCgLMeo6cvnMgbQdmrVq9pjm8rsvK VRbzxIYhwW726qRPtfuCYg7GpZyBjleZw7uQNBvn2Gweh77X02vox0IrpmCDEDDveNFmoaOX PKW1/Upr7Y9RjZp4xmu1r4fWEIL+W5xzd4G26TYUIDp9LHgls0h3EoBwTHPRDAgtybn7aEWQ SL3XoY2GQipYnqGqYfl7rL2FFpk4PnfiCLNdymhfsmUnizQ+Ps/TiRhyzimlpZVIznkhO8gZ qAtRzMJisojnebpL2ffdvn58WavNvt/f3gKEuF79vgqs4xkx4Vveljw9NQZ3CwyvTwZTw8oQ evcJTTmbmWVtpKdsFJNUxqzW6j1S/gR+8FlMzgkOkHKdf/BH23N2sohhngPDRLPI+h7NCcQ4 42BNFKnV4tRMjNEe6eH9ZOyYBAgbGdv07/cNAuCxuISn5AZaa57vp+qG5zjIjMFJImXuVMDB ATF2JjKF0fkqzNo7jXT4vX3bbd92x2Bm5k2LzMz9fK6lWstruKSdo9QSOCCTQWoceJcyMl9M zLGCTZPjpkuYNw2f1CyptmmY6LXueR67ZiEQJt0A75IV1lz4n97Fs3XTvVg0BPv68eUNhN7v t/3Hf/yHW6C///7bPsdn6bzhz5KSqH3fvSEha+dAcPAmzpzGthzP0jr/hVMwca+lONYxG+Zd j8K4/6ttkU6kDenEzCtCrrV60oWNfp/vlXgo008pAPJFCbMpMTXdTER9uYYvFFvG2gkaFuue i26tzazfKMEOIcwTJsO0L3hBiBGvIjJxiTbjej2E6KlhOZzhZh6XaDeGr87OEVi0bds6EBxD wjU5Rhjz4338wRp8Pp/OmO4Td/im/4nLxd+dx+kTurNIxNaEJWgOvuzXr19uBiltQsJjir3h ra1pSZ+gTYty/6hPpZBD8+h/ivGX37c1rmdcnsKNs8Kltc71xxKdMub939/fztbllD15U2rX fA3VXMhj8CQMkQAdN3kWAsH37+P1eH6QN/WcAJP11AhlUW52H2TZzlncx6nHz+djz+dzOaKE 5nw+n65pYfaeQ0Cov/PUZwyzrNlsOaCgSQ6sBsBMfa5qIQWXvBPpV427Sjdvn8/HNV5Lg5nL HaE7kzV8OOfmi60nbhTNK+kDm0mrbj2AQPio616uWTzBxyOomudZOXkOkROCU1vtJc6Dk6DF KUrnm74/dpei1pqddZ6pSjnZj/yjdye0nqc9j9Oer14Tz2R5ESa9tR4aPZ9PN2ewW1gQJqgJ FTaBTcE09RWQpE+YZi7usyFQsNBbjY9FQHAp0dLMH2OnVw4lR8qAIbTv93uWdrXmG3k/X79E QGHtVk1POayUmnHmRnzdrC0FoCkPLuIq9nl/nCehBoHMmlusYXkf+8Pn+/397ZFN3rd9UX8N Ua7rsteztyf5/v6293f316QBzcxer5dbg9aapxGvq7e5ZHB0c6YyFKEh1HDBsLXGTmlQ1XL4 aa1uwaRBMh3HYX/tf3XXdc05sam6CSRysDox9vPrupnqOvRoVoyTgNKWKi02fwbsHsWSxPcA uEVgJGt4t3CtNa/OJQLitDDUsR6D1kYMnvLVh0JeIL2f98cHBACiB+yiIRLPHp/DN6O26k1u FdmTEkQYSBggbKBdtBHtVmTPeNlMzLvzBwPEHMfR+7McUrs+zKP6WqyTW7k0FxXghB+9I/9S ysxxy4lcM7N96yEdNe77ttvRjn4zxUh/3nkIrCAYSsPTWjs93FLrvXhGdKQYC8ReSrFyzDpD VxIkzqzHccGCkyMkODAR1K8pOWK2grrP57OwdFrsCP2ofltjUkWkCEDO2QkW1QZQd8szRx9C 8L5t+E0NuWKMS05BiScvqAizbOw6rwV8qqUB9Klm/Z9YNrVUWi8AJtLwU8NfBaCE1FbNw9Ja qp/X5+wg3S3VNZAed9B9J0C0B2ut1cMmtAeEiRSmnLzHSbP+vS1sLhRIHV2mHPETk4InbC7c nflSmldjWScpzLy2XEugzWwp+SLM43cQSg2ZQpxtSnyThtUi1NJyKh0Lv8P3rczSMxZdLeTn +Ljp1awfc8QKeiVNmWErgppzthJ6uZUeXwI8anOj2bRRtUTi9LtJUKZNCyY0Do02/YbGnFpJ qh8nIcq80iKm2VMVAXHXIIKh1oUyIcbEwvzpqC/CSFgGf0BuHM0ClHofuNYs7zPed3rU1qNe CJP79TZLw9hIM3NCh3kpX6DrX0qvTLLLFmZRn+dZthSX8VizpfES48p0GsTUcjyICTEwja15 YEzRF1vje/WXhGSYc3ULDk6k+EAtjTJMqv1ggPnCiXDZDIoVtWOWzkW1W6tiY4lLNENI6GFn mMURkDnKMXjqdzQkpDe8+l0imkd4+AEQnnGnhQGByrKZmWuxns8nh0G0wloQybCeOYZoZzu7 f6grUkRiAEWlFC+4R1NabDNB0v4gpQJClFpEUu8bC815/z3NMaeUFgCnQE77oVszT2t6uDf+ n2yb3t0SQvDuFed12nX28+/3BFBKyS8Z8JxCu93uEKLz7GazpdfX15dHCFo5g7W6m/R93+39 eZvVeR6h1h6NxC16q1B1I0tUEnvlUDpmCjpr/EzrDhIwilbhh5V2xTdzi9LSHHAICz7V2bJW e47ZemzOO90sjr6sLKTerEC27F5+pGYt5T5uvXzouHrkoeQIgJVnKfBJadYIantOXdRW15p4 BIOUM4KvUcB5nh5CgTti7M0RruvyTlG89/nofEhO2ckeDe++v7/t8Xz0rN6ow3u9Xo4dNMIg 42g2mvyzQXvcF7T4fD598fRiHHy81tfht1SKt22zPezOtXPiktsOWHyEB4SfUjdb5Sh+xi6G 2VUKCU4xOROlx5qRfixSsFlc4QI2zCPfZeO9dhwUL6QQ+IRM4/7YPUfB5tPWUy0mAgxoUyAJ X6G4h57zCurU5fH/vv5Sa3he56yxS/PYuVo6B3IMZEnCj5aVSA4vgrVSKXo8Hj13O55B7R3t vZVA4XBhihP9stloxvPxtOfjuVC4d7MfU7/RyH4AACAASURBVLR2NEe1+E4lm6Bk1TItyJ8K 14FlCHs0tNTvI7Qh9Cu1qK7ZH7ub3hKKA7U7raohmWbGIIMGy94TKKNUipsjl9CLWocqveqD 5C2S9OttdcFN+efPnx4rs1BIXvgEv1wGM/d8PW3L86I8bnAopXT/I4mD4+hXYypt6qSNskTj XjcESRfFF/8m/aUWS3UyWsqj3wsO0J7Y4iIYuCrXpBEHa4imlozxEEU4DhlNicgP0YeG8ej7 VKM15KP3DWRSDL16Brxyx0BgI+VR7iEpCnn/ZFgiJGjbN3umpyNAkDeb8nl/7IxrF0Zn447D 7xwlnv3161c363kuFM8Cbd9vPHLGTcwsxRB6T2qLzW+iUPJEf/8ePikxpD6U9y5ETZrMG0LV VdaWjS+lOB9PVuxuVTQ7xs9DmLULiu61BYrG7/xduRKwhL5HrYrWO7h5JzYE/MTYTXoz4W1H vxdCB/wzkupHc6XTMaECC8DCE15AYvz69csZN910zdkziVLK0nywtU7pUvzhG0NFSZgHBNh0 XXztwrEIi60ndsAfGpYiPErjEp6pPweoqn/XTWdenzaBZ4jB/TJ1ghplqLX4en2thNZA+GCQ beuVM5wXMDPLWoXBf7Ultt9OfPMdKkUeI7oiNG9lsu3b0lL7rsV///334nM5qptS7wTB7/Fc rfciwaAAya+84mqsMHlwSCR1BRqK+WbGWUunqJ5I4u6T2Zi7YKCVqgD6XubpQHEojZZ/PR4P e7/fvg4aCtNmlTWF429hAk8iEd2fjL9AA10aR1ssSo3U/2D28WnKRIUQlntYX8+XfcJnWXhu Jd62zY/hqvnio40HuwJPwInwaVyrx3y0i9Wd1yampk32HazdySaeS42Alz+FaYJZC2X/YMKI aMi343KYh64tm2XNPAL6fD5eO6B0NFeNsBbqhnzTpUKItc3ki5s1e+yz4b7felgPi1dctJxF QbrRulBWi3EPOzxUCfOw3m+DvPkwnqXf4R0xzsOCLKa+j4MBXF7gdXIj43V8Ds8dkFgxm31e FOBhhl1o6vwelgEBUcC6pdlGBGXRDdYIAnCswuACY7NvLtaHJke6huoyzvO0r/zl6+otTbjg 3gN5iVPReswF4ZMujtdo2Qo2wABqnh1sjUXUy36U46Y44Cozn3+v5/aYeZhjbnHEtxJWYepb a26BFJRRu09IikATurlLitMvE9sriG22FoAqD4HZ19BYtR0uwKMBcTmuvc2cciW8xaqoUiiY VSUFNJqNPnJwwWYrqb/EszZBiEoiMSQUIpOPMXpqk+yalkQRr6tJB6k7MJQ+a/pfD1vGufdS Sr8LRWrL7mbzTxw6lwj5Rtf1PlZ3Xzn5nWYeFqW1VBo/fJ6nM5PE9dZseU8IYR4FDzP3oO9k E5VqJiLY9s3n4pt+q3lnnFiG67q81iFv22a5zVIn9QswSZiw+2AIzwBq0KVqgrVggoXF/JUy ixp0kGgXhxjcfw+2CdT8eD48rav5cMJJwkaVdk+VooVt7ejIPXNmsxWp0retteXKDBA35vs4 eoEECqHn5/SPA9I2W686Aod1o35/3GfnAmvTcpL0UavDPuSUjavSH4+H97/xu1Y1/6vxqiPc OjXRQU6wxa97weE42oS50aM5fZ7zOg4SEHdhQACWKy0onQpmuWW/VF6ZPOYTwjjGRNZKNFP9 by3VapIu00NboGn5/mJ2ZaMAkMoHPPaH44n2WbODajGvqzcd0KYMZPu0+BEmThXH8UBbiSis hR+zlqQXwuI3O7QyfYGSLkiwpvzuGs8CcuAQaaeiBBLkTxJPyywkUxMPSLgeaCSELKX42XUX 1FvdeozRvr+/XSD5HmXKYBIdI1WnPNc7NNbfe6lrmMlmIARYTY2hVegBWhzQYMPvSDzEtcDE zfzINVCOBWWLMGx5nH9Ps0LHq2Hv4QwmmQBfJUgBHhw0VaQaqiBVtVX3pSogqpXv99u7TaDJ POv9/XaNDSHYtm8LXQy54uClzk7PHpuGGYKS+6c7FULd2jwEkeO4SNBmJMKxZ+3pzlw4ZKj+ 2v9tWA8ALUg9WPAmAihGTH2jPHEyQk6KH4iEtIoWjiCETm7RkEGpWI/dBzZx887GOHCJE/U1 a5ZDdkQNBdla87iTazP4fcgarziRKg80jZ/t++5XVOKzHs++KQAPGDTuCL8DMjXvULXE4n/9 +MsX/GPzGlA0CYGjbJiFQlvZvFp7j9lq1d2RHxlu0xKyBmpJNBSLqdPeOWUL+3pMXMFnqbM+ MbV5zlDnjbC6wkkFjjKnRx2ZvyapVbI7Wgni3K79ftuQ/h3kqk3vUk6WTTY6hsXHK4ovpTN3 mHaep6SHMl0QNgsSFl8O6cPmUk6kRQ7gBLVcNDAi+gB34Lf5Y2ZLdtDMPFlyJ3mguNFIC338 7/fbns+n95HXY1ff399O5PAdohyuyfYIxpqfP1fXp1ehkP0kP2E2mgdi3sl+abzoRQJmbpoo TfI21YKIicODBUe3oH+49HvmiFifzUKrMX18YJY0saCVKwiMbhIbX0rxjURwW5utNzVlynpc 12V5Wws9EUA2Ve9xYYPRQE2tsll6kFB71aPFn+PjFDYULAoAsCRaMDMr+0y+3O+LRcCVxTMz y3xBoT8Pxly5Tx7NBkCXxWbzQP1+uea5djJQTBxWCCuhi8lEwASKQNlgsIHH1qXO67cEBfPv xLgsHK6Cn+lGKq7hlInz10rGmLBgYW7Y3VUqoYQwEW4yf1UWsMQ9/FLuwteiTuKIcFqflXKy Pe72r3/9y3kFwsSsUq8D88UXpO2CIVmc4zgsxH60KYTgzJbSiCw4cfMSRkienJuKFIwomsVs 8W40OW6TJiZVSUSAhdBqUDZ4wTGS89ZN0QSQP6PMkjEVXNby7k7MJltpZk5WYUk5lEEYS6MB rlbB+oHaOUEUQvA2MLXWhcdQa6fAzmyg99qmk1ekXmv17BI+BFSr340m1R8k9EeKj1jUT7Rc p5M6rkHbPCgB4keq78xgTNE1UENHj+VlXCyWVvogkAou+a6GVymlHg6lSf58f3975nBL6+kU J7YG36EMm9KgrB9CxQFDxmph8h3HObEHViOE0BsWD1DNpjuyH/WFpKSfz+cSObmmE0JgurQu jCucPSwS6a61LrVzGopxsTtn3Y7j8O88H88FReu9aG7mB+iBJg42iynOtHaz4vcYnzNaqlXW XAt4jvri+/wQOA5p0PAY8iXG6IUTmiRyKzbwAwTXtm+Wa3ZySQtUQpi3NmFxcs72er4cjWvf HuU8sET8G8WrCFZKySuZfdM9yTF6kIU2BeDOcCEU2rAAn8nLeSkI+fV6Wd6yfX/367Z//Pjh J0Gp2MR0akkQYBCzTqpXka5epQlzdWfn/GbF2mvX0KjWOp2qxSDuxgYwpAaOxXu9Xt5o97zm QUc+utj4Z+ZG+Pb59JO/p50ei2/bZvtjtz1NBcLUu9WT+1kVQ3y/vz2Mzil7MuY3wEkEYQLk QpnUn262mgYHa1Lj5sjyVrhHqPTv//7vfp+q2QBj1n3Zjx8//FA/po/sFuezUurHf8q5VoWa jTPjo68bpjVZchIl1LBsGpiDMOn5ei7FCW6lRqszPfvNprfW7OfPn27l8KdYB4AaAuRl5FJC xQaklOYpoPNyDESr8B9fP9YmgyM5Q7oVRA94Ptv8LsKdc/ZO0Wx6+K///X82SAZlpvAjX19f S15XD/QrXUkZE+hVWas7kIDuJL5XYsKJjGBLIb8WboQQHDMArrT2zIVCTLg+n3ccx+FdLOlS dR6z+IJNUZIGurjW2hMrcYZ7fBT8slZeIj3WVy2bYpBaZ4sS3n/vnuVWZWjwY39MTGATNGqz YaqPzcwyiXgGq6AHJHvXel1YHppzdpTsGiWF//eULIPngKSGL2bmhwnMzBm885p1Yhre4Z5A 3UpXEj3UOpsV4jM13geHOHiMs1CUQxa/VdmKZSSC0I8CS0ImTZr4VSeynu7CpIxNiRUqeFgn 1kiBrGo682u1329vNny6s1lsXpim+/5QzCEDJ/ZWgXAgNbJRGgoqEGmt+yEa5vP7+GFMXYw9 +QKavhcQuNXJv+OQ5Wj1NU+bKphjLEobhxDsLKcfjaLCl5SqAiMPZW1iDj6QQrguNb+lFFcS xoBCsGms8x1jMfd75yqwGcKr+8vvZE6wLCbM5mZ9f39biMHvGVezfY9pWQyAEYNczHuwxcQq T8/v6oaS0zaz31wNk+V3ITKu63Iu3YsWbw0H2Hi9jkyFku95aNh+78CIa7iuXo5V4npTknMB 48y4fhgDhY2KCbBWiqX0AKKSPgpEGacDV3keNLDZOOFC+k0ZHXwLwuBxcoyLlAMWtBCADQe1 akjjfdzLOKIcponWhEKzjhO+Xl9uplRLap1MnP4e76m132f++XyWeBnzSNzsyRSJRPgui0nr FGXstm0zdY2s2eeYp3dYcH2H4iG98w6FceQf1sMQ999F0bTzs4PKNl3Z8/lc5mJmlomPtZBB zcjYgSkQNkMbBSIgd/045zsWlxYgqm06AeJphAaBwQQS4jiKb2s3RqVL1V0w1pyz0VhJtUW1 XIVXn3PXvLt1oqr3PAcrNngFLfBUCwDGoJe7FkDCU9RSe01BnTdPwPcTJWHd1ErH2NO0Ndal kMSffw+DOOLER4N/sx4mVZuonJZdC1KXvi6YVqhLNIrJq3Uh6c8x3912l34WhqydZpvQftVE BWpKuxL7s4kIHoUNbBiLCB+AciyovM1cxJa3uSbXvDhXNwUMlLceRh2f2fpF3YmeSnH8M54F C8ee6borh6Jrg1nnuxmaFF6cTI2N82ek6/R8OOi4tc5yHfVYEg56bKlZ641/w2xvEmPvPX58 jsWs0QjXN3FIKdUval3wsfydyhAmDNfP73lee3Rhvl9u2+psp4bAcJjfTI4OSRnVNBNTGJxC PQ473sdiyRCALW8eneAe7y3C4B0gbygeKVdxqtas96lTHoK1VGFi3/hkDih+jo9tefOz0p/P x2qaPHiIwQfDYgPkXNLalDIz800gkcJC3l2JcXK0zcRLjNF+fP2YUn4JOTMkV6lMCB8EBiGl Ghcq9efPn87vayMGs7WZoTY+ZL76fASAgsXP+XErxhzzln18bKgL5D4jnj+BV/fBzRxzwQXQ ZEgrj5XSVeFXdI+1yn54cOS/35+39zljYmS+1GwooFEWznGAzQZ8mF5o1xA61WvVvNkf+WdM r1qU8zi9K6XHuWFNs7qwSdUIrkN71+373sc0zorRqcKCWbgm8ML808xPze39O+AABWygcphF PuQgsFoLeB6hn/r+lJKPVa2O2Tgd+8jLRitoVpDI+8yGececXdfliRIP4a6V80bD1GwqpYgJ ZXFUO5Tzpl1oa21eGSlmqZTSbwsc5tvLpG/1ewgl44kx9hbZcZp5EDxlznwXF8DYtPHg8/mc uYCwNg/06Ka1ZUMBY6/Xyylad0dDsErphRIpJhd4vfPcbG08cFcwBCeEXjPoFa4DJ5HJBJ9A HXvoaSNkwx/oH36u3LVZP4XJ4hADp9w7Ouz7bsd5OI+MZtFPpbV+QOG6Lr+YXqlfzDDn3Jf2 HrYeYECbQbl3JA61jBtiw6BuAZzgDzBGa71GEJyDdXJQqvQzkUwLy7jQRs8n1FXQcs7Oobul imE5A2Bmv4XMRAzOoNq8pFdPAtNnlgwjbopPvi+om8WRvHg8Ht4ZGR+joVFKszuVgirVBPwP WnEch5cE0d9GiRbMI5vjHRoE8WOuaM+pC3vXln3fnaNXzKG+m3Tp8elu5v1+2/v99muo1RKp NSKU0p7tWDa9n0Y3TvkApZVV6XiGnojl++yTNiRgPABVFK6U4g0VGZt3jFTz7Vo0rNLn0xvV xxS9kF+/5+ZGsksKstCOhfmTduFaSYILQNOO8/DUobJ+auqNFutxFnm21vyYkeIQxkII5D1t Hw8PFVsZGjPcDhaIaha6POKTeT7zo3Gy5i54v2bZsHIUkyp2IlRkzGAvrBc4SAF03uapHo37 t7T1LhkwcmiNAhHMh5folFnii8SW2qXKu0ONc2tYAQbj5iisMaWbwDJvXtTBEuacx9o+QyXe Y3ub9V/4XzTtztTRTNepYm6T+jS/nVgZu+Mza+tr7Qzf+/320zla4Mltxt6HFvYymJcxewbR 5mnbEGZt/Z03gcSppc6C1FtIehc8ULsSapz5MxuMnJplwAcLhzlR3+qA7ewHCLd9xowU6P8p BctHEaaaSQRM41q+440CRujDhio9iYCpm0LDWChPlowijZx6WFVaMUtr5Q04AzfAhmi7U3rm cGU2H3gHqlsdI40qX3iCbV/LtZUv97VqtggX72GeGjXpumOJAOd8sp4Rp/QJbWUTQghufpzV yWuowKCoc1P2jaoOqFQGp/6RY1CQQQAc0qqERcGCbWEzy30MWiJM+yya9eQ0Fwoz//p6+TwU G/jijfAMgKgWiDXCV0IIaRyvIDeE4K25dc0AroAwNsnLw7fsLgiBXSKsa55hd2s6tJkCj9fr tRzlogNYSqnH6VfpZnnfptYjrRwBijHacR7OIjEppE0b4XnWx+YlOsXkTlCbIIvvsTheXj1O eLDAZvO05t03m5n/Fw1TvluTKPfrRUOYlbKUXGkYp3iE59DIV8NBjXgQWkCauk1H3jcihfGl lGx/7M7ApTQrfFvrBx5083meAmKE5zxPP4ih78/Ohknlh/rhWCT/LZfo8F+EAtDmCzh4Ygam fkfNN4AFQXFT1OZBBvh7gM4Snllwc3/ZtcTtWCXGq+CGjcelpZRma8+xKZx6cYs1nsGhSjhw GgypW2DOWB8li1h85qd19DHOmB1OQfMElKUpCQZLmXKyR1hBsTN/rVo5Buey5c25ZPWjTvY3 WxdZpP4ql2113tVNCpKFJNxA61g8F6LxO9u2Wdo780TFKTw8ufFgK/tHHEypkDN5bYI0/DfV LzQt9PPawxxzv8vX15fFGL12nztsfDPQzlHCnXO/foPeeUqlKgvJZnvImGa3C+94HXqLtGZr v3t9piqkWpb3+90LRNI8OQS690sHxrFuM7PMoXyzNb0K0FE6FL9E8UCMPRUKYnRyQACVU66Q UoOEIAxzoGaTFMJfMSYz86ZFbAALo0BOBTPEYKmNGrM0fSln3bBQX19fS53e3ZLpQnsqOHRX 0I6Vkbubb/1d9cu5jaPgZ1jKz13x6lpaxjN1bIrglSnk33ClCkAJBfPn/bH0NXPReqE92oT0 +GKUahbH4tqMKVNOFutcPJ0o0l6u2ddGEzaEe7QaZQE8DrW13QbAUlO/uuhghMfj4Xebq6Z5 UiTnJZOoFDP8A5ZEtZkwSv2+smcsNA2MsJCsKesL44cypTTbdzNe5SawdrpGrCFCxnjoRNFq W2odM9qmgIVNYJOg+Wqrng7VTSEZgtTisxWcKPHiVKU17/9K2HG/cZhMFiQQiJtJaHYJYdX8 vta1+b9fxc46Nxht1XIvJ0gE3evYESoOPGiOm80CyLkPvwmPuymxJJwh52dqPdU98jMz8+bI 9zVnPAg3v5e5m5PabtAiqBTNjzFaK6v54iHhnHlu6tp5JkyfUozafF/TpFgHNo0ebCy88902 6VgsFKjfAVCdZ7hxWwuZkaI9X0/PCWBOl80enTCUV9B8dQjB/vP6z35YYd8dUDpYbdWvGYP3 B7jt2+6W1TOakuPgrjZcJ2ugxFat1bOVnJH39K0AvvNa77bP1EbzAxCuMl9mtjT+1QEyKTQ1 xtmER6V42fxhlvfHbu2coRMmFaFy8kPCIG1GrBKv/u88pqD8+vXL3RNjh9M3M78WVIXS/V+d 1ToaEytJ1VqbmOg4Hedc1+XA1N1RnGDWiasYPNf//f3t2nud/ThXO8bpI5uInLV+PB6esWPt 399vq/ssr4ox2uv5moA5pU7D6qK72Qjm6UVFkJpfZ8LKd+M/XXtttQz8HlqBQGBilYZl0EyW mJZwkmfqQQxCKSp//uQS1J3cKWbcjtb8afztAG0kocibq6nWZ3JA8e56/HbqUVNP8khjb+hi 5uy+egjw5/NZjimzLqxtrdWLYrTVaCYzQ1zKpFNICypnwlR5YgkcnLGpNq+QJrPDBJ1lqpOh Q5DAATpwKOE7KuZZmHasAGaVvysQrLW6oOgCAuL4LKSRhEbK4PGdvPdCSz0kgWlm/ndugnGk mJyA0TkRIipjeU+y8GwND3nulrduDWsxu2xRLj79Mr4S3P7nnBdt1hDM0e8fFpeFUs1Qk6oR Abc18HPcCqZt33bXJgVqWBWzeQOjb/wIMUHWaBSFCqUUN79q4jUi8A0d6PkeXSCEZjbP80lB B7+fLXuxpJZOazjFn+u6FpraM2ND4Yjz9QAI0dJ1Xg4yfUNHpm0Ps7z6tHlBcgjBMmSI2S0N ac2JknupEn+WWi6zpdbtrj26wU6hDndA7d0CzMaYOBNOuIJ2YL78+Satt2ymThUPMA+IGWcO b+N25rFVi2W9+J7fIVSEdVT+2ztRt9mrlTbqIfQqWo58eQWrrYWVKc3GBv/88093pYNkUty0 EELj4Ke6Om6DBmeEEDr3vu+7N8ZVf+SDrl074XPJAQMm0DiTc9RONjRpGDwmjEaf12l2mCN4 LAsAh4Xg838y81C1CJFSmT9//pw4oNlChHjcbeuZfL0+k+QNZ+CWOnYhP8YkO3sYglnscyeJ dZVrOdWrIJD3qFIhDJQ7nefpaWPeR10DCoebxfpu2zZP8MjY8uv18iS+EvNop58hHwULhD98 7ulENs0nMFBnvepyGiWl5BqOxUgpOVpGkBRIAsBYOMcIEgOnlpZ2JH6VdZy4guoSBOkuVN6E UMJDz7HjgkZKWu9IB3Aqj45bS62nhBVpo9EKABXs8szX18sepRdxEMoRUuqVn3TPdKw1LJLW K4QQej6dxnrKvHGWDQEgi4NQEL97ZUubCYRa64INsBBK0NBECN/lcfhgrDQBpOiUWFQ7QXGt Fuadnz3Cw39fN4b+dIrIHcCNjbYwe+vk3K/Rjinar5+/3EzywTLdETrXhblSSNEEiqauROdk Nq4wG5lGM7NYoz3z09o+fHudTZEQIEgiBYF6kjiE0Gvk9m33kIiiALtWP+bxu9z8w0XsXAJw L3UiJYjJUekNFrxhLskLWmY6gAoz9tWyILcW3Hc+hC7FzmhBfCAsMXY/W2s30yyCUrgslJpP /j9veSlbvsplv75/GcQW1iiE3nkDcxssLE3+lVAKoVfLkOzhXJwnjtKsg6P4lHVkPZSD0ESW ViADRNUV52YdCZI5w4crNYhm+cJuyRdNuWqlKrnBkGdS7PCnOrp3e9uWN/v68bWQIzlnr+xE +Gqt/tz8yP5+hJGUruYQhgqvSZ9hXQiRVOPdoowNvc55Cvb5fPbooq0nbhAK4nLn5sf9KUQn CCVWhrHrZbzgHq/yMfMLFAhpYfOwoAoaPbIY1b5KspmZ5VqqNxLSAnnMnBZBapwKeFL2Tpk9 +qFqXXyIYWnFeRy9R/vn/bEjjsrOMDNraj7NJmbQsmwfr1zwR8iGVqa2NvLlgD6VtBqGLqHl EFLnzOt6AZG6AzaHNTo+k1r1d4wjUQA1KnNU0MiylbZe7oNw6Bl7ADAWQp9DfQA3M2pElEGG eiKUBAtaDjOEmUc7eAkvZUHYfBZCAZkOLMZeaeOcdGtLMSMm6S5QPE95aI0WeB5UqF6ljaZ7 nVqSVqMD2bspHU0EtIkhWavWmoPfbdu8O5SFNabXNimsRYxx6YqhZr3WuqRblztcQ7SryRVf EGG3UzHMJ+Vk6Up/3nRF7Cn1c1ZconedV79RUOJn/CRJBq2dQzMBgl7QZ1MbNR59fb08JwxZ oXeVeCKnzisvn+npXZ4cHafJILoZHJp3T/qQDEG4nNipzWqQTow2DxN4mHeVxeKhIFiVYGG5 BuR+G5aPYcTzREOaNXOhzsk+7/WaEcy3spH+GfPwe91qs7///nuxxGZylk3LfzxxMUqD2BCq QFmElJLFa206DwCJIVra1uuhapCD85ixq/wmpZxyua4OmJyjbvN4EzGzmn5MKKEhjBzuqlzj EAddlUetgOb31YLVWi1k6Tgdg21xW3LaIXTyyuP8MEEghA2YgKIULcbgwj+NIFhHTg1z0gVM Y8UWodP1u7ceu9cbmI2WYqolbEYtPXeOIKBpdD4wMy+oZLPQqOM8zOrswoRmKDULIDvisaJs cQFQpzybiSjThlartiiHv+1b186rePlxS908U8J9J4IUEJU6mbb7ptXW53Ae5xLTW5i3M+Gu NEzVDcBK4JpwHcwLbl9dplsom2fe2bsUUyeGxn5xlHkx7wr5zWbJlA7eBzq0BQarlGI//vrh Uk01i5IuDg5HDplFpWBAQzAdGMj++Xx6T3ZSuExaY3vdfMx+Tnme9a6z4TFcBO7EOQXx+xZ6 XMy5PMqYwRWaBaRfK+NOqVe0qsBTTxdjvx+VegU15zlmq3E2cGht0rwkVMj/834OXqjyIQCk hO+WJLMIrTVv2eWAJ4xrnYJ5cQWlNywYPdj4N8CcmiqAkwI0ihp5vw7w+/vbARk5dZC7doRA 0s3MLxrwkGaAueM87Pgcvui8P6VkXz++3L1gPpUixV8ruteNZ60e++zJvj96yfb397c9n8+F DeP6EaIAsAW9ZN1MC8kETf7+9NSoF71c5zIOrIm6PfX7/Pvj8einwDR5gn9iAL9+/bLWmj2f T/vx48cS2m375putPp0crpn5AcizrB2hyCOrqcTkgiFikqaAoyRIiyU0WmDMzgIOoHZ8Dtc4 j8lDz+RtefNyrTuYcr8qFSga6wKayFl4mBt6dg0MQkMGFaQUk0cUecsmezzMiTm9zO9gtUII S+cQaHQUwEmpOvmKUspy23U2Ww+ws4FsOj4BU43ZQNt+fX556KUFesThx3H4NV2Yt/f7bd/f 3/b+ftvff//tnDsf5eKVNPrThqs7S/2KggAAARtJREFU8k0ZWTMwyBa2RTPVCpHBcpAzCiXx k+/3e/pam9kwd3HXJLHYMMifUoq9v99+YoXeraRM74WYmpLmHcfncGvLzxFIXBsWQ6MT1oD1 8vA7pX6sSZPzDqTGpPKW/UKZ9/vttwByEEAZNkp5FIGzKQgA/pQyaswOZcjaF41SLBA7Aqd1 +d5eYxz4R7NynjltFQ4W6zxPp4kXJWvzDL1HGnIBgpp4xqOYiPlgcp/Pp+e+Wbslyom/XwKo BaTP19PPzbPWSk45IyfKqqGcFl2k1KOBzHksNWtoAhKi5UIgRPK9mEzVPO+RIviA57HI97Tp /+uHFmEIivPPIlT/t4/OS2lkOIXfYuH/zz7HcXiJGi4KE2+2Nhji878BKpiUxkWmnmcAAAAA SUVORK5CYII=" />
    <pattern
       id="Pattern_1"
       patternUnits="userSpaceOnUse"
       patternTransform="matrix( 1, 0, 0, 1, 550,-93) "
       width="100"
       height="98">
      <use
         xlink:href="#FlashAICB_Patterns_New_Pattern_Swatch_11"
         id="use9" />
    </pattern>
    <pattern
       id="Pattern_2"
       patternUnits="userSpaceOnUse"
       patternTransform="matrix( 1, 0, 0, 1, 575,-132) "
       width="125"
       height="125">
      <use
         xlink:href="#FlashAICB_Patterns_Unnamed_Pattern"
         id="use12" />
    </pattern>
    <filter
       id="Filter_1"
       x="-0.2"
       y="-0.2"
       width="1.4"
       height="1.4"
       color-interpolation-filters="sRGB">
      <feColorMatrix
         in="SourceGraphic"
         type="matrix"
         values="1 0 0 0 0 0 1 0 0 0 0 0 1 0 0 0 0 0 0.4 0"
         result="result1"
         id="feColorMatrix15" />
    </filter>
    <g
       id="Layer0_0_FILL">
      <path
         d="m 100,102 -100,0 0,98 100,0 0,-98 z"
         id="path18"
         inkscape:connector-curvature="0"
         style="fill:url(#Pattern_1);stroke:none" />
    </g>
    <g
       id="Layer0_1_FILL">
      <path
         d="M 60.55,86.8 Q 46.59668,86.568164 0,86 l 0,53 q 5.5,-0.45 15.7,0.15 15.35,0.85 37.3,0.85 22.75,0 36.4,-0.9 7.9,-0.55 10.6,-0.1 l 0,-53 q -31.810937,0.567969 -39.45,0.8 z"
         id="path21"
         inkscape:connector-curvature="0"
         style="fill:#643725;stroke:none" />
    </g>
    <g
       id="FlashAICB_Layer_1__Path__2_0_Layer0_0_FILL">
      <path
         d="m 61.9,9.55 q 0.95,0.35 1.75,1.1 l 4,17.35 Q 70.45,13.35 70.35,9 70.25,6.3 55.8,2.85 L 41.35,0 0,5 3,38.35 q 0.85,9.15 3,16 1.1,3.4 2,5 Q 15,18.65 16,12 L 17,5.35 27.35,5 49,10.35 q 0.15,5.9 0.6,13.05 0.8,14.2 2.05,20.25 2,9.7 3,24 1.1,-13.5 2.25,-27.35 2.35,-27.75 2.75,-29.65 0.45,-1.85 2.25,-1.1 z"
         id="path24"
         inkscape:connector-curvature="0"
         style="fill:#ffffff;stroke:none" />
    </g>
    <g
       id="Layer0_3_FILL">
      <path
         d="M 37.2,84.3 Q 30.283789,83.90918 0,83 l 0,53 q 0.9,0.25 6.95,0.5 12.1,0.5 37.7,0.5 41,0 55.35,-1 l 0,-53 q -48.124609,0.90918 -62.8,1.3 z"
         id="path27"
         inkscape:connector-curvature="0"
         style="fill:url(#Pattern_2);stroke:none" />
    </g>
  </defs>
  <g
     id="g29"
     transform="translate(0,-83)">
    <use
       xlink:href="#Layer0_0_FILL"
       id="use31"
       x="0"
       y="0"
       width="100"
       height="200" />
  </g>
  <g
     id="g33"
     transform="translate(0,-83)">
    <use
       xlink:href="#Layer0_1_FILL"
       id="use35"
       x="0"
       y="0"
       width="100"
       height="200" />
  </g>
  <g
     transform="translate(18.65,36.35)"
     id="g37">
    <g
       id="g39">
      <use
         xlink:href="#FlashAICB_Layer_1__Path__2_0_Layer0_0_FILL"
         id="use41"
         style="filter:url(#Filter_1)"
         x="0"
         y="0"
         width="100"
         height="200" />
    </g>
  </g>
  <g
     id="g43"
     transform="translate(0,-83)">
    <use
       xlink:href="#Layer0_3_FILL"
       id="use45"
       x="0"
       y="0"
       width="100"
       height="200" />
  </g>
</svg>
