<?xml version="1.0" encoding="UTF-8" standalone="no"?>
<!-- Generator: Adobe Illustrator 20.1.0, SVG Export Plug-In . SVG Version: 6.00 Build 0)  -->

<svg
   xmlns:dc="http://purl.org/dc/elements/1.1/"
   xmlns:cc="http://creativecommons.org/ns#"
   xmlns:rdf="http://www.w3.org/1999/02/22-rdf-syntax-ns#"
   xmlns:svg="http://www.w3.org/2000/svg"
   xmlns="http://www.w3.org/2000/svg"
   xmlns:sodipodi="http://sodipodi.sourceforge.net/DTD/sodipodi-0.dtd"
   xmlns:inkscape="http://www.inkscape.org/namespaces/inkscape"
   version="1.1"
   id="Layer_1"
   x="0px"
   y="0px"
   viewBox="0 0 637.69998 397.17228"
   xml:space="preserve"
   inkscape:version="0.48.5 r10040"
   width="100%"
   height="100%"
   sodipodi:docname="shrub_green_02.svg"><metadata
     id="metadata1094"><rdf:RDF><cc:Work
         rdf:about=""><dc:format>image/svg+xml</dc:format><dc:type
           rdf:resource="http://purl.org/dc/dcmitype/StillImage" /></cc:Work></rdf:RDF></metadata><defs
     id="defs1092" /><sodipodi:namedview
     pagecolor="#ffffff"
     bordercolor="#666666"
     borderopacity="1"
     objecttolerance="10"
     gridtolerance="10"
     guidetolerance="10"
     inkscape:pageopacity="0"
     inkscape:pageshadow="2"
     inkscape:window-width="640"
     inkscape:window-height="480"
     id="namedview1090"
     showgrid="false"
     inkscape:zoom="0.56554038"
     inkscape:cx="318.94998"
     inkscape:cy="198.57228"
     inkscape:window-x="0"
     inkscape:window-y="0"
     inkscape:window-maximized="0"
     inkscape:current-layer="Layer_1" /><style
     type="text/css"
     id="style3">
	.st0{fill:#A99269;}
	.st1{fill:#847457;}
	.st2{fill:url(#SVGID_1_);}
	.st3{fill:#A5BA7E;}
	.st4{fill:#C1CDA5;}
	.st5{fill:#95A973;}
	.st6{fill:#819467;}
	.st7{fill:#87A659;}
	.st8{fill:#647A46;}
	.st9{fill:#C24458;}
	.st10{fill:#CD6A70;}
	.st11{fill:#9D3A4B;}
</style><g
     id="g5"
     transform="translate(-10.400016,-10.05)"><g
       transform="translate(0,-0.15)"
       id="g7"><g
         id="g9"><g
           id="Layer0_0_MEMBER_0_FILL"><path
             class="st0"
             d="m 71.1,392.1 c 2.3,0.3 7.1,1.8 14.5,4.5 8,2.4 15.5,3.2 22.5,2.3 7,-0.9 15.1,-4.2 24.3,-9.8 11.4,-6.7 17.4,-10.1 18.2,-10.5 5.1,-1.8 1.4,-5.4 -11.4,-10.7 -12.6,-5.3 -21.7,-6.4 -27.3,-3.2 l -3.4,8.9 c -3.5,6.4 -8.2,10.5 -14.1,12.3 -5.6,1.8 -11.7,1.8 -18.4,0 -8.3,-2.4 -13.3,-3.6 -15,-3.6 -3.6,0 -8.9,2 -15.7,5.9 -7.3,4.1 -12.1,6.4 -14.5,6.8 -5.6,1.1 -12.4,2.1 -20.4,3.2 14.7,-0.6 27.3,-0.6 37.9,0 6.1,0.3 11,-0.8 14.8,-3.2 3.7,-2.1 6.4,-3 8,-2.9 z"
             id="path12"
             inkscape:connector-curvature="0"
             style="fill:#a99269" /></g></g></g><g
       transform="translate(0,-0.15)"
       id="g14"><g
         id="g16"><g
           id="Layer0_0_MEMBER_1_FILL"><path
             class="st0"
             d="m 149.1,402.3 c 9.4,-2.6 18.5,-3.2 27.3,-1.8 10.6,1.5 18.9,2.3 24.8,2.3 5.8,0 11.9,-0.8 18.4,-2.3 8.6,-2.1 21.3,-9.5 37.9,-22 l -40.2,-1.6 c -9.1,10.1 -16.4,15.8 -22,16.8 -2.3,0.3 -7,0.7 -14.1,1.1 -6.8,0.3 -12.4,0.9 -16.8,1.8 -5.1,0.9 -11.1,2.8 -17.9,5.7 l -8.6,4.1 11.2,-4.1 z"
             id="path19"
             inkscape:connector-curvature="0"
             style="fill:#a99269" /></g></g></g><g
       transform="translate(0,-0.15)"
       id="g21"><g
         id="g23"><g
           id="Layer0_0_MEMBER_2_FILL"><path
             class="st0"
             d="m 388.3,407.3 c 7.1,0.5 13.7,-1.6 19.8,-6.1 -18.2,-1.1 -30.1,-2.3 -35.7,-3.9 -3.3,-0.9 -7.3,-4.2 -12,-10 l -6.1,-8.2 c -4.1,-2.6 -8.9,-4.5 -14.5,-5.9 -11.1,-2.4 -20.1,-0.2 -27,6.8 -5,10.6 -10.3,16.7 -15.9,18.2 -3.5,0.9 -11,2.3 -22.5,4.3 l -16.1,2.5 18.2,0.7 c 13.5,0 23.6,-1 30.2,-3 5.3,-1.5 11.4,-3.5 18.4,-5.9 5,-1.4 9.8,-0.9 14.3,1.4 7.5,4 23.9,7 48.9,9.1 z"
             id="path26"
             inkscape:connector-curvature="0"
             style="fill:#a99269" /></g></g></g><g
       transform="translate(0,-0.15)"
       id="g28"><g
         id="g30"><g
           id="Layer0_0_MEMBER_3_MEMBER_0_FILL"><path
             class="st1"
             d="m 10.5,398.3 c 14.7,-0.6 27.3,-0.6 37.9,0 6.1,0.3 11,-0.8 14.8,-3.2 3.6,-2.1 6.3,-3.1 8,-3 2.3,0.3 7.1,1.8 14.5,4.5 8,2.4 15.5,3.2 22.5,2.3 7,-0.9 15.1,-4.2 24.3,-9.8 11.4,-6.7 17.4,-10.1 18.2,-10.5 2.7,-1.1 1.9,-3 -2.5,-5.9 -4.2,-3 -9.5,-5.5 -15.9,-7.3 -10,-0.9 -16.8,-1.1 -20.4,-0.5 -0.3,1.8 -1.1,4.2 -2.3,7 -2.1,4.2 -4.8,7.6 -8,10.2 3,0.3 6.7,0.2 11.1,-0.2 l 0.9,3.2 c -0.5,2.6 -3.3,4.5 -8.4,5.9 -5.1,1.4 -12.4,1.2 -21.8,-0.5 -8.9,-2.1 -14.2,-3.3 -15.7,-3.4 -2,-0.3 -4,0 -6.1,0.9 -3,1.7 -5.7,3 -8,4.1 -4.5,2.5 -18.9,4.5 -43.1,6.2 z"
             id="path33"
             inkscape:connector-curvature="0"
             style="fill:#847457" /></g></g></g><g
       transform="translate(0,-0.15)"
       id="g35"><g
         id="g37"><g
           id="Layer0_0_MEMBER_4_MEMBER_0_FILL"><path
             class="st1"
             d="m 142.9,404.2 c 11.8,-3.9 22.9,-5.1 33.4,-3.6 10.6,1.5 18.9,2.3 24.8,2.3 5.8,0 11.9,-0.8 18.4,-2.3 8.6,-2.1 21.3,-9.5 37.9,-22 L 217.2,377 207,386.8 c 2.7,3.6 5,5.5 6.8,5.7 3,0.5 6.6,0.5 10.7,0 -15.4,4.5 -25.8,6.4 -31.1,5.7 -4.7,-0.6 -12.9,-0.4 -24.5,0.7 -12.8,1.2 -21.4,3 -26,5.3 z"
             id="path40"
             inkscape:connector-curvature="0"
             style="fill:#847457" /></g></g></g><g
       transform="translate(0,-0.15)"
       id="g42"><g
         id="g44"><g
           id="Layer0_0_MEMBER_5_MEMBER_0_FILL"><path
             class="st1"
             d="m 405.1,403 -1.1,0.2 c -7.1,1.4 -18.8,0.7 -35,-2 l -22.3,-4.8 3.9,-0.5 c 3.2,-0.3 6.4,-0.4 9.8,-0.2 2,0.2 4.8,0.1 8.4,-0.2 -3,-2 -6.4,-5.3 -10,-10 l -4.5,-6.4 c -4.1,-2.6 -8.9,-4.5 -14.5,-5.9 -11.1,-2.4 -20.1,-0.2 -27,6.8 l -2.5,4.5 c -2,3.3 -4,6.1 -6.1,8.4 l 6.8,3.4 -5.7,3.4 c -3.8,2.3 -19.5,4 -47,5.2 l 18.2,0.7 c 13.5,0 23.6,-1 30.2,-3 5.3,-1.5 11.4,-3.5 18.4,-5.9 5,-1.4 9.8,-0.9 14.3,1.4 7.7,3.9 24.1,7 49.1,9.1 5.2,0.4 10.8,-1 16.6,-4.2 z"
             id="path47"
             inkscape:connector-curvature="0"
             style="fill:#847457" /></g></g></g><g
       transform="translate(0,-0.15)"
       id="g49"><g
         id="g51"><g
           id="Layer0_0_MEMBER_6_FILL"><path
             class="st0"
             d="m 425.5,373.3 c -7.6,-2.9 -14.2,-2.2 -20,2 l -6.6,7 14.1,5.9 c 10.3,4.5 17.9,8.1 22.9,10.7 5,2.4 12.6,3.9 22.9,4.3 5.5,0.2 12.5,0.2 21.1,0.2 6.5,0.5 14.5,1.4 24.1,3 -11.1,-3.5 -19.8,-6 -26.4,-7.5 -3.3,-0.8 -9,-1.7 -17,-3 -8,-1.4 -13.7,-2.4 -17,-3.2 -4.1,-0.9 -8.3,-4.5 -12.7,-10.7 l -5.4,-8.7 z"
             id="path54"
             inkscape:connector-curvature="0"
             style="fill:#a99269" /></g></g></g><g
       transform="translate(0,-0.15)"
       id="g56"><g
         id="g58"><g
           id="Layer0_0_MEMBER_7_MEMBER_0_FILL"><path
             class="st1"
             d="m 436,394.4 -10.5,-4.8 3.4,0.5 c 2.6,0.3 5.1,0.3 7.5,0 l 1.6,-0.2 c -3,-2.3 -6,-5.7 -8.9,-10.2 l -3.6,-6.4 c -7.6,-2.9 -14.2,-2.2 -20,2 l -6.6,7 14.1,5.9 c 10.3,4.5 17.9,8.1 22.9,10.7 5,2.4 12.6,3.9 22.9,4.3 5.5,0.2 12.5,0.2 21.1,0.2 6.5,0.5 14.5,1.4 24.1,3 -3.8,-1.1 -11.1,-2.3 -22,-3.6 -9.5,-1.4 -18.2,-2.3 -25.9,-3 -5.3,-0.4 -12.1,-2.2 -20.1,-5.4 z"
             id="path61"
             inkscape:connector-curvature="0"
             style="fill:#847457" /></g></g></g><g
       transform="translate(0,-0.15)"
       id="g63"><g
         id="g65"><g
           id="Layer0_0_MEMBER_8_FILL"><path
             class="st0"
             d="m 519.4,364.9 -52.3,0.7 8,8.6 c 6.2,6.4 11.4,10.8 15.4,13.4 3.9,2.4 14.5,4.1 31.8,5 l 31.1,1.8 c 3.5,0.5 9.9,-0.2 19.3,-2 10.1,-2.1 15.8,-3.2 17,-3.2 1.8,0 5.3,1.1 10.5,3.2 5.6,2.1 10.5,3.3 14.5,3.6 7.6,0.5 18.7,-2.6 33.4,-9.1 -13.2,3.5 -24.3,4.5 -33.4,3 -4.4,-0.8 -8.9,-2.5 -13.6,-5.2 -4.4,-2.6 -8.9,-4.1 -13.6,-4.5 -3.9,-0.5 -9.3,0.3 -16.1,2.3 -6.1,1.8 -11.8,2 -17.3,0.7 -6.2,-1.7 -13.9,-5.1 -22.9,-10.5 l -11.8,-7.8 z"
             id="path68"
             inkscape:connector-curvature="0"
             style="fill:#a99269" /></g></g></g><g
       transform="translate(0,-0.15)"
       id="g70"><g
         id="g72"><g
           id="Layer0_0_MEMBER_9_MEMBER_1_FILL"><path
             class="st1"
             d="m 522.3,392.6 31.1,1.8 c 3.5,0.5 9.9,-0.2 19.3,-2 10.1,-2.1 15.8,-3.2 17,-3.2 1.8,0 5.3,1.1 10.5,3.2 5.6,2.1 10.5,3.3 14.5,3.6 6.1,0.3 15.1,-2 27.3,-6.8 -9.7,3.5 -20.3,4.1 -31.8,1.8 -11.4,-3.2 -18.8,-5.1 -22.3,-5.9 -4.4,-0.9 -11.9,-0.6 -22.5,0.9 -12.6,1.7 -19.8,2.5 -21.8,2.5 -4.2,0 -12.7,-0.8 -25.4,-2.5 l -17.7,-2.7 5.2,-0.5 c 3.3,-0.5 8,-2.7 14.1,-6.8 l 2.7,1.4 c 2.4,0.9 4.9,1.6 7.5,2 2.6,0.5 6.4,0.1 11.6,-1.1 -4.8,-2.4 -10,-5.4 -15.4,-8.9 l -6.8,-4.5 -52.3,0.7 8,8.6 c 6.2,6.4 11.4,10.8 15.4,13.4 4,2.4 14.6,4.1 31.8,5 z"
             id="path75"
             inkscape:connector-curvature="0"
             style="fill:#847457" /></g></g></g><g
       transform="translate(0,-0.15)"
       id="g77"><g
         id="g79"><g
           id="Layer0_0_MEMBER_10_FILL"><linearGradient
             id="SVGID_1_"
             gradientUnits="userSpaceOnUse"
             x1="67.967201"
             y1="127.6444"
             x2="570.32483"
             y2="127.6444"
             gradientTransform="matrix(1,0,0,-1,0,413.4833)"><stop
               offset="0"
               style="stop-color:#BD7B5C"
               id="stop83" /><stop
               offset="1"
               style="stop-color:#CB9A7A"
               id="stop85" /></linearGradient><path
             class="st2"
             d="m 486,234.2 c -4.2,-8 -9.2,-13.9 -15,-17.7 -5.6,-3.8 -14.1,-4.9 -25.4,-3.4 l -15.4,3.4 c 0.8,-2.6 0.5,-5.3 -0.9,-8.2 -2.9,-5.8 -9.7,-9.6 -20.4,-11.6 -10.8,-1.8 -23.6,-0.8 -38.4,3 l -19.1,6.1 c 1.8,-4.1 2,-8.2 0.5,-12.3 -3,-8.3 -12.8,-12.8 -29.3,-13.4 -16.4,-0.6 -30.8,3.2 -43.4,11.4 l -14.1,12.7 c -1.8,-2.7 -4.5,-5.4 -8,-8 -7.1,-5 -15.1,-6.9 -23.9,-5.7 -8.8,1.4 -18.7,9.6 -29.8,24.8 -5.6,7.6 -10.3,15 -14.1,22.3 -2,-2.7 -5.1,-5.5 -9.3,-8.2 -8.3,-5.3 -17.9,-7.6 -28.6,-7 -10.8,0.6 -17.3,9.9 -19.5,27.9 -1.1,8.9 -1.1,17.8 -0.2,26.6 -3,-0.9 -7,-1.4 -11.8,-1.6 -9.8,-0.3 -19.5,1.7 -29.1,6.1 -9.4,4.4 -12.4,15.6 -9.1,33.6 1.7,8.9 4.2,17.4 7.7,25.4 -3.5,0.3 -7,1.1 -10.7,2.5 -7.1,2.9 -10.7,7.1 -10.7,12.7 0,7 2.4,12.6 7.3,16.8 4.2,3.8 8.9,5.8 14.1,5.9 6.1,0.2 15.1,-1.7 27.3,-5.5 l -0.2,5 c 1.2,3.5 5.3,5.1 12.3,5 11.1,-0.3 18.4,-1.7 22,-4.3 l 4.8,4.1 c 4.1,2.7 8.8,3.8 14.1,3.2 8.5,-0.9 17.3,-3.1 26.6,-6.6 l 8.6,4.1 c 7,2.9 13.4,4.2 19.3,4.1 9.5,-0.3 18.2,-2.7 25.9,-7 l 1.8,5 c 2.4,3.3 6.7,4.8 12.9,4.5 6.2,-0.2 11.1,-1.7 14.8,-4.5 l 3.6,-4.1 8.9,3.9 c 7,2.6 13.3,3.8 18.9,3.6 5.8,-0.2 10.5,-2.4 14.1,-6.8 l 3.6,-6.6 5.2,7.3 c 4.8,5 10.5,7.8 16.8,8.4 10,1.1 18.8,-0.2 26.4,-3.6 l 5.2,1.8 c 4.2,0.8 8.3,0.5 12,-0.9 6.2,-2.3 12.6,-5.7 19.3,-10.2 l 5.5,4.1 c 4.5,2.7 9.5,3.8 15,3.2 5.5,-0.5 9.8,-2.3 13.2,-5.7 1.7,-1.7 2.8,-3.3 3.4,-5 l 2.5,2.7 c 2.4,1.8 5.8,2.7 10.2,2.5 4.4,-0.3 8.8,-2.2 13.2,-5.7 2.1,-1.7 3.8,-3.3 5,-5 l 1.8,4.5 c 2.4,3.2 6.4,5 12,5.5 5.8,0.5 10.8,-1.4 15,-5.5 2.1,-2 3.6,-4 4.5,-6.1 l 7,3.4 c 6.1,2.3 12.3,3.3 18.9,3 7.1,-0.2 13.1,-4.2 17.9,-12 3.5,-5.6 7,-14.8 10.7,-27.5 2.6,-8.9 0.1,-13.9 -7.5,-14.8 l -12.3,1.1 8.6,-10 c 5.3,-8.5 7,-16.8 5,-25 -1.8,-8.2 -7.1,-12.3 -15.9,-12.5 l -12.7,2 c 0,-3.8 -0.6,-8 -1.8,-12.7 -2.6,-9.4 -7,-16.3 -13.4,-20.7 -6.4,-4.4 -13.1,-5.2 -20.2,-2.5 l -8.6,5.5 c -1,-3 -2.5,-6.7 -4.6,-10.8 z"
             id="path87"
             inkscape:connector-curvature="0"
             style="fill:url(#SVGID_1_)" /></g></g></g><g
       transform="translate(0,-0.15)"
       id="g89"><g
         id="g91"><g
           id="Layer0_0_MEMBER_11_FILL"><path
             class="st3"
             d="m 486,234.2 c -4.2,-8 -9.2,-13.9 -15,-17.7 -5.6,-3.8 -14.1,-4.9 -25.4,-3.4 l -15.4,3.4 c 0.8,-2.6 0.5,-5.3 -0.9,-8.2 -2.9,-5.8 -9.7,-9.6 -20.4,-11.6 -10.8,-1.8 -23.6,-0.8 -38.4,3 l -19.1,6.1 c 1.8,-4.1 2,-8.2 0.5,-12.3 -3,-8.3 -12.8,-12.8 -29.3,-13.4 -16.4,-0.6 -30.8,3.2 -43.4,11.4 l -14.1,12.7 c -1.8,-2.7 -4.5,-5.4 -8,-8 -7.1,-5 -15.1,-6.9 -23.9,-5.7 -8.8,1.4 -18.7,9.6 -29.8,24.8 -5.6,7.6 -10.3,15 -14.1,22.3 -2,-2.7 -5.1,-5.5 -9.3,-8.2 -8.3,-5.3 -17.9,-7.6 -28.6,-7 -10.8,0.6 -17.3,9.9 -19.5,27.9 -1.1,8.9 -1.1,17.8 -0.2,26.6 -3,-0.9 -7,-1.4 -11.8,-1.6 -9.8,-0.3 -19.5,1.7 -29.1,6.1 -9.4,4.4 -12.4,15.6 -9.1,33.6 1.7,8.9 4.2,17.4 7.7,25.4 -3.5,0.3 -7,1.1 -10.7,2.5 -7.1,2.9 -10.7,7.1 -10.7,12.7 0,7 2.4,12.6 7.3,16.8 4.2,3.8 8.9,5.8 14.1,5.9 6.1,0.2 15.1,-1.7 27.3,-5.5 l -0.2,5 c 1.2,3.5 5.3,5.1 12.3,5 11.1,-0.3 18.4,-1.7 22,-4.3 l 4.8,4.1 c 4.1,2.7 8.8,3.8 14.1,3.2 8.5,-0.9 17.3,-3.1 26.6,-6.6 l 8.6,4.1 c 7,2.9 13.4,4.2 19.3,4.1 9.5,-0.3 18.2,-2.7 25.9,-7 l 1.8,5 c 2.4,3.3 6.7,4.8 12.9,4.5 6.2,-0.2 11.1,-1.7 14.8,-4.5 l 3.6,-4.1 8.9,3.9 c 7,2.6 13.3,3.8 18.9,3.6 5.8,-0.2 10.5,-2.4 14.1,-6.8 l 3.6,-6.6 5.2,7.3 c 4.8,5 10.5,7.8 16.8,8.4 10,1.1 18.8,-0.2 26.4,-3.6 l 5.2,1.8 c 4.2,0.8 8.3,0.5 12,-0.9 6.2,-2.3 12.6,-5.7 19.3,-10.2 l 5.5,4.1 c 4.5,2.7 9.5,3.8 15,3.2 5.5,-0.5 9.8,-2.3 13.2,-5.7 1.7,-1.7 2.8,-3.3 3.4,-5 l 2.5,2.7 c 2.4,1.8 5.8,2.7 10.2,2.5 4.4,-0.3 8.8,-2.2 13.2,-5.7 2.1,-1.7 3.8,-3.3 5,-5 l 1.8,4.5 c 2.4,3.2 6.4,5 12,5.5 5.8,0.5 10.8,-1.4 15,-5.5 2.1,-2 3.6,-4 4.5,-6.1 l 7,3.4 c 6.1,2.3 12.3,3.3 18.9,3 7.1,-0.2 13.1,-4.2 17.9,-12 3.5,-5.6 7,-14.8 10.7,-27.5 2.6,-8.9 0.1,-13.9 -7.5,-14.8 l -12.3,1.1 8.6,-10 c 5.3,-8.5 7,-16.8 5,-25 -1.8,-8.2 -7.1,-12.3 -15.9,-12.5 l -12.7,2 c 0,-3.8 -0.6,-8 -1.8,-12.7 -2.6,-9.4 -7,-16.3 -13.4,-20.7 -6.4,-4.4 -13.1,-5.2 -20.2,-2.5 l -8.6,5.5 c -1,-3 -2.5,-6.7 -4.6,-10.8 z"
             id="path94"
             inkscape:connector-curvature="0"
             style="fill:#a5ba7e" /></g></g></g><g
       transform="translate(0,-0.15)"
       id="g96"><g
         id="g98"><g
           id="Layer0_0_MEMBER_12_FILL"><path
             class="st4"
             d="m 401.2,211.7 c 4.7,0.6 7,7 6.8,19.3 0,6.1 -0.5,12 -1.6,17.9 3.6,-6.4 6.3,-12.9 8,-19.5 3.5,-13.6 0.6,-21.5 -8.6,-23.6 -9.2,-2.1 -19.3,-0.2 -30.2,5.9 l -13.6,10 15.4,-5.5 c 11.2,-3.6 19.1,-5.1 23.8,-4.5 z"
             id="path101"
             inkscape:connector-curvature="0"
             style="fill:#c1cda5" /></g></g></g><g
       transform="translate(0,-0.15)"
       id="g103"><g
         id="g105"><g
           id="Layer0_0_MEMBER_13_FILL"><path
             class="st4"
             d="m 431.4,255.8 7,-4.3 c 5.8,-2.9 11,-4 15.7,-3.4 4.7,0.6 8.8,4.8 12.3,12.5 1.7,3.8 2.9,7.5 3.6,11.1 -0.3,-5.6 -1.3,-11.3 -3,-17 -3.2,-11.4 -7.7,-17 -13.6,-17 -5.9,0 -11.4,3 -16.4,9.1 l -5.6,9 z"
             id="path108"
             inkscape:connector-curvature="0"
             style="fill:#c1cda5" /></g></g></g><g
       transform="translate(0,-0.15)"
       id="g110"><g
         id="g112"><g
           id="Layer0_0_MEMBER_14_FILL"><path
             class="st4"
             d="m 491.4,273.1 8.2,1.8 c 5.8,1.5 9.5,3.2 11.4,5 3,3 4.5,12.1 4.5,27.3 1.4,-3 2.5,-6.6 3.4,-10.7 1.7,-8 1.1,-14.5 -1.8,-19.5 -2.9,-5 -8,-7.1 -15.4,-6.4 l -10.3,2.5 z"
             id="path115"
             inkscape:connector-curvature="0"
             style="fill:#c1cda5" /></g></g></g><g
       transform="translate(0,-0.15)"
       id="g117"><g
         id="g119"><g
           id="Layer0_0_MEMBER_15_FILL"><path
             class="st4"
             d="m 380.1,285.3 c 5.1,-2.3 9.4,-2.8 12.7,-1.6 3.5,1.2 6.2,6.5 8.2,15.9 0.9,4.7 1.5,9.2 1.8,13.6 1.2,-5.3 1.9,-10.8 2,-16.4 0,-11.4 -3,-18 -8.9,-20 -6.1,-1.8 -11.7,-0.4 -16.8,4.3 l -5.9,7.7 6.9,-3.5 z"
             id="path122"
             inkscape:connector-curvature="0"
             style="fill:#c1cda5" /></g></g></g><g
       transform="translate(0,-0.15)"
       id="g124"><g
         id="g126"><g
           id="Layer0_0_MEMBER_16_MEMBER_0_FILL"><path
             class="st5"
             d="m 460.8,370.8 6.4,-6.1 c 5.1,-3.9 9.8,-5.7 14.1,-5.2 4.3,0.5 8.3,2.3 12.3,5.5 2.1,1.7 3.7,3.3 4.8,4.8 l 17,-10.2 4.1,0.7 c 3.6,0.8 7.6,2 11.8,3.9 3.8,1.8 8.3,5.1 13.6,9.8 5,-1.2 9.5,-4.8 13.4,-10.7 -6.1,0.3 -11.7,-0.5 -16.8,-2.5 -5.8,-3 -10.7,-5.3 -14.8,-6.8 -5.1,-1.8 -10.7,-0.7 -16.6,3.4 l -7.3,6.8 c -6.8,-4.5 -15.5,-7.6 -26.1,-9.1 -6.7,-0.9 -12.8,-0.1 -18.4,2.5 l -6.6,4.3 c -6.1,-3.8 -14,-6.4 -23.9,-8 -6.2,-0.9 -14.1,1.1 -23.6,5.9 l -12.7,7.7 c -3.3,-3.3 -7.4,-6.9 -12.3,-10.7 -9.4,-7.4 -17.4,-11.8 -24.1,-13.2 -6.7,-1.4 -14.5,0.3 -23.6,5 l -11.6,7.5 c -15.9,-6.1 -28.4,-8.7 -37.5,-8 -2.6,0.3 -7.3,1.4 -14.3,3.2 l -9.5,2.5 c -0.8,-6.1 -3.4,-10.2 -8,-12.5 -2.9,-1.4 -7,-2 -12.3,-1.8 l -7,0.7 c 10.6,-8.8 16.3,-16 17,-21.6 0.6,-5.5 0.1,-11.4 -1.6,-17.9 l -3,-8.2 10.7,-2.3 c 7.7,-2.3 13.3,-5.3 16.6,-9.1 3.3,-3.8 4.2,-11 2.5,-21.6 l -3.6,-14.8 9.8,-3.6 c 7.4,-4.2 13.3,-10.6 17.5,-19.1 3.9,-7.7 4.1,-15.6 0.5,-23.6 -2.3,-4.7 -5.3,-8.7 -9.1,-12 -6.7,3 -12.6,7 -17.7,11.8 l -5.9,6.1 c -1.8,-2.7 -4.5,-5.4 -8,-8 -7.1,-5 -15.1,-6.9 -23.9,-5.7 l -4.8,1.4 c 11.4,16.4 12.7,28.6 4.1,36.8 -8.9,8.5 -20,14.2 -33.2,17.3 l -16.8,2 9.5,15.4 c 5.9,10.9 7.6,18.2 5.2,22 -2.4,3.8 -7.3,7 -14.5,9.8 l -10.5,2.7 13.4,15 c 8.2,11.1 10.1,18.9 5.9,23.6 -4.2,4.7 -9.7,8.2 -16.4,10.5 l -8.6,2 20,4.1 c 14.2,3.2 23.5,6 27.7,8.4 4.2,2.4 6.8,6.1 7.7,11.1 0.6,2.6 0.7,4.9 0.2,7 l 12.9,-3.4 c 9.7,-1.7 17.1,-1 22.3,2 1.8,1.2 2.7,3 2.7,5.5 9.2,-3.2 17,-8 23.4,-14.3 l 9.1,4.8 c 7.4,3.2 14.1,5.1 20,5.7 5.9,0.5 10.6,-2.3 14.1,-8.2 l 3.4,-9.1 6.4,7.7 c 5.1,5.6 9.8,9.1 14.1,10.5 3.8,1.2 9.8,1.1 17.9,-0.5 10.9,-2 18.9,-3 24.1,-3 7.6,0 14,-2 19.3,-6.1 2.7,-2.1 4.6,-4.2 5.7,-6.4 l 3,4.1 c 2.6,3 5.8,5.5 9.5,7.3 3,1.5 4.9,-0.2 5.7,-5 0.8,-5.8 2.7,-8.6 5.7,-8.6 6.2,0.1 12.6,2.8 19.5,8.1 z"
             id="path129"
             inkscape:connector-curvature="0"
             style="fill:#95a973" /></g></g></g><g
       transform="translate(0,-0.15)"
       id="g131"><g
         id="g133"><g
           id="Layer0_0_MEMBER_16_MEMBER_1_FILL"><path
             class="st6"
             d="m 228.4,192 c -8.2,3.3 -17.2,12 -27,25.9 -4.8,7 -8.9,13.6 -12,19.8 -2,-2.7 -5.1,-5.5 -9.3,-8.2 -8.3,-5.3 -17.9,-7.6 -28.6,-7 -10.8,0.6 -17.3,9.9 -19.5,27.9 -1.1,8.9 -1.1,17.8 -0.2,26.6 -3,-0.9 -7,-1.4 -11.8,-1.6 -9.8,-0.3 -19.5,1.7 -29.1,6.1 -9.4,4.4 -12.4,15.6 -9.1,33.6 1.7,8.9 4.2,17.4 7.7,25.4 -3.5,0.3 -7,1.1 -10.7,2.5 -7.1,2.9 -10.7,7.1 -10.7,12.7 0,7 2.4,12.6 7.3,16.8 4.2,3.8 8.9,5.8 14.1,5.9 6.1,0.2 15.1,-1.7 27.3,-5.5 l -0.2,5 c 1.2,3.5 5.3,5.1 12.3,5 11.1,-0.3 18.4,-1.7 22,-4.3 l 4.8,4.1 c 4.1,2.7 8.8,3.8 14.1,3.2 8.5,-0.9 17.3,-3.1 26.6,-6.6 l 8.6,4.1 c 7,2.9 13.4,4.2 19.3,4.1 9.5,-0.3 18.2,-2.7 25.9,-7 l 0.2,1.8 c 0.5,1.5 1.1,2.8 2,3.9 l 1.8,-0.7 c 1.4,-0.2 3.4,-0.7 6.1,-1.6 0,-2.4 -0.9,-4.2 -2.7,-5.5 -5.1,-3 -12.6,-3.7 -22.3,-2 l -12.9,3.4 c 0.5,-2.1 0.4,-4.5 -0.2,-7 -0.9,-5 -3.5,-8.7 -7.7,-11.1 -4.2,-2.4 -13.5,-5.2 -27.7,-8.4 l -20,-4.1 8.6,-2 c 6.7,-2.3 12.1,-5.8 16.4,-10.5 4.3,-4.7 2.3,-12.6 -5.9,-23.6 l -13.4,-15 10.5,-2.7 c 7.3,-2.7 12.1,-6 14.5,-9.8 3.8,-6.1 6.4,-19.4 8,-40 l 5.5,-0.7 c 5.6,-2.3 12.9,-7.6 21.8,-16.1 8.3,-8.2 6.9,-20.5 -4.4,-36.8 z"
             id="path136"
             inkscape:connector-curvature="0"
             style="fill:#819467" /></g></g></g><g
       transform="translate(0,-0.15)"
       id="g138"><g
         id="g140"><g
           id="Layer0_0_MEMBER_16_MEMBER_2_FILL"><path
             class="st6"
             d="m 453,377.6 c 2.4,1.8 5.8,2.7 10.2,2.5 4.4,-0.3 8.8,-2.2 13.2,-5.7 2.1,-1.7 3.8,-3.3 5,-5 l 1.8,4.5 c 2.4,3.2 6.4,5 12,5.5 5.8,0.5 10.8,-1.4 15,-5.5 2.1,-2 3.6,-4 4.5,-6.1 l 7,3.4 c 6.1,2.3 12.3,3.3 18.9,3 l 4.1,-0.5 c -5.3,-4.7 -9.8,-8 -13.6,-9.8 -4.2,-1.8 -8.2,-3.1 -11.8,-3.9 l -4.1,-0.7 -17,10.2 c -1.1,-1.5 -2.7,-3.1 -4.8,-4.8 -3.9,-3.2 -8,-5 -12.3,-5.5 -4.3,-0.5 -8.9,1.3 -14.1,5.2 l -6.4,6.1 c -6.8,-5.3 -13.3,-8 -19.3,-8 -3,0 -4.9,2.9 -5.7,8.6 -0.8,4.8 -2.7,6.5 -5.7,5 -3.8,-1.8 -7,-4.2 -9.5,-7.3 l -3,-4.1 c -1.1,2.1 -3,4.2 -5.7,6.4 -5.3,4.1 -11.7,6.1 -19.3,6.1 -5.1,0 -13.2,1 -24.1,3 -8.2,1.5 -14.2,1.7 -17.9,0.5 -4.2,-1.4 -8.9,-4.8 -14.1,-10.5 l -6.4,-7.7 -3.4,9.1 c -3.5,5.9 -8.2,8.6 -14.1,8.2 -5.9,-0.6 -12.6,-2.5 -20,-5.7 l -9.1,-4.8 c -6.4,6.4 -14.2,11.1 -23.4,14.3 -2.7,0.9 -4.8,1.4 -6.1,1.6 l -1.8,0.7 c 2.7,3 6.9,4.3 12.5,3.9 6.2,-0.2 11.1,-1.7 14.8,-4.5 l 3.6,-4.1 8.9,3.9 c 7,2.6 13.3,3.8 18.9,3.6 5.8,-0.2 10.5,-2.4 14.1,-6.8 l 3.6,-6.6 5.2,7.3 c 4.8,5 10.5,7.8 16.8,8.4 10,1.1 18.8,-0.2 26.4,-3.6 l 5.2,1.8 c 4.2,0.8 8.3,0.5 12,-0.9 6.2,-2.3 12.6,-5.7 19.3,-10.2 l 5.5,4.1 c 4.5,2.7 9.5,3.8 15,3.2 5.5,-0.5 9.8,-2.3 13.2,-5.7 1.7,-1.7 2.8,-3.3 3.4,-5 l 2.6,2.9 z"
             id="path143"
             inkscape:connector-curvature="0"
             style="fill:#819467" /></g></g></g><g
       transform="translate(0,-0.15)"
       id="g145"><g
         id="g147"><g
           id="Layer0_0_MEMBER_17_MEMBER_0_MEMBER_0_FILL"><path
             class="st7"
             d="m 481.2,297.6 c -1.2,4.7 -2.7,8.9 -4.5,12.7 3.5,-5.1 6.4,-10.5 8.9,-16.1 5,-11.4 1.4,-18.6 -10.9,-21.8 -11.2,-1.1 -17.3,4.3 -18.4,16.1 -0.5,5.9 0,11.9 1.4,17.9 0.6,-6.1 1.7,-11.8 3.4,-17.3 3.6,-10.9 8.6,-14.6 14.8,-11.1 5.8,3.9 7.6,10.4 5.3,19.6 z"
             id="path150"
             inkscape:connector-curvature="0"
             style="fill:#87a659" /></g></g></g><g
       transform="translate(0,-0.15)"
       id="g152"><g
         id="g154"><g
           id="Layer0_0_MEMBER_18_MEMBER_0_MEMBER_0_FILL"><path
             class="st7"
             d="m 382.8,323.1 c 1.2,0 1.4,-3.3 0.7,-9.8 -0.8,-6.4 -3.6,-9.4 -8.4,-9.1 -5.6,0.5 -8.2,3.9 -7.7,10.2 0.3,3.2 1.1,6.3 2.5,9.3 -0.3,-3.2 -0.2,-6.3 0.2,-9.3 0.9,-6.2 3,-8.7 6.1,-7.5 4.6,1.7 6.8,7.1 6.6,16.2 z"
             id="path157"
             inkscape:connector-curvature="0"
             style="fill:#87a659" /></g></g></g><g
       transform="translate(0,-0.15)"
       id="g159"><g
         id="g161"><g
           id="Layer0_0_MEMBER_19_MEMBER_0_MEMBER_0_FILL"><path
             class="st7"
             d="m 314.2,219.9 c 4.7,1.5 7.8,6.1 9.3,13.6 0.8,3.6 1,7.2 0.7,10.7 1.2,-5 1.7,-9.9 1.4,-14.8 -0.8,-9.8 -5.2,-14.4 -13.4,-13.6 -8.8,1.4 -12.3,6.8 -10.7,16.4 0.8,4.7 2.3,9.2 4.8,13.6 -0.9,-4.7 -1.2,-9.4 -0.9,-14.1 0.6,-9.2 3.5,-13.1 8.8,-11.8 z"
             id="path164"
             inkscape:connector-curvature="0"
             style="fill:#87a659" /></g></g></g><g
       transform="translate(0,-0.15)"
       id="g166"><g
         id="g168"><g
           id="Layer0_0_MEMBER_20_MEMBER_0_MEMBER_0_FILL"><path
             class="st7"
             d="m 288.1,320.3 c -1.2,7.6 -3,14.5 -5.5,20.9 5.3,-8.9 9.3,-18 12,-27.3 5.6,-18.8 -0.6,-30 -18.6,-33.6 -18.6,-1.4 -28.2,7.5 -28.9,26.6 -0.5,9.4 0.8,18.9 3.6,28.6 0.3,-9.7 1.7,-18.9 4.3,-27.7 5.1,-17.6 12.8,-23.8 22.9,-18.6 9.1,5.8 12.5,16.1 10.2,31.1 z"
             id="path171"
             inkscape:connector-curvature="0"
             style="fill:#87a659" /></g></g></g><g
       transform="translate(0,-0.15)"
       id="g173"><g
         id="g175"><g
           id="Layer0_0_MEMBER_21_MEMBER_0_MEMBER_0_FILL"><path
             class="st8"
             d="m 182.5,321.2 c -0.5,3.8 -1.3,7.3 -2.5,10.5 2.7,-4.4 4.6,-8.9 5.7,-13.6 2.1,-9.5 -0.4,-15.3 -7.5,-17.3 -8.2,-2.1 -13.5,1.5 -15.9,10.9 -1.1,4.7 -1.4,9.5 -1.1,14.5 1.2,-4.7 2.9,-9.1 5,-13.2 4.2,-8.3 8.3,-11 12.3,-8 3.5,3.1 4.9,8.5 4,16.2 z"
             id="path178"
             inkscape:connector-curvature="0"
             style="fill:#647a46" /></g></g></g><g
       transform="translate(0,-0.15)"
       id="g180"><g
         id="g182"><g
           id="Layer0_0_MEMBER_22_MEMBER_0_MEMBER_0_FILL"><path
             class="st8"
             d="m 237.4,240.6 c 0.8,2.1 1.1,3.2 0.7,3.4 0.9,-0.3 0.8,-1.9 -0.2,-4.8 -1.1,-2.9 -2,-4.5 -2.7,-4.8 -1.5,-0.6 -3.1,0.5 -4.8,3.2 -1.7,2.7 -2.3,4.2 -1.8,4.5 0.9,-1.4 1.8,-2.7 2.7,-3.9 2,-2.6 3.2,-3.4 3.6,-2.5 0.8,0.9 1.6,2.5 2.5,4.9 z"
             id="path185"
             inkscape:connector-curvature="0"
             style="fill:#647a46" /></g></g></g><g
       transform="translate(0,-0.15)"
       id="g187"><g
         id="g189"><g
           id="Layer0_0_MEMBER_23_MEMBER_0_MEMBER_0_FILL"><path
             class="st8"
             d="m 118.6,326.9 c 0.4,2.1 1,4.2 2,6.1 -0.1,-1.2 0.1,-3.3 0.5,-6.1 0.6,-5.3 2.7,-7.3 6.1,-5.9 2.9,1.7 3.9,4.6 3.2,8.9 -0.3,2.1 -0.8,4.1 -1.6,5.9 1.5,-2.6 2.7,-5.2 3.6,-8 1.7,-5.3 -0.3,-8.4 -5.9,-9.3 -6.4,0.3 -9.1,3.1 -7.9,8.4 z"
             id="path192"
             inkscape:connector-curvature="0"
             style="fill:#647a46" /></g></g></g><g
       transform="translate(0,-0.15)"
       id="g194"><g
         id="g196"><g
           id="Layer0_0_MEMBER_24_MEMBER_0_MEMBER_0_FILL"><path
             class="st8"
             d="m 168.2,254 c 3,0.8 4.9,4.1 5.7,10 0.5,-8.8 -1.7,-12.6 -6.6,-11.6 -2.4,0.2 -3.8,2.3 -4.1,6.6 -0.3,4.1 -0.2,6.1 0.5,6.1 0.3,-2.1 0.7,-4.2 1.1,-6.1 0.7,-3.9 1.8,-5.6 3.4,-5 z"
             id="path199"
             inkscape:connector-curvature="0"
             style="fill:#647a46" /></g></g></g><g
       transform="translate(0,-0.15)"
       id="g201"><g
         id="g203"><g
           id="Layer0_0_MEMBER_25_MEMBER_0_MEMBER_0_FILL"><path
             class="st7"
             d="m 417.8,241.3 c 3.8,1.8 5.8,6.8 6.1,15 1.4,-12 -1,-17.8 -7,-17.5 -4.2,-0.2 -6.7,2.7 -7.3,8.6 -0.2,2.9 0.1,5.8 0.7,8.9 0.3,-3 0.8,-5.9 1.6,-8.6 1.5,-5.5 3.5,-7.6 5.9,-6.4 z"
             id="path206"
             inkscape:connector-curvature="0"
             style="fill:#87a659" /></g></g></g><g
       transform="translate(0,-0.15)"
       id="g208"><g
         id="g210"><g
           id="Layer0_0_MEMBER_26_MEMBER_0_MEMBER_0_FILL"><path
             class="st7"
             d="m 440.1,344.4 c 1.2,3.2 1.9,6.2 2,9.1 1.5,0 1.3,-4.2 -0.7,-12.7 -2.1,-8.3 -6.3,-11.9 -12.5,-10.7 -7.3,1.7 -10,6.6 -8.2,14.8 0.9,4.1 2.4,8 4.5,11.8 -0.9,-4.2 -1.4,-8.4 -1.4,-12.5 0.2,-8 2.4,-11.6 6.8,-10.7 4.1,0.9 7.2,4.5 9.5,10.9 z"
             id="path213"
             inkscape:connector-curvature="0"
             style="fill:#87a659" /></g></g></g><g
       transform="translate(0,-0.15)"
       id="g215"><g
         id="g217"><g
           id="Layer0_0_MEMBER_27_MEMBER_0_MEMBER_0_FILL"><path
             class="st7"
             d="m 377.6,365.8 c 0.8,-10.6 -3.5,-16.1 -12.7,-16.6 -10.5,0.9 -15,6.5 -13.6,16.8 0.6,4.3 1.8,8.4 3.6,12.5 -0.2,-2.4 0.2,-6.5 0.9,-12.5 1.2,-10 4.8,-14 10.9,-12 5,2.4 7.7,7.7 8.2,15.9 0.3,4.1 0.1,8 -0.7,11.6 2,-5.2 3.1,-10.4 3.4,-15.7 z"
             id="path220"
             inkscape:connector-curvature="0"
             style="fill:#87a659" /></g></g></g><g
       transform="translate(0,-0.15)"
       id="g222"><g
         id="g224"><g
           id="Layer0_0_MEMBER_28_MEMBER_0_MEMBER_0_FILL"><path
             class="st7"
             d="m 520.7,343.5 c -1.2,2.7 -2.7,5.1 -4.3,7.3 3,-2.7 5.6,-5.8 7.7,-9.1 4.4,-6.4 3,-11.3 -4.3,-14.8 -6.8,-2.1 -11.3,0.5 -13.4,7.7 -1.1,3.6 -1.6,7.4 -1.6,11.4 l 4.5,-10.2 c 3.6,-6.4 7.1,-8.1 10.5,-5.2 3.2,3.1 3.5,7.4 0.9,12.9 z"
             id="path227"
             inkscape:connector-curvature="0"
             style="fill:#87a659" /></g></g></g><g
       transform="translate(0,-0.15)"
       id="g229"><g
         id="g231"><g
           id="Layer0_0_MEMBER_29_MEMBER_0_MEMBER_0_FILL"><path
             class="st7"
             d="m 315.8,364.2 c -0.6,2.7 -1.5,5.1 -2.7,7.3 2.3,-3 4.2,-6.1 5.7,-9.3 3,-6.5 1,-10.8 -6.1,-12.7 -6.5,-0.8 -10.1,2.3 -10.9,9.1 -0.3,3.5 -0.1,7 0.7,10.5 0.3,-3.5 1,-6.8 2,-10 2.1,-6.2 5,-8.3 8.6,-6.1 3.3,2.2 4.2,6 2.7,11.2 z"
             id="path234"
             inkscape:connector-curvature="0"
             style="fill:#87a659" /></g></g></g><g
       transform="translate(0,-0.15)"
       id="g236"><g
         id="g238"><g
           id="Layer0_0_MEMBER_30_MEMBER_0_MEMBER_0_FILL"><path
             class="st7"
             d="m 332.4,267.4 c 3.3,1.4 5.1,5.5 5.2,12.5 1.2,-10.1 -0.8,-15.1 -5.9,-14.8 -3.6,-0.2 -5.7,2.3 -6.1,7.3 -0.3,2.6 -0.2,5.1 0.5,7.5 0.3,-2.4 0.8,-4.8 1.4,-7.3 1.3,-4.5 2.9,-6.3 4.9,-5.2 z"
             id="path241"
             inkscape:connector-curvature="0"
             style="fill:#87a659" /></g></g></g><g
       transform="translate(0,-0.15)"
       id="g243"><g
         id="g245"><g
           id="Layer0_0_MEMBER_31_MEMBER_0_MEMBER_0_FILL"><path
             class="st8"
             d="m 220.4,366.9 c 1.8,-4.8 3.2,-9.8 4.1,-15 2,-10.1 -2.8,-15.1 -14.3,-15 -11.4,3.6 -14.8,9.9 -10.5,18.9 1.7,3.4 3.8,6.6 6.4,9.5 -0.7,-2.3 -1.4,-5.9 -2,-10.9 -1.5,-9.5 1.4,-14 8.6,-13.4 5.9,1.8 8.9,6.7 8.9,14.8 -0.1,3.9 -0.4,7.6 -1.2,11.1 m -14.3,-1.6 c 0.9,2.9 1.8,3.9 2.7,3 -0.9,-1 -1.8,-1.9 -2.7,-3 z"
             id="path248"
             inkscape:connector-curvature="0"
             style="fill:#647a46" /></g></g></g><g
       transform="translate(0,-0.15)"
       id="g250"><g
         id="g252"><g
           id="Layer0_0_MEMBER_32_MEMBER_0_MEMBER_0_FILL"><path
             class="st4"
             d="m 364.9,191.3 3.4,-1.1 c 2.6,-1.2 4.5,-2.7 5.9,-4.3 2.4,-2.7 3.3,-5.9 2.7,-9.5 -2.9,-0.9 -5.8,0.3 -8.9,3.6 -1.8,2.1 -2.9,4.7 -3.2,7.7 -0.1,1.3 -0.1,2.5 0.1,3.6 z"
             id="path255"
             inkscape:connector-curvature="0"
             style="fill:#c1cda5" /></g></g></g><g
       transform="translate(0,-0.15)"
       id="g257"><g
         id="g259"><g
           id="Layer0_0_MEMBER_33_MEMBER_0_MEMBER_0_FILL"><path
             class="st4"
             d="m 266.5,191.3 c 0.8,-2.1 0.8,-4.2 0.2,-6.4 -0.3,-1.2 -1.1,-2.3 -2.3,-3.2 l -1.6,-0.9 -0.7,1.6 c -0.5,1.2 -0.5,2.6 0,4.1 0.9,2.4 2.3,4 4.4,4.8 z"
             id="path262"
             inkscape:connector-curvature="0"
             style="fill:#c1cda5" /></g></g></g><g
       transform="translate(0,-0.15)"
       id="g264"><g
         id="g266"><g
           id="Layer0_0_MEMBER_34_MEMBER_0_MEMBER_0_FILL"><path
             class="st4"
             d="m 437.1,208.6 2.7,-0.7 c 2.1,-0.8 3.9,-1.8 5.2,-3.2 2.4,-2.1 3.3,-4.5 2.7,-7.3 -2.6,-0.6 -5,0.2 -7.3,2.5 -1.5,1.4 -2.5,3.3 -3,5.7 -0.1,1.1 -0.3,2 -0.3,3 z"
             id="path269"
             inkscape:connector-curvature="0"
             style="fill:#c1cda5" /></g></g></g><g
       transform="translate(0,-0.15)"
       id="g271"><g
         id="g273"><g
           id="Layer0_0_MEMBER_35_MEMBER_0_MEMBER_0_FILL"><path
             class="st4"
             d="m 506.2,231.7 c 3.2,-2.7 4.5,-6 4.1,-9.8 -0.8,-0.3 -1.8,-0.4 -3.2,-0.2 -2.4,0.3 -4.7,1.4 -6.8,3.2 -2.1,2 -3.6,4.5 -4.3,7.5 -0.3,1.5 -0.5,2.9 -0.5,4.1 l 3.6,-0.9 c 2.9,-0.9 5.3,-2.2 7.1,-3.9 z"
             id="path276"
             inkscape:connector-curvature="0"
             style="fill:#c1cda5" /></g></g></g><g
       transform="translate(0,-0.15)"
       id="g278"><g
         id="g280"><g
           id="Layer0_0_MEMBER_36_MEMBER_0_MEMBER_0_FILL"><path
             class="st4"
             d="m 536.9,266.3 2.3,0.9 c 1.8,0.6 3.6,0.8 5.2,0.5 2.6,-0.5 4.5,-1.7 5.7,-3.9 -1.4,-1.8 -3.5,-2.5 -6.4,-2 -1.8,0.3 -3.5,1.1 -5,2.5 l -1.8,2 z"
             id="path283"
             inkscape:connector-curvature="0"
             style="fill:#c1cda5" /></g></g></g><g
       transform="translate(0,-0.15)"
       id="g285"><g
         id="g287"><g
           id="Layer0_0_MEMBER_37_MEMBER_0_MEMBER_0_FILL"><path
             class="st4"
             d="m 499.4,262.4 3.4,-0.9 c 2.7,-0.9 5,-2.3 6.8,-4.1 2.9,-3 4,-6.2 3.4,-9.5 -3.5,-0.6 -6.7,0.5 -9.5,3.2 -1.7,1.8 -2.8,4.2 -3.4,7.3 -0.3,1.4 -0.6,2.8 -0.7,4 z"
             id="path290"
             inkscape:connector-curvature="0"
             style="fill:#c1cda5" /></g></g></g><g
       transform="translate(0,-0.15)"
       id="g292"><g
         id="g294"><g
           id="Layer0_0_MEMBER_38_MEMBER_0_MEMBER_0_FILL"><path
             class="st4"
             d="m 493.2,317.1 1.6,-0.7 c 1.4,-0.6 2.3,-1.4 3,-2.3 1.2,-1.5 1.6,-3 1.1,-4.5 -1.5,-0.3 -3,0.4 -4.3,2 -0.9,0.9 -1.4,2.1 -1.4,3.6 -0.1,0.9 -0.1,1.5 0,1.9 z"
             id="path297"
             inkscape:connector-curvature="0"
             style="fill:#c1cda5" /></g></g></g><g
       transform="translate(0,-0.15)"
       id="g299"><g
         id="g301"><g
           id="Layer0_0_MEMBER_39_MEMBER_0_MEMBER_0_FILL"><path
             class="st4"
             d="m 389.2,258.5 c -3.6,0 -7,1.1 -10,3.2 -1.8,1.4 -3.1,3.1 -3.9,5.2 -0.3,1.1 -0.5,2 -0.5,2.7 l 2.7,0.5 c 2.3,0 4.4,-0.7 6.4,-2 3.2,-2.3 5,-5.5 5.3,-9.6 z"
             id="path304"
             inkscape:connector-curvature="0"
             style="fill:#c1cda5" /></g></g></g><g
       transform="translate(0,-0.15)"
       id="g306"><g
         id="g308"><g
           id="Layer0_0_MEMBER_40_MEMBER_0_MEMBER_0_FILL"><path
             class="st4"
             d="m 335.4,211.1 c 1.4,-4.7 1.1,-9.3 -0.7,-13.9 -1.1,-2.9 -2.9,-5.1 -5.5,-6.8 l -3.4,-1.6 -1.4,3.4 c -0.8,2.7 -0.6,5.7 0.5,8.9 1.8,4.8 5.3,8.1 10.5,10 z"
             id="path311"
             inkscape:connector-curvature="0"
             style="fill:#c1cda5" /></g></g></g><g
       transform="translate(0,-0.15)"
       id="g313"><g
         id="g315"><g
           id="Layer0_0_MEMBER_41_MEMBER_0_MEMBER_0_FILL"><path
             class="st4"
             d="m 347.4,296.7 c -4.8,-1.2 -9.5,-0.6 -14.1,1.8 -2.7,1.5 -4.8,3.7 -6.1,6.6 -0.8,1.5 -1.2,2.8 -1.4,3.9 3.6,2 7.7,1.7 12.3,-0.9 4.5,-2.3 7.6,-6.1 9.3,-11.4 z"
             id="path318"
             inkscape:connector-curvature="0"
             style="fill:#c1cda5" /></g></g></g><g
       transform="translate(0,-0.15)"
       id="g320"><g
         id="g322"><g
           id="Layer0_0_MEMBER_42_MEMBER_0_MEMBER_0_FILL"><path
             class="st4"
             d="m 453.3,318.1 v 3.9 c 0.2,2.9 0.7,5.3 1.6,7.3 1.1,3.5 3.4,6 7,7.5 2.6,-2.1 3.1,-5.6 1.6,-10.5 -1.4,-3.2 -3.5,-5.5 -6.4,-7 l -3.8,-1.2 z"
             id="path325"
             inkscape:connector-curvature="0"
             style="fill:#c1cda5" /></g></g></g><g
       transform="translate(0,-0.15)"
       id="g327"><g
         id="g329"><g
           id="Layer0_0_MEMBER_43_MEMBER_0_MEMBER_0_FILL"><path
             class="st4"
             d="m 558.4,325.3 3,-0.2 c 2.1,-0.2 4,-0.7 5.7,-1.6 2.6,-1.1 4.4,-3 5.5,-5.9 -1.8,-2 -4.6,-2.2 -8.4,-0.7 -2.1,1.2 -3.7,3 -4.8,5.2 -0.5,1.3 -0.8,2.3 -1,3.2 z"
             id="path332"
             inkscape:connector-curvature="0"
             style="fill:#c1cda5" /></g></g></g><g
       transform="translate(0,-0.15)"
       id="g334"><g
         id="g336"><g
           id="Layer0_0_MEMBER_44_MEMBER_0_MEMBER_0_FILL"><path
             class="st4"
             d="m 302.4,279.4 c 0.2,-1.2 0.2,-2.8 0.2,-4.8 -0.3,-3.9 -1.4,-7.4 -3.2,-10.5 -2.6,-2.7 -5.5,-4.4 -8.6,-5 -2.7,-0.5 -4.1,-0.5 -4.1,0 0.2,0 0.2,1.3 0,3.9 0.3,3 1.5,5.6 3.6,7.7 2.3,3.9 6.4,6.8 12.1,8.7 z"
             id="path339"
             inkscape:connector-curvature="0"
             style="fill:#c1cda5" /></g></g></g><g
       transform="translate(0,-0.15)"
       id="g341"><g
         id="g343"><g
           id="Layer0_0_MEMBER_45_MEMBER_0_MEMBER_0_FILL"><path
             class="st4"
             d="m 306,330.8 c -3.3,-2.3 -6.9,-2.6 -10.7,-0.9 -2.3,0.9 -3.8,2.5 -4.5,4.8 -0.5,1.1 -0.7,2 -0.7,2.7 0.3,0.3 1.1,0.5 2.5,0.5 1.8,0.2 3.7,-0.2 5.7,-0.9 2.7,-1.5 5.3,-3.5 7.7,-6.2 z"
             id="path346"
             inkscape:connector-curvature="0"
             style="fill:#c1cda5" /></g></g></g><g
       transform="translate(0,-0.15)"
       id="g348"><g
         id="g350"><g
           id="Layer0_0_MEMBER_46_MEMBER_0_FILL"><path
             class="st9"
             d="m 441,291.7 c -0.8,-5.5 -4.2,-7.3 -10.2,-5.7 -4.7,1.2 -6.6,4.3 -5.7,9.3 0.8,5 3.7,7 8.9,5.9 5.4,-1 7.7,-4.2 7,-9.5 z"
             id="path353"
             inkscape:connector-curvature="0"
             style="fill:#c24458" /></g></g></g><g
       transform="translate(0,-0.15)"
       id="g355"><g
         id="g357"><g
           id="Layer0_0_MEMBER_46_MEMBER_1_FILL"><path
             class="st10"
             d="m 437.4,290.1 c -0.6,-1.2 -1.3,-1.7 -2,-1.6 -0.9,0.2 -1,0.8 -0.2,1.8 0.8,1.2 1.5,1.8 2.3,1.8 0.8,0 0.6,-0.6 -0.1,-2 z"
             id="path360"
             inkscape:connector-curvature="0"
             style="fill:#cd6a70" /></g></g></g><g
       transform="translate(0,-0.15)"
       id="g362"><g
         id="g364"><g
           id="Layer0_0_MEMBER_46_MEMBER_2_MEMBER_0_FILL"><path
             class="st11"
             d="m 425.1,295.3 c 0.8,5 3.7,7 8.9,5.9 3.3,-0.6 5.5,-2.4 6.6,-5.5 -4.1,1.8 -7.3,1.9 -9.5,0.2 -1.7,-1.1 -2.2,-3 -1.6,-5.9 l 1.4,-4.1 c -4.8,1.3 -6.7,4.4 -5.8,9.4 z"
             id="path367"
             inkscape:connector-curvature="0"
             style="fill:#9d3a4b" /></g></g></g><g
       transform="translate(0,-0.15)"
       id="g369"><g
         id="g371"><g
           id="Layer0_0_MEMBER_47_MEMBER_0_FILL"><path
             class="st9"
             d="m 534.1,354.6 c -0.8,-5.5 -4.2,-7.3 -10.2,-5.7 -4.7,1.2 -6.6,4.2 -5.7,9.1 0.8,5 3.7,7 8.9,6.1 5.4,-1 7.8,-4.2 7,-9.5 z"
             id="path374"
             inkscape:connector-curvature="0"
             style="fill:#c24458" /></g></g></g><g
       transform="translate(0,-0.15)"
       id="g376"><g
         id="g378"><g
           id="Layer0_0_MEMBER_47_MEMBER_1_FILL"><path
             class="st10"
             d="m 530.5,353 c -0.6,-1.4 -1.3,-2 -2,-1.8 -0.9,0.2 -1,0.8 -0.2,2 0.8,1.1 1.5,1.6 2.3,1.6 0.8,0 0.7,-0.5 -0.1,-1.8 z"
             id="path381"
             inkscape:connector-curvature="0"
             style="fill:#cd6a70" /></g></g></g><g
       transform="translate(0,-0.15)"
       id="g383"><g
         id="g385"><g
           id="Layer0_0_MEMBER_47_MEMBER_2_MEMBER_0_FILL"><path
             class="st11"
             d="m 518.2,358 c 0.8,5 3.7,7 8.9,6.1 3.3,-0.6 5.5,-2.5 6.6,-5.7 -4.1,1.8 -7.3,2 -9.5,0.5 -1.7,-1.1 -2.2,-3 -1.6,-5.9 l 1.4,-4.1 c -4.8,1.3 -6.7,4.3 -5.8,9.1 z"
             id="path388"
             inkscape:connector-curvature="0"
             style="fill:#9d3a4b" /></g></g></g><g
       transform="translate(0,-0.15)"
       id="g390"><g
         id="g392"><g
           id="Layer0_0_MEMBER_48_MEMBER_0_FILL"><path
             class="st9"
             d="m 266.1,254.9 c -0.8,-5.6 -4.3,-7.6 -10.7,-5.9 -4.8,1.2 -6.8,4.4 -5.9,9.5 0.9,5.1 4,7.2 9.3,6.1 5.6,-1 8,-4.2 7.3,-9.7 z"
             id="path395"
             inkscape:connector-curvature="0"
             style="fill:#c24458" /></g></g></g><g
       transform="translate(0,-0.15)"
       id="g397"><g
         id="g399"><g
           id="Layer0_0_MEMBER_48_MEMBER_1_FILL"><path
             class="st10"
             d="m 262.2,253.1 c -0.6,-1.2 -1.3,-1.7 -2,-1.6 -0.9,0.2 -1,0.8 -0.2,1.8 0.8,1.2 1.5,1.8 2.3,1.8 0.7,0 0.7,-0.7 -0.1,-2 z"
             id="path402"
             inkscape:connector-curvature="0"
             style="fill:#cd6a70" /></g></g></g><g
       transform="translate(0,-0.15)"
       id="g404"><g
         id="g406"><g
           id="Layer0_0_MEMBER_48_MEMBER_2_MEMBER_0_FILL"><path
             class="st11"
             d="m 249.5,258.5 c 0.9,5.1 4,7.2 9.3,6.1 3.5,-0.6 5.8,-2.5 6.8,-5.7 -4.4,1.7 -7.7,1.7 -10,0.2 -1.7,-1.1 -2.2,-3.1 -1.6,-6.1 l 1.4,-4.1 c -4.9,1.3 -6.8,4.5 -5.9,9.6 z"
             id="path409"
             inkscape:connector-curvature="0"
             style="fill:#9d3a4b" /></g></g></g><g
       transform="translate(0,-0.15)"
       id="g411"><g
         id="g413"><g
           id="Layer0_0_MEMBER_49_MEMBER_0_FILL"><path
             class="st9"
             d="m 222.2,314.4 c -0.9,-6.1 -4.8,-8.2 -11.8,-6.4 -5.3,1.4 -7.5,4.8 -6.6,10.5 0.9,5.6 4.4,7.9 10.5,6.8 6.2,-1.2 8.8,-4.8 7.9,-10.9 z"
             id="path416"
             inkscape:connector-curvature="0"
             style="fill:#c24458" /></g></g></g><g
       transform="translate(0,-0.15)"
       id="g418"><g
         id="g420"><g
           id="Layer0_0_MEMBER_49_MEMBER_1_FILL"><path
             class="st10"
             d="m 218.1,312.6 c -0.8,-1.4 -1.6,-2 -2.5,-1.8 -0.9,0.2 -1,0.9 -0.2,2.3 0.8,1.2 1.6,1.8 2.5,1.8 0.9,0 1,-0.8 0.2,-2.3 z"
             id="path423"
             inkscape:connector-curvature="0"
             style="fill:#cd6a70" /></g></g></g><g
       transform="translate(0,-0.15)"
       id="g425"><g
         id="g427"><g
           id="Layer0_0_MEMBER_49_MEMBER_2_MEMBER_0_FILL"><path
             class="st11"
             d="m 203.8,318.5 c 0.9,5.6 4.4,7.9 10.5,6.8 3.6,-0.6 6.1,-2.7 7.5,-6.1 -5,1.7 -8.7,1.7 -11.1,0.2 -1.8,-1.2 -2.4,-3.5 -1.8,-6.8 l 1.6,-4.5 c -5.4,1.3 -7.6,4.8 -6.7,10.4 z"
             id="path430"
             inkscape:connector-curvature="0"
             style="fill:#9d3a4b" /></g></g></g><g
       transform="translate(0,-0.15)"
       id="g432"><g
         id="g434"><g
           id="Layer0_0_MEMBER_50_MEMBER_0_FILL"><path
             class="st9"
             d="m 348.5,343.5 c -0.6,-5 -3.9,-6.7 -9.8,-5.2 -4.4,1.2 -6.2,4.2 -5.5,8.9 0.9,4.7 3.8,6.6 8.6,5.7 5.3,-1.1 7.5,-4.2 6.7,-9.4 z"
             id="path437"
             inkscape:connector-curvature="0"
             style="fill:#c24458" /></g></g></g><g
       transform="translate(0,-0.15)"
       id="g439"><g
         id="g441"><g
           id="Layer0_0_MEMBER_50_MEMBER_1_FILL"><path
             class="st10"
             d="m 345.1,342.1 c -0.6,-1.2 -1.3,-1.7 -2,-1.6 -0.8,0.2 -0.8,0.8 0,1.8 0.6,1.1 1.3,1.6 2,1.6 0.6,0.1 0.6,-0.6 0,-1.8 z"
             id="path444"
             inkscape:connector-curvature="0"
             style="fill:#cd6a70" /></g></g></g><g
       transform="translate(0,-0.15)"
       id="g446"><g
         id="g448"><g
           id="Layer0_0_MEMBER_50_MEMBER_2_MEMBER_0_FILL"><path
             class="st11"
             d="m 333.3,347.1 c 0.9,4.7 3.8,6.6 8.6,5.7 3.2,-0.6 5.3,-2.4 6.4,-5.5 -3.5,2 -6.6,2.1 -9.3,0.5 -1.5,-1.1 -2,-3 -1.4,-5.7 l 1.1,-3.9 c -4.3,1.3 -6.1,4.2 -5.4,8.9 z"
             id="path451"
             inkscape:connector-curvature="0"
             style="fill:#9d3a4b" /></g></g></g><g
       transform="translate(0,-0.15)"
       id="g453"><g
         id="g455"><g
           id="Layer0_0_MEMBER_51_MEMBER_0_FILL"><path
             class="st9"
             d="m 362.2,199.5 c -0.8,-5.6 -4.3,-7.6 -10.7,-5.9 -4.8,1.2 -6.8,4.5 -5.9,9.8 0.9,5.1 4,7.2 9.3,6.1 5.6,-1.2 8,-4.6 7.3,-10 z"
             id="path458"
             inkscape:connector-curvature="0"
             style="fill:#c24458" /></g></g></g><g
       transform="translate(0,-0.15)"
       id="g460"><g
         id="g462"><g
           id="Layer0_0_MEMBER_51_MEMBER_1_FILL"><path
             class="st10"
             d="m 358.3,197.9 c -0.6,-1.4 -1.3,-2 -2,-1.8 -0.9,0.2 -1,0.8 -0.2,2 0.8,1.2 1.5,1.8 2.3,1.8 0.7,0 0.7,-0.7 -0.1,-2 z"
             id="path465"
             inkscape:connector-curvature="0"
             style="fill:#cd6a70" /></g></g></g><g
       transform="translate(0,-0.15)"
       id="g467"><g
         id="g469"><g
           id="Layer0_0_MEMBER_51_MEMBER_2_MEMBER_0_FILL"><path
             class="st11"
             d="m 345.6,203.3 c 0.9,5.1 4,7.2 9.3,6.1 3.5,-0.6 5.8,-2.6 6.8,-5.9 -4.1,2 -7.4,2.1 -10,0.5 -1.7,-1.1 -2.2,-3.1 -1.6,-6.1 l 1.4,-4.3 c -4.9,1.2 -6.8,4.4 -5.9,9.7 z"
             id="path472"
             inkscape:connector-curvature="0"
             style="fill:#9d3a4b" /></g></g></g><g
       transform="translate(0,-0.15)"
       id="g474"><g
         id="g476"><g
           id="Layer0_0_MEMBER_52_MEMBER_0_FILL"><path
             class="st9"
             d="m 113.4,275.8 c -0.8,-4.8 -3.9,-6.6 -9.3,-5.2 -4.2,1.2 -6,4 -5.2,8.4 0.8,4.5 3.5,6.4 8.2,5.5 4.9,-1 7.1,-3.9 6.3,-8.7 z"
             id="path479"
             inkscape:connector-curvature="0"
             style="fill:#c24458" /></g></g></g><g
       transform="translate(0,-0.15)"
       id="g481"><g
         id="g483"><g
           id="Layer0_0_MEMBER_52_MEMBER_1_FILL"><path
             class="st10"
             d="m 110.2,274.4 c -0.6,-1.2 -1.3,-1.7 -2,-1.6 -0.8,0.2 -0.8,0.8 0,1.8 0.6,1.1 1.2,1.6 1.8,1.6 0.6,0 0.7,-0.5 0.2,-1.8 z"
             id="path486"
             inkscape:connector-curvature="0"
             style="fill:#cd6a70" /></g></g></g><g
       transform="translate(0,-0.15)"
       id="g488"><g
         id="g490"><g
           id="Layer0_0_MEMBER_52_MEMBER_2_MEMBER_0_FILL"><path
             class="st11"
             d="m 98.9,279 c 0.8,4.5 3.5,6.4 8.2,5.5 3.2,-0.6 5.1,-2.3 5.9,-5 -3.5,1.7 -6.4,1.7 -8.6,0.2 -1.5,-0.9 -2,-2.7 -1.4,-5.5 l 1.1,-3.6 c -4.3,1.2 -6,4 -5.2,8.4 z"
             id="path493"
             inkscape:connector-curvature="0"
             style="fill:#9d3a4b" /></g></g></g><g
       transform="translate(0,-0.15)"
       id="g495"><g
         id="g497"><g
           id="Layer0_0_MEMBER_53_MEMBER_0_FILL"><path
             class="st9"
             d="m 171.6,224.2 c -0.8,-4.7 -3.8,-6.4 -9.1,-5 -3.9,1.1 -5.5,3.7 -4.8,8 0.8,4.2 3.3,6 7.7,5.2 4.7,-0.9 6.8,-3.6 6.2,-8.2 z"
             id="path500"
             inkscape:connector-curvature="0"
             style="fill:#c24458" /></g></g></g><g
       transform="translate(0,-0.15)"
       id="g502"><g
         id="g504"><g
           id="Layer0_0_MEMBER_53_MEMBER_1_FILL"><path
             class="st10"
             d="m 168.4,222.9 c -0.6,-1.2 -1.2,-1.7 -1.8,-1.6 -0.8,0.2 -0.8,0.8 -0.2,1.8 0.6,0.9 1.2,1.4 1.8,1.4 0.6,0 0.6,-0.6 0.2,-1.6 z"
             id="path507"
             inkscape:connector-curvature="0"
             style="fill:#cd6a70" /></g></g></g><g
       transform="translate(0,-0.15)"
       id="g509"><g
         id="g511"><g
           id="Layer0_0_MEMBER_53_MEMBER_2_MEMBER_0_FILL"><path
             class="st11"
             d="m 157.7,227.2 c 0.8,4.2 3.3,6 7.7,5.2 2.7,-0.6 4.6,-2.2 5.7,-4.8 -3.2,1.7 -5.9,1.7 -8.2,0.2 -1.4,-0.9 -1.9,-2.7 -1.6,-5.2 l 1.1,-3.4 c -3.9,1.1 -5.5,3.7 -4.7,8 z"
             id="path514"
             inkscape:connector-curvature="0"
             style="fill:#9d3a4b" /></g></g></g><g
       transform="translate(0,-0.15)"
       id="g516"><g
         id="g518"><g
           id="Layer0_0_MEMBER_54_MEMBER_0_FILL"><path
             class="st9"
             d="m 552.8,301 c 0.9,5.3 4.1,7.4 9.5,6.4 5.8,-1.2 8.3,-4.6 7.5,-10.2 -0.9,-5.6 -4.5,-7.6 -10.9,-5.9 -4.9,1.2 -6.9,4.4 -6.1,9.7 z"
             id="path521"
             inkscape:connector-curvature="0"
             style="fill:#c24458" /></g></g></g><g
       transform="translate(0,-0.15)"
       id="g523"><g
         id="g525"><g
           id="Layer0_0_MEMBER_54_MEMBER_1_FILL"><path
             class="st10"
             d="m 565.9,295.6 c -0.6,-1.2 -1.4,-1.7 -2.3,-1.6 -0.9,0.1 -1,0.8 -0.2,1.8 0.8,1.2 1.5,1.8 2.3,1.8 0.9,0 1,-0.7 0.2,-2 z"
             id="path528"
             inkscape:connector-curvature="0"
             style="fill:#cd6a70" /></g></g></g><g
       transform="translate(0,-0.15)"
       id="g530"><g
         id="g532"><g
           id="Layer0_0_MEMBER_54_MEMBER_2_MEMBER_0_FILL"><path
             class="st11"
             d="m 552.8,301 c 0.9,5.3 4.1,7.4 9.5,6.4 3.6,-0.6 6,-2.6 7,-5.9 -4.7,1.8 -8.1,2 -10.2,0.5 -1.7,-1.2 -2.2,-3.3 -1.6,-6.4 l 1.4,-4.3 c -4.9,1.2 -6.9,4.4 -6.1,9.7 z"
             id="path535"
             inkscape:connector-curvature="0"
             style="fill:#9d3a4b" /></g></g></g><g
       transform="translate(0,-0.15)"
       id="g537"><g
         id="g539"><g
           id="Layer0_0_MEMBER_55_MEMBER_0_FILL"><path
             class="st9"
             d="m 377.2,244.5 c -0.9,-5.6 -4.5,-7.6 -10.9,-5.9 -4.8,1.2 -6.9,4.5 -6.1,9.8 0.9,5.1 4.1,7.2 9.5,6.1 5.7,-1.1 8.2,-4.4 7.5,-10 z"
             id="path542"
             inkscape:connector-curvature="0"
             style="fill:#c24458" /></g></g></g><g
       transform="translate(0,-0.15)"
       id="g544"><g
         id="g546"><g
           id="Layer0_0_MEMBER_55_MEMBER_1_FILL"><path
             class="st10"
             d="m 373.3,242.9 c -0.6,-1.4 -1.4,-2 -2.3,-1.8 -0.9,0.2 -1,0.8 -0.2,2 0.8,1.2 1.5,1.8 2.3,1.8 0.8,0 0.8,-0.7 0.2,-2 z"
             id="path549"
             inkscape:connector-curvature="0"
             style="fill:#cd6a70" /></g></g></g><g
       transform="translate(0,-0.15)"
       id="g551"><g
         id="g553"><g
           id="Layer0_0_MEMBER_55_MEMBER_2_MEMBER_0_FILL"><path
             class="st11"
             d="m 360.1,248.3 c 0.9,5.1 4.1,7.2 9.5,6.1 3.3,-0.6 5.7,-2.5 7,-5.7 -4.5,1.7 -8,1.7 -10.2,0.2 -1.7,-1.1 -2.2,-3.1 -1.6,-6.1 l 1.4,-4.3 c -4.8,1.3 -6.8,4.5 -6.1,9.8 z"
             id="path556"
             inkscape:connector-curvature="0"
             style="fill:#9d3a4b" /></g></g></g><g
       transform="translate(0,-0.15)"
       id="g558"><g
         id="g560"><g
           id="Layer0_0_MEMBER_56_FILL"><path
             class="st0"
             d="m 213.4,224.5 5.2,-5.2 c -0.2,-5 -0.8,-11.9 -1.8,-20.7 -2.1,-17.6 -5.5,-35.7 -10.2,-54.3 -4.7,-18.6 -15.6,-43.2 -32.7,-73.6 -8.5,-15.1 -16.5,-28.5 -24.1,-40 7.7,13.3 15.8,28.4 24.1,45.2 16.7,33.3 26.6,58.4 29.8,75.2 4.9,26.6 8.1,51.1 9.7,73.4 z"
             id="path563"
             inkscape:connector-curvature="0"
             style="fill:#a99269" /></g></g></g><g
       transform="translate(0,-0.15)"
       id="g565"><g
         id="g567"><g
           id="Layer0_0_MEMBER_57_MEMBER_0_FILL"><path
             class="st1"
             d="m 208.8,169 c -1.7,-12.7 -4.8,-25.4 -9.3,-37.9 -2.7,-8 -7.6,-19.9 -14.8,-35.7 -2.4,-5.6 -5.1,-11.1 -8.2,-16.4 l -3.6,-6.4 -0.5,0.2 c 17.4,35.1 27.8,61.2 31.1,78.1 5,26.7 8.3,51.1 9.8,73.4 l 2.5,-2.5 c -1.2,-10.7 -3.5,-28.4 -7,-52.8 z"
             id="path570"
             inkscape:connector-curvature="0"
             style="fill:#847457" /></g></g></g><g
       transform="translate(0,-0.15)"
       id="g572"><g
         id="g574"><g
           id="Layer0_0_MEMBER_58_FILL"><path
             class="st0"
             d="m 311.7,195.6 h 5.5 c -3,-27.7 -6.1,-48.4 -9.1,-62 -1.8,-8.5 -0.8,-19.8 3.2,-34.1 l 6.6,-18.9 c -3.2,5.8 -6.1,12.9 -8.6,21.4 -5.1,16.7 -6.3,31.5 -3.4,44.5 4.5,20.6 6.4,37 5.8,49.1 z"
             id="path577"
             inkscape:connector-curvature="0"
             style="fill:#a99269" /></g></g></g><g
       transform="translate(0,-0.15)"
       id="g579"><g
         id="g581"><g
           id="Layer0_0_MEMBER_59_MEMBER_0_FILL"><path
             class="st1"
             d="m 309.9,158.4 -4.5,-23.4 -0.9,0.9 c 0.3,4.7 0.8,8.3 1.4,10.7 4.5,20.6 6.5,37 5.9,49.1 h 2.3 c -1,-14.2 -2.4,-26.6 -4.2,-37.3 z"
             id="path584"
             inkscape:connector-curvature="0"
             style="fill:#847457" /></g></g></g><g
       transform="translate(0,-0.15)"
       id="g586"><g
         id="g588"><g
           id="Layer0_0_MEMBER_60_FILL"><path
             class="st0"
             d="m 486.7,57.9 c -2.4,11.7 -5.7,24.3 -9.8,37.9 -8.2,27.3 -16.5,46.1 -25,56.6 -13.6,16.7 -21.4,40.4 -23.4,71.3 1.2,2.9 3.2,4.2 5.9,4.1 1.5,-0.2 2.8,-0.5 3.9,-1.1 0.5,-5.8 1.3,-12.3 2.5,-19.5 2.3,-14.5 5,-25.4 8.2,-32.7 6.1,-13.6 10.9,-24.7 14.5,-33.2 6.5,-15.6 11.5,-28.8 15,-39.5 3.9,-12.6 6.6,-27.2 8.2,-43.9 z"
             id="path591"
             inkscape:connector-curvature="0"
             style="fill:#a99269" /></g></g></g><g
       transform="translate(0,-0.15)"
       id="g593"><g
         id="g595"><g
           id="Layer0_0_MEMBER_61_MEMBER_0_FILL"><path
             class="st1"
             d="m 436.4,200.8 c 2,-10.9 9.4,-28.9 22.3,-53.8 3.5,-6.1 9.7,-21.3 18.6,-45.7 2.4,-7 4.3,-14.2 5.7,-21.6 l -2,1.8 c -9.1,34.8 -18.8,58.5 -29.1,70.9 -13.6,16.7 -21.4,40.4 -23.4,71.3 0.9,2.3 2.6,3.6 5,3.9 0.3,-10 1.3,-18.9 2.9,-26.8 z"
             id="path598"
             inkscape:connector-curvature="0"
             style="fill:#847457" /></g></g></g><g
       transform="translate(0,-0.15)"
       id="g600"><g
         id="g602"><g
           id="Layer0_0_MEMBER_62_FILL"><path
             class="st3"
             d="m 199.7,105.6 -2.3,3.6 c -0.9,-1.2 -2.3,-2.2 -4.1,-3 -3.6,-1.5 -7.8,-1 -12.5,1.6 -3.6,2 -6.1,5.3 -7.3,10 -0.5,2.4 -0.6,4.6 -0.5,6.6 -0.9,0.5 -1.9,1.1 -3,1.8 -2,1.5 -3,3.2 -3,5 0,3 4,6.1 12,9.1 l 1.1,4.3 c 1.4,2.9 3.5,4.5 6.4,4.8 4.5,0.5 8.6,-0.5 12.3,-3 l -0.2,5.9 c 0.3,3.9 1.4,6.2 3.2,6.8 3,1.1 7.3,-2.2 12.9,-9.8 9.5,-2 14.5,-5 15,-9.1 0.5,-2.6 -0.3,-5.8 -2.3,-9.5 l -3,-4.8 3.6,-4.3 c 1.8,-3.3 1.6,-6 -0.7,-8 -2.1,-1.8 -5.5,-2.3 -10.2,-1.6 l -6.4,1.6 c 0.5,-1.7 0.7,-3.4 0.7,-5.2 -0.2,-3.6 -1.7,-5.7 -4.5,-6.1 -2.6,-0.1 -5.1,0.9 -7.2,3.3 z"
             id="path605"
             inkscape:connector-curvature="0"
             style="fill:#a5ba7e" /></g></g></g><g
       transform="translate(0,-0.15)"
       id="g607"><g
         id="g609"><g
           id="Layer0_0_MEMBER_63_FILL"><path
             class="st3"
             d="m 211.8,51.1 c -2.4,-7.1 -7.7,-13.9 -15.9,-20.4 -0.2,-2.1 -0.7,-4.3 -1.6,-6.6 -1.8,-4.4 -4.8,-6.7 -8.9,-7 -4.1,-0.3 -7.7,2 -10.9,6.8 l -3.6,7.5 c -2.1,-3.2 -4.7,-6.1 -7.7,-8.6 -6.2,-5.1 -11.7,-6.3 -16.4,-3.4 -2.1,1.4 -3.6,4.5 -4.3,9.5 -0.3,2.4 -0.4,4.8 -0.2,7 -2,-0.3 -4.2,-0.2 -6.6,0.2 -4.7,0.8 -7.8,2.7 -9.3,5.9 -1.7,3.2 -0.6,6.7 3.2,10.7 1.8,2.1 3.8,3.9 5.9,5.2 l -3.6,5.9 c -2,4.5 -2,8.1 -0.2,10.7 2,2.6 6.1,3.6 12.3,3.2 3.2,-0.3 6.1,-0.8 8.9,-1.6 l 0.9,4.8 c 1.5,3.2 4.8,4.6 9.8,4.3 5,-0.3 9.2,-2.3 12.7,-5.9 1.8,-1.8 3.1,-3.6 3.9,-5.5 l 3.2,3.2 c 2.9,2 6.4,2.1 10.5,0.5 4.2,-1.5 6.1,-5.2 5.7,-11.1 l -1.8,-8.4 8.6,0.5 c 5.1,-0.6 7,-3 5.4,-7.4 z"
             id="path612"
             inkscape:connector-curvature="0"
             style="fill:#a5ba7e" /></g></g></g><g
       transform="translate(0,-0.15)"
       id="g614"><g
         id="g616"><g
           id="Layer0_0_MEMBER_64_FILL"><path
             class="st3"
             d="m 319.7,86.8 c 1.4,-5.1 -0.5,-7.7 -5.7,-7.7 -5,0 -8.1,2.3 -9.3,6.8 -0.6,2.3 -0.8,4.5 -0.5,6.8 -0.5,-0.6 -1.4,-1.1 -2.7,-1.4 -2.6,-0.5 -6,0.2 -10.2,2 -3,1.4 -3.6,4.1 -1.8,8.2 0.8,2 1.9,3.8 3.4,5.5 -1.8,0.8 -3.4,1.8 -4.8,3.2 -2.7,2.6 -3.2,5.3 -1.4,8.2 3,4.5 7.6,7.3 13.6,8.4 l -1.8,7.3 c -0.5,5 1.2,7.6 5,8 6.1,0.5 11.8,-2.3 17.3,-8.4 l 4.5,0.5 c 3.3,-0.6 5.9,-3.3 7.7,-8 2,-4.7 0.7,-8.9 -3.9,-12.7 l -7.5,-4.1 6.6,-5.7 c 3.8,-4.2 4.1,-7.3 0.9,-9.3 -3.2,-1.8 -6.3,-2.3 -9.3,-1.6 l -3.6,1.6 c 1.7,-2.7 2.9,-5.2 3.5,-7.6 z"
             id="path619"
             inkscape:connector-curvature="0"
             style="fill:#a5ba7e" /></g></g></g><g
       transform="translate(0,-0.15)"
       id="g621"><g
         id="g623"><g
           id="Layer0_0_MEMBER_65_FILL"><path
             class="st3"
             d="m 441,149.7 -4.3,1.4 c -4.7,-1.1 -9,-0.5 -12.9,1.8 -3.5,2 -5.2,4.1 -5.2,6.4 0,2.6 2.8,5.4 8.4,8.4 l -3,4.3 c -1.4,3 -0.6,5.4 2.3,7 4.5,2.6 9.5,3.9 15,3.9 l 1.8,3.2 c 2.3,2.1 5.8,3.3 10.5,3.6 4.7,0.3 9.5,-1.1 14.5,-4.3 2.4,-1.5 4.4,-3.1 5.9,-4.8 l 3.2,3.6 c 2.6,2 5.3,2 8.2,0 2.9,-1.8 2.4,-5.4 -1.4,-10.7 l -6.4,-7.5 c 0.2,-1.5 -0.1,-3.1 -0.7,-4.8 -1.1,-3.2 -3.3,-5.1 -6.8,-5.7 -3.5,-0.6 -6.7,-0.1 -9.5,1.6 l -3.4,3 c 0,-1.8 -0.3,-3.6 -0.9,-5.5 -1.1,-3.6 -3,-5.6 -5.9,-5.9 -3,-0.2 -6.1,0.1 -9.4,1 z"
             id="path626"
             inkscape:connector-curvature="0"
             style="fill:#a5ba7e" /></g></g></g><g
       transform="translate(0,-0.15)"
       id="g628"><g
         id="g630"><g
           id="Layer0_0_MEMBER_66_FILL"><path
             class="st3"
             d="m 486.7,112.5 c -0.9,-3.8 -3.4,-6.4 -7.5,-7.7 -4.1,-1.2 -7.1,-0.5 -9.1,2 l -1.6,4.1 c -1.2,-1.8 -2.9,-3.5 -5,-5 -4.4,-3 -8.8,-3.9 -13.2,-2.5 -3.6,1.1 -5.8,3.5 -6.4,7.3 -0.2,2 0,3.8 0.5,5.5 -1.8,0.3 -3.4,0.9 -4.8,1.8 -2.6,2 -2.8,4.7 -0.7,8.2 2.3,3.5 6.3,5.5 12,6.1 2.7,0.3 5.3,0.2 7.7,-0.2 l 4.1,4.5 c 3.2,3 6.4,4.5 9.5,4.5 5,0 12,-2.7 21.1,-8.2 l 5.9,-0.7 c 3.8,-1.5 5.4,-4.6 4.8,-9.3 -0.6,-4.7 -3.7,-7 -9.3,-6.8 l -8.2,1.6 c 0.6,-1.7 0.6,-3.4 0.2,-5.2 z"
             id="path633"
             inkscape:connector-curvature="0"
             style="fill:#a5ba7e" /></g></g></g><g
       transform="translate(0,-0.15)"
       id="g635"><g
         id="g637"><g
           id="Layer0_0_MEMBER_67_FILL"><path
             class="st3"
             d="m 493.2,42 c -3,-3.9 -6.4,-5.8 -10.2,-5.5 -4.1,0.5 -7.1,2.3 -9.1,5.5 l -1.6,4.5 c -1.2,-0.8 -2.7,-1.1 -4.3,-1.1 -3,-0.2 -5.4,1.4 -7,4.8 -1.1,2.6 -1.1,5.1 -0.2,7.7 0.5,1.2 1.1,2.2 1.8,3 -2.3,0.5 -4.3,1.2 -6.1,2.3 -3.6,1.8 -4.4,3.9 -2.3,6.1 3.5,3.5 9,6.2 16.6,8.2 l 0.9,5.2 c 1.2,3.2 3.7,4.5 7.5,3.9 6.1,-0.9 11.6,-1.9 16.6,-3 l 10.2,3.6 c 7.1,1.5 11.3,0.1 12.5,-4.3 1.4,-4.4 0.4,-8.2 -3,-11.4 l -5.2,-3.2 c 2,-2.3 3.5,-4.8 4.5,-7.5 2.1,-5.5 1.1,-9.2 -3.2,-11.4 -4.1,-2.1 -7.8,-3 -11.1,-2.7 l -3.9,1.1 C 495.9,46 494.8,44 493.2,42 z"
             id="path640"
             inkscape:connector-curvature="0"
             style="fill:#a5ba7e" /></g></g></g><g
       transform="translate(0,-0.15)"
       id="g642"><g
         id="g644"><g
           id="Layer0_0_MEMBER_68_MEMBER_0_FILL"><path
             class="st6"
             d="m 197.5,109.3 -0.7,-0.7 c -4.1,-4.1 -9.4,-4.3 -15.9,-0.7 -3.6,2 -6.1,5.3 -7.3,10 -0.5,2.4 -0.6,4.6 -0.5,6.6 -0.9,0.5 -1.9,1.1 -3,1.8 -2,1.5 -3,3.2 -3,5 0,3 4,6.1 12,9.1 l 1.1,4.3 c 1.4,2.9 3.5,4.5 6.4,4.8 4.5,0.5 8.6,-0.5 12.3,-3 l -0.2,5.9 c 0.3,3.9 1.4,6.2 3.2,6.8 3,1.1 7.3,-2.2 12.9,-9.8 l 6.1,-1.8 c -1.5,-0.2 -2.3,-0.7 -2.5,-1.6 l 0.2,-1.4 c -4.5,3.5 -8.1,4.8 -10.7,4.1 -1.7,-0.5 -3,-1.8 -4.1,-4.1 l -1.1,-3.4 c -2.6,2 -5.2,2.2 -8,0.7 -1.7,-0.9 -2.6,-2.3 -2.7,-4.1 v -2.3 c -5,-2.3 -7.5,-4.5 -7.5,-6.8 0,-1.4 1,-2.6 3,-3.6 0.9,-0.5 1.8,-0.8 2.7,-0.9 -1.8,-3.8 -2.3,-7 -1.6,-9.5 0.5,-1.7 2,-3.1 4.8,-4.3 1.6,-0.4 2.8,-0.8 4.1,-1.1 z"
             id="path647"
             inkscape:connector-curvature="0"
             style="fill:#819467" /></g></g></g><g
       transform="translate(0,-0.15)"
       id="g649"><g
         id="g651"><g
           id="Layer0_0_MEMBER_69_MEMBER_0_FILL"><path
             class="st6"
             d="m 170.9,31.4 c -2.1,-3.2 -4.7,-6.1 -7.7,-8.6 -6.2,-5.1 -11.7,-6.3 -16.4,-3.4 -2.1,1.4 -3.6,4.5 -4.3,9.5 -0.3,2.4 -0.4,4.8 -0.2,7 -2,-0.3 -4.2,-0.2 -6.6,0.2 -4.7,0.8 -7.8,2.7 -9.3,5.9 -1.7,3.2 -0.6,6.7 3.2,10.7 1.8,2.1 3.8,3.9 5.9,5.2 l -3.6,5.9 c -2,4.5 -2,8.1 -0.2,10.7 2,2.6 6.1,3.6 12.3,3.2 3.2,-0.3 6.1,-0.8 8.9,-1.6 l 0.9,4.8 c 1.5,3.2 4.8,4.6 9.8,4.3 5,-0.3 9.2,-2.3 12.7,-5.9 1.8,-1.8 3.1,-3.6 3.9,-5.5 l 3.2,3.2 c 2.9,2 6.4,2.1 10.5,0.5 l 2,-0.9 c -2.3,0.2 -4.2,-1.3 -5.7,-4.3 l -1.8,-4.8 c -6.8,1.5 -11.9,1.5 -15.2,0 -2.1,-0.9 -2.6,-2.9 -1.4,-5.9 l 2.5,-4.3 c -8.8,0.8 -13.6,0 -14.3,-2.3 -0.5,-1.4 0.1,-3.1 1.6,-5.2 0.8,-1.1 1.6,-2 2.5,-2.7 -3.5,-3.8 -4.6,-7.7 -3.4,-11.8 0.6,-2.6 2.6,-4 5.9,-4.3 1.2,-0.2 2.8,-0.1 4.3,0.4 z"
             id="path654"
             inkscape:connector-curvature="0"
             style="fill:#819467" /></g></g></g><g
       transform="translate(0,-0.15)"
       id="g656"><g
         id="g658"><g
           id="Layer0_0_MEMBER_70_MEMBER_0_FILL"><path
             class="st6"
             d="m 301.5,91.3 c -2.6,-0.5 -6,0.2 -10.2,2 -3,1.4 -3.6,4.1 -1.8,8.2 0.8,2 1.9,3.8 3.4,5.5 -1.8,0.8 -3.4,1.8 -4.8,3.2 -2.7,2.6 -3.2,5.3 -1.4,8.2 3,4.5 7.6,7.3 13.6,8.4 l -1.8,7.3 c -0.5,5 1.2,7.6 5,8 6.1,0.5 11.8,-2.3 17.3,-8.4 l 2.5,0.7 c 2,0 3.8,-0.7 5.5,-2 l 4.3,-6.1 c -2.7,1.8 -5.6,3 -8.6,3.4 -1.8,0.2 -2.8,-0.9 -3,-3.2 l 0.2,-3.6 c -4.2,3.8 -8,5.1 -11.4,3.9 -2.1,-0.6 -2.8,-2.1 -2,-4.5 l 2,-3.4 c -5.3,-0.3 -8.6,-1.6 -9.8,-3.9 -0.6,-1.4 -0.1,-3.3 1.6,-5.7 0.9,-1.1 1.9,-2 3,-3 -4.1,-1.5 -6.5,-3.2 -7.3,-5 -0.5,-1.2 0.5,-3 2.7,-5.2 1.2,-1.2 2.4,-2.3 3.6,-3.2 -0.3,-0.8 -1.2,-1.3 -2.6,-1.6 z"
             id="path661"
             inkscape:connector-curvature="0"
             style="fill:#819467" /></g></g></g><g
       transform="translate(0,-0.15)"
       id="g663"><g
         id="g665"><g
           id="Layer0_0_MEMBER_71_MEMBER_0_FILL"><path
             class="st6"
             d="m 434.6,153.8 2,-2.7 c -4.7,-1.1 -9,-0.5 -12.9,1.8 -3.5,2 -5.2,4.1 -5.2,6.4 0,2.6 2.8,5.4 8.4,8.4 l -3,4.3 c -1.4,3 -0.6,5.4 2.3,7 4.5,2.6 9.5,3.9 15,3.9 l 1.8,3.2 c 2.3,2.1 5.8,3.3 10.5,3.6 5.9,0.5 11.6,-1.6 17,-6.1 -0.6,0.3 -1.6,0.5 -3,0.5 -1.7,-0.3 -2.7,-1.4 -3.2,-3.4 l -0.2,-3 c -4.1,4.5 -8,6.1 -11.8,4.5 -2.4,-0.9 -3.6,-2 -3.6,-3.4 l 0.7,-1.6 c -5.3,-0.5 -8.9,-1.6 -10.7,-3.4 -1.2,-1.2 -0.6,-3.2 1.8,-5.9 1.2,-1.4 2.5,-2.7 3.9,-3.9 -3.8,-0.3 -6.8,-1.8 -9.1,-4.5 -1.4,-1.7 -1.6,-3.6 -0.7,-5.7 z"
             id="path668"
             inkscape:connector-curvature="0"
             style="fill:#819467" /></g></g></g><g
       transform="translate(0,-0.15)"
       id="g670"><g
         id="g672"><g
           id="Layer0_0_MEMBER_72_MEMBER_0_FILL"><path
             class="st6"
             d="m 444.4,116.1 c -1.8,0.3 -3.4,0.9 -4.8,1.8 -2.6,2 -2.8,4.7 -0.7,8.2 2.3,3.5 6.3,5.5 12,6.1 2.7,0.3 5.3,0.2 7.7,-0.2 l 4.1,4.5 c 3.2,3 6.4,4.5 9.5,4.5 4.2,0 10.6,-2.3 19.1,-7 -0.6,-1.1 -1.1,-2.3 -1.4,-3.6 l -0.2,-1.6 c -3.8,3.5 -7.8,4.8 -12,4.1 -2.6,-0.5 -3.8,-1.8 -3.6,-4.1 l 0.9,-3.4 c -5,2.7 -8.8,3.3 -11.4,1.8 -1.7,-0.9 -2.7,-2.5 -3.2,-4.8 l -0.2,-3.2 c -3.5,-1.5 -5.6,-3.8 -6.4,-6.8 -0.5,-1.8 0.5,-3.7 2.7,-5.7 1.2,-0.9 2.4,-1.7 3.6,-2.3 l -0.5,-0.5 c -3.3,-1.4 -6.5,-1.6 -9.5,-0.7 -3.6,1.1 -5.8,3.5 -6.4,7.3 0.1,2.1 0.2,3.9 0.7,5.6 z"
             id="path675"
             inkscape:connector-curvature="0"
             style="fill:#819467" /></g></g></g><g
       transform="translate(0,-0.15)"
       id="g677"><g
         id="g679"><g
           id="Layer0_0_MEMBER_73_MEMBER_0_FILL"><path
             class="st6"
             d="m 470.5,49.1 1.8,-2.5 -1.8,-0.9 c -4.4,-1.2 -7.6,0.3 -9.5,4.5 -1.1,2.6 -1.1,5.1 -0.2,7.7 0.5,1.2 1.1,2.2 1.8,3 -2.3,0.5 -4.3,1.2 -6.1,2.3 -3.6,1.8 -4.4,3.9 -2.3,6.1 3.5,3.5 9,6.2 16.6,8.2 l 0.9,5.2 c 1.2,3.2 3.7,4.5 7.5,3.9 6.1,-0.9 11.6,-1.9 16.6,-3 l 3.9,1.8 c 3.2,1.2 6.1,2 8.6,2.3 -2,-1.7 -3.7,-4.2 -5.2,-7.7 l -1.8,-5 c -5.3,1.5 -9.3,1.9 -12,1.1 -1.7,-0.5 -2.7,-1.8 -3.2,-4.1 l -0.2,-3.4 c -5.3,1.2 -8.7,0.8 -10.2,-1.1 -0.9,-1.1 -0.6,-2.7 0.9,-5 0.8,-1.1 1.6,-2 2.5,-3 -4.8,1.2 -7.9,-0.1 -9.1,-3.9 -0.8,-2.4 -0.5,-4.6 0.5,-6.5 z"
             id="path682"
             inkscape:connector-curvature="0"
             style="fill:#819467" /></g></g></g><g
       transform="translate(0,-0.15)"
       id="g684"><g
         id="g686"><g
           id="Layer0_0_MEMBER_74_MEMBER_0_FILL"><path
             class="st9"
             d="m 466.9,116.3 c -0.6,-4.5 -3.5,-6.1 -8.6,-4.8 -3.8,1.1 -5.4,3.6 -4.8,7.7 0.6,4.1 3.1,5.8 7.5,5 4.5,-0.7 6.5,-3.3 5.9,-7.9 z"
             id="path689"
             inkscape:connector-curvature="0"
             style="fill:#c24458" /></g></g></g><g
       transform="translate(0,-0.15)"
       id="g691"><g
         id="g693"><g
           id="Layer0_0_MEMBER_74_MEMBER_1_FILL"><path
             class="st10"
             d="m 463.9,115 c -0.6,-1.1 -1.2,-1.5 -1.8,-1.4 -0.6,0.2 -0.7,0.7 -0.2,1.6 0.6,0.9 1.2,1.4 1.8,1.4 0.6,0 0.7,-0.6 0.2,-1.6 z"
             id="path696"
             inkscape:connector-curvature="0"
             style="fill:#cd6a70" /></g></g></g><g
       transform="translate(0,-0.15)"
       id="g698"><g
         id="g700"><g
           id="Layer0_0_MEMBER_74_MEMBER_2_MEMBER_0_FILL"><path
             class="st11"
             d="m 453.5,119.3 c 0.6,4.1 3.1,5.8 7.5,5 2.9,-0.6 4.7,-2.1 5.5,-4.5 -3.6,1.2 -6.3,1.3 -8,0.2 -1.4,-0.9 -1.8,-2.6 -1.4,-5 l 1.1,-3.4 c -3.7,1 -5.3,3.6 -4.7,7.7 z"
             id="path703"
             inkscape:connector-curvature="0"
             style="fill:#9d3a4b" /></g></g></g><g
       transform="translate(0,-0.15)"
       id="g705"><g
         id="g707"><g
           id="Layer0_0_MEMBER_75_MEMBER_0_FILL"><path
             class="st9"
             d="m 317,112 c -0.6,-4.2 -3.4,-5.8 -8.4,-4.5 -3.6,1.1 -5.1,3.6 -4.3,7.5 0.6,3.9 3,5.5 7,4.8 4.4,-0.8 6.3,-3.4 5.7,-7.8 z"
             id="path710"
             inkscape:connector-curvature="0"
             style="fill:#c24458" /></g></g></g><g
       transform="translate(0,-0.15)"
       id="g712"><g
         id="g714"><g
           id="Layer0_0_MEMBER_75_MEMBER_1_FILL"><path
             class="st10"
             d="m 314,110.9 c -0.5,-1.1 -1,-1.5 -1.6,-1.4 -0.8,0.2 -0.8,0.7 -0.2,1.6 0.6,0.9 1.2,1.4 1.8,1.4 0.5,0 0.5,-0.6 0,-1.6 z"
             id="path717"
             inkscape:connector-curvature="0"
             style="fill:#cd6a70" /></g></g></g><g
       transform="translate(0,-0.15)"
       id="g719"><g
         id="g721"><g
           id="Layer0_0_MEMBER_75_MEMBER_2_MEMBER_0_FILL"><path
             class="st11"
             d="m 304.2,115 c 0.6,3.9 3,5.5 7,4.8 2.7,-0.6 4.5,-2.1 5.2,-4.5 -3,1.5 -5.6,1.6 -7.7,0.2 -1.4,-0.9 -1.8,-2.5 -1.4,-4.8 l 1.1,-3.2 c -3.5,1 -4.9,3.5 -4.2,7.5 z"
             id="path724"
             inkscape:connector-curvature="0"
             style="fill:#9d3a4b" /></g></g></g><g
       transform="translate(0,-0.15)"
       id="g726"><g
         id="g728"><g
           id="Layer0_0_MEMBER_76_MEMBER_0_FILL"><path
             class="st9"
             d="m 187.5,57.5 c -0.5,-3.2 -2.4,-4.3 -5.9,-3.4 -2.7,0.8 -3.8,2.6 -3.2,5.5 0.5,2.9 2.2,4 5.2,3.4 3,-0.7 4.3,-2.5 3.9,-5.5 z"
             id="path731"
             inkscape:connector-curvature="0"
             style="fill:#c24458" /></g></g></g><g
       transform="translate(0,-0.15)"
       id="g733"><g
         id="g735"><g
           id="Layer0_0_MEMBER_76_MEMBER_1_FILL"><path
             class="st10"
             d="m 185.4,57.7 c -0.2,-1.5 -0.5,-2.3 -1.1,-2.3 -0.5,0.2 -0.5,0.5 0,1.1 0.3,0.8 0.7,1.2 1.1,1.2 z"
             id="path738"
             inkscape:connector-curvature="0"
             style="fill:#cd6a70" /></g></g></g><g
       transform="translate(0,-0.15)"
       id="g740"><g
         id="g742"><g
           id="Layer0_0_MEMBER_76_MEMBER_2_MEMBER_0_FILL"><path
             class="st11"
             d="m 178.4,59.5 c 0.5,2.9 2.2,4 5.2,3.4 1.8,-0.5 3,-1.5 3.6,-3.2 -2.1,1.1 -3.9,1.1 -5.5,0.2 -0.9,-0.6 -1.2,-1.8 -0.9,-3.6 l 0.7,-2.3 c -2.7,0.8 -3.7,2.7 -3.1,5.5 z"
             id="path745"
             inkscape:connector-curvature="0"
             style="fill:#9d3a4b" /></g></g></g><g
       transform="translate(0,-0.15)"
       id="g747"><g
         id="g749"><g
           id="Layer0_0_MEMBER_77_MEMBER_0_FILL"><path
             class="st9"
             d="m 221.8,134 c -0.5,-3.3 -2.5,-4.5 -6.1,-3.6 -2.9,0.8 -4,2.7 -3.4,5.7 0.5,3 2.3,4.2 5.5,3.6 3.2,-0.6 4.6,-2.5 4,-5.7 z"
             id="path752"
             inkscape:connector-curvature="0"
             style="fill:#c24458" /></g></g></g><g
       transform="translate(0,-0.15)"
       id="g754"><g
         id="g756"><g
           id="Layer0_0_MEMBER_77_MEMBER_1_FILL"><path
             class="st10"
             d="m 219.7,133.1 c -0.5,-0.9 -0.9,-1.3 -1.4,-1.1 -0.5,0.2 -0.5,0.5 0,1.1 0.3,0.8 0.7,1.1 1.1,1.1 0.5,0.1 0.6,-0.3 0.3,-1.1 z"
             id="path759"
             inkscape:connector-curvature="0"
             style="fill:#cd6a70" /></g></g></g><g
       transform="translate(0,-0.15)"
       id="g761"><g
         id="g763"><g
           id="Layer0_0_MEMBER_77_MEMBER_2_MEMBER_0_FILL"><path
             class="st11"
             d="m 212.2,136.1 c 0.5,3 2.3,4.2 5.5,3.6 2.1,-0.5 3.4,-1.6 3.9,-3.4 -2.4,1.2 -4.3,1.3 -5.7,0.2 -1.1,-0.6 -1.4,-1.8 -1.1,-3.6 l 0.9,-2.5 c -2.9,0.8 -4.1,2.7 -3.5,5.7 z"
             id="path766"
             inkscape:connector-curvature="0"
             style="fill:#9d3a4b" /></g></g></g><g
       transform="translate(0,-0.15)"
       id="g768"><g
         id="g770"><g
           id="Layer0_0_MEMBER_78_MEMBER_0_FILL"><path
             class="st9"
             d="m 192.2,32.5 c -0.8,-4.5 -3.8,-6.1 -9.1,-4.8 -3.9,1.1 -5.5,3.7 -4.8,8 0.8,4.2 3.3,6 7.7,5.2 4.8,-0.9 6.8,-3.7 6.2,-8.4 z"
             id="path773"
             inkscape:connector-curvature="0"
             style="fill:#c24458" /></g></g></g><g
       transform="translate(0,-0.15)"
       id="g775"><g
         id="g777"><g
           id="Layer0_0_MEMBER_78_MEMBER_1_FILL"><path
             class="st10"
             d="m 189.1,31.4 c -0.6,-1.2 -1.2,-1.7 -1.8,-1.6 -0.8,0.2 -0.8,0.7 -0.2,1.6 0.6,1.1 1.2,1.6 1.8,1.6 0.7,0 0.8,-0.6 0.2,-1.6 z"
             id="path780"
             inkscape:connector-curvature="0"
             style="fill:#cd6a70" /></g></g></g><g
       transform="translate(0,-0.15)"
       id="g782"><g
         id="g784"><g
           id="Layer0_0_MEMBER_78_MEMBER_2_MEMBER_0_FILL"><path
             class="st11"
             d="m 178.4,35.7 c 0.8,4.2 3.3,6 7.7,5.2 3,-0.6 4.9,-2.2 5.7,-4.8 -3.8,1.2 -6.6,1.3 -8.4,0.2 -1.4,-0.9 -1.8,-2.7 -1.4,-5.2 l 1.1,-3.4 c -3.9,1.1 -5.5,3.7 -4.7,8 z"
             id="path787"
             inkscape:connector-curvature="0"
             style="fill:#9d3a4b" /></g></g></g><g
       transform="translate(0,-0.15)"
       id="g789"><g
         id="g791"><g
           id="Layer0_0_MEMBER_79_MEMBER_0_FILL"><path
             class="st9"
             d="m 523.5,77.7 c -0.6,-3.9 -3.1,-5.3 -7.5,-4.1 -3.3,0.8 -4.7,3 -4.1,6.6 0.6,3.6 2.8,5.1 6.6,4.5 3.9,-0.7 5.6,-3.1 5,-7 z"
             id="path794"
             inkscape:connector-curvature="0"
             style="fill:#c24458" /></g></g></g><g
       transform="translate(0,-0.15)"
       id="g796"><g
         id="g798"><g
           id="Layer0_0_MEMBER_79_MEMBER_1_FILL"><path
             class="st10"
             d="m 521,76.6 c -0.5,-0.9 -1,-1.3 -1.6,-1.1 -0.6,0.2 -0.7,0.6 -0.2,1.4 0.6,0.8 1.1,1.1 1.6,1.1 0.5,-0.1 0.6,-0.5 0.2,-1.4 z"
             id="path801"
             inkscape:connector-curvature="0"
             style="fill:#cd6a70" /></g></g></g><g
       transform="translate(0,-0.15)"
       id="g803"><g
         id="g805"><g
           id="Layer0_0_MEMBER_79_MEMBER_2_MEMBER_0_FILL"><path
             class="st11"
             d="m 511.9,80.2 c 0.6,3.6 2.8,5.1 6.6,4.5 2.3,-0.5 3.9,-1.8 4.8,-4.1 -3,1.2 -5.4,1.3 -7,0.2 -1.2,-0.8 -1.6,-2.2 -1.1,-4.3 l 0.9,-3 c -3.5,0.9 -4.8,3.1 -4.2,6.7 z"
             id="path808"
             inkscape:connector-curvature="0"
             style="fill:#9d3a4b" /></g></g></g><g
       transform="translate(0,-0.15)"
       id="g810"><g
         id="g812"><g
           id="Layer0_0_MEMBER_80_MEMBER_0_FILL"><path
             class="st9"
             d="m 492.8,47.5 c -0.6,-4.7 -3.6,-6.4 -8.9,-5 -4.1,1.1 -5.8,3.8 -5,8.2 0.8,4.4 3.3,6.1 7.7,5.2 4.9,-0.9 6.9,-3.7 6.2,-8.4 z"
             id="path815"
             inkscape:connector-curvature="0"
             style="fill:#c24458" /></g></g></g><g
       transform="translate(0,-0.15)"
       id="g817"><g
         id="g819"><g
           id="Layer0_0_MEMBER_80_MEMBER_1_FILL"><path
             class="st10"
             d="m 489.8,46.1 c -0.6,-1.1 -1.3,-1.5 -2,-1.4 -0.6,0.2 -0.6,0.7 0,1.6 0.6,1.1 1.2,1.6 1.8,1.6 0.6,0 0.7,-0.6 0.2,-1.8 z"
             id="path822"
             inkscape:connector-curvature="0"
             style="fill:#cd6a70" /></g></g></g><g
       transform="translate(0,-0.15)"
       id="g824"><g
         id="g826"><g
           id="Layer0_0_MEMBER_80_MEMBER_2_MEMBER_0_FILL"><path
             class="st11"
             d="m 478.9,50.7 c 0.8,4.4 3.3,6.1 7.7,5.2 2.9,-0.6 4.8,-2.2 5.9,-4.8 -3.9,1.4 -6.7,1.4 -8.4,0.2 -1.4,-0.9 -1.8,-2.7 -1.4,-5.2 l 1.1,-3.6 c -4,1.1 -5.6,3.8 -4.9,8.2 z"
             id="path829"
             inkscape:connector-curvature="0"
             style="fill:#9d3a4b" /></g></g></g><g
       transform="translate(0,-0.15)"
       id="g831"><g
         id="g833"><g
           id="Layer0_0_MEMBER_81_MEMBER_0_MEMBER_0_FILL"><path
             class="st4"
             d="m 482.3,164.9 1.4,0.7 c 1.2,0.3 2.3,0.4 3.4,0.2 1.8,-0.2 3.1,-0.9 3.9,-2.3 -0.9,-1.2 -2.3,-1.7 -4.1,-1.4 -1.1,0.2 -2.1,0.6 -3.2,1.4 l -1.4,1.4 z"
             id="path836"
             inkscape:connector-curvature="0"
             style="fill:#c1cda5" /></g></g></g><g
       transform="translate(0,-0.15)"
       id="g838"><g
         id="g840"><g
           id="Layer0_0_MEMBER_82_MEMBER_0_MEMBER_0_FILL"><path
             class="st4"
             d="m 465.1,99.3 c 0.8,-1.1 1.1,-2.3 0.9,-3.9 -0.3,-1.1 -0.8,-1.9 -1.4,-2.5 l -0.9,-0.5 -0.5,1.1 c -0.3,0.8 -0.4,1.5 -0.2,2.3 0.2,1.3 0.9,2.4 2.1,3.5 z"
             id="path843"
             inkscape:connector-curvature="0"
             style="fill:#c1cda5" /></g></g></g><g
       transform="translate(0,-0.15)"
       id="g845"><g
         id="g847"><g
           id="Layer0_0_MEMBER_83_MEMBER_0_MEMBER_0_FILL"><path
             class="st4"
             d="m 470.8,42.5 c 0.9,-1.5 1.2,-3.1 0.9,-4.8 -0.2,-0.9 -0.5,-1.8 -1.1,-2.7 l -1.1,-0.9 c -0.3,0.2 -0.6,0.5 -0.9,0.9 -0.5,0.8 -0.6,1.7 -0.5,3 0.1,2.1 1,3.6 2.7,4.5 z"
             id="path850"
             inkscape:connector-curvature="0"
             style="fill:#c1cda5" /></g></g></g><g
       transform="translate(0,-0.15)"
       id="g852"><g
         id="g854"><g
           id="Layer0_0_MEMBER_84_MEMBER_0_MEMBER_0_FILL"><path
             class="st4"
             d="m 513.7,66.8 2,0.5 c 1.7,0.3 3.2,0.2 4.5,-0.2 2.1,-0.8 3.5,-2.1 4.1,-4.1 -1.4,-1.2 -3.2,-1.4 -5.5,-0.7 -1.5,0.5 -2.8,1.4 -3.9,2.7 l -1.2,1.8 z"
             id="path857"
             inkscape:connector-curvature="0"
             style="fill:#c1cda5" /></g></g></g><g
       transform="translate(0,-0.15)"
       id="g859"><g
         id="g861"><g
           id="Layer0_0_MEMBER_85_MEMBER_0_MEMBER_0_FILL"><path
             class="st4"
             d="m 501.2,43.2 2.7,-0.7 c 0.6,-0.5 1,-1.2 1.1,-2.3 -0.6,-0.3 -1.4,-0.2 -2.3,0.5 -0.6,0.5 -1.1,1 -1.4,1.6 0,0.4 -0.1,0.7 -0.1,0.9 z"
             id="path864"
             inkscape:connector-curvature="0"
             style="fill:#c1cda5" /></g></g></g><g
       transform="translate(0,-0.15)"
       id="g866"><g
         id="g868"><g
           id="Layer0_0_MEMBER_86_MEMBER_0_MEMBER_0_FILL"><path
             class="st4"
             d="m 300.4,88.2 c -0.2,-2.6 -1,-4.7 -2.5,-6.4 -0.6,-1.2 -1.7,-2.1 -3.2,-2.7 l -2,-0.7 -0.5,1.8 c -0.2,1.4 0.2,2.9 1.1,4.5 2,2.5 4.3,3.6 7.1,3.5 z"
             id="path871"
             inkscape:connector-curvature="0"
             style="fill:#c1cda5" /></g></g></g><g
       transform="translate(0,-0.15)"
       id="g873"><g
         id="g875"><g
           id="Layer0_0_MEMBER_87_MEMBER_0_MEMBER_0_FILL"><path
             class="st4"
             d="m 329.7,106.6 c -0.5,0 0,0.2 1.4,0.5 1.1,0.2 2.1,0.2 3.2,0 1.8,-0.5 3,-1.3 3.4,-2.5 -1.2,-0.9 -2.6,-1.2 -4.1,-0.9 -0.9,0.2 -1.8,0.7 -2.7,1.6 l -1.2,1.3 z"
             id="path878"
             inkscape:connector-curvature="0"
             style="fill:#c1cda5" /></g></g></g><g
       transform="translate(0,-0.15)"
       id="g880"><g
         id="g882"><g
           id="Layer0_0_MEMBER_88_MEMBER_0_MEMBER_0_FILL"><path
             class="st4"
             d="m 213.6,110.4 2.3,-1.1 c 1.8,-1.2 3.3,-2.6 4.3,-4.1 1.7,-2.6 2,-5.1 0.9,-7.5 -2.4,-0.2 -4.5,1.1 -6.4,3.9 -1.1,1.7 -1.6,3.6 -1.6,5.9 0.2,1.2 0.3,2.2 0.5,2.9 z"
             id="path885"
             inkscape:connector-curvature="0"
             style="fill:#c1cda5" /></g></g></g><g
       transform="translate(0,-0.15)"
       id="g887"><g
         id="g889"><g
           id="Layer0_0_MEMBER_89_MEMBER_0_MEMBER_0_FILL"><path
             class="st4"
             d="m 228.1,128.1 1.6,0.2 c 1.2,0.2 2.3,0 3.2,-0.5 1.5,-0.2 2.7,-1 3.6,-2.5 -0.8,-1.2 -2.3,-1.6 -4.5,-1.1 -1.2,0.5 -2.2,1.2 -3,2.3 l -0.9,1.6 z"
             id="path892"
             inkscape:connector-curvature="0"
             style="fill:#c1cda5" /></g></g></g><g
       transform="translate(0,-0.15)"
       id="g894"><g
         id="g896"><g
           id="Layer0_0_MEMBER_90_MEMBER_0_MEMBER_0_FILL"><path
             class="st4"
             d="m 199.7,29.8 1.6,-0.7 c 1.2,-0.5 2.1,-1.1 2.7,-2 1.1,-1.2 1.4,-2.7 1.1,-4.3 -1.4,-0.5 -2.7,0.2 -3.9,1.8 -0.9,0.9 -1.4,2 -1.6,3.4 0.1,0.7 0.1,1.3 0.1,1.8 z"
             id="path899"
             inkscape:connector-curvature="0"
             style="fill:#c1cda5" /></g></g></g><g
       transform="translate(0,-0.15)"
       id="g901"><g
         id="g903"><g
           id="Layer0_0_MEMBER_91_MEMBER_0_MEMBER_0_FILL"><path
             class="st4"
             d="m 168.8,23.2 c 1.1,-2.4 1.4,-4.9 0.9,-7.5 -0.6,-2.7 -2,-4.5 -4.3,-5.5 -1.7,1.5 -2.2,3.6 -1.6,6.4 0.6,2.7 2.3,4.9 5,6.6 z"
             id="path906"
             inkscape:connector-curvature="0"
             style="fill:#c1cda5" /></g></g></g><g
       transform="translate(0,-0.15)"
       id="g908"><g
         id="g910"><g
           id="Layer0_0_MEMBER_92_MEMBER_0_MEMBER_0_FILL"><path
             class="st4"
             d="m 170.4,47.5 c 1.4,-2.1 2,-4.2 2,-6.4 0.2,-1.4 -0.1,-2.7 -0.7,-4.1 l -1.1,-1.8 c -0.5,0.2 -1,0.5 -1.6,0.9 -1.1,1.1 -1.7,2.6 -2,4.5 0,3.1 1.2,5.4 3.4,6.9 z"
             id="path913"
             inkscape:connector-curvature="0"
             style="fill:#c1cda5" /></g></g></g><g
       transform="translate(0,-0.15)"
       id="g915"><g
         id="g917"><g
           id="Layer0_0_MEMBER_93_MEMBER_0_MEMBER_0_FILL"><path
             class="st4"
             d="m 190,49.1 1.1,0.5 c 0.9,0.3 1.8,0.4 2.7,0.2 1.2,-0.3 2.2,-1 3,-2 -0.6,-0.9 -1.7,-1.3 -3.2,-1.1 -1.1,0.2 -2,0.6 -2.7,1.4 l -0.9,1 z"
             id="path920"
             inkscape:connector-curvature="0"
             style="fill:#c1cda5" /></g></g></g><g
       transform="translate(0,-0.15)"
       id="g922"><g
         id="g924"><g
           id="Layer0_0_MEMBER_94_MEMBER_0_MEMBER_0_FILL"><path
             class="st4"
             d="m 199.7,131.8 2.7,-2 c 0.6,-0.9 0.8,-2 0.5,-3.2 -0.9,-0.2 -1.7,0.4 -2.5,1.6 -0.6,0.8 -0.9,1.6 -0.9,2.5 0,0.4 0.1,0.8 0.2,1.1 z"
             id="path927"
             inkscape:connector-curvature="0"
             style="fill:#c1cda5" /></g></g></g><g
       transform="translate(0,-0.15)"
       id="g929"><g
         id="g931"><g
           id="Layer0_0_MEMBER_95_MEMBER_0_MEMBER_0_FILL"><path
             class="st4"
             d="m 309,97.5 2,-0.7 c 1.8,-0.8 3.3,-1.8 4.3,-3.2 1.4,-2.6 1.6,-4.8 0.7,-6.8 -0.6,0 -1.2,0.2 -1.8,0.5 -1.5,0.6 -2.7,1.6 -3.4,3 -0.9,1.2 -1.5,2.8 -1.8,4.8 0,0.8 0,1.6 0,2.4 z"
             id="path934"
             inkscape:connector-curvature="0"
             style="fill:#c1cda5" /></g></g></g><g
       transform="translate(0,-0.15)"
       id="g936"><g
         id="g938"><g
           id="Layer0_0_MEMBER_96_MEMBER_0_MEMBER_0_FILL"><path
             class="st4"
             d="m 474.6,120.9 1.8,0.5 c 1.7,0.2 3.2,0 4.5,-0.5 2.1,-1.1 3.3,-2.6 3.6,-4.5 -1.5,-1.1 -3.3,-1.1 -5.5,0 -1.2,0.5 -2.3,1.4 -3.4,2.7 -0.6,0.9 -1,1.5 -1,1.8 z"
             id="path941"
             inkscape:connector-curvature="0"
             style="fill:#c1cda5" /></g></g></g><g
       transform="translate(0,-0.15)"
       id="g943"><g
         id="g945"><g
           id="Layer0_0_MEMBER_97_MEMBER_0_MEMBER_0_FILL"><path
             class="st4"
             d="m 462.1,168.8 1.4,0.5 c 1.1,0.2 2,0.2 3,0 1.7,-0.3 2.8,-1.1 3.4,-2.3 -0.8,-1.1 -2,-1.5 -3.9,-1.4 -1.2,0.3 -2.3,1 -3.2,2 l -0.7,1.2 z"
             id="path948"
             inkscape:connector-curvature="0"
             style="fill:#c1cda5" /></g></g></g><g
       transform="translate(0,-0.15)"
       id="g950"><g
         id="g952"><g
           id="Layer0_0_MEMBER_98_MEMBER_0_MEMBER_0_FILL"><path
             class="st4"
             d="m 494.6,60.9 1.4,-0.2 c 1.1,-0.3 2,-0.8 2.7,-1.6 1.2,-1.1 1.8,-2.4 1.8,-4.1 -1.2,-0.5 -2.5,-0.1 -3.9,1.1 -0.9,0.8 -1.5,1.8 -1.8,3.2 -0.1,0.6 -0.2,1.1 -0.2,1.6 z"
             id="path955"
             inkscape:connector-curvature="0"
             style="fill:#c1cda5" /></g></g></g><g
       transform="translate(0,-0.15)"
       id="g957"><g
         id="g959"><g
           id="Layer0_0_MEMBER_99_MEMBER_0_MEMBER_0_FILL"><path
             class="st8"
             d="m 150.7,45 c 2.9,1.5 3.3,4.9 1.1,10.2 1.1,-1.8 1.8,-3.7 2.3,-5.7 0.9,-3.8 -0.3,-5.9 -3.6,-6.4 -3.5,-0.3 -5.5,1.4 -5.9,5.2 -0.1,1.5 0,3 0.2,4.5 0.2,-0.9 0.6,-2.3 1.4,-4.3 1,-3.4 2.5,-4.6 4.5,-3.5 z"
             id="path962"
             inkscape:connector-curvature="0"
             style="fill:#647a46" /></g></g></g><g
       transform="translate(0,-0.15)"
       id="g964"><g
         id="g966"><g
           id="Layer0_0_MEMBER_100_MEMBER_0_MEMBER_0_FILL"><path
             class="st8"
             d="m 164.3,68.4 c 0.3,2 0.4,3.9 0.2,5.7 0.6,-2.7 1,-5.4 1.1,-8 0.2,-5.3 -2.6,-7.6 -8.2,-6.8 -5.1,2.1 -6.6,5.4 -4.3,9.8 1,1.8 2.1,3.6 3.4,5.2 -0.4,-1.2 -0.8,-3.2 -1.4,-5.9 -0.9,-4.8 0.4,-7.2 3.9,-7 3.1,0.6 4.8,2.9 5.3,7 z"
             id="path969"
             inkscape:connector-curvature="0"
             style="fill:#647a46" /></g></g></g><g
       transform="translate(0,-0.15)"
       id="g971"><g
         id="g973"><g
           id="Layer0_0_MEMBER_101_MEMBER_0_MEMBER_0_FILL"><path
             class="st8"
             d="m 180,117 c 2.3,0.9 3,3.3 2.3,7 0.5,-1.4 0.8,-2.7 0.9,-4.1 0.2,-2.9 -1.1,-4.2 -3.6,-4.1 -2.6,0.2 -3.7,1.5 -3.4,4.1 0.3,1.4 0.8,2.7 1.4,4.1 -0.2,-1.4 -0.2,-2.7 0,-3.9 0,-2.5 0.9,-3.5 2.4,-3.1 z"
             id="path976"
             inkscape:connector-curvature="0"
             style="fill:#647a46" /></g></g></g><g
       transform="translate(0,-0.15)"
       id="g978"><g
         id="g980"><g
           id="Layer0_0_MEMBER_102_MEMBER_0_MEMBER_0_FILL"><path
             class="st8"
             d="m 309.2,131.1 c 2.1,0.6 2.8,2.7 2,6.4 0.5,-1.4 0.8,-2.7 0.9,-3.9 0.2,-2.6 -1,-3.8 -3.4,-3.6 -2.4,0.5 -3.4,1.9 -3,4.3 0.1,0.9 0.3,1.8 0.7,2.7 0,-0.6 0.1,-1.5 0.2,-2.7 0.4,-2.6 1.3,-3.7 2.6,-3.2 z"
             id="path983"
             inkscape:connector-curvature="0"
             style="fill:#647a46" /></g></g></g><g
       transform="translate(0,-0.15)"
       id="g985"><g
         id="g987"><g
           id="Layer0_0_MEMBER_103_MEMBER_0_MEMBER_0_FILL"><path
             class="st8"
             d="m 446.7,119.1 c 1.5,0.9 1.5,2.7 0,5.5 0.8,-0.9 1.3,-1.8 1.6,-2.7 0.8,-2 0.2,-3.2 -1.6,-3.6 -2.1,-0.3 -3.3,0.5 -3.4,2.5 -0.1,0.9 -0.1,1.8 0,2.7 0.1,-0.5 0.4,-1.3 0.9,-2.5 0.6,-1.9 1.4,-2.6 2.5,-1.9 z"
             id="path990"
             inkscape:connector-curvature="0"
             style="fill:#647a46" /></g></g></g><g
       transform="translate(0,-0.15)"
       id="g992"><g
         id="g994"><g
           id="Layer0_0_MEMBER_104_MEMBER_0_MEMBER_0_FILL"><path
             class="st8"
             d="m 428.5,156.8 c 1.5,1.2 1.5,3.1 0,5.7 0.8,-0.9 1.3,-1.8 1.6,-2.7 0.8,-2 0.2,-3.3 -1.6,-3.9 -2.1,-0.5 -3.3,0.3 -3.4,2.3 -0.1,0.9 -0.1,1.8 0,2.7 0.1,-0.5 0.4,-1.3 0.9,-2.5 0.6,-1.7 1.4,-2.2 2.5,-1.6 z"
             id="path997"
             inkscape:connector-curvature="0"
             style="fill:#647a46" /></g></g></g><g
       transform="translate(0,-0.15)"
       id="g999"><g
         id="g1001"><g
           id="Layer0_0_MEMBER_105_MEMBER_0_MEMBER_0_FILL"><path
             class="st8"
             d="m 434.6,173.8 c 2.1,1.1 2.3,3.3 0.7,6.6 0.8,-1.2 1.3,-2.4 1.6,-3.6 0.8,-2.6 -0.2,-3.9 -2.7,-4.1 -2.7,0 -3.9,1.2 -3.6,3.6 0.3,1.2 0.7,2.4 1.1,3.6 -0.2,-1.2 -0.1,-2.4 0.2,-3.6 0.3,-2.3 1.2,-3.1 2.7,-2.5 z"
             id="path1004"
             inkscape:connector-curvature="0"
             style="fill:#647a46" /></g></g></g><g
       transform="translate(0,-0.15)"
       id="g1006"><g
         id="g1008"><g
           id="Layer0_0_MEMBER_106_MEMBER_0_MEMBER_0_FILL"><path
             class="st8"
             d="m 467.3,65.2 c 1.4,1.1 1.7,3.2 0.9,6.4 1.7,-4.2 1.4,-6.7 -0.9,-7.5 -1.4,-0.3 -2.5,0.6 -3.4,2.7 -1.1,2.1 -1.4,3.2 -0.9,3.2 l 1.6,-3 c 1.2,-1.9 2.1,-2.5 2.7,-1.8 z"
             id="path1011"
             inkscape:connector-curvature="0"
             style="fill:#647a46" /></g></g></g><g
       transform="translate(0,-0.15)"
       id="g1013"><g
         id="g1015"><g
           id="Layer0_0_MEMBER_107_MEMBER_0_MEMBER_0_FILL"><path
             class="st8"
             d="m 480.3,77.5 c 1.8,-0.2 3.3,1.2 4.3,4.1 -0.9,-4.5 -2.6,-6.1 -5,-4.8 -1.5,0.9 -1.7,2.3 -0.7,4.1 0.5,0.9 1.1,1.7 1.8,2.5 -0.5,-0.9 -0.8,-1.9 -1.1,-3 -0.6,-1.8 -0.4,-2.8 0.7,-2.9 z"
             id="path1018"
             inkscape:connector-curvature="0"
             style="fill:#647a46" /></g></g></g><g
       transform="translate(0,-0.15)"
       id="g1020"><g
         id="g1022"><g
           id="Layer0_0_MEMBER_108_MEMBER_0_MEMBER_0_FILL"><path
             class="st8"
             d="m 468.3,130.6 c 1.7,0.5 2.3,2 1.8,4.5 0.3,-0.9 0.5,-1.8 0.5,-2.7 0,-2 -0.9,-2.9 -2.7,-2.7 -2,0.3 -2.7,1.3 -2,3 0.3,0.8 0.8,1.6 1.4,2.5 -0.3,-0.9 -0.5,-1.7 -0.5,-2.5 -0.3,-1.7 0.2,-2.4 1.5,-2.1 z"
             id="path1025"
             inkscape:connector-curvature="0"
             style="fill:#647a46" /></g></g></g><g
       transform="translate(0,-0.15)"
       id="g1027"><g
         id="g1029"><g
           id="Layer0_0_MEMBER_109_MEMBER_0_MEMBER_0_FILL"><path
             class="st7"
             d="m 208.1,118.1 c 1.4,-2.6 0.4,-4.4 -3,-5.5 -3.5,0 -5,1.5 -4.5,4.5 0.1,1.1 0.4,2.2 0.9,3.4 0,-0.8 0.2,-1.9 0.5,-3.4 0.5,-3 1.7,-4.1 3.6,-3.2 1.5,1.1 1.9,2.7 1.1,5 -0.3,1.2 -0.8,2.3 -1.4,3.2 1.2,-1.2 2.1,-2.6 2.8,-4 z"
             id="path1032"
             inkscape:connector-curvature="0"
             style="fill:#87a659" /></g></g></g><g
       transform="translate(0,-0.15)"
       id="g1034"><g
         id="g1036"><g
           id="Layer0_0_MEMBER_110_MEMBER_0_MEMBER_0_FILL"><path
             class="st7"
             d="m 216.5,120.9 c 0.9,0.5 1.1,1.4 0.7,3 0.9,-2.3 0.7,-3.4 -0.7,-3.4 -0.9,-0.2 -1.4,0.4 -1.6,1.6 -0.2,0.5 -0.2,1 0,1.6 0.2,-0.6 0.3,-1.1 0.5,-1.6 0.3,-1.2 0.7,-1.5 1.1,-1.2 z"
             id="path1039"
             inkscape:connector-curvature="0"
             style="fill:#87a659" /></g></g></g><g
       transform="translate(0,-0.15)"
       id="g1041"><g
         id="g1043"><g
           id="Layer0_0_MEMBER_111_MEMBER_0_MEMBER_0_FILL"><path
             class="st7"
             d="m 205.4,49.5 c 0.9,0.5 1.4,0.8 1.4,0.9 0.3,-0.3 -0.2,-0.8 -1.4,-1.6 -1.4,-0.8 -2.1,-1 -2.3,-0.7 -0.5,-0.2 -0.7,0.5 -0.7,2 -0.2,1.5 -0.1,2.2 0.2,2 0.2,0 0.4,-1.2 0.7,-3.6 0.5,0.1 1.2,0.4 2.1,1 z"
             id="path1046"
             inkscape:connector-curvature="0"
             style="fill:#87a659" /></g></g></g><g
       transform="translate(0,-0.15)"
       id="g1048"><g
         id="g1050"><g
           id="Layer0_0_MEMBER_112_MEMBER_0_MEMBER_0_FILL"><path
             class="st7"
             d="m 178.4,44.1 c 2,0 3.1,1.6 3.4,4.8 0,-1.1 -0.1,-2.2 -0.2,-3.4 -0.6,-2.1 -1.9,-2.8 -3.9,-2 -2.1,0.8 -2.7,2.1 -1.6,4.1 0.6,0.9 1.3,1.7 2,2.5 -0.5,-0.9 -0.8,-1.9 -1.1,-3 -0.4,-2 0,-3 1.4,-3 z"
             id="path1053"
             inkscape:connector-curvature="0"
             style="fill:#87a659" /></g></g></g><g
       transform="translate(0,-0.15)"
       id="g1055"><g
         id="g1057"><g
           id="Layer0_0_MEMBER_113_MEMBER_0_MEMBER_0_FILL"><path
             class="st7"
             d="m 323.8,117.2 c 1.1,0.5 1.7,1.7 2,3.9 0.2,-3.2 -0.7,-4.7 -2.5,-4.5 -0.9,0 -1.4,0.8 -1.6,2.5 -0.2,1.5 -0.1,2.3 0.2,2.3 0,-0.8 0.1,-1.5 0.2,-2.3 0.5,-1.6 1.1,-2.2 1.7,-1.9 z"
             id="path1060"
             inkscape:connector-curvature="0"
             style="fill:#87a659" /></g></g></g><g
       transform="translate(0,-0.15)"
       id="g1062"><g
         id="g1064"><g
           id="Layer0_0_MEMBER_114_MEMBER_0_MEMBER_0_FILL"><path
             class="st7"
             d="m 316.3,99.5 c 1.4,0.6 1.7,2.4 1.1,5.5 1.7,-4.2 1.2,-6.4 -1.4,-6.4 -1.7,0.2 -2.7,1.2 -3,3.2 0,1.1 0.1,2.1 0.2,3.2 0.2,-1.1 0.4,-2 0.7,-3 0.7,-2 1.5,-2.8 2.4,-2.5 z"
             id="path1067"
             inkscape:connector-curvature="0"
             style="fill:#87a659" /></g></g></g><g
       transform="translate(0,-0.15)"
       id="g1069"><g
         id="g1071"><g
           id="Layer0_0_MEMBER_115_MEMBER_0_MEMBER_0_FILL"><path
             class="st7"
             d="m 491.4,119.5 c 1.7,1.2 1.5,3.4 -0.5,6.6 3.6,-4.2 3.8,-6.8 0.5,-7.7 -2.1,-0.6 -3.6,0.3 -4.3,2.7 -0.5,1.2 -0.7,2.5 -0.7,3.9 l 1.6,-3.4 c 1.4,-2.2 2.5,-2.9 3.4,-2.1 z"
             id="path1074"
             inkscape:connector-curvature="0"
             style="fill:#87a659" /></g></g></g><g
       transform="translate(0,-0.15)"
       id="g1076"><g
         id="g1078"><g
           id="Layer0_0_MEMBER_116_MEMBER_0_MEMBER_0_FILL"><path
             class="st7"
             d="m 453.3,166.5 c 1.7,1.4 1.7,3.6 0,6.8 3.2,-4.4 3.2,-7 0,-8 -2,-0.5 -3.4,0.5 -4.3,3 -0.5,1.2 -0.7,2.4 -0.7,3.6 l 1.6,-3.4 c 1.3,-2 2.4,-2.7 3.4,-2 z"
             id="path1081"
             inkscape:connector-curvature="0"
             style="fill:#87a659" /></g></g></g><g
       transform="translate(0,-0.15)"
       id="g1083"><g
         id="g1085"><g
           id="Layer0_0_MEMBER_117_MEMBER_0_MEMBER_0_FILL"><path
             class="st7"
             d="m 503.5,63.2 c 1.5,0.8 1.6,2.3 0.2,4.8 0.6,-0.8 1.1,-1.6 1.4,-2.5 0.8,-1.8 0.2,-2.8 -1.8,-3 -2.1,0 -3,0.9 -2.7,2.7 0.2,0.8 0.5,1.6 0.9,2.5 -0.2,-0.9 -0.2,-1.7 0,-2.5 0.1,-1.7 0.8,-2.3 2,-2 z"
             id="path1088"
             inkscape:connector-curvature="0"
             style="fill:#87a659" /></g></g></g></g></svg>