<?xml version="1.0" encoding="UTF-8" standalone="no"?>
<!-- Generator: Adobe Illustrator 20.1.0, SVG Export Plug-In . SVG Version: 6.00 Build 0)  -->

<svg
   xmlns:dc="http://purl.org/dc/elements/1.1/"
   xmlns:cc="http://creativecommons.org/ns#"
   xmlns:rdf="http://www.w3.org/1999/02/22-rdf-syntax-ns#"
   xmlns:svg="http://www.w3.org/2000/svg"
   xmlns="http://www.w3.org/2000/svg"
   xmlns:sodipodi="http://sodipodi.sourceforge.net/DTD/sodipodi-0.dtd"
   xmlns:inkscape="http://www.inkscape.org/namespaces/inkscape"
   version="1.1"
   id="Layer_1"
   x="0px"
   y="0px"
   viewBox="0 0 351.14141 437.56875"
   xml:space="preserve"
   inkscape:version="0.48.5 r10040"
   width="100%"
   height="100%"
   sodipodi:docname="sign_up_02.svg"><metadata
     id="metadata147"><rdf:RDF><cc:Work
         rdf:about=""><dc:format>image/svg+xml</dc:format><dc:type
           rdf:resource="http://purl.org/dc/dcmitype/StillImage" /></cc:Work></rdf:RDF></metadata><defs
     id="defs145" /><sodipodi:namedview
     pagecolor="#ffffff"
     bordercolor="#666666"
     borderopacity="1"
     objecttolerance="10"
     gridtolerance="10"
     guidetolerance="10"
     inkscape:pageopacity="0"
     inkscape:pageshadow="2"
     inkscape:window-width="640"
     inkscape:window-height="480"
     id="namedview143"
     showgrid="false"
     inkscape:zoom="0.52572956"
     inkscape:cx="175.6"
     inkscape:cy="218.91875"
     inkscape:window-x="0"
     inkscape:window-y="0"
     inkscape:window-maximized="0"
     inkscape:current-layer="Layer_1" /><style
     type="text/css"
     id="style3">
	.st0{fill:#E09D7C;}
	.st1{fill:#C87D58;}
	.st2{fill:#E5B190;}
	.st3{fill:#8F4932;}
	.st4{fill:#C96746;}
	.st5{fill:#AB583C;}
	.st6{fill:url(#SVGID_1_);}
	.st7{fill:#524137;}
	.st8{fill:#4C8772;}
	.st9{fill:#427563;}
	.st10{fill:#5A9E85;}
	.st11{fill:#70AD98;}
	.st12{fill:#40705F;}
</style><g
     id="g5"
     transform="translate(-5.9000025,-5.8)"><g
       id="g7"><g
         id="Layer0_0_MEMBER_0_FILL"><path
           class="st0"
           d="m 356.1,325.8 c 2.9,-8.7 -0.9,-14.6 -11.4,-17.5 -6.1,-0.7 -14.6,0 -25.4,2.1 -21.5,3.9 -43.8,12.5 -67,25.8 -11.2,6.4 -23,14.9 -35.4,25.6 -6.7,5.7 -15.5,13.4 -26.6,23.1 -8.7,6.9 -16.4,11 -23.1,12.1 -7.9,1.1 -16.1,-1.6 -24.6,-8.1 -5.5,-4.3 -8.3,-13.2 -8.3,-26.6 l 1.5,-19.1 c -2.8,-2.8 -6.5,-5.3 -11.2,-7.7 -9.4,-4.9 -19.1,-6.4 -28.9,-4.8 -9.8,1.8 -17.5,4.9 -22.9,9.4 -2.6,2.2 -4.3,4.2 -5,6 l 0.2,17.3 c 2.6,15.7 10,33.9 22.1,54.7 3.9,6.8 10.8,12.6 20.8,17.3 10.4,4.9 21.8,7.5 34.3,7.9 31.2,1.1 57.2,-11 78,-36.2 35.5,-43 70.5,-65.3 104.9,-66.8 15.6,-0.9 25,-5.7 28,-14.5 z"
           id="path10"
           inkscape:connector-curvature="0"
           style="fill:#e09d7c" /></g></g></g><g
     id="g12"
     transform="translate(-5.9000025,-5.8)"><g
       id="g14"><g
         id="Layer0_0_MEMBER_1_FILL"><path
           class="st1"
           d="m 354.9,315.4 c 1.4,4.2 1,7.4 -1.2,9.6 -2.1,2.1 -6.1,3.5 -12.1,4.4 -35.6,5.1 -67.3,17.5 -94.9,37 -8.7,6.2 -23.2,19.7 -43.5,40.4 -12.9,13.2 -25.1,20.2 -36.6,21 -15,1 -29.3,-4.2 -42.9,-15.6 -13.6,-11.4 -18,-21.8 -13.3,-31.2 2.8,-5.4 6.7,-10.7 11.7,-15.8 5.7,-5.7 9.9,-10 12.7,-12.9 l 1,-9.2 c -1.5,-1.5 -3.7,-3.2 -6.7,-5 -20,-0.3 -37.8,-0.3 -53.5,-0.2 -4.2,2.6 -6.8,5.3 -7.9,8.1 l 0.2,17.3 c 2.6,15.7 10,33.9 22.1,54.7 3.9,6.8 10.8,12.6 20.8,17.3 10.4,4.9 21.8,7.5 34.3,7.9 31.2,1.1 57.2,-11 78,-36.2 35.5,-43 70.5,-65.3 104.9,-66.8 11.7,-0.4 20,-3.5 25,-9.2 4.6,-5.2 5.2,-10.4 1.9,-15.6 z"
           id="path17"
           inkscape:connector-curvature="0"
           style="fill:#c87d58" /></g></g></g><g
     id="g19"
     transform="translate(-5.9000025,-5.8)"><g
       id="g21"><g
         id="Layer0_0_MEMBER_2_FILL"><path
           class="st2"
           d="m 130.8,377.2 c -1.7,-3.7 -3.3,-4.2 -4.8,-1.5 -1.9,3.6 -1.5,8.6 1.5,15 3.3,7.1 8.4,11.8 15.2,14.1 l 14.6,5.2 c -1.7,-0.7 -3.7,-1.9 -6.2,-3.5 -4.9,-3.5 -9,-7.8 -12.5,-13.1 -2.1,-2.8 -4.6,-8.2 -7.8,-16.2 z"
           id="path24"
           inkscape:connector-curvature="0"
           style="fill:#e5b190" /></g></g></g><g
     id="g26"
     transform="translate(-5.9000025,-5.8)"><g
       id="g28"><g
         id="Layer0_0_MEMBER_3_FILL"><path
           class="st2"
           d="m 324.1,316.2 c 4.6,-3.7 -2.8,-3.1 -22.3,1.9 -11.1,2.9 -24.9,9.4 -41.4,19.3 -14.8,8.9 -26.4,17.1 -34.5,24.8 l -14.6,13.5 c 10.4,-7.4 21.7,-14.9 33.9,-22.7 24.7,-15.5 42,-24.4 52,-26.6 13.2,-2.9 22.2,-6.3 26.9,-10.2 z"
           id="path31"
           inkscape:connector-curvature="0"
           style="fill:#e5b190" /></g></g></g><g
     id="g33"
     transform="translate(-5.9000025,-5.8)"><g
       id="g35"><g
         id="Layer0_1_MEMBER_0_FILL"><path
           class="st3"
           d="m 102.5,344.7 c 11.2,0 21.4,-0.6 30.6,-1.7 6.4,-3.1 11.4,-7.5 15.2,-13.3 L 152,322 c -1.4,-3.6 -4.6,-7.1 -9.6,-10.6 -10,-7.2 -23.8,-10.8 -41.4,-10.8 -21.1,-0.1 -36.9,3.7 -47.4,11.7 -10.7,7.8 -10.3,15.3 1,22.7 9.6,6.2 25.6,9.4 47.9,9.7 z"
           id="path38"
           inkscape:connector-curvature="0"
           style="fill:#8f4932" /></g></g></g><g
     id="g40"
     transform="translate(-5.9000025,-5.8)"><g
       id="g42"><g
         id="Layer0_1_MEMBER_1_FILL"><path
           class="st4"
           d="m 60.7,334.7 -13.5,-7.3 5.6,12.3 c 2.2,4.2 5,8.5 8.3,12.9 l 13.9,6.2 c 11.5,3.7 23,4.9 34.3,3.3 11.5,-1.7 21.5,-4.6 30,-8.9 4.3,-2.1 7.4,-4 9.4,-5.8 1.7,-4.2 2.8,-8.2 3.5,-12.1 0.4,-2.6 0.5,-5.7 0.2,-9.2 L 152,322 c -1.8,2.4 -5.2,4.9 -10.2,7.5 -10,5.1 -22.8,8.5 -38.5,10 C 87.2,341 73,339.4 60.7,334.7 z"
           id="path45"
           inkscape:connector-curvature="0"
           style="fill:#c96746" /></g></g></g><g
     id="g47"
     transform="translate(-5.9000025,-5.8)"><g
       id="g49"><g
         id="Layer0_1_MEMBER_2_FILL"><path
           class="st5"
           d="m 61.1,352.6 6.4,3.3 c 5.5,2.4 11.3,4.2 17.3,5.4 9,0.6 15,0.6 18.1,0.2 5.5,-0.8 8.4,-3.2 8.5,-7.1 0.3,-4.4 -2.6,-7.6 -8.5,-9.4 -2.6,-0.8 -11.1,-2.3 -25.4,-4.4 -12.9,-1.8 -23,-6 -30.2,-12.5 0.6,1.1 2.4,4.9 5.4,11.4 2.3,4.4 5.1,8.7 8.4,13.1 z"
           id="path52"
           inkscape:connector-curvature="0"
           style="fill:#ab583c" /></g></g></g><g
     id="g54"
     transform="translate(-5.9000025,-5.8)"><g
       id="g56"><g
         id="Layer0_1_MEMBER_3_FILL"><linearGradient
           id="SVGID_1_"
           gradientUnits="userSpaceOnUse"
           x1="66.659103"
           y1="658.81561"
           x2="135.5273"
           y2="709.99847"
           gradientTransform="matrix(1,0,0,-1,0,1002)"><stop
             offset="0"
             style="stop-color:#592E20"
             id="stop60" /><stop
             offset="1"
             style="stop-color:#A35339"
             id="stop62" /></linearGradient><path
           class="st6"
           d="m 139.3,316.6 c -0.4,-5 -7.1,-8.5 -20,-10.4 -10.3,-1.4 -20.1,-1.6 -29.5,-0.6 -23.4,2.8 -31.8,8.3 -25,16.6 6.1,7.2 20.2,10.1 42.2,8.5 22.1,-1.5 32.9,-6.2 32.3,-14.1 z"
           id="path64"
           inkscape:connector-curvature="0"
           style="fill:url(#SVGID_1_)" /></g></g></g><g
     id="g66"
     transform="translate(-5.9000025,-5.8)"><g
       id="g68"><g
         id="Layer0_1_MEMBER_4_FILL"><path
           class="st0"
           d="m 145.1,347.2 c 1.4,-2.8 2.3,-6.5 2.7,-11.2 v -6.2 l -4.8,12.9 c -1.1,3.6 -4.5,6.9 -10.2,9.8 l 2.9,-0.6 c 2.2,-0.5 5.3,-2.1 9.4,-4.7 z"
           id="path71"
           inkscape:connector-curvature="0"
           style="fill:#e09d7c" /></g></g></g><g
     id="g73"
     transform="translate(-5.9000025,-5.8)"><g
       id="g75"><g
         id="Layer0_2_MEMBER_0_FILL"><path
           class="st7"
           d="M 91.9,198.6 53.4,188 l 8.1,12.5 c 6.2,11.5 11.4,25.3 15.4,41.4 4,16.1 6.2,35.2 6.7,57.2 0.3,11.1 0.1,20.5 -0.4,28.3 0.6,2.8 3.1,3.7 7.5,2.7 0.8,-8.9 1.5,-21.5 2.1,-37.9 0.4,-9.6 0.4,-28.1 0,-55.6 l -0.9,-38 z"
           id="path78"
           inkscape:connector-curvature="0"
           style="fill:#524137" /></g></g></g><g
     id="g80"
     transform="translate(-5.9000025,-5.8)"><g
       id="g82"><g
         id="Layer0_3_MEMBER_0_FILL"><path
           class="st8"
           d="M 131.6,72.3 17.8,79 5.9,92.3 50.6,105.4 32.2,273.5 58.6,272 l 5,-6.4 33.5,-20.6 43.5,35.6 33.3,3.5 -33.7,-78 -30,-95.1 30.2,2.3 28.1,-12.3 -36.9,-28.7 z"
           id="path85"
           inkscape:connector-curvature="0"
           style="fill:#4c8772" /></g></g></g><g
     id="g87"
     transform="translate(-5.9000025,-5.8)"><g
       id="g89"><g
         id="Layer0_3_MEMBER_1_FILL"><path
           class="st9"
           d="m 50.1,105.2 0.6,0.2 -22.1,174.4 30,-7.7 5,-6.4 1.7,-1 L 87.8,139.9 74.2,91.7 50.1,105.2 z"
           id="path92"
           inkscape:connector-curvature="0"
           style="fill:#427563" /></g></g></g><g
     id="g94"
     transform="translate(-5.9000025,-5.8)"><g
       id="g96"><g
         id="Layer0_3_MEMBER_2_FILL"><path
           class="st10"
           d="m 52.5,88.2 c 6.9,1.8 13.6,3.7 20,5.6 -6.1,91.5 -9.8,142.4 -11,152.5 l -2.9,25.8 60.8,-36.8 54.5,48.9 -42.7,-185.8 37.2,2.7 -54.7,-67 C 101.7,19.4 93.4,9.9 89,5.8 62.2,34.1 45.1,51.7 37.6,58.6 29.9,65.4 23.4,72.2 17.8,79 l 34.7,9.2 z"
           id="path99"
           inkscape:connector-curvature="0"
           style="fill:#5a9e85" /></g></g></g><g
     id="g101"
     transform="translate(-5.9000025,-5.8)"><g
       id="g103"><g
         id="Layer0_3_MEMBER_3_FILL"><path
           class="st11"
           d="m 123.3,52 c 14.7,20.3 22.2,31.6 22.5,34.1 0.3,2.5 -4.4,4.5 -14.1,6 h 2.9 l 23.7,1.7 -35,-41.8 z"
           id="path106"
           inkscape:connector-curvature="0"
           style="fill:#70ad98" /></g></g></g><g
     id="g108"
     transform="translate(-5.9000025,-5.8)"><g
       id="g110"><g
         id="Layer0_3_MEMBER_4_FILL"><path
           class="st11"
           d="m 142.2,247.7 24.6,23.7 -10.2,-38.1 -0.8,19.8 c -0.1,2.3 -4.6,0.5 -13.6,-5.4 z"
           id="path113"
           inkscape:connector-curvature="0"
           style="fill:#70ad98" /></g></g></g><g
     id="g115"
     transform="translate(-5.9000025,-5.8)"><g
       id="g117"><g
         id="Layer0_3_MEMBER_5_FILL"><path
           class="st8"
           d="M 107.9,233.8 C 94,241.7 80.4,247.3 67.1,250.4 L 65,262.7 c 4.4,-3.5 9.3,-6.8 14.6,-10 3.3,-1.9 9.1,-5.7 17.3,-11.2 l 11,-7.7 z"
           id="path120"
           inkscape:connector-curvature="0"
           style="fill:#4c8772" /></g></g></g><g
     id="g122"
     transform="translate(-5.9000025,-5.8)"><g
       id="g124"><g
         id="Layer0_3_MEMBER_6_FILL"><path
           class="st8"
           d="M 62.5,44.9 C 57.8,47.5 46.8,57.3 29.4,74.2 l 15,5.6 c -1.1,-0.8 -2,-2.1 -2.7,-3.7 -1.4,-3.2 -0.8,-6.6 1.9,-10.2 4.2,-5.7 10.5,-12.7 18.9,-21 z"
           id="path127"
           inkscape:connector-curvature="0"
           style="fill:#4c8772" /></g></g></g><g
     id="g129"
     transform="translate(-5.9000025,-5.8)"><g
       id="g131"><g
         id="Layer0_4_FILL"><path
           class="st12"
           d="m 117.5,251.5 c -1.8,-1 -3.3,-1.6 -4.4,-1.9 -2.4,-0.4 -2.1,1 0.8,4.4 3.3,3.7 6.2,5.8 8.7,6 2.2,0.1 3.3,-0.9 3.1,-3.1 -0.1,-1.7 -1.2,-3.6 -3.1,-5.8 l -2.9,-2.7 -2.2,3.1 z"
           id="path134"
           inkscape:connector-curvature="0"
           style="fill:#40705f" /></g></g></g><g
     id="g136"
     transform="translate(-5.9000025,-5.8)"><g
       id="g138"><g
         id="Layer0_5_FILL"><path
           class="st7"
           d="m 119.8,328.3 c -1.9,-24.4 -1.9,-51 0,-79.9 -1.4,-1.9 -3.3,-3.1 -5.6,-3.5 -2.4,-0.6 -4.9,-0.1 -7.5,1.5 1,28.4 2.3,56.2 4,83.2 1,1.3 4.1,0.9 9.1,-1.3 z"
           id="path141"
           inkscape:connector-curvature="0"
           style="fill:#524137" /></g></g></g></svg>