<?xml version="1.0" encoding="UTF-8" standalone="no"?>
<!-- Generator: Adobe Illustrator 20.1.0, SVG Export Plug-In . SVG Version: 6.00 Build 0)  -->

<svg
   xmlns:dc="http://purl.org/dc/elements/1.1/"
   xmlns:cc="http://creativecommons.org/ns#"
   xmlns:rdf="http://www.w3.org/1999/02/22-rdf-syntax-ns#"
   xmlns:svg="http://www.w3.org/2000/svg"
   xmlns="http://www.w3.org/2000/svg"
   xmlns:sodipodi="http://sodipodi.sourceforge.net/DTD/sodipodi-0.dtd"
   xmlns:inkscape="http://www.inkscape.org/namespaces/inkscape"
   version="1.1"
   id="Layer_1"
   x="0px"
   y="0px"
   viewBox="0 0 442.80484 376.9"
   xml:space="preserve"
   inkscape:version="0.48.5 r10040"
   width="100%"
   height="100%"
   sodipodi:docname="sign_up_01.svg"><metadata
     id="metadata292"><rdf:RDF><cc:Work
         rdf:about=""><dc:format>image/svg+xml</dc:format><dc:type
           rdf:resource="http://purl.org/dc/dcmitype/StillImage" /></cc:Work></rdf:RDF></metadata><defs
     id="defs290" /><sodipodi:namedview
     pagecolor="#ffffff"
     bordercolor="#666666"
     borderopacity="1"
     objecttolerance="10"
     gridtolerance="10"
     guidetolerance="10"
     inkscape:pageopacity="0"
     inkscape:pageshadow="2"
     inkscape:window-width="640"
     inkscape:window-height="480"
     id="namedview288"
     showgrid="false"
     inkscape:zoom="0.5959596"
     inkscape:cx="221.30484"
     inkscape:cy="188.5"
     inkscape:window-x="0"
     inkscape:window-y="0"
     inkscape:window-maximized="0"
     inkscape:current-layer="Layer_1" /><style
     type="text/css"
     id="style3">
	.st0{fill:#D18E6D;}
	.st1{fill:#BA7D5F;}
	.st2{fill:#C96746;}
	.st3{fill:#8F4932;}
	.st4{fill:#E09D7C;}
	.st5{fill:#AB583C;}
	.st6{fill:#C87D58;}
	.st7{fill:#C36444;}
	.st8{fill:#AB5333;}
	.st9{fill:#E4AD84;}
	.st10{fill:url(#SVGID_1_);}
	.st11{fill:#EBB696;}
	.st12{fill:url(#SVGID_2_);}
	.st13{fill:#EDC9B1;}
	.st14{fill:#593F28;}
	.st15{fill:#4C8772;}
	.st16{fill:#427563;}
	.st17{fill:#5A9E85;}
	.st18{fill:#70AD98;}
	.st19{fill:#7D5937;}
	.st20{fill:#A37C58;}
	.st21{fill:#735233;}
</style><g
     id="g5"
     transform="translate(-16.695155,-9.6)"><g
       id="g7"><g
         id="Layer0_0_MEMBER_0_FILL"><path
           class="st0"
           d="m 360.9,317.7 c 13.7,-9.4 25.2,-18.4 34.5,-27.1 l -4.3,-12.8 c -1.7,-5.3 -5.4,-9.6 -11.2,-12.8 l -8,-3.2 c -0.6,2.3 -3.6,6 -8.8,10.9 -10.2,9.9 -26.4,21.5 -48.7,34.8 -22.1,13.3 -43.1,19.6 -62.9,19 -6.3,-0.3 -12,-1.2 -17.2,-2.7 l -5.9,-2.4 -10.2,9.4 c -6,6.7 -6.5,11.4 -1.6,14 8.2,4.5 15.5,7.2 22,8.3 11.5,1.9 27.6,1.3 48.2,-1.9 22.1,-3.5 46.8,-14.7 74.1,-33.5 z"
           id="path10"
           inkscape:connector-curvature="0"
           style="fill:#d18e6d" /></g></g></g><g
     id="g12"
     transform="translate(-16.695155,-9.6)"><g
       id="g14"><g
         id="Layer0_0_MEMBER_1_FILL"><path
           class="st1"
           d="m 371.9,261.8 c -2.6,11.3 -11.5,23.6 -26.8,36.9 -14.9,13.1 -32,23.9 -51.2,32.4 -16.6,7.3 -30.8,10.5 -42.5,9.6 -7.2,-0.6 -14.2,-3.2 -20.9,-7.7 l -12.1,12.8 c 7.4,4 14.7,6.6 21.7,7.7 11.4,1.6 27,0.9 46.8,-2.2 22,-3.5 46.7,-14.7 74.1,-33.5 13.7,-9.4 25.2,-18.4 34.5,-27.1 l -4.3,-12.8 c -1.7,-5.3 -5.4,-9.6 -11.2,-12.8 l -8.1,-3.3 z"
           id="path17"
           inkscape:connector-curvature="0"
           style="fill:#ba7d5f" /></g></g></g><g
     id="g19"
     transform="translate(-16.695155,-9.6)"><g
       id="g21"><g
         id="Layer0_1_MEMBER_0_FILL"><path
           class="st2"
           d="m 235.8,325 -3.4,-8 c -1.3,-1.2 -2.7,-2.1 -4.1,-2.9 -1,-0.4 -2.2,-0.7 -3.7,-1 l -1.9,-0.2 -2.9,8.6 -9.1,8.5 c -6,6.2 -8.5,10.5 -7.5,13.1 1.4,3.8 4.1,6.7 8.1,8.5 2,1 3.9,1.5 5.7,1.6 l 5.6,-1.4 c 4.1,-1.8 7.5,-4.7 10.1,-8.8 3.6,-5.6 4.6,-11.6 3.1,-18 z"
           id="path24"
           inkscape:connector-curvature="0"
           style="fill:#c96746" /></g></g></g><g
     id="g26"
     transform="translate(-16.695155,-9.6)"><g
       id="g28"><g
         id="Layer0_1_MEMBER_1_FILL"><path
           class="st3"
           d="m 224.8,315.1 c -2,-3.5 -5.3,-2.8 -9.9,2.2 -3.9,4.4 -7.6,10.4 -10.9,18 -2.8,6.3 -2.1,10.2 2.1,11.8 4.3,1.7 9.2,0 14.8,-5.1 4.4,-3.8 6.6,-8.9 6.7,-15.2 0,-4.5 -0.9,-8.5 -2.8,-11.7 z"
           id="path31"
           inkscape:connector-curvature="0"
           style="fill:#8f4932" /></g></g></g><g
     id="g33"
     transform="translate(-16.695155,-9.6)"><g
       id="g35"><g
         id="Layer0_1_MEMBER_2_FILL"><path
           class="st4"
           d="m 228.4,321.4 c -0.2,-2 0,-3.4 0.6,-4 0.4,-0.4 1.1,-0.5 1.9,-0.2 0.5,0.1 1,0.3 1.3,0.5 -0.4,-0.4 -1,-0.8 -1.6,-1.1 l -4.6,-1.8 0.6,0.8 c 0.4,0.7 1,2.6 1.8,5.8 z"
           id="path38"
           inkscape:connector-curvature="0"
           style="fill:#e09d7c" /></g></g></g><g
     id="g40"
     transform="translate(-16.695155,-9.6)"><g
       id="g42"><g
         id="Layer0_1_MEMBER_3_FILL"><path
           class="st5"
           d="m 209,349.1 1.6,1 c 2.8,1.9 5.1,2.7 6.9,2.2 l 6.1,-2.2 c -3.3,0.6 -5.9,0.9 -7.7,0.8 -1.2,-0.1 -2.7,-0.4 -4.5,-1 l -2.4,-0.8 z"
           id="path45"
           inkscape:connector-curvature="0"
           style="fill:#ab583c" /></g></g></g><g
     id="g47"
     transform="translate(-16.695155,-9.6)"><g
       id="g49"><g
         id="Layer0_2_MEMBER_0_FILL"><path
           class="st4"
           d="m 164.8,320.9 -7.7,3.8 c -4.5,3.1 -10.7,6.3 -18.8,9.6 -16.2,6.5 -33.3,10.3 -51.4,11.3 -16.8,1 -32.7,0.9 -47.7,-0.3 -7.4,-0.6 -13.2,-1.4 -17.4,-2.2 l -4.6,3.5 c -1.7,2.9 0.9,5.8 7.7,8.8 5.3,1.8 12.9,3.5 22.7,4.9 19.7,2.9 41,3.6 63.8,2.1 15.4,-1.1 30.5,-4.8 45.3,-11.3 7.3,-3.2 13.1,-6.3 17.4,-9.4 2.4,-2 4.5,-4.3 6.2,-6.9 3.3,-5.2 3,-9.3 -1,-12.3 -3.8,-3 -8.7,-3.5 -14.5,-1.6 z"
           id="path52"
           inkscape:connector-curvature="0"
           style="fill:#e09d7c" /></g></g></g><g
     id="g54"
     transform="translate(-16.695155,-9.6)"><g
       id="g56"><g
         id="Layer0_2_MEMBER_1_FILL"><path
           class="st6"
           d="m 179.3,322.5 c -3.8,-3 -8.7,-3.5 -14.5,-1.6 l -15.6,8.5 c -0.2,2.6 -0.5,6 -0.8,10.4 -1.3,3.5 -4.9,6.3 -11,8.3 -16.5,5.3 -32.5,8.3 -48,8.9 -11.3,0.4 -25.7,-0.4 -43.4,-2.6 -10,-1.3 -17,-2.9 -21.1,-4.9 -2.9,-1.5 -4.4,-3.4 -4.6,-5.6 -2.3,1.3 -3.5,2.7 -3.5,4.3 -0.1,2.4 2.6,4.8 8.1,7.2 5.3,1.8 12.9,3.5 22.7,4.9 19.7,2.9 41,3.6 63.8,2.1 15.4,-1.1 30.5,-4.8 45.3,-11.3 7.3,-3.2 13.1,-6.3 17.4,-9.4 2.4,-2 4.5,-4.3 6.2,-6.9 3.2,-5.2 2.9,-9.3 -1,-12.3 z"
           id="path59"
           inkscape:connector-curvature="0"
           style="fill:#c87d58" /></g></g></g><g
     id="g61"
     transform="translate(-16.695155,-9.6)"><g
       id="g63"><g
         id="Layer0_2_MEMBER_2_FILL"><path
           class="st7"
           d="m 145,282 c -6.8,1.9 -11.3,6.3 -13.6,13.2 -1.7,5.2 -2.3,9.5 -1.9,12.9 0.3,1.6 0.7,2.7 1.3,3.4 l 9.3,3.8 c 7.6,3.3 12.8,5.7 15.6,7.2 2.7,1.5 0.8,3.2 -5.6,5.3 l 0.3,5.3 c 0.7,3.9 2.4,7 5.1,9.3 4.9,4 9.6,5.5 14,4.5 2.3,-0.4 4.1,-1.3 5.4,-2.7 l 8.8,-7.2 2.1,0.6 c 4.6,2.3 10.2,5.1 16.9,8.1 l 5.4,-0.3 c 4.1,-0.7 7.5,-2.3 10.1,-4.8 3.6,-3.6 5.6,-8.7 6.1,-15.3 l -0.5,-8.1 c -1.6,-0.9 -7.7,-2.9 -18.4,-6.1 -8.2,-2.4 -16.8,-6.5 -25.9,-12.1 -7.2,-4.5 -13.1,-8.8 -17.6,-13.1 -4.6,-4.6 -10.3,-5.9 -16.9,-3.9 z"
           id="path66"
           inkscape:connector-curvature="0"
           style="fill:#c36444" /></g></g></g><g
     id="g68"
     transform="translate(-16.695155,-9.6)"><g
       id="g70"><g
         id="Layer0_2_MEMBER_3_FILL"><path
           class="st8"
           d="m 130.8,311.5 9.3,3.8 c 7.6,3.3 12.8,5.7 15.6,7.2 2.7,1.5 0.8,3.2 -5.6,5.3 l 0.3,5.3 c 0.7,3.9 2.4,7 5.1,9.3 6.3,5.3 12.1,6.4 17.6,3.2 -4.5,-0.9 -7.3,-1.9 -8.5,-3.2 -1.2,-1.4 -0.6,-3 1.8,-4.8 2.9,-1.9 4.7,-3.1 5.4,-3.7 1.1,-0.7 3.1,-0.6 6.2,0.3 2.6,0.9 4.5,1.8 5.7,2.7 l 2.1,0.6 c 4.6,2.3 10.2,5.1 16.9,8.1 l 5.4,-0.3 c 4.1,-0.7 7.5,-2.3 10.1,-4.8 3,-3 4.8,-6.8 5.6,-11.5 -3.1,2.9 -8.5,3.9 -16.1,3.2 -4.1,-0.3 -10.4,-2.6 -18.8,-6.9 -8.6,-4.6 -14.2,-7.3 -16.6,-8.3 -4.4,-1.7 -8.9,-4.4 -13.7,-8 -5.7,-4.4 -8.8,-8.2 -9.1,-11.5 l -0.8,1.6 c -9.3,5.5 -15.4,9 -18.4,10.4 l -0.5,0.2 c 0.3,0.9 0.6,1.5 1,1.8 z"
           id="path73"
           inkscape:connector-curvature="0"
           style="fill:#ab5333" /></g></g></g><g
     id="g75"
     transform="translate(-16.695155,-9.6)"><g
       id="g77"><g
         id="Layer0_2_MEMBER_4_FILL"><path
           class="st9"
           d="m 174.8,301.1 -8.1,-4.8 6.2,6.1 c 5.5,4.5 11.8,8 18.8,10.7 7,2.7 13.8,4.4 20.4,5.1 3.4,0.3 6.1,0.4 8,0.2 -11,-2.1 -21,-5.2 -30,-9.3 -4,-1.7 -9.1,-4.4 -15.3,-8 z"
           id="path80"
           inkscape:connector-curvature="0"
           style="fill:#e4ad84" /></g></g></g><g
     id="g82"
     transform="translate(-16.695155,-9.6)"><g
       id="g84"><g
         id="Layer0_3_MEMBER_0_FILL"><path
           class="st3"
           d="m 115.6,301.9 c 0.2,7.2 3.9,10.4 11,9.4 6,-0.9 12.4,-5.3 19.5,-13.4 l 8.9,-11.8 c 0.5,-3.6 0.1,-7.3 -1.4,-11.2 l -2.4,-4.6 c -2.1,-1 -4.8,-1.3 -8,-1.1 -6.5,0.5 -12.5,4 -18,10.4 -6.7,7.5 -9.9,15 -9.6,22.3 z"
           id="path87"
           inkscape:connector-curvature="0"
           style="fill:#8f4932" /></g></g></g><g
     id="g89"
     transform="translate(-16.695155,-9.6)"><g
       id="g91"><g
         id="Layer0_3_MEMBER_1_FILL"><path
           class="st2"
           d="m 144,295.5 c -4.4,6.5 -9.6,11 -15.6,13.6 l -7.7,1.8 7.5,3.2 c 2.7,1 5.6,1.8 8.8,2.6 2.1,-0.3 4.5,-1.1 7.2,-2.4 5.3,-2.6 9.4,-6.3 12.3,-11.2 3,-4.9 4.8,-9.8 5.4,-14.7 l 0.2,-5.9 c -1.5,-2.4 -3,-4.6 -4.5,-6.5 -1.2,-1.3 -2.6,-2.6 -4.1,-4 l -2.2,-1.6 0.3,6.9 c -0.8,5.8 -3.3,11.9 -7.6,18.2 z"
           id="path94"
           inkscape:connector-curvature="0"
           style="fill:#c96746" /></g></g></g><g
     id="g96"
     transform="translate(-16.695155,-9.6)"><g
       id="g98"><g
         id="Layer0_3_MEMBER_2_FILL"><linearGradient
           id="SVGID_1_"
           gradientUnits="userSpaceOnUse"
           x1="130.3318"
           y1="92.287201"
           x2="133.44411"
           y2="136.0986"
           gradientTransform="matrix(1,0,0,-1,0,402.6667)"><stop
             offset="0"
             style="stop-color:#592E20"
             id="stop102" /><stop
             offset="1"
             style="stop-color:#A35339"
             id="stop104" /></linearGradient><path
           class="st10"
           d="m 143.4,274.1 c -2.4,-2 -6.2,-1.1 -11.2,2.9 -3.9,3.1 -7.1,6.5 -9.6,10.4 -6.1,9.8 -6.1,15.2 0,16.1 5.2,1 11,-2.9 17.2,-11.7 6.3,-8.7 7.5,-14.6 3.6,-17.7 z"
           id="path106"
           inkscape:connector-curvature="0"
           style="fill:url(#SVGID_1_)" /></g></g></g><g
     id="g108"
     transform="translate(-16.695155,-9.6)"><g
       id="g110"><g
         id="Layer0_3_MEMBER_3_FILL"><path
           class="st4"
           d="m 160.9,283.5 c -0.9,-1.7 -2.3,-3.6 -4.5,-5.7 l -3,-2.7 4.6,7.3 c 1.3,1.9 1.7,4.5 1.3,7.8 l 0.6,-1.3 c 0.3,-0.6 0.6,-1.7 0.8,-3.2 l 0.2,-2.2 z"
           id="path113"
           inkscape:connector-curvature="0"
           style="fill:#e09d7c" /></g></g></g><g
     id="g115"
     transform="translate(-16.695155,-9.6)"><g
       id="g117"><g
         id="Layer0_3_MEMBER_4_FILL"><path
           class="st5"
           d="m 136,312.6 c -2.2,-0.3 -3.4,-1.1 -3.5,-2.2 l 0.3,-1.6 -1,0.5 c -0.7,0.4 -2.9,1.2 -6.4,2.2 l 2.2,1 c 4.9,1.9 7.9,2.8 8.9,2.7 1.3,-0.2 4.3,-1.5 9.3,-3.8 -3,1.3 -6.3,1.7 -9.8,1.2 z"
           id="path120"
           inkscape:connector-curvature="0"
           style="fill:#ab583c" /></g></g></g><g
     id="g122"
     transform="translate(-16.695155,-9.6)"><g
       id="g124"><g
         id="Layer0_4_MEMBER_0_FILL"><path
           class="st11"
           d="m 224.1,165.4 c -0.2,-5.7 -2.4,-10.3 -6.5,-13.6 l -6.2,-3.4 -17.6,13.2 2.6,17.1 18.2,7.3 c 1.7,-0.2 3.4,-1.3 4.9,-3.2 3.3,-3.5 4.8,-9.4 4.6,-17.4 z"
           id="path127"
           inkscape:connector-curvature="0"
           style="fill:#ebb696" /></g></g></g><g
     id="g129"
     transform="translate(-16.695155,-9.6)"><g
       id="g131"><g
         id="Layer0_4_MEMBER_1_FILL"><path
           class="st4"
           d="m 207.5,153.9 3.8,-5.4 c -11.4,0.4 -24.2,2.9 -38.5,7.3 -28.4,8.8 -49.6,23.2 -63.7,43.1 -19.4,27.6 -21.8,53 -7.3,76.3 7.2,11.6 16.4,20.4 27.5,26.5 0.2,0.3 0.7,0.2 1.6,-0.3 1.7,-1.1 4.2,-3.6 7.5,-7.7 4.8,-6 7.1,-11 6.9,-15.2 l -1.9,-4.5 c -4.9,-3.2 -9,-7.8 -12.4,-13.7 -6.6,-11.9 -5.9,-24.7 2.2,-38.5 9.2,-15.5 25.4,-26.2 48.8,-31.9 11.8,-2.8 22.7,-4 32.6,-3.8 -0.7,0 -1.6,-0.6 -2.6,-1.9 -2.1,-2.6 -3.9,-7 -5.4,-13.4 -1.6,-6.4 -1.3,-12.1 0.9,-16.9 z"
           id="path134"
           inkscape:connector-curvature="0"
           style="fill:#e09d7c" /></g></g></g><g
     id="g136"
     transform="translate(-16.695155,-9.6)"><g
       id="g138"><g
         id="Layer0_4_MEMBER_2_FILL"><linearGradient
           id="SVGID_2_"
           gradientUnits="userSpaceOnUse"
           x1="209.3199"
           y1="246.8201"
           x2="221.1306"
           y2="225.11391"
           gradientTransform="matrix(1,0,0,-1,0,402.6667)"><stop
             offset="0"
             style="stop-color:#824835"
             id="stop142" /><stop
             offset="1"
             style="stop-color:#BA755F"
             id="stop144" /></linearGradient><path
           class="st12"
           d="m 220,160.3 c -2.7,-6.2 -5.1,-8.5 -7.2,-7 -1.7,1.3 -2.9,3.8 -3.5,7.5 -0.9,4.6 -0.3,9.1 1.8,13.6 2.2,4.7 4.3,6.8 6.2,6.4 1.5,-0.2 3,-2.2 4.6,-6.1 1.4,-3.3 0.7,-8.1 -1.9,-14.4 z"
           id="path146"
           inkscape:connector-curvature="0"
           style="fill:url(#SVGID_2_)" /></g></g></g><g
     id="g148"
     transform="translate(-16.695155,-9.6)"><g
       id="g150"><g
         id="Layer0_4_MEMBER_3_FILL"><path
           class="st6"
           d="m 127.1,249.7 c -1.7,-8.8 0.3,-18.1 6.1,-27.8 9.2,-15.5 25.4,-26.2 48.8,-31.9 11.8,-2.8 22.7,-4 32.6,-3.8 -0.7,0 -1.6,-0.6 -2.6,-1.9 -2.1,-2.6 -3.9,-7 -5.4,-13.4 -0.3,-1.1 -0.6,-2.6 -0.8,-4.5 -1.6,0.9 -6.9,3 -16,6.4 -10.5,3.8 -19.2,7.2 -25.9,10.2 -13.5,6.1 -24.1,16.7 -31.8,31.8 -7.1,14.1 -8.8,25.8 -5,34.9 z"
           id="path153"
           inkscape:connector-curvature="0"
           style="fill:#c87d58" /></g></g></g><g
     id="g155"
     transform="translate(-16.695155,-9.6)"><g
       id="g157"><g
         id="Layer0_4_MEMBER_4_FILL"><path
           class="st6"
           d="m 107.8,283.4 c 6.8,8.1 14,14.2 21.5,18.4 0.2,0.3 0.7,0.2 1.6,-0.3 1.7,-1.1 4.2,-3.6 7.5,-7.7 2.1,-2.7 3.8,-5.2 4.9,-7.7 -0.1,0 -1.4,0.7 -3.8,2.2 -2.4,1.5 -5.2,1.5 -8.3,0 -12,-5.5 -21.2,-13.1 -27.5,-22.7 -6.4,-9.9 -9.5,-21.6 -9.4,-35.1 -4.4,19.3 0.1,36.9 13.5,52.9 z"
           id="path160"
           inkscape:connector-curvature="0"
           style="fill:#c87d58" /></g></g></g><g
     id="g162"
     transform="translate(-16.695155,-9.6)"><g
       id="g164"><g
         id="Layer0_4_MEMBER_5_FILL"><path
           class="st13"
           d="m 136,274.1 c -1.7,-3.6 -5.3,-9 -10.9,-16.1 -1.7,-2.1 -2.7,-3.2 -3,-3.4 -0.5,-0.4 -1,0.2 -1.3,1.8 -0.3,2.2 1,6.1 4,11.5 3.2,5.9 6.3,9.3 9.3,10.4 3.1,1.2 3.7,-0.2 1.9,-4.2 z"
           id="path167"
           inkscape:connector-curvature="0"
           style="fill:#edc9b1" /></g></g></g><g
     id="g169"
     transform="translate(-16.695155,-9.6)"><g
       id="g171"><g
         id="Layer0_5_MEMBER_0_FILL"><path
           class="st14"
           d="m 349.1,167.4 c 12.4,-3.5 23.4,-7.1 32.7,-10.7 1.6,-0.6 -6.1,1.2 -23.1,5.6 -10.6,2.8 -38.6,5.1 -83.8,7 l -64.6,2.1 c 0.2,2.7 1.3,5 3.2,7 1,1 1.9,1.6 2.9,2.1 l 22.5,-1.1 c 18.1,-0.9 34.8,-1.3 50.1,-1.3 15.3,0 35.3,-3.6 60.1,-10.7 z"
           id="path174"
           inkscape:connector-curvature="0"
           style="fill:#593f28" /></g></g></g><g
     id="g176"
     transform="translate(-16.695155,-9.6)"><g
       id="g178"><g
         id="Layer0_6_MEMBER_0_FILL"><path
           class="st15"
           d="m 351.2,143.7 39.7,-1.4 34.6,-20.3 -52.2,-31.8 -147.2,25.2 -13.4,19 60.3,10.6 0.5,221.5 34.2,-5.7 5.6,-9.3 40.4,-31.8 61.9,40.2 43.9,-0.5 L 404.3,263 351.2,143.7 z"
           id="path181"
           inkscape:connector-curvature="0"
           style="fill:#4c8772" /></g></g></g><g
     id="g183"
     transform="translate(-16.695155,-9.6)"><g
       id="g185"><g
         id="Layer0_6_MEMBER_1_FILL"><path
           class="st16"
           d="m 326.1,184.1 -24.6,-60.3 -29.5,21.1 1,0.2 -3.2,230 37.8,-14.2 5.6,-9.3 1.9,-1.6 11,-165.9 z"
           id="path188"
           inkscape:connector-curvature="0"
           style="fill:#427563" /></g></g></g><g
     id="g190"
     transform="translate(-16.695155,-9.6)"><g
       id="g192"><g
         id="Layer0_6_MEMBER_2_FILL"><path
           class="st17"
           d="m 316.4,16.5 -8.1,-6.9 c -30.8,40.8 -50.5,66.2 -59.4,76.3 -8.8,10.1 -16.4,20 -22.7,29.5 l 46.6,6.9 c 9.4,1.3 18.3,2.7 26.8,4.3 5.3,120 7.9,186.7 7.8,200.1 -0.1,13.4 -0.1,24.7 0.2,34 l 73.7,-57 78,55.7 -82.7,-235.6 48.8,-1.9 -81.1,-79 C 333.3,32.1 323.9,23.2 316.4,16.5 z"
           id="path195"
           inkscape:connector-curvature="0"
           style="fill:#5a9e85" /></g></g></g><g
     id="g197"
     transform="translate(-16.695155,-9.6)"><g
       id="g199"><g
         id="Layer0_6_MEMBER_3_FILL"><path
           class="st18"
           d="m 359.5,64.7 c 22.1,24.4 33.6,38.1 34.3,41.2 0.4,2 -2.3,4.3 -8.3,6.7 l -9.1,3.2 3.7,-0.3 c 2.4,-0.2 12.9,-0.6 31.3,-1.3 L 359.5,64.7 z"
           id="path202"
           inkscape:connector-curvature="0"
           style="fill:#70ad98" /></g></g></g><g
     id="g204"
     transform="translate(-16.695155,-9.6)"><g
       id="g206"><g
         id="Layer0_6_MEMBER_4_FILL"><path
           class="st18"
           d="m 429.4,296.2 1.9,25.9 c 0.3,2.8 -5.8,1 -18.4,-5.3 l 4.8,4 c 3.1,2.6 13.3,10.4 30.6,23.5 l -18.9,-48.1 z"
           id="path209"
           inkscape:connector-curvature="0"
           style="fill:#70ad98" /></g></g></g><g
     id="g211"
     transform="translate(-16.695155,-9.6)"><g
       id="g213"><g
         id="Layer0_6_MEMBER_5_FILL"><path
           class="st15"
           d="m 366,303.7 c -10.4,7.7 -22,14.6 -34.6,20.7 l -16,7 -0.8,16.3 c 5.2,-5.2 11.1,-10.3 17.6,-15.3 6.4,-4.9 17.6,-14.5 33.8,-28.7 z"
           id="path216"
           inkscape:connector-curvature="0"
           style="fill:#4c8772" /></g></g></g><g
     id="g218"
     transform="translate(-16.695155,-9.6)"><g
       id="g220"><g
         id="Layer0_6_MEMBER_6_FILL"><path
           class="st15"
           d="m 256.8,88.4 -16.1,19.2 20.3,4.9 c -1.6,-1 -3,-2.4 -4.1,-4.3 -2.1,-3.9 -1.8,-8.5 1.1,-13.6 4.5,-8 11.7,-18 21.5,-30 -3.6,2.5 -11.2,10.5 -22.7,23.8 z"
           id="path223"
           inkscape:connector-curvature="0"
           style="fill:#4c8772" /></g></g></g><g
     id="g225"
     transform="translate(-16.695155,-9.6)"><g
       id="g227"><g
         id="Layer0_6_MEMBER_7_FILL"><path
           class="st16"
           d="m 291.2,160.3 3.2,7.2 c 14,-2.2 34.9,-0.9 62.6,4 13,2.3 23.7,5.5 32.2,9.4 5.4,2.6 8.8,4.7 10.2,6.4 0.9,0.9 0,-1.2 -2.6,-6.1 -0.5,-0.5 -2.1,-1.7 -4.6,-3.5 -2.8,-2 -4.6,-3.2 -5.6,-3.5 -31,-9.3 -49.4,-14.3 -55.2,-15.2 -3.5,-0.4 -9.4,-0.8 -17.7,-1.1 -8.9,-0.3 -13.5,-0.5 -13.7,-0.5 -1.5,-0.1 -3.4,0.4 -5.7,1.4 l -3.1,1.5 z"
           id="path230"
           inkscape:connector-curvature="0"
           style="fill:#427563" /></g></g></g><g
     id="g232"
     transform="translate(-16.695155,-9.6)"><g
       id="g234"><g
         id="Layer0_6_MEMBER_8_FILL"><path
           class="st16"
           d="m 296.9,152.2 c 1.4,1.3 2.8,2.4 4.3,3.4 3.1,-2.6 7.9,-6.9 14.5,-12.9 6.8,-4.9 14.9,-8.1 24.4,-9.6 9.3,-1.5 18.8,-1.8 28.6,-0.8 4.9,0.5 8.9,1.2 12,1.9 -4.1,-3.3 -8.6,-5.4 -13.2,-6.4 -11.2,-2.3 -21.1,-3 -29.8,-1.9 -5.2,0.5 -13.8,3.9 -25.7,10.2 -11,5.7 -17,9.4 -18,11 -0.8,0.9 0.2,2.6 2.9,5.1 z"
           id="path237"
           inkscape:connector-curvature="0"
           style="fill:#427563" /></g></g></g><g
     id="g239"
     transform="translate(-16.695155,-9.6)"><g
       id="g241"><g
         id="Layer0_6_MEMBER_9_FILL"><path
           class="st15"
           d="m 390.4,313.4 c -0.7,3.6 -1.1,5.9 -1.1,6.9 l 14.4,8.8 -0.2,-1.6 c -0.1,-4.5 0.3,-8.9 1.3,-13.4 1.6,-7.1 4.4,-12.6 8.5,-16.4 4.7,-4.5 9.4,-7.8 14.2,-9.9 2.3,-1.1 4.3,-1.6 5.7,-1.8 -4.3,-2.7 -8.5,-4 -12.8,-4 -2.8,0 -7.9,3.5 -15.5,10.4 -6.4,6 -10.4,10.2 -12.1,12.8 -0.8,1.3 -1.6,4 -2.4,8.2 z"
           id="path244"
           inkscape:connector-curvature="0"
           style="fill:#4c8772" /></g></g></g><g
     id="g246"
     transform="translate(-16.695155,-9.6)"><g
       id="g248"><g
         id="Layer0_7_MEMBER_0_FILL"><path
           class="st19"
           d="m 396.7,294.6 c -3.5,5.6 -6.1,12.9 -7.7,21.7 -1.9,10.3 -1.6,19 1,26.2 2.9,8 4.6,14.4 5.3,19.2 0.7,5.1 0.4,9.6 -1,13.6 -1.8,5.3 -4,9 -6.7,11.2 2,-0.7 4,-2.2 6.1,-4.3 3.9,-4.3 5.9,-9.6 5.9,-16.1 0,-4.6 -1,-11.6 -2.9,-21.1 -1.7,-8.5 -2.3,-15.7 -1.9,-21.5 0.9,-12.4 6.5,-22.8 17.1,-31.1 5.1,-4 10.4,-6.4 15.8,-7.2 2.7,-0.4 4.8,-0.4 6.5,0 1.3,-1 2.1,-2.1 2.6,-3.4 0.7,-2.7 -1.2,-5 -5.7,-7 -3.6,-1.7 -9.1,-0.6 -16.4,3.4 -7.9,4 -13.9,9.6 -18,16.4 z"
           id="path251"
           inkscape:connector-curvature="0"
           style="fill:#7d5937" /></g></g></g><g
     id="g253"
     transform="translate(-16.695155,-9.6)"><g
       id="g255"><g
         id="Layer0_7_MEMBER_1_FILL"><path
           class="st20"
           d="m 395.5,302.1 7,-9.1 c 6.7,-7.6 12.4,-11.5 17.2,-12 5.5,-0.6 9.5,-1.3 11.8,-2.1 2.1,-0.6 2.3,-1.2 0.6,-1.6 -0.2,-0.4 -1,-0.7 -2.4,-0.8 -2.6,-0.1 -6.4,0.9 -11.7,2.9 -5.3,2 -10.4,5.8 -15.2,11.3 -3.4,3.9 -5.6,7.2 -6.7,9.7 0,0.6 -0.3,1.2 -0.6,1.7 z"
           id="path258"
           inkscape:connector-curvature="0"
           style="fill:#a37c58" /></g></g></g><g
     id="g260"
     transform="translate(-16.695155,-9.6)"><g
       id="g262"><g
         id="Layer0_8_MEMBER_0_FILL"><path
           class="st21"
           d="m 308.4,131.4 c -6.2,3.6 -14.1,10.3 -23.8,20.1 -10.7,10.9 -16,18.4 -15.6,22.5 0.3,3.7 1,6 2.1,6.9 0.5,0.3 1,0.3 1.4,0 -0.3,-0.4 -0.3,-1.3 0.2,-2.6 0.9,-2.6 3.4,-5.9 7.5,-9.9 10.2,-10.4 17.9,-17.7 23.1,-21.7 12.7,-9.8 25,-15.6 36.9,-17.4 11.7,-1.8 22.1,-1.5 31.1,0.8 4.6,1.3 7.9,2.7 10.1,4.1 0.4,-0.7 0.6,-1.8 0.5,-3 -0.2,-2.4 -1.6,-4.7 -4.3,-6.7 -4.3,-3.4 -12.6,-5 -25.1,-4.8 -7.7,0.1 -15.7,1.3 -24.3,3.7 -7.8,2.3 -14.4,5 -19.8,8 z"
           id="path265"
           inkscape:connector-curvature="0"
           style="fill:#735233" /></g></g></g><g
     id="g267"
     transform="translate(-16.695155,-9.6)"><g
       id="g269"><g
         id="Layer0_8_MEMBER_1_FILL"><path
           class="st20"
           d="m 301.5,138.6 15.3,-7.8 c 12.1,-5.2 23,-7.8 32.7,-7.7 9.7,0.1 17.4,0.9 23.1,2.2 2.9,0.7 4.7,1.4 5.6,2.1 -0.5,-0.7 -1.4,-1.5 -2.7,-2.4 -2.6,-1.7 -5.9,-2.8 -9.9,-3.2 -6.9,-0.9 -14.2,-0.9 -21.9,0 -10.9,1 -19.7,3.5 -26.7,7.5 l -15.5,9.3 z"
           id="path272"
           inkscape:connector-curvature="0"
           style="fill:#a37c58" /></g></g></g><g
     id="g274"
     transform="translate(-16.695155,-9.6)"><g
       id="g276"><g
         id="Layer0_9_MEMBER_0_FILL"><path
           class="st19"
           d="m 275.5,160.7 c 17.6,-0.7 36.4,0.3 56.5,3.2 15.4,2.1 29.8,5.1 43.3,8.8 8.9,2.6 15.7,6.1 20.4,10.7 2.3,2.2 3.8,4.3 4.3,6.1 1.9,-2.1 2.1,-5.1 0.5,-8.8 -2.4,-5.9 -13,-12 -31.6,-18.4 -9.9,-3.4 -23.5,-6 -40.9,-7.8 -16,-1.7 -33.3,-2.6 -52,-2.6 -14.8,0 -30,0.9 -45.5,2.7 l -18.8,2.6 c -1.5,0.9 -2.3,2.6 -2.6,5.1 -0.1,1.3 -0.1,2.5 0.2,3.7 l 18.5,-2.1 c 15.5,-1.5 31.4,-2.6 47.7,-3.2 z"
           id="path279"
           inkscape:connector-curvature="0"
           style="fill:#7d5937" /></g></g></g><g
     id="g281"
     transform="translate(-16.695155,-9.6)"><g
       id="g283"><g
         id="Layer0_9_MEMBER_1_FILL"><path
           class="st20"
           d="m 339.4,158.4 c 11.9,2 22,4.5 30.2,7.3 12.7,4.4 21.5,8.5 26.5,12.3 -0.5,-1.1 -2.1,-2.4 -4.8,-4.1 -5.1,-3.4 -12.8,-6.8 -23,-10.1 -8.1,-2.7 -17.9,-4.7 -29.4,-6.1 l -14.8,-1.4 15.3,2.1 z"
           id="path286"
           inkscape:connector-curvature="0"
           style="fill:#a37c58" /></g></g></g></svg>