<?xml version="1.0" encoding="UTF-8" standalone="no"?>
<!-- Generator: Adobe Illustrator 20.1.0, SVG Export Plug-In . SVG Version: 6.00 Build 0)  -->

<svg
   xmlns:dc="http://purl.org/dc/elements/1.1/"
   xmlns:cc="http://creativecommons.org/ns#"
   xmlns:rdf="http://www.w3.org/1999/02/22-rdf-syntax-ns#"
   xmlns:svg="http://www.w3.org/2000/svg"
   xmlns="http://www.w3.org/2000/svg"
   xmlns:sodipodi="http://sodipodi.sourceforge.net/DTD/sodipodi-0.dtd"
   xmlns:inkscape="http://www.inkscape.org/namespaces/inkscape"
   version="1.1"
   id="Layer_1"
   x="0px"
   y="0px"
   viewBox="0 0 291.59999 412.19998"
   xml:space="preserve"
   inkscape:version="0.48.5 r10040"
   width="100%"
   height="100%"
   sodipodi:docname="tree_front_01.svg"><metadata
     id="metadata234"><rdf:RDF><cc:Work
         rdf:about=""><dc:format>image/svg+xml</dc:format><dc:type
           rdf:resource="http://purl.org/dc/dcmitype/StillImage" /></cc:Work></rdf:RDF></metadata><defs
     id="defs232" /><sodipodi:namedview
     pagecolor="#ffffff"
     bordercolor="#666666"
     borderopacity="1"
     objecttolerance="10"
     gridtolerance="10"
     guidetolerance="10"
     inkscape:pageopacity="0"
     inkscape:pageshadow="2"
     inkscape:window-width="640"
     inkscape:window-height="480"
     id="namedview230"
     showgrid="false"
     inkscape:zoom="0.56554038"
     inkscape:cx="145.85"
     inkscape:cy="206.24999"
     inkscape:window-x="0"
     inkscape:window-y="0"
     inkscape:window-maximized="0"
     inkscape:current-layer="Layer_1" /><style
     type="text/css"
     id="style3">
	.st0{enable-background:new    ;}
	.st1{fill:#806E4D;}
	.st2{fill:#6B5D3E;}
	.st3{fill:#4D4430;}
	.st4{fill:#B36940;}
	.st5{fill:#9B5E3A;}
	.st6{fill:#965732;}
	.st7{fill:#794A2C;}
</style><g
     class="st0"
     id="g5"
     style="enable-background:new"
     transform="translate(-2.8,-2.7000025)"><g
       id="g7"><g
         id="g9"><g
           id="Layer0_0_MEMBER_0_FILL"><path
             class="st1"
             d="m 154.3,285.5 -8.9,8.8 11.3,13.4 c 8,9.7 13.1,16.4 15.4,20 2.3,3.7 1,9.1 -4,16.2 -2.5,3.5 -5.3,6.7 -8.2,9.5 l 36.7,20 -7.2,10.6 c -5.6,7.5 -10.2,12.1 -13.9,13.9 -6,3 -13,5.2 -21.1,6.7 h 31.2 l -6.7,10.1 11.2,-6 c 8.1,-3.9 14.1,-5.7 17.8,-5.2 5.9,0.7 11.1,1.9 15.6,3.4 l -14.4,-20 c -2.3,-3.3 -2.1,-7.9 0.6,-14 l 4.9,-8.2 -32.2,-17.9 c 1.5,-2 2.6,-4.7 3.4,-8.1 1.4,-6.8 0.3,-13.8 -3.4,-20.7 -3.7,-7 -9.5,-14.5 -17.3,-22.5 l -10.8,-10 z"
             id="path12"
             inkscape:connector-curvature="0"
             style="fill:#806e4d" /></g></g></g><g
       id="g14"><g
         id="g16"><g
           id="Layer0_0_MEMBER_1_MEMBER_0_FILL"><path
             class="st2"
             d="m 159.8,292.2 -9,8.6 c 11.2,13.2 18.3,22.2 21.2,26.9 2.3,3.7 1,9.1 -4,16.2 -2.5,3.5 -5.3,6.7 -8.2,9.5 l 36.7,20 -7.2,10.6 c -5.6,7.5 -10.2,12.1 -13.9,13.9 -6,3 -13,5.2 -21.1,6.7 H 168 c 7.8,-2.3 14,-5.5 18.6,-9.5 3.7,-3.3 6.5,-6.9 8.6,-11 l 1.9,-5.2 -0.5,8.9 c 0.1,6.8 1.1,12.3 3.2,16.7 3.3,-1 6,-1.4 7.9,-1.1 l 4.4,0.7 c -4.3,-3.5 -7.6,-8.8 -10,-15.8 -1.6,-4.9 -1.7,-10.3 -0.1,-16.4 l 2.8,-7.5 L 176,350 c 1.5,-1.5 2.8,-3.6 4,-6.4 2.3,-5.6 2.6,-11.6 1,-18.1 -1.2,-4.7 -5,-11.7 -11.6,-20.9 l -9.6,-12.4 m 36.2,72.9 -0.6,5 -26.1,-18.3 26.7,13.3 z"
             id="path19"
             inkscape:connector-curvature="0"
             style="fill:#6b5d3e" /></g></g></g><g
       id="g21"><g
         transform="translate(81.25,185.15)"
         id="g23"><g
           id="g25"><g
             id="g27"><g
               id="tree_front_01_ai_Assets_Layer_1__Path__3_0_Layer0_0_FILL_9_"><path
                 class="st2"
                 d="m 115.4,202.8 c 0,-3.4 0.2,-6.4 0.5,-8.9 -0.3,1.4 -0.9,3.2 -1.9,5.2 -2.1,4.1 -5,7.7 -8.6,11 -4.6,4 -10.8,7.1 -18.6,9.5 h 17.5 l -6.7,10.1 c 7.7,-4.7 14.7,-8.1 21,-10.1 -2.1,-4.5 -3.1,-10 -3.2,-16.8 z"
                 id="path30"
                 inkscape:connector-curvature="0"
                 style="fill:#6b5d3e" /></g></g></g></g></g><g
       id="g32"><g
         id="g34"><g
           id="Layer0_0_MEMBER_1_MEMBER_2_FILL"><path
             class="st3"
             d="m 196.6,388 0.5,-8.9 -1.9,5.2 c -2.1,4.1 -5,7.7 -8.6,11 -4.6,4 -10.8,7.1 -18.6,9.5 h 17.5 l -6.7,10.1 c 2,-1.2 4.3,-2.5 7,-4 5.4,-2.8 10.1,-4.9 14,-6.1 -2,-4.5 -3.1,-10.1 -3.2,-16.8 z"
             id="path37"
             inkscape:connector-curvature="0"
             style="fill:#4d4430" /></g></g></g><g
       id="g39"><g
         transform="translate(81.9,171.75)"
         id="g41"><g
           id="g43"><g
             id="g45"><g
               id="tree_front_01_ai_Assets_Layer_1__Path__1_0_Layer0_0_FILL_9_"><polygon
                 class="st2"
                 points="87.4,180 113.5,198.3 114.1,193.3 "
                 id="polygon48"
                 style="fill:#6b5d3e" /></g></g></g></g></g><g
       id="g50"><g
         id="g52"><g
           id="Layer0_0_MEMBER_1_MEMBER_4_FILL"><path
             class="st3"
             d="m 169.3,351.8 26.1,18.3 0.6,-5 -26.7,-13.3 z"
             id="path55"
             inkscape:connector-curvature="0"
             style="fill:#4d4430" /></g></g></g><g
       id="g57"><g
         id="g59"><g
           id="Layer0_0_MEMBER_2_FILL"><path
             class="st3"
             d="m 160.4,297.7 -5,6.7 6.6,5.3 c 4.7,4.1 7.9,7.5 9.6,10.3 1.9,3.3 3.2,6.5 3.8,9.7 0.5,3 0.4,5.4 -0.4,7.1 -1.2,2.2 -2.5,5.4 -4,9.5 1.3,-0.9 2.5,-2.4 3.8,-4.3 2.4,-3.9 3.4,-8.4 2.9,-13.5 -0.5,-5.1 -3.5,-11.8 -9,-19.9 l -8.3,-10.9 z"
             id="path62"
             inkscape:connector-curvature="0"
             style="fill:#4d4430" /></g></g></g><g
       id="g64"><g
         id="g66"><g
           id="Layer0_0_MEMBER_3_FILL"><path
             class="st4"
             d="m 173.2,196.4 15.8,3.5 c 11,2.1 17.6,2.4 19.9,1 -12.5,-12.9 -25.6,-28.6 -39.1,-47 l -16.6,-23.7 20,4.4 -33.4,-43.4 16.8,5.6 C 152.7,91 147.5,84.4 140.8,76.8 127.7,61.6 114.3,49.3 100.9,40 87.4,30.7 67.2,21.7 40.3,13 26.8,8.6 14.7,5.2 3.9,2.7 23.8,15.2 37,31.2 43.5,50.5 c 3.3,9.7 4.5,18.1 3.8,25.2 l 12.3,-33.4 -2.2,86.9 20,-47.9 4.6,24.2 c 3.2,18.6 5,33.9 5.5,45.9 0.4,10.8 -1.4,32.6 -5.3,65.4 -1.9,16.4 -3.9,31.7 -5.9,45.9 l 26.7,-61.2 -1.8,15.6 c -2,14.8 -5.1,33.4 -9.4,55.7 -4.1,22.2 -20.2,43 -48.2,62.2 -14,9.7 -27.5,17.1 -40.8,22.3 4.3,-0.1 9.4,-0.6 15.4,-1.4 12,-1.6 22.4,-3.9 31.3,-6.9 16.3,-5.6 21.1,-3.8 14.6,5.3 -3.3,4.6 -8.1,9.7 -14.6,15.3 6.3,-1 13.7,-2.7 22.2,-5.2 16.9,-4.8 30.7,-10.7 41.4,-17.7 10.7,-7 22.1,-16.9 34.1,-29.7 l 14.8,-17.1 14.4,6 c 11.2,4.3 20.5,7.1 27.8,8.5 7.4,1.4 20,1.7 37.8,0.7 8.9,-0.5 17.1,-1.1 24.5,-1.8 -7.7,-3.2 -14.4,-6.5 -20.1,-10.1 -11.5,-6.9 -12.6,-11 -3.3,-12.2 10.7,-1.4 22.5,-5.2 35.3,-11.3 6.4,-3.1 11.7,-6.1 16,-8.8 -19.4,0.5 -34.6,-1.1 -45.6,-4.8 C 237.1,262 225.2,254 213.1,242 c -8.9,-8.9 -18.2,-19.2 -27.9,-30.9 l -12,-14.7 z"
             id="path69"
             inkscape:connector-curvature="0"
             style="fill:#b36940" /></g></g></g><g
       id="g71"><g
         id="g73"><g
           id="Layer0_0_MEMBER_4_MEMBER_0_FILL"><path
             class="st5"
             d="M 50.3,43.1 C 50.9,42.2 51.1,40.7 51,38.7 50.7,34.6 48.5,29.7 44.3,24.1 38.9,17 26.1,10.3 5.9,4 c 19,12.5 31.7,28.2 37.9,47.1 3.1,9.5 4.3,17.7 3.6,24.6 l 12.3,-33.4 -2.2,86.9 20,-47.9 4.6,24.2 c 3.2,18.6 5,33.9 5.5,45.9 0.4,10.8 -1.4,32.6 -5.3,65.4 -1.9,16.4 -3.9,31.7 -5.9,45.9 l 26.7,-61.2 -1.8,15.6 c -2,14.8 -5.1,33.4 -9.4,55.7 -4.2,22.2 -20.3,43 -48.3,62.2 -14,9.7 -27.5,17.1 -40.8,22.3 4.3,-0.1 9.4,-0.6 15.4,-1.4 12,-1.6 22.4,-3.9 31.3,-6.9 16.3,-5.6 21.1,-3.8 14.6,5.3 -3.3,4.6 -8.1,9.7 -14.6,15.3 6.3,-1 13.7,-2.7 22.2,-5.2 16.9,-4.8 30.7,-10.7 41.4,-17.7 10.7,-7 22.1,-16.9 34.1,-29.7 l 14.8,-17.1 14.4,6 c 11.2,4.3 20.5,7.1 27.8,8.5 7.4,1.4 20,1.7 37.8,0.7 8.9,-0.5 17.1,-1.1 24.5,-1.8 -7.7,-3.2 -14.4,-6.5 -20.1,-10.1 -11.5,-6.9 -12.6,-11 -3.3,-12.2 10.7,-1.4 22.5,-5.2 35.3,-11.3 6.4,-3.1 11.7,-6.1 16,-8.8 l -3.5,0.1 -0.4,0.2 c -9.1,4.5 -25.2,7.7 -48.3,9.6 l -31.9,1.3 1.9,5.1 c 2,4.1 4.7,7.7 8.1,10.8 5.6,5 10.3,8.4 14.1,10.1 -2.1,0.3 -4.7,0.3 -7.8,0.2 -6.2,-0.3 -12,-1.5 -17.2,-3.6 -5.2,-2.1 -14.7,-6.7 -28.5,-13.9 l -19.1,-10.3 -18.4,16.6 c -13.3,11 -22.8,16.3 -28.5,16 -5.3,-0.3 -6.4,-7.7 -3.5,-22.1 2.1,-8.9 3.7,-15.8 4.8,-20.6 2,-8.7 3.2,-16 3.8,-21.6 1.4,-15 2.5,-35 3.4,-60.2 l 0.8,-33.3 -14.2,13.4 c 0.8,-2.9 1.6,-6.7 2.2,-11.5 1.2,-9.5 1.3,-18.8 0.3,-27.8 -1.1,-9 -6.3,-24.8 -15.6,-47.4 L 83.5,50.8 69.4,75 62.7,24.9 50.3,43.1 z"
             id="path76"
             inkscape:connector-curvature="0"
             style="fill:#9b5e3a" /></g></g></g><g
       id="g78"><g
         id="g80"><g
           id="Layer0_0_MEMBER_5_MEMBER_0_MEMBER_0_FILL"><path
             class="st6"
             d="m 152,216.7 c -2.4,11.2 -3.8,18 -4.2,20.1 -1.6,-3.3 -4.2,-9.6 -8,-18.8 2.8,9.6 5.8,19.3 9.1,29.1 0.8,-10.4 1.8,-20.5 3.1,-30.4 z"
             id="path83"
             inkscape:connector-curvature="0"
             style="fill:#965732" /></g></g></g><g
       id="g85"><g
         id="g87"><g
           id="Layer0_0_MEMBER_6_MEMBER_0_MEMBER_0_FILL"><path
             class="st6"
             d="m 191.7,232.8 c 0.4,0.7 2,3.7 4.9,8.8 2,3.5 3.5,6.5 4.5,8.9 -2.2,-1.4 -5,-3 -8.4,-4.7 -3.9,-1.8 -6.7,-3.1 -8.5,-4.1 8.1,4.8 15.8,10.2 23.3,16.3 -4.5,-8.2 -9.7,-16.6 -15.8,-25.2 z"
             id="path90"
             inkscape:connector-curvature="0"
             style="fill:#965732" /></g></g></g><g
       id="g92"><g
         id="g94"><g
           id="Layer0_0_MEMBER_7_MEMBER_0_MEMBER_0_FILL"><path
             class="st6"
             d="m 134.7,262.9 c -0.1,0.2 -1.3,2.1 -3.5,5.6 -1.5,2.4 -2.6,4.4 -3.3,6.2 -0.5,-1.9 -0.8,-4.2 -0.9,-6.9 -0.1,-3.1 -0.2,-5.5 -0.3,-7.2 -0.7,6.8 -0.6,13.8 0.3,21 2,-6.6 4.6,-12.8 7.7,-18.7 z"
             id="path97"
             inkscape:connector-curvature="0"
             style="fill:#965732" /></g></g></g><g
       id="g99"><g
         id="g101"><g
           id="Layer0_0_MEMBER_8_MEMBER_0_MEMBER_0_FILL"><path
             class="st6"
             d="m 141.8,114.7 c -1.5,-1 -5.8,-3.6 -12.9,-7.8 4,2.9 9.9,7.5 17.8,13.7 -3.5,-6.7 -7.3,-13.4 -11.3,-20.1 3.1,6.7 5.3,11.4 6.4,14.2 z"
             id="path104"
             inkscape:connector-curvature="0"
             style="fill:#965732" /></g></g></g><g
       id="g106"><g
         id="g108"><g
           id="Layer0_0_MEMBER_9_MEMBER_0_MEMBER_0_FILL"><path
             class="st6"
             d="m 146.8,149.2 c 4.4,7 7,13.2 7.9,18.8 -3.6,-3.9 -8.6,-7.1 -15,-9.8 7.9,3.9 14.1,10.1 18.6,18.6 -0.9,-10.4 -4.7,-19.7 -11.5,-27.6 z"
             id="path111"
             inkscape:connector-curvature="0"
             style="fill:#965732" /></g></g></g><g
       id="g113"><g
         id="g115"><g
           id="Layer0_0_MEMBER_10_MEMBER_0_MEMBER_0_FILL"><path
             class="st6"
             d="m 125.9,131.2 c -2.2,3.6 -3.8,7 -4.7,10.3 -1.3,-3.5 -2,-7.5 -2.2,-12 -0.4,5.2 0.4,11.2 2.5,17.9 0.8,-6.9 2.2,-12.3 4.4,-16.2 z"
             id="path118"
             inkscape:connector-curvature="0"
             style="fill:#965732" /></g></g></g><g
       id="g120"><g
         id="g122"><g
           id="Layer0_0_MEMBER_11_MEMBER_0_MEMBER_0_FILL"><path
             class="st6"
             d="m 188.2,265.7 c 0.6,1.6 1.5,4 2.5,7.2 1,2.9 2,5.3 2.9,7.2 -1.9,-1 -4.1,-2.4 -6.5,-4.2 -2.8,-2.1 -5,-3.7 -6.5,-4.8 5.6,5.4 11.7,10.3 18.2,14.7 -4,-6.3 -7.5,-13.1 -10.6,-20.1 z"
             id="path125"
             inkscape:connector-curvature="0"
             style="fill:#965732" /></g></g></g><g
       id="g127"><g
         id="g129"><g
           id="Layer0_0_MEMBER_12_MEMBER_0_MEMBER_0_FILL"><path
             class="st6"
             d="m 77.4,33.3 c -0.5,1.6 -1.3,4.1 -2.3,7.3 C 75,40.4 74.3,38 73,33.5 c 0.8,3.6 1.4,7.2 1.8,10.9 1.1,-3.6 2,-7.3 2.6,-11.1 z"
             id="path132"
             inkscape:connector-curvature="0"
             style="fill:#965732" /></g></g></g><g
       id="g134"><g
         id="g136"><g
           id="Layer0_0_MEMBER_13_MEMBER_0_MEMBER_0_FILL"><path
             class="st6"
             d="m 95.5,45.1 c 1.3,3 2,4.7 2.2,5 -0.1,-0.1 -1.8,-1 -4.9,-2.8 2.2,1.8 4.5,3.4 6.9,4.9 -1.7,-2.5 -3.1,-4.8 -4.2,-7.1 z"
             id="path139"
             inkscape:connector-curvature="0"
             style="fill:#965732" /></g></g></g><g
       id="g141"><g
         id="g143"><g
           id="Layer0_0_MEMBER_14_MEMBER_0_MEMBER_0_FILL"><path
             class="st7"
             d="M 108.8,292.4 96,307.3 98,288.1 c -1.9,8.5 -3.9,17.9 -5.9,28.2 4.8,-7 10.4,-14.9 16.7,-23.9 z"
             id="path146"
             inkscape:connector-curvature="0"
             style="fill:#794a2c" /></g></g></g><g
       id="g148"><g
         id="g150"><g
           id="Layer0_0_MEMBER_15_MEMBER_0_MEMBER_0_FILL"><path
             class="st7"
             d="m 98.8,340.5 c -0.2,0.1 -2,1.3 -5.5,3.6 -2.2,1.5 -4,2.8 -5.3,4 0.4,-1.8 1.1,-3.9 2,-6.3 1.2,-2.7 2,-4.8 2.5,-6.2 -3.2,5.5 -6,11.5 -8.3,18 4.3,-4.6 9.1,-9 14.6,-13.1 z"
             id="path153"
             inkscape:connector-curvature="0"
             style="fill:#794a2c" /></g></g></g><g
       id="g155"><g
         id="g157"><g
           id="Layer0_0_MEMBER_16_MEMBER_0_MEMBER_0_FILL"><path
             class="st7"
             d="m 57.4,335.8 -6,4.3 2.4,-6.8 -4.8,9.7 8.4,-7.2 z"
             id="path160"
             inkscape:connector-curvature="0"
             style="fill:#794a2c" /></g></g></g><g
       id="g162"><g
         id="g164"><g
           id="Layer0_0_MEMBER_17_MEMBER_0_MEMBER_0_FILL"><path
             class="st7"
             d="m 104,173.5 c -1.2,2.3 -3,5.7 -5.3,10.3 -2.1,4.1 -4,7.4 -5.7,9.9 0,-3 -0.3,-6.6 -0.8,-10.9 -0.7,-4.8 -1.3,-8.4 -1.5,-10.7 0.6,10.4 0.3,21.1 -0.8,32.2 5.4,-9.8 10.2,-20 14.1,-30.8 z"
             id="path167"
             inkscape:connector-curvature="0"
             style="fill:#794a2c" /></g></g></g><g
       id="g169"><g
         id="g171"><g
           id="Layer0_0_MEMBER_18_MEMBER_0_MEMBER_0_FILL"><path
             class="st7"
             d="m 115.1,216.4 c -0.2,0.4 -1.3,2.3 -3.2,5.6 -1.3,2.2 -2.2,4.2 -2.7,5.8 -0.5,-1.7 -0.8,-3.8 -1.1,-6.4 -0.3,-4.1 -0.5,-6.3 -0.6,-6.6 -0.4,6.2 0,12.7 1.2,19.5 1.5,-6.3 3.6,-12.3 6.4,-17.9 z"
             id="path174"
             inkscape:connector-curvature="0"
             style="fill:#794a2c" /></g></g></g><g
       id="g176"><g
         id="g178"><g
           id="Layer0_0_MEMBER_19_MEMBER_0_MEMBER_0_FILL"><path
             class="st7"
             d="m 98.6,107.9 c -0.3,2.4 -0.7,4.5 -1.2,6.1 -0.5,-1.6 -1.4,-3.4 -2.4,-5.5 -1.2,-2.3 -2.1,-4 -2.6,-5.2 2.1,4.9 3.9,10.5 5.4,16.8 1.1,-6.2 1.7,-12.4 1.7,-18.5 -0.2,0.3 -0.5,2.4 -0.9,6.3 z"
             id="path181"
             inkscape:connector-curvature="0"
             style="fill:#794a2c" /></g></g></g><g
       id="g183"><g
         id="g185"><g
           id="Layer0_0_MEMBER_20_MEMBER_0_MEMBER_0_FILL"><path
             class="st7"
             d="m 67.7,82.3 c -2.4,4.4 -3.7,6.9 -4,7.5 -0.2,-1 -0.5,-3.8 -1,-8.4 -0.1,4.5 0,8.7 0.4,12.6 1.3,-3.9 2.8,-7.8 4.6,-11.7 z"
             id="path188"
             inkscape:connector-curvature="0"
             style="fill:#794a2c" /></g></g></g><g
       id="g190"><g
         id="g192"><g
           id="Layer0_0_MEMBER_21_MEMBER_0_MEMBER_0_FILL"><path
             class="st7"
             d="m 49.8,44.1 c -0.3,2.6 -0.6,4.1 -0.7,4.7 -0.1,-0.5 -0.8,-1.8 -1.9,-3.9 0.9,2 1.5,4.1 1.9,6.2 0.5,-2.5 0.7,-4.8 0.7,-7 z"
             id="path195"
             inkscape:connector-curvature="0"
             style="fill:#794a2c" /></g></g></g><g
       id="g197"><g
         transform="translate(72.15,63.15)"
         id="g199"><g
           id="g201"><g
             id="g203"><g
               id="tree_front_01_ai_Assets_Layer_1__Path__2_0_Layer0_0_FILL_11_"><path
                 class="st4"
                 d="m 93.7,121.3 c 0.6,-0.4 1.2,-1.3 1.8,-2.6 1.2,-2.8 1.6,-6.5 1.4,-11.2 -0.1,-4.7 3.7,-2.9 11.4,5.2 3.9,4.1 7.7,8.6 11.6,13.6 L 77.3,67.9 c 5,11.4 8.9,21 11.7,28.8 1.8,4.9 3,10.5 3.9,16.8 0.5,3 0.7,5.7 0.8,7.8 z"
                 id="path206"
                 inkscape:connector-curvature="0"
                 style="fill:#b36940" /></g></g></g></g></g><g
       id="g208"><g
         transform="translate(51,22.7)"
         id="g210"><g
           id="g212"><g
             id="g214"><g
               id="tree_front_01_ai_Assets_Layer_1__Path__1_0_0_Layer0_0_FILL_11_"><path
                 class="st4"
                 d="m 64.2,51.9 c 0.6,4.1 0.9,10.3 0.9,18.5 0.1,-4.8 0.3,-9.6 0.6,-14.3 0.7,-10.8 1.7,-15.9 3.2,-15.4 2.2,0.9 10,8.4 23.4,22.6 C 85.8,53.4 79.8,46 74.3,41 68.7,36.1 62.5,31.1 55.5,26.1 c 5.3,12.8 8.2,21.4 8.7,25.8 z"
                 id="path217"
                 inkscape:connector-curvature="0"
                 style="fill:#b36940" /></g></g></g></g></g><g
       id="g219"><g
         transform="translate(75.05,100.55)"
         id="g221"><g
           id="g223"><g
             id="g225"><g
               id="tree_front_01_ai_Assets_Layer_1__Path__0_Layer0_0_FILL_11_"><path
                 class="st4"
                 d="m 91.7,122.5 c -1.4,-5.6 -2.5,-11 -3.6,-16.1 l -2.2,25 c -0.7,7.8 -2.6,17.1 -5.6,27.8 0.7,-1.3 1.6,-2.7 2.7,-4.3 2.2,-3.1 4.5,-5.2 6.7,-6.3 2.3,-1.2 7.6,0.3 15.8,4.3 4.1,2 7.9,4.1 11.5,6.3 -10,-6.7 -16.3,-12.1 -18.9,-16.2 -1.6,-2.3 -3.7,-9.2 -6.4,-20.5 z"
                 id="path228"
                 inkscape:connector-curvature="0"
                 style="fill:#b36940" /></g></g></g></g></g></g></svg>