<?xml version="1.0" encoding="UTF-8" standalone="no"?>
<!-- Generator: Adobe Illustrator 20.1.0, SVG Export Plug-In . SVG Version: 6.00 Build 0)  -->

<svg
   xmlns:dc="http://purl.org/dc/elements/1.1/"
   xmlns:cc="http://creativecommons.org/ns#"
   xmlns:rdf="http://www.w3.org/1999/02/22-rdf-syntax-ns#"
   xmlns:svg="http://www.w3.org/2000/svg"
   xmlns="http://www.w3.org/2000/svg"
   xmlns:sodipodi="http://sodipodi.sourceforge.net/DTD/sodipodi-0.dtd"
   xmlns:inkscape="http://www.inkscape.org/namespaces/inkscape"
   version="1.1"
   id="Layer_1"
   x="0px"
   y="0px"
   viewBox="0 0 161.2 272.2"
   xml:space="preserve"
   inkscape:version="0.48.5 r10040"
   width="100%"
   height="100%"
   sodipodi:docname="vine_12.svg"><metadata
     id="metadata200"><rdf:RDF><cc:Work
         rdf:about=""><dc:format>image/svg+xml</dc:format><dc:type
           rdf:resource="http://purl.org/dc/dcmitype/StillImage" /></cc:Work></rdf:RDF></metadata><defs
     id="defs198" /><sodipodi:namedview
     pagecolor="#ffffff"
     bordercolor="#666666"
     borderopacity="1"
     objecttolerance="10"
     gridtolerance="10"
     guidetolerance="10"
     inkscape:pageopacity="0"
     inkscape:pageshadow="2"
     inkscape:window-width="640"
     inkscape:window-height="480"
     id="namedview196"
     showgrid="false"
     inkscape:zoom="0.84678866"
     inkscape:cx="80.5"
     inkscape:cy="136.15001"
     inkscape:window-x="0"
     inkscape:window-y="0"
     inkscape:window-maximized="0"
     inkscape:current-layer="Layer_1" /><style
     type="text/css"
     id="style3">
	.st0{fill:#66926C;}
	.st1{fill:#CCC869;}
	.st2{fill:#A5BA7E;}
	.st3{fill:#A2BDA2;}
	.st4{fill:#89AA8B;}
	.st5{fill:#6B8B6F;}
	.st6{fill:#C2D6C1;}
</style><g
     id="g5"
     transform="translate(-5.5,-3.3000061)"><g
       id="g7"><g
         id="g9"><g
           id="Layer0_0_MEMBER_0_FILL"><path
             class="st0"
             d="M 83,20.8 C 80.5,20.6 77.5,20.6 74,20.9 67,21.5 61.1,23.3 56.4,26.2 51,29.5 47.1,35 44.7,43 42.8,49.2 42,55.7 42.3,62.3 c 0.2,5.5 1.2,11.4 2.8,17.6 0.8,3.2 1.6,5.8 2.4,7.8 l 7.9,1 c -1.7,-1.8 -3.3,-4.2 -5,-7.4 -3.3,-6.4 -4.9,-13.2 -4.9,-20.3 0,-8 1.3,-15.2 3.8,-21.3 2.2,-5.5 5.2,-9.9 8.8,-13 2.9,-2.4 7.9,-4.1 15,-5.1 3.6,-0.4 6.9,-0.7 9.9,-0.8 z"
             id="path12"
             inkscape:connector-curvature="0"
             style="fill:#66926c" /></g></g></g><g
       id="g14"><g
         id="g16"><g
           id="Layer0_0_MEMBER_1_MEMBER_0_FILL"><path
             class="st1"
             d="m 86.6,21.7 -4.9,-0.3 2.2,4.7 c 2.2,3.4 5.2,5.7 9,6.7 3.8,1.1 8.2,0.8 13.2,-1 2.5,-0.9 4.6,-1.9 6.4,-3 -1.2,-1.6 -2.7,-3.1 -4.6,-4.6 -3.7,-3 -7.2,-4.1 -10.4,-3.5 -3.4,0.9 -7,1.1 -10.9,1 z"
             id="path19"
             inkscape:connector-curvature="0"
             style="fill:#ccc869" /></g></g></g><g
       id="g21"><g
         id="g23"><g
           id="Layer0_0_MEMBER_1_MEMBER_1_MEMBER_0_MEMBER_0_MEMBER_0_FILL"><path
             class="st2"
             d="m 83,22.5 c -0.1,0.1 1.7,0.9 5.4,2.4 4,1.6 6.9,2.4 8.7,2.5 0.6,0.1 3.6,0.2 8.9,0.3 3.8,0 5.7,0.4 5.6,1 0.2,-0.6 -1.4,-1.1 -4.9,-1.6 -0.1,0 -3.3,-0.3 -9.5,-0.9 C 94.9,25.9 91.8,25.1 88,24 l -5,-1.5 z"
             id="path26"
             inkscape:connector-curvature="0"
             style="fill:#a5ba7e" /></g></g></g><g
       id="g28"><g
         id="g30"><g
           id="Layer0_0_MEMBER_1_MEMBER_2_MEMBER_0_MEMBER_0_MEMBER_0_FILL"><path
             class="st2"
             d="m 85.9,24 1.7,3.9 c 0.3,0.8 1.5,1.6 3.3,2.5 -1.5,-0.8 -2.6,-1.8 -3.1,-2.7 L 85.9,24 z"
             id="path33"
             inkscape:connector-curvature="0"
             style="fill:#a5ba7e" /></g></g></g><g
       id="g35"><g
         id="g37"><g
           id="Layer0_0_MEMBER_1_MEMBER_6_MEMBER_0_MEMBER_0_MEMBER_0_FILL"><path
             class="st2"
             d="m 91.3,25.6 c 0,0 0.1,0.4 0.4,1.3 0.3,0.9 0.7,1.6 1,1.9 0.3,0.5 1.3,1.2 2.7,1.9 -1.2,-0.7 -2.1,-1.4 -2.6,-2.1 -0.3,-0.4 -0.6,-1.1 -1,-1.9 l -0.5,-1.1 z"
             id="path40"
             inkscape:connector-curvature="0"
             style="fill:#a5ba7e" /></g></g></g><g
       id="g42"><g
         id="g44"><g
           id="Layer0_0_MEMBER_1_MEMBER_7_MEMBER_0_MEMBER_0_MEMBER_0_FILL"><path
             class="st2"
             d="m 95.8,26.9 c 0,0 0.3,0.4 1,1.3 0.7,0.9 1.3,1.6 1.7,1.9 0.5,0.6 1.8,1.2 3.8,1.9 -1.6,-0.6 -2.8,-1.4 -3.6,-2.1 l -2.9,-3 z"
             id="path47"
             inkscape:connector-curvature="0"
             style="fill:#a5ba7e" /></g></g></g><g
       id="g49"><g
         id="g51"><g
           id="Layer0_0_MEMBER_1_MEMBER_8_MEMBER_0_MEMBER_0_MEMBER_0_FILL"><path
             class="st2"
             d="m 100.1,27.5 c 0,0 0.2,0.4 0.9,1.1 0.7,0.7 1.3,1.2 1.7,1.5 0.5,0.4 1.6,0.9 3.3,1.5 -1.4,-0.6 -2.4,-1.2 -3.2,-1.8 -0.5,-0.3 -1.1,-0.8 -1.8,-1.4 -0.7,-0.6 -1,-0.9 -0.9,-0.9 z"
             id="path54"
             inkscape:connector-curvature="0"
             style="fill:#a5ba7e" /></g></g></g><g
       id="g56"><g
         id="g58"><g
           id="Layer0_0_MEMBER_2_MEMBER_0_FILL"><path
             class="st1"
             d="m 65.5,18.7 c 4.1,-2.8 6.4,-4.4 6.9,-4.9 1.4,-1.3 2.2,-3.4 2.5,-6.4 0.1,-1.5 0.1,-2.9 0,-4.1 -2.1,0.6 -4.3,1.4 -6.7,2.3 -4.7,1.9 -7.9,3.7 -9.4,5.5 -1.5,1.8 -1.7,4.4 -0.4,7.8 0.6,1.7 1.4,3.3 2.3,4.7 0.2,-1.2 1.8,-2.8 4.8,-4.9 z"
             id="path61"
             inkscape:connector-curvature="0"
             style="fill:#ccc869" /></g></g></g><g
       id="g63"><g
         id="g65"><g
           id="Layer0_0_MEMBER_2_MEMBER_1_MEMBER_0_MEMBER_0_MEMBER_0_FILL"><path
             class="st2"
             d="m 67.1,13.1 c 1.5,-0.5 3.3,-2.1 5.3,-4.7 2,-2.6 2.6,-4 2,-4.3 0.4,0.3 -0.2,1.5 -2,3.6 -2,2.3 -4,3.8 -5.9,4.7 -2.9,1.9 -4.6,3.8 -5.1,5.7 -0.3,0.9 -0.4,1.9 -0.3,3 l 0.1,1.1 c 0,-0.3 0,-0.8 0,-1.3 0,-1.1 0.3,-2.1 0.9,-3 0.9,-1.6 2.5,-3.1 5,-4.8 z"
             id="path68"
             inkscape:connector-curvature="0"
             style="fill:#a5ba7e" /></g></g></g><g
       id="g70"><g
         id="g72"><g
           id="Layer0_0_MEMBER_2_MEMBER_2_MEMBER_0_MEMBER_0_MEMBER_0_FILL"><path
             class="st2"
             d="m 67.5,12.8 c 0,0 0.3,0.1 1,0.3 0.7,0.1 1.2,0.2 1.5,0.2 0.5,0 1.4,-0.2 2.5,-0.7 -1,0.4 -1.8,0.6 -2.5,0.5 l -2.5,-0.3 z"
             id="path75"
             inkscape:connector-curvature="0"
             style="fill:#a5ba7e" /></g></g></g><g
       id="g77"><g
         id="g79"><g
           id="Layer0_0_MEMBER_2_MEMBER_3_MEMBER_0_MEMBER_0_MEMBER_0_FILL"><path
             class="st2"
             d="m 61.7,17.7 c -1.1,-0.5 -1.8,-1 -2.1,-1.3 -0.3,-0.1 -0.6,-0.5 -1,-1.1 -0.1,-0.1 -0.1,-0.2 -0.1,-0.3 0,0.1 0,0.2 0.1,0.2 0.3,0.6 0.6,1 1,1.3 0.3,0.5 1.1,0.9 2.1,1.2 z"
             id="path82"
             inkscape:connector-curvature="0"
             style="fill:#a5ba7e" /></g></g></g><g
       id="g84"><g
         id="g86"><g
           id="Layer0_0_MEMBER_2_MEMBER_6_MEMBER_0_MEMBER_0_MEMBER_0_FILL"><path
             class="st2"
             d="m 64.7,14.3 c -0.5,-1.2 -0.8,-2.1 -0.9,-2.6 -0.1,-0.3 -0.1,-0.9 0,-1.6 0,-0.4 0.1,-0.6 0.1,-0.8 L 63.7,10 c -0.1,0.7 -0.2,1.3 -0.1,1.8 0.2,0.7 0.5,1.6 1.1,2.5 z"
             id="path89"
             inkscape:connector-curvature="0"
             style="fill:#a5ba7e" /></g></g></g><g
       id="g91"><g
         id="g93"><g
           id="Layer0_0_MEMBER_3_MEMBER_0_MEMBER_0_FILL"><path
             class="st1"
             d="m 56.4,28.8 0.7,0.6 c 0.6,0.4 1.2,0.6 1.8,0.7 1,0.2 1.8,0 2.5,-0.7 -0.2,-0.8 -0.9,-1.3 -2.1,-1.5 -0.7,-0.1 -1.4,0 -2.1,0.3 l -0.8,0.6 z"
             id="path96"
             inkscape:connector-curvature="0"
             style="fill:#ccc869" /></g></g></g><g
       id="g98"><g
         id="g100"><g
           id="Layer0_0_MEMBER_4_MEMBER_0_MEMBER_0_FILL"><path
             class="st1"
             d="m 48.5,34.4 c 0.3,-1.5 0.1,-2.8 -0.6,-4.1 -0.4,-0.8 -1,-1.4 -1.8,-1.8 l -1.1,-0.4 -0.4,1 c -0.1,0.8 0,1.7 0.4,2.5 0.8,1.4 2,2.4 3.5,2.8 z"
             id="path103"
             inkscape:connector-curvature="0"
             style="fill:#ccc869" /></g></g></g><g
       id="g105"><g
         id="g107"><g
           id="Layer0_0_MEMBER_5_MEMBER_0_MEMBER_0_FILL"><path
             class="st1"
             d="m 49.4,40 0.8,0.5 c 0.6,0.3 1.3,0.5 1.9,0.5 1.1,0 1.9,-0.3 2.5,-1 -0.3,-0.8 -1.1,-1.2 -2.3,-1.3 -0.7,0 -1.4,0.1 -2.1,0.6 L 49.4,40 z"
             id="path110"
             inkscape:connector-curvature="0"
             style="fill:#ccc869" /></g></g></g><g
       id="g112"><g
         id="g114"><g
           id="Layer0_0_MEMBER_6_MEMBER_0_MEMBER_0_FILL"><path
             class="st1"
             d="m 52,34.5 0.4,0.3 c 0.3,0.1 0.7,0.2 1,0.2 0.4,0 0.8,-0.1 1.2,-0.5 -0.1,-0.3 -0.5,-0.5 -1.1,-0.6 -0.3,0 -0.7,0.1 -1,0.3 L 52,34.5 z"
             id="path117"
             inkscape:connector-curvature="0"
             style="fill:#ccc869" /></g></g></g><g
       id="g119"><g
         id="g121"><g
           id="Layer0_0_MEMBER_7_MEMBER_0_MEMBER_0_FILL"><path
             class="st1"
             d="m 52.4,29.3 c 0.2,-0.7 0.2,-1.4 0,-2 -0.1,-0.4 -0.3,-0.8 -0.7,-1.1 L 51.2,25.8 51,26.3 c -0.2,0.4 -0.2,0.9 -0.1,1.4 0.2,0.8 0.8,1.3 1.5,1.6 z"
             id="path124"
             inkscape:connector-curvature="0"
             style="fill:#ccc869" /></g></g></g><g
       id="g126"><g
         id="g128"><g
           id="Layer0_0_MEMBER_8_MEMBER_1_FILL"><path
             class="st3"
             d="m 157.9,141.6 c -5,-4.8 -10.4,-8.9 -16.2,-12.1 -11.7,-6.5 -19.4,-5.7 -23.3,2.3 -1.4,3 -2.6,6.5 -3.4,10.5 -5.2,-10.2 -14.1,-20.5 -26.6,-31.1 -6.4,-5.2 -11,-9 -13.9,-11.4 -4.8,-4 -8.3,-7.3 -10.4,-10 C 57.9,82 54.4,74.4 53.7,67 c -0.8,-8.1 1.5,-16.5 7,-25.1 4.7,-7.4 13.1,-8.5 25.2,-3.3 6,2.6 11.6,6 16.6,10 -4.6,-4.8 -10.1,-8.8 -16.2,-12 -12.4,-6.3 -22.4,-5.4 -30,2.9 -7.6,8.3 -10.9,17.6 -10,27.9 0.4,5.2 1.7,9.5 3.6,13 C 48.7,79.5 47.4,78.1 46,76.1 43.2,72.1 41.4,67.5 40.5,62.2 40,58.6 40.7,53.3 42.9,46.3 44.8,40 44.8,33.9 43,28.2 41,21.6 34.1,17 22.4,14.6 16.6,13.4 10.9,12.8 5.5,12.9 c 7.8,0.6 14.9,2.4 21.4,5.3 12.9,5.9 16,14.5 9.2,25.8 -7.2,12 -5.3,25.9 5.7,41.6 6.5,9.3 19.2,22.4 38.2,39.3 6.8,6 12.1,13.7 15.9,23.1 3.6,8.6 5.7,18 6.3,28.2 -2.8,-6.3 -6.1,-11.2 -9.9,-14.7 -5.7,-5.1 -11.9,-6.3 -18.7,-3.6 -7.6,3.1 -11.7,9.8 -12.3,20.3 -0.3,6.2 -0.6,9.9 -0.8,10.9 -0.7,3.5 -2.5,5.7 -5.2,6.8 -5.7,2.3 -10.3,2.5 -13.9,0.4 2.7,1.9 5.5,2.9 8.4,3 4.1,0.1 8.1,-1.5 11.9,-5 2.5,-2.3 4.2,-5.3 5.1,-9 0.3,-1.2 0.7,-4.3 1.2,-9.5 0.3,-3.7 1.1,-6.3 2.2,-7.9 1.6,-2.3 4.3,-3.7 8.2,-4.1 5,-0.6 9.5,5.3 13.6,17.8 2.5,7.8 4.7,17.4 6.4,28.8 -1.7,5.7 -3.8,10.6 -6.1,14.7 -6.4,11.1 -14.4,21 -24,29.6 -4.8,4.3 -9,7.6 -12.5,9.6 l 11.9,-3.7 c 8.8,-2.2 15.5,-2.4 20,-0.7 5.3,1.9 7.4,5.1 6.2,9.5 -0.5,2.2 -1.6,4.2 -3.3,6.1 2.2,-2.3 4.9,-4.6 8.1,-6.9 6.4,-4.6 12.1,-7 17,-7.2 4.7,-0.2 10,1.8 15.8,5.9 3.3,2.3 6,4.6 8.2,7 -1.4,-1.6 -2.5,-3.4 -3.2,-5.4 -1.3,-3.7 -0.6,-6.9 2.1,-9.6 3.3,-3.3 8.9,-4.3 17,-3 4,0.6 7.8,1.6 11.1,3 -2.8,-1.9 -6,-4.2 -9.7,-6.9 -7.3,-5.3 -13,-10 -17,-13.9 -6.5,-6.3 -10.7,-17.4 -12.7,-33.3 -0.9,-9.5 -1.7,-16.8 -2.3,-21.9 -1,-9.1 -2.4,-17 -4,-23.7 -0.4,-13.9 0.3,-22.8 2.1,-26.7 2.1,-4.3 8.5,-4.1 19.2,0.6 5.5,2.1 10.6,4.9 15.6,8.1 z"
             id="path131"
             inkscape:connector-curvature="0"
             style="fill:#a2bda2" /></g></g></g><g
       id="g133"><g
         id="g135"><g
           id="Layer0_0_MEMBER_9_MEMBER_0_FILL"><path
             class="st4"
             d="m 35.1,23.6 c 5.3,5.4 5.6,12.2 0.7,20.2 -7.2,12 -5.3,25.9 5.7,41.6 6.5,9.3 19.2,22.4 38.2,39.3 6.8,6 12.1,13.7 15.9,23.1 3.6,8.6 5.7,18 6.3,28.2 2.3,8.1 3.8,13.8 4.4,17.1 0.6,-6.4 0.8,-13.7 0.5,-21.7 -0.5,-16.1 -3.1,-28.2 -7.6,-36.4 -4,-7.3 -13.8,-17.6 -29.3,-30.8 -16.5,-14 -26.1,-22.9 -28.7,-26.5 -4.3,-6 -6.3,-12.5 -5.9,-19.3 0.1,-3.1 1.1,-7.4 3,-12.9 2,-3.8 3.2,-6.8 3.8,-9 0.9,-4 -0.3,-8 -3.8,-12.1 -3.4,-4 -10.6,-7.2 -21.6,-9.6 8.4,2 14.6,4.9 18.4,8.8 m 13.1,64.5 c 6.6,6.6 12,11.9 16.3,15.9 3.5,3.2 9.6,8.5 18.3,15.9 7.5,6.8 12.3,12.8 14.7,17.9 2.3,5.1 4.2,13 5.6,23.9 0.7,5.4 1.2,10.3 1.4,14.7 -0.7,-4.1 -1.7,-8.6 -2.8,-13.6 -2.3,-9.8 -4.5,-16.8 -6.4,-20.9 -3,-6.1 -8.2,-12.8 -15.6,-20.1 -0.6,-0.6 -6.1,-5.5 -16.6,-14.7 -3.9,-3.4 -8.9,-9 -15.1,-16.7 l -8.2,-10.7 8.4,8.4 z"
             id="path138"
             inkscape:connector-curvature="0"
             style="fill:#89aa8b" /></g></g></g><g
       id="g140"><g
         id="g142"><g
           id="Layer0_0_MEMBER_9_MEMBER_1_FILL"><path
             class="st4"
             d="m 78.3,163.8 c 5,-0.6 9.5,5.3 13.6,17.8 2.5,7.8 4.7,17.4 6.4,28.8 -1.7,5.7 -3.8,10.6 -6.1,14.7 -6.4,11.1 -14.4,21 -24,29.6 -4.8,4.3 -9,7.6 -12.5,9.6 l 4,-1.5 c 3.3,-1.1 6.5,-2 9.6,-2.7 13.4,-14 21.6,-23.5 24.6,-28.4 3,-4.9 4.9,-8.9 5.9,-12 0.7,-2.6 1,-5.5 0.8,-8.7 -0.1,-2.5 -1.2,-8 -3.3,-16.4 l -3,-12.1 12.2,38.9 c 1.5,4.4 2.7,10.6 3.7,18.5 l 3,-21.1 1.6,17 c 1.7,12.3 4,21.2 7.1,26.5 5.2,1.6 10.7,5.1 16.4,10.5 -7,-7.1 -12.4,-14.9 -16.2,-23.3 -2.8,-6 -4.7,-17 -5.9,-32.8 l -0.8,-22 -3,14 c -2.1,9.1 -3.6,12.9 -4.4,11.6 -0.2,-0.4 -2,-7.6 -5.3,-21.6 -3.3,-13.7 -6,-22.4 -8.4,-26.2 -3,-4.9 -6.5,-8.2 -10.4,-9.9 -4,-1.7 -7.8,-1.4 -11.5,1 -3.1,2 -5.1,5.1 -6.1,9.2 -0.5,2.3 -0.9,5.3 -1,9 -0.4,3.5 -1.8,6.9 -4.2,10.4 -2.6,3.8 -5.4,5.9 -8.4,6.2 -3.8,0.4 -6.9,0 -9.4,-1.2 -1,-0.4 -1.7,-0.7 -2.1,-0.9 2.7,1.9 5.5,2.9 8.4,3 4.1,0.1 8.1,-1.5 11.9,-5 2.5,-2.3 4.2,-5.3 5.1,-9 0.3,-1.2 0.7,-4.3 1.2,-9.5 0.3,-3.7 1.1,-6.3 2.2,-7.9 1.7,-2.3 4.4,-3.6 8.3,-4.1 z"
             id="path145"
             inkscape:connector-curvature="0"
             style="fill:#89aa8b" /></g></g></g><g
       id="g147"><g
         id="g149"><g
           id="Layer0_0_MEMBER_9_MEMBER_2_FILL"><path
             class="st4"
             d="m 154.3,139.4 c -11.4,-8.1 -20,-12 -25.7,-11.8 -4.9,0.1 -7.8,4.2 -8.7,12.2 -0.7,6.1 -0.3,12.6 1.3,19.6 -0.4,-13.9 0.3,-22.8 2.1,-26.7 1.7,-3.6 6.3,-4 14,-1.5 4.9,1.7 10.6,4.4 17,8.2 z"
             id="path152"
             inkscape:connector-curvature="0"
             style="fill:#89aa8b" /></g></g></g><g
       id="g154"><g
         id="g156"><g
           id="Layer0_0_MEMBER_9_MEMBER_3_FILL"><path
             class="st4"
             d="m 120.4,172.5 1.2,21.3 c 1,15.6 2,26.7 2.9,33.5 0.9,6.8 2.8,13.8 5.6,21 1.4,3.6 2.8,6.4 4,8.7 0,-1.3 0.2,-2.6 0.8,-3.9 1.1,-2.5 3.3,-3.4 6.6,-2.8 -1.6,-0.9 -3.4,-2.6 -5.3,-5 -4,-4.7 -6.9,-10.7 -8.7,-18 -1.8,-7.3 -3.6,-18.6 -5.2,-33.9 l -1.9,-20.9 z"
             id="path159"
             inkscape:connector-curvature="0"
             style="fill:#89aa8b" /></g></g></g><g
       id="g161"><g
         id="g163"><g
           id="Layer0_0_MEMBER_9_MEMBER_4_FILL"><path
             class="st4"
             d="m 77.1,33.2 0,0 c -8.4,-2 -15.4,0.1 -21,6.1 -7.6,8.2 -10.9,17.6 -10,27.9 0.4,5.2 1.7,9.5 3.6,13 2,2.3 4.1,4 6.3,5.1 -0.6,-0.7 -1.3,-1.9 -2.1,-3.4 -1.7,-3 -3.1,-6.4 -4.1,-10.3 -2.5,-9 0,-19 7.4,-30 2.9,-4.3 7.1,-7 12.7,-8.1 2.6,-0.5 5,-0.6 7.2,-0.3 z"
             id="path166"
             inkscape:connector-curvature="0"
             style="fill:#89aa8b" /></g></g></g><g
       id="g168"><g
         id="g170"><g
           id="Layer0_0_MEMBER_9_MEMBER_5_FILL"><path
             class="st5"
             d="m 100.4,211 c 0.2,3.2 -0.1,6.1 -0.8,8.7 -0.9,3.1 -2.9,7.1 -5.9,12 -3,5 -11.2,14.5 -24.6,28.4 8,-1.7 14.1,-1.8 18.3,-0.3 5.3,1.9 7.4,5.1 6.2,9.5 -0.5,2.2 -1.6,4.2 -3.3,6.1 2.2,-2.3 4.9,-4.6 8.1,-6.9 6.4,-4.6 12.1,-7 17,-7.2 2.1,-0.1 4.1,0.2 6.1,0.9 -3.1,-5.3 -5.4,-14.2 -7.1,-26.5 l -1.6,-17 -3,21.1 c -1,-7.9 -2.2,-14.1 -3.7,-18.5 l -12.2,-38.9 3,12.1 c 2.3,8.6 3.4,14 3.5,16.5 z"
             id="path173"
             inkscape:connector-curvature="0"
             style="fill:#6b8b6f" /></g></g></g><g
       id="g175"><g
         id="g177"><g
           id="Layer0_0_MEMBER_9_MEMBER_6_FILL"><path
             class="st5"
             d="m 47.9,90.2 c 6.2,7.8 11.3,13.3 15.1,16.7 10.5,9.2 16,14.1 16.6,14.7 7.4,7.3 12.6,14 15.6,20.1 2,4.1 4.1,11.1 6.4,20.9 1.1,4.9 2.1,9.5 2.8,13.6 -0.2,-4.4 -0.7,-9.3 -1.4,-14.7 -1.4,-10.8 -3.3,-18.8 -5.6,-23.9 -2.3,-5.1 -7.2,-11 -14.7,-17.9 C 74,112.3 67.9,107.1 64.4,103.8 60.1,99.8 54.7,94.5 48.1,87.9 l -8.5,-8.6 8.3,10.9 z"
             id="path180"
             inkscape:connector-curvature="0"
             style="fill:#6b8b6f" /></g></g></g><g
       id="g182"><g
         id="g184"><g
           id="Layer0_0_MEMBER_9_MEMBER_7_FILL"><path
             class="st6"
             d="m 98.4,172.7 c -2.6,-6.9 -7.6,-11.3 -15,-13.2 l 4.9,3.2 c 3.5,2.5 5.7,4.6 6.6,6.4 1.5,3 3.2,7.4 5.2,13.3 0.2,-3 -0.4,-6.2 -1.7,-9.7 z"
             id="path187"
             inkscape:connector-curvature="0"
             style="fill:#c2d6c1" /></g></g></g><g
       id="g189"><g
         id="g191"><g
           id="Layer0_0_MEMBER_9_MEMBER_8_FILL"><path
             class="st6"
             d="m 95.2,121.7 -14.4,-12.6 10,9.7 c 7.2,7.6 12,14 14.4,19.2 2.4,5.2 4.4,13.2 5.8,23.8 0.6,5.3 1.1,10.1 1.3,14.4 0.6,-4.5 1.5,-7.1 2.6,-7.9 l 1.5,0.1 c 0,-0.9 0,-2.5 -0.3,-4.8 -0.6,-4.5 -1.7,-10.2 -3.4,-17 -1.7,-6.8 -7.5,-15.1 -17.5,-24.9 z"
             id="path194"
             inkscape:connector-curvature="0"
             style="fill:#c2d6c1" /></g></g></g></g></svg>