<?xml version="1.0" encoding="UTF-8" standalone="no"?>
<svg xmlns:dc="http://purl.org/dc/elements/1.1/" xmlns:cc="http://creativecommons.org/ns#" xmlns:rdf="http://www.w3.org/1999/02/22-rdf-syntax-ns#" xmlns:svg="http://www.w3.org/2000/svg" xmlns="http://www.w3.org/2000/svg" xmlns:xlink="http://www.w3.org/1999/xlink" xmlns:sodipodi="http://sodipodi.sourceforge.net/DTD/sodipodi-0.dtd" xmlns:inkscape="http://www.inkscape.org/namespaces/inkscape" version="1.1" preserveAspectRatio="none" x="0px" y="0px" width="477px" height="255px" viewBox="0 0 477.5 255.5" id="svg2" inkscape:version="0.48.5 r10040" sodipodi:docname="Brain_stem_single.svg">
  <metadata id="metadata118">
    <rdf:RDF>
      <cc:Work rdf:about="">
        <dc:format>image/svg+xml</dc:format>
        <dc:type rdf:resource="http://purl.org/dc/dcmitype/StillImage"/>
      </cc:Work>
    </rdf:RDF>
  </metadata>
  <sodipodi:namedview pagecolor="#ffffff" bordercolor="#666666" borderopacity="1" objecttolerance="10" gridtolerance="10" guidetolerance="10" inkscape:pageopacity="0" inkscape:pageshadow="2" inkscape:window-width="640" inkscape:window-height="480" id="namedview116" showgrid="false" inkscape:zoom="0.80922432" inkscape:cx="238.5" inkscape:cy="128" inkscape:window-x="0" inkscape:window-y="0" inkscape:window-maximized="0" inkscape:current-layer="svg2"/>
  <defs id="defs4">
    <radialGradient id="Gradient_1" gradientUnits="userSpaceOnUse" cx="0" cy="0" r="75.838722" fx="0" fy="0" gradientTransform="matrix(0.86598246,0.50007438,0.53402801,-1.0235537,1570.15,-114.75)" spreadMethod="pad">
      <stop offset="0%" stop-color="#4D6F23" id="stop7"/>
      <stop offset="0%" stop-color="#4E7025" id="stop9"/>
      <stop offset="0%" stop-color="#51752B" id="stop11"/>
      <stop offset="0%" stop-color="#567D36" id="stop13"/>
      <stop offset="0%" stop-color="#5E8846" id="stop15"/>
      <stop offset="0%" stop-color="#68975C" id="stop17"/>
      <stop offset="0%" stop-color="#74A978" id="stop19"/>
      <stop offset="0%" stop-color="#82BE99" id="stop21"/>
      <stop offset="0%" stop-color="#93D7BF" id="stop23"/>
      <stop offset="0%" stop-color="#A6F2EA" id="stop25"/>
      <stop offset="0%" stop-color="#AFFFFE" id="stop27"/>
      <stop offset="100%" stop-color="#71A5A5" stop-opacity="0" id="stop29"/>
    </radialGradient>
    <radialGradient id="Gradient_2" gradientUnits="userSpaceOnUse" cx="0" cy="0" r="52.558731" fx="0" fy="0" gradientTransform="matrix(0.86593603,0.50015476,0.53416433,-1.0236168,1695,-6.55)" spreadMethod="pad">
      <stop offset="0%" stop-color="#4D6F23" id="stop32"/>
      <stop offset="0%" stop-color="#4E7025" id="stop34"/>
      <stop offset="0%" stop-color="#51752B" id="stop36"/>
      <stop offset="0%" stop-color="#567D36" id="stop38"/>
      <stop offset="0%" stop-color="#5E8846" id="stop40"/>
      <stop offset="0%" stop-color="#68975C" id="stop42"/>
      <stop offset="0%" stop-color="#74A978" id="stop44"/>
      <stop offset="0%" stop-color="#82BE99" id="stop46"/>
      <stop offset="0%" stop-color="#93D7BF" id="stop48"/>
      <stop offset="0%" stop-color="#A6F2EA" id="stop50"/>
      <stop offset="0%" stop-color="#AFFFFE" id="stop52"/>
      <stop offset="100%" stop-color="#71A5A5" stop-opacity="0" id="stop54"/>
    </radialGradient>
    <radialGradient id="Gradient_3" gradientUnits="userSpaceOnUse" cx="0" cy="0" r="33.086628" fx="0" fy="0" gradientTransform="matrix(0.86590871,0.50020206,0.53420372,-1.0234497,1808.6,27.25)" spreadMethod="pad">
      <stop offset="0%" stop-color="#4D6F23" id="stop57"/>
      <stop offset="0%" stop-color="#4E7025" id="stop59"/>
      <stop offset="0%" stop-color="#51752B" id="stop61"/>
      <stop offset="0%" stop-color="#567D36" id="stop63"/>
      <stop offset="0%" stop-color="#5E8846" id="stop65"/>
      <stop offset="0%" stop-color="#68975C" id="stop67"/>
      <stop offset="0%" stop-color="#74A978" id="stop69"/>
      <stop offset="0%" stop-color="#82BE99" id="stop71"/>
      <stop offset="0%" stop-color="#93D7BF" id="stop73"/>
      <stop offset="0%" stop-color="#A6F2EA" id="stop75"/>
      <stop offset="0%" stop-color="#AFFFFE" id="stop77"/>
      <stop offset="100%" stop-color="#71A5A5" stop-opacity="0" id="stop79"/>
    </radialGradient>
    <g id="Layer0_0_FILL">
      <path d="m 1442.75,-144.6 -13.1,-3.3 q 53.9,17.7 86.7,37.9 9.1,5.6 21.1,14.4 10.85,7.95 15.7,10.7 13.45,7.55 33.05,27.05 13.55,13.45 26.75,29.15 8.1,9.5 19.45,17.15 8.15,5.5 17.2,9.5 5.15,2.3 38.5,9.3 35.6,7.45 39.5,8.65 8.35,2.6 14.2,4.9 6.55,2.6 12.65,5.8 10.65,5.6 34.35,5.6 10.05,0.05 23.4,4.9 14.5,5.25 21.7,12.6 3.8,3.85 19.1,25 13.6,18.85 20.05,23.45 7.2,5.15 21.4,7.8 7.05,1.35 12.7,1.65 l -22.55,-5.8 q -13.2,-3.35 -29.4,-27.9 -8.1,-12.85 -11.7,-18.4 -6.15,-9.45 -9.9,-12.45 -18.45,-14.85 -53.2,-15.3 -14.8,-0.15 -25.55,-5.15 -3.4,-1.6 -7.8,-4.4 -5,-3.15 -6.5,-3.95 -2.6,-1.4 -14.4,-4 -16.05,-3.4 -25.6,-5.55 -38.15,-8.6 -54.4,-17.1 -9.3,-4.9 -16.95,-12.05 -4.4,-4.1 -14.5,-15.45 -23.45,-26.5 -51.85,-48.55 -34.25,-26.6 -87.15,-45.7 -16.5,-5.95 -32.95,-10.45 z" id="path82" inkscape:connector-curvature="0" style="fill:#437879;stroke:none"/>
    </g>
    <g id="Layer0_1_FILL">
      <path d="m 1429.65,-147.9 q 13.5,4.5 24.55,8.6 40.4,15.05 67.25,32.5 6.65,4.3 17.75,12.5 9.15,6.7 13.95,9.4 13.45,7.55 33.05,27.05 13.55,13.45 26.75,29.15 8.1,9.5 19.45,17.15 8.15,5.5 17.2,9.5 l 0.9,0.4 q 6.4,2.35 39,9.2 34.05,7.1 38.1,8.35 7.2,2.3 11.95,4.05 7.85,2.95 14.9,6.65 1.45,0.75 3.65,1.6 10.85,4 30.7,4 4.8,0.05 11.2,1.4 6.45,1.35 12.9,3.75 14.15,5.35 21,12.35 3.8,3.85 19.1,25 13.6,18.85 20.05,23.45 3.3,2.4 8.6,4.4 7.2,2.7 17.1,4.15 4.9,0.7 8.4,0.9 l -22.55,-5.8 q -1.5,-0.4 -2.25,-0.7 -12.45,-4.65 -28,-28.5 -7.75,-12.35 -11.2,-17.65 -5.9,-8.95 -9.55,-11.9 -7.25,-5.8 -16.8,-9.35 -15.15,-5.65 -36.4,-5.95 -12.35,-0.15 -21.8,-3.6 -4.85,-1.8 -10.2,-5.1 -7.4,-4.55 -7.85,-4.8 l -1.4,-0.65 q -3.05,-1.15 -33.6,-7.8 -30.65,-6.7 -47,-12.8 -7.2,-2.7 -12.4,-5.4 -9.3,-4.9 -16.95,-12.05 -4.4,-4.1 -14.5,-15.45 -23.45,-26.5 -51.85,-48.55 -32.5,-25.3 -82.65,-44.05 -17.95,-6.7 -36.05,-11.7 l -14.5,-3.7 m 24.85,7.75 -0.65,-0.25 q 12.4,3.7 26,8.75 49.8,18.6 82.5,43.95 18.7,14.55 33,28.5 8.15,8 19.9,21.2 9.2,10.45 13.9,14.8 7.5,6.85 16.6,11.6 4.95,2.65 12.5,5.45 11.6,4.3 29.1,8.65 10.55,2.6 28.6,6.45 18.8,4 22.85,5.5 l 1.35,0.6 q 1.75,0.9 5.15,3.1 3.9,2.45 5.8,3.5 3.6,2.05 7.15,3.35 9.75,3.6 22.05,3.65 21.25,0.3 36.15,5.9 9.6,3.55 16.65,9.25 2.85,2.25 6.8,7.95 2.25,3.2 7.85,12.1 8.45,13.55 13.5,20.15 8.4,11 16.05,15.65 -2.1,-1.05 -3.75,-2.25 -4.4,-3.15 -11.3,-11.8 Q 1858,80.25 1850,69 q -6.05,-8.35 -8.35,-11.4 -4.35,-5.75 -7.15,-8.6 -7.15,-7.25 -21.25,-12.5 -6.55,-2.4 -13,-3.8 -6.45,-1.35 -11.35,-1.4 -19.85,0 -30.5,-3.95 -1.5,-0.6 -3.55,-1.6 -7.45,-3.9 -15,-6.65 -5,-1.9 -12,-4.05 -4.55,-1.45 -30.9,-6.9 -21.75,-4.55 -27.55,-5.85 -14.3,-3.2 -18.6,-4.8 l -0.85,-0.35 q -22.45,-10 -36.35,-26.5 -12.35,-14.6 -25,-27.3 -20.9,-21.05 -35.05,-29.05 -5,-2.85 -14.8,-10.1 -16.65,-12.2 -29.65,-19.6 -22.75,-12.9 -54.6,-24.75 z" id="path85" inkscape:connector-curvature="0" style="fill:#75b5b4;stroke:none"/>
    </g>
    <g id="Layer0_2_FILL">
      <path d="m 1505.05,-119.8 q 2.2438,1.11289 4.4,2.35 19,10.75 28.4,16.4 4.15,2.55 14.1,9.95 14.85,11.15 17.25,12.85 7.05,5.05 24.3,21.75 8.65,8.35 15.85,15.7 -1.2,-2.1 -5.7,-7.35 -3.45,-4.05 -9.65,-10.25 -6.4,-6.45 -10.15,-9.5 -38.85,-31.75 -44.75,-34.3 -3.6,-1.55 -14.65,-7.7 l -10.3,-5.85 -9.1,-4.05 z" id="path88" inkscape:connector-curvature="0" style="fill:url(#Gradient_1);stroke:none"/>
    </g>
    <g id="Layer0_3_FILL">
      <path d="m 1644.2,-10.9 -6.75,-4.45 1.05,1.1 q 1.25,1.35 2.3,2.75 0.95,1.3 4.35,3 4.25,2.15 5.2,2.85 2.3,1.6 8.2,3.55 6.15,2 10.1,2.25 2.65,0.2 13.75,3.1 12,3.1 17.05,3.8 9.9,1.4 42.95,9.8 l -3.7,-1.35 q -5.1,-1.95 -6.15,-2.25 -4.1,-1.35 -8.6,-1.95 -2.8,-0.4 -14.45,-3.15 -11.25,-2.65 -16.8,-3.3 -5.55,-0.6 -13.25,-3.1 -9.45,-3.05 -13.55,-3.9 -6.5,-1.4 -14.75,-5.2 l -6.95,-3.55 z" id="path91" inkscape:connector-curvature="0" style="fill:url(#Gradient_2);stroke:none"/>
    </g>
    <g id="Layer0_4_FILL">
      <path d="m 1831.4,43.25 q 3,2.15 4,3.55 -0.1,-0.4 -0.7,-1.1 -1.1,-1.4 -3.3,-2.8 -4.05,-2.65 -4.65,-3 -2.95,-1.65 -9.45,-4.4 -6.4,-2.7 -16.4,-4.4 -6.05,-1.05 -12.2,-1.55 -2.75,-0.2 -10.5,-0.45 l -7.2,-0.25 q 3.15,0.85 15.3,1.45 l 9.2,0.45 q 9.6,1.05 19.75,4.65 10.1,3.55 16.15,7.85 z" id="path94" inkscape:connector-curvature="0" style="fill:url(#Gradient_3);stroke:none"/>
    </g>
  </defs>
  <g transform="translate(-1429.65,147.9)" id="g96">
    <use xlink:href="#Layer0_0_FILL" id="use98" x="0" y="0" width="477" height="255"/>
  </g>
  <g transform="translate(-1429.65,147.9)" id="g100">
    <use xlink:href="#Layer0_1_FILL" id="use102" x="0" y="0" width="477" height="255"/>
  </g>
  <g transform="translate(-1429.65,147.9)" id="g104">
    <use xlink:href="#Layer0_2_FILL" id="use106" x="0" y="0" width="477" height="255"/>
  </g>
  <g transform="translate(-1429.65,147.9)" id="g108">
    <use xlink:href="#Layer0_3_FILL" id="use110" x="0" y="0" width="477" height="255"/>
  </g>
  <g transform="translate(-1429.65,147.9)" id="g112">
    <use xlink:href="#Layer0_4_FILL" id="use114" x="0" y="0" width="477" height="255"/>
  </g>
</svg>
