<?xml version="1.0" encoding="UTF-8" standalone="no"?>
<svg xmlns:dc="http://purl.org/dc/elements/1.1/" xmlns:cc="http://creativecommons.org/ns#" xmlns:rdf="http://www.w3.org/1999/02/22-rdf-syntax-ns#" xmlns:svg="http://www.w3.org/2000/svg" xmlns="http://www.w3.org/2000/svg" xmlns:xlink="http://www.w3.org/1999/xlink" xmlns:sodipodi="http://sodipodi.sourceforge.net/DTD/sodipodi-0.dtd" xmlns:inkscape="http://www.inkscape.org/namespaces/inkscape" version="1.1" preserveAspectRatio="none" x="0px" y="0px" width="114px" height="115px" viewBox="0 0 114.86908 115.19315" id="svg2" inkscape:version="0.48.5 r10040" sodipodi:docname="cell_03.svg">
  <metadata id="metadata419">
    <rdf:RDF>
      <cc:Work rdf:about="">
        <dc:format>image/svg+xml</dc:format>
        <dc:type rdf:resource="http://purl.org/dc/dcmitype/StillImage"/>
      </cc:Work>
    </rdf:RDF>
  </metadata>
  <sodipodi:namedview pagecolor="#ffffff" bordercolor="#666666" borderopacity="1" objecttolerance="10" gridtolerance="10" guidetolerance="10" inkscape:pageopacity="0" inkscape:pageshadow="2" inkscape:window-width="640" inkscape:window-height="480" id="namedview417" showgrid="false" inkscape:zoom="2.0521739" inkscape:cx="56.990115" inkscape:cy="57.671571" inkscape:window-x="0" inkscape:window-y="0" inkscape:window-maximized="0" inkscape:current-layer="svg2"/>
  <defs id="defs4">
    <radialGradient id="Gradient_1" gradientUnits="userSpaceOnUse" cx="0" cy="0" r="48.78648" fx="0" fy="0" gradientTransform="matrix(0.79530231,-0.60621303,-0.70972532,-0.93109813,1793.05,156.45)" spreadMethod="pad">
      <stop offset="0%" stop-color="#3D6F70" id="stop7"/>
      <stop offset="48.627450980392155%" stop-color="#3F7171" id="stop9"/>
      <stop offset="70.19607843137256%" stop-color="#467878" id="stop11"/>
      <stop offset="85.88235294117646%" stop-color="#538484" id="stop13"/>
      <stop offset="99.2156862745098%" stop-color="#649594" id="stop15"/>
      <stop offset="100%" stop-color="#669696" id="stop17"/>
    </radialGradient>
    <radialGradient id="Gradient_2" gradientUnits="userSpaceOnUse" cx="0" cy="0" r="57.287498" fx="0" fy="0" gradientTransform="matrix(1,0,0,-1,1791.2,149.25)" spreadMethod="pad">
      <stop offset="0%" stop-color="#4D6F23" id="stop20"/>
      <stop offset="0%" stop-color="#4E7025" id="stop22"/>
      <stop offset="0%" stop-color="#51752B" id="stop24"/>
      <stop offset="0%" stop-color="#567D36" id="stop26"/>
      <stop offset="0%" stop-color="#5E8846" id="stop28"/>
      <stop offset="0%" stop-color="#68975C" id="stop30"/>
      <stop offset="0%" stop-color="#74A978" id="stop32"/>
      <stop offset="0%" stop-color="#82BE99" id="stop34"/>
      <stop offset="0%" stop-color="#93D7BF" id="stop36"/>
      <stop offset="0%" stop-color="#A6F2EA" id="stop38"/>
      <stop offset="0%" stop-color="#AFFFFE" id="stop40"/>
      <stop offset="100%" stop-color="#71A5A5" stop-opacity="0" id="stop42"/>
    </radialGradient>
    <radialGradient id="Gradient_3" gradientUnits="userSpaceOnUse" cx="0" cy="0" r="15.945219" fx="0" fy="0" gradientTransform="matrix(0.65850461,0.75257669,0.75257669,-0.65850461,0.35,-0.6)" spreadMethod="pad">
      <stop offset="0%" stop-color="#4D6F23" id="stop45"/>
      <stop offset="0%" stop-color="#4E7025" id="stop47"/>
      <stop offset="0%" stop-color="#51752B" id="stop49"/>
      <stop offset="0%" stop-color="#567D36" id="stop51"/>
      <stop offset="0%" stop-color="#5E8846" id="stop53"/>
      <stop offset="0%" stop-color="#68975C" id="stop55"/>
      <stop offset="0%" stop-color="#74A978" id="stop57"/>
      <stop offset="0%" stop-color="#82BE99" id="stop59"/>
      <stop offset="0%" stop-color="#93D7BF" id="stop61"/>
      <stop offset="0%" stop-color="#A6F2EA" id="stop63"/>
      <stop offset="0%" stop-color="#AFFFFE" id="stop65"/>
      <stop offset="100%" stop-color="#71A5A5" stop-opacity="0" id="stop67"/>
    </radialGradient>
    <radialGradient id="Gradient_4" gradientUnits="userSpaceOnUse" cx="0" cy="0" r="14.992941" fx="0" fy="0" gradientTransform="matrix(0.7953743,-0.60611857,-0.71033428,-0.93127159,1799.4,153.9)" spreadMethod="pad">
      <stop offset="0%" stop-color="#D4565A" stop-opacity="0.30980392156862746" id="stop70"/>
      <stop offset="52.15686274509804%" stop-color="#D5565C" stop-opacity="0.32941176470588235" id="stop72"/>
      <stop offset="74.90196078431373%" stop-color="#D75563" stop-opacity="0.403921568627451" id="stop74"/>
      <stop offset="91.76470588235294%" stop-color="#DB536F" stop-opacity="0.5333333333333333" id="stop76"/>
      <stop offset="100%" stop-color="#DE5277" stop-opacity="0.6274509803921569" id="stop78"/>
    </radialGradient>
    <radialGradient id="Gradient_5" gradientUnits="userSpaceOnUse" cx="0" cy="0" r="12.924329" fx="0" fy="0" gradientTransform="matrix(0.65864154,0.75245686,0.75245686,-0.65864154,0.3,-0.45)" spreadMethod="pad">
      <stop offset="0%" stop-color="#4D6F23" id="stop81"/>
      <stop offset="0%" stop-color="#4E7025" id="stop83"/>
      <stop offset="0%" stop-color="#51752B" id="stop85"/>
      <stop offset="0%" stop-color="#567D36" id="stop87"/>
      <stop offset="0%" stop-color="#5E8846" id="stop89"/>
      <stop offset="0%" stop-color="#68975C" id="stop91"/>
      <stop offset="0%" stop-color="#74A978" id="stop93"/>
      <stop offset="0%" stop-color="#82BE99" id="stop95"/>
      <stop offset="0%" stop-color="#93D7BF" id="stop97"/>
      <stop offset="0%" stop-color="#A6F2EA" id="stop99"/>
      <stop offset="0%" stop-color="#AFFFFE" id="stop101"/>
      <stop offset="100%" stop-color="#71A5A5" stop-opacity="0" id="stop103"/>
    </radialGradient>
    <radialGradient id="Gradient_6" gradientUnits="userSpaceOnUse" cx="0" cy="0" r="5.1469197" fx="0" fy="0" gradientTransform="matrix(0.65816066,0.75287751,0.75287751,-0.65816066,0.1,-0.2)" spreadMethod="pad">
      <stop offset="0%" stop-color="#4D6F23" id="stop106"/>
      <stop offset="0%" stop-color="#4E7025" id="stop108"/>
      <stop offset="0%" stop-color="#51752B" id="stop110"/>
      <stop offset="0%" stop-color="#567D36" id="stop112"/>
      <stop offset="0%" stop-color="#5E8846" id="stop114"/>
      <stop offset="0%" stop-color="#68975C" id="stop116"/>
      <stop offset="0%" stop-color="#74A978" id="stop118"/>
      <stop offset="0%" stop-color="#82BE99" id="stop120"/>
      <stop offset="0%" stop-color="#93D7BF" id="stop122"/>
      <stop offset="0%" stop-color="#A6F2EA" id="stop124"/>
      <stop offset="0%" stop-color="#AFFFFE" id="stop126"/>
      <stop offset="100%" stop-color="#71A5A5" stop-opacity="0" id="stop128"/>
    </radialGradient>
    <radialGradient id="Gradient_7" gradientUnits="userSpaceOnUse" cx="0" cy="0" r="7.4587407" fx="0" fy="0" gradientTransform="matrix(0.65862325,0.75247287,0.75247287,-0.65862325,0.25,-0.2)" spreadMethod="pad">
      <stop offset="0%" stop-color="#4D6F23" id="stop131"/>
      <stop offset="0%" stop-color="#4E7025" id="stop133"/>
      <stop offset="0%" stop-color="#51752B" id="stop135"/>
      <stop offset="0%" stop-color="#567D36" id="stop137"/>
      <stop offset="0%" stop-color="#5E8846" id="stop139"/>
      <stop offset="0%" stop-color="#68975C" id="stop141"/>
      <stop offset="0%" stop-color="#74A978" id="stop143"/>
      <stop offset="0%" stop-color="#82BE99" id="stop145"/>
      <stop offset="0%" stop-color="#93D7BF" id="stop147"/>
      <stop offset="0%" stop-color="#A6F2EA" id="stop149"/>
      <stop offset="0%" stop-color="#AFFFFE" id="stop151"/>
      <stop offset="100%" stop-color="#71A5A5" stop-opacity="0" id="stop153"/>
    </radialGradient>
    <radialGradient id="Gradient_8" gradientUnits="userSpaceOnUse" cx="0" cy="0" r="6.2275724" fx="0" fy="0" gradientTransform="matrix(0.65836249,0.75270102,0.75270102,-0.65836249,0.15,-0.25)" spreadMethod="pad">
      <stop offset="0%" stop-color="#4D6F23" id="stop156"/>
      <stop offset="0%" stop-color="#4E7025" id="stop158"/>
      <stop offset="0%" stop-color="#51752B" id="stop160"/>
      <stop offset="0%" stop-color="#567D36" id="stop162"/>
      <stop offset="0%" stop-color="#5E8846" id="stop164"/>
      <stop offset="0%" stop-color="#68975C" id="stop166"/>
      <stop offset="0%" stop-color="#74A978" id="stop168"/>
      <stop offset="0%" stop-color="#82BE99" id="stop170"/>
      <stop offset="0%" stop-color="#93D7BF" id="stop172"/>
      <stop offset="0%" stop-color="#A6F2EA" id="stop174"/>
      <stop offset="0%" stop-color="#AFFFFE" id="stop176"/>
      <stop offset="100%" stop-color="#71A5A5" stop-opacity="0" id="stop178"/>
    </radialGradient>
    <radialGradient id="Gradient_9" gradientUnits="userSpaceOnUse" cx="0" cy="0" r="9.664731" fx="0" fy="0" gradientTransform="matrix(0.65832146,0.75273691,0.75273691,-0.65832146,0.15,-0.5)" spreadMethod="pad">
      <stop offset="0%" stop-color="#4D6F23" id="stop181"/>
      <stop offset="0%" stop-color="#4E7025" id="stop183"/>
      <stop offset="0%" stop-color="#51752B" id="stop185"/>
      <stop offset="0%" stop-color="#567D36" id="stop187"/>
      <stop offset="0%" stop-color="#5E8846" id="stop189"/>
      <stop offset="0%" stop-color="#68975C" id="stop191"/>
      <stop offset="0%" stop-color="#74A978" id="stop193"/>
      <stop offset="0%" stop-color="#82BE99" id="stop195"/>
      <stop offset="0%" stop-color="#93D7BF" id="stop197"/>
      <stop offset="0%" stop-color="#A6F2EA" id="stop199"/>
      <stop offset="0%" stop-color="#AFFFFE" id="stop201"/>
      <stop offset="100%" stop-color="#71A5A5" stop-opacity="0" id="stop203"/>
    </radialGradient>
    <radialGradient id="Gradient_10" gradientUnits="userSpaceOnUse" cx="0" cy="0" r="10.1786" fx="0" fy="0" gradientTransform="matrix(0.65824374,0.75280487,0.75280487,-0.65824374,0.2,-0.45)" spreadMethod="pad">
      <stop offset="0%" stop-color="#4D6F23" id="stop206"/>
      <stop offset="0%" stop-color="#4E7025" id="stop208"/>
      <stop offset="0%" stop-color="#51752B" id="stop210"/>
      <stop offset="0%" stop-color="#567D36" id="stop212"/>
      <stop offset="0%" stop-color="#5E8846" id="stop214"/>
      <stop offset="0%" stop-color="#68975C" id="stop216"/>
      <stop offset="0%" stop-color="#74A978" id="stop218"/>
      <stop offset="0%" stop-color="#82BE99" id="stop220"/>
      <stop offset="0%" stop-color="#93D7BF" id="stop222"/>
      <stop offset="0%" stop-color="#A6F2EA" id="stop224"/>
      <stop offset="0%" stop-color="#AFFFFE" id="stop226"/>
      <stop offset="100%" stop-color="#71A5A5" stop-opacity="0" id="stop228"/>
    </radialGradient>
    <radialGradient id="Gradient_11" gradientUnits="userSpaceOnUse" cx="0" cy="0" r="82.348351" fx="0" fy="0" gradientTransform="matrix(0.65848311,0.7525955,0.7525955,-0.65848311,1738.75,85.45)" spreadMethod="pad">
      <stop offset="0%" stop-color="#4D6F23" id="stop231"/>
      <stop offset="0%" stop-color="#4E7025" id="stop233"/>
      <stop offset="0%" stop-color="#51752B" id="stop235"/>
      <stop offset="0%" stop-color="#567D36" id="stop237"/>
      <stop offset="0%" stop-color="#5E8846" id="stop239"/>
      <stop offset="0%" stop-color="#68975C" id="stop241"/>
      <stop offset="0%" stop-color="#74A978" id="stop243"/>
      <stop offset="0%" stop-color="#82BE99" id="stop245"/>
      <stop offset="0%" stop-color="#93D7BF" id="stop247"/>
      <stop offset="0%" stop-color="#A6F2EA" id="stop249"/>
      <stop offset="0%" stop-color="#AFFFFE" id="stop251"/>
      <stop offset="100%" stop-color="#71A5A5" stop-opacity="0" id="stop253"/>
    </radialGradient>
    <radialGradient id="Gradient_12" gradientUnits="userSpaceOnUse" cx="0" cy="0" r="62.9076" fx="0" fy="0" gradientTransform="matrix(0.70202167,0.71215558,0.58160697,-0.5732614,1791.4,154.95)" spreadMethod="pad">
      <stop offset="0%" stop-color="#2FEBFA" stop-opacity="0.3686274509803922" id="stop256"/>
      <stop offset="100%" stop-color="#2CEBFD" stop-opacity="0" id="stop258"/>
    </radialGradient>
    <filter id="Filter_1" x="-0.2" y="-0.2" width="1.4" height="1.4" color-interpolation-filters="sRGB">
      <feColorMatrix in="SourceGraphic" type="matrix" values="1 0 0 0 0 0 1 0 0 0 0 0 1 0 0 0 0 0 0.6 0" result="result1" id="feColorMatrix261"/>
    </filter>
    <g id="Layer0_0_FILL">
      <path d="m 1831.75,143.05 q 0.4,-10.3 -6.1,-18.05 -8,-9.55 -31.65,-15.6 -10.5,-2.7 -19.35,-3.1 -9.55,-0.4 -14.35,2 -13,6.55 -20.25,18.3 -9.1,14.8 0.25,27.7 8,11.05 18.9,14.85 2.9,1 8.4,2.8 4.65,1.85 8.05,5.05 2.65,2.5 9.5,9.35 6.65,6.4 12.1,10.3 15.85,11.5 29.05,7.65 5.15,-1.45 5.3,-17.2 0,-0.85 -1.3,-25.45 -0.2,-3.85 0.5,-9.6 0.85,-7.1 0.95,-9 z" id="path264" inkscape:connector-curvature="0" style="fill:url(#Gradient_1);stroke:none"/>
    </g>
    <g id="Layer0_1_FILL">
      <path d="m 1831.75,143.05 q 0.4,-10.3 -6.1,-18.05 -8,-9.55 -31.65,-15.6 -10.5,-2.7 -19.35,-3.1 -9.55,-0.4 -14.35,2 -13,6.55 -20.25,18.3 -9.1,14.8 0.25,27.7 8,11.05 18.9,14.85 2.9,1 8.4,2.8 4.65,1.85 8.05,5.05 2.65,2.5 9.5,9.35 6.65,6.4 12.1,10.3 15.85,11.5 29.05,7.65 5.15,-1.45 5.3,-17.2 0,-0.85 -1.3,-25.45 -0.2,-3.85 0.5,-9.6 0.85,-7.1 0.95,-9 m -7.85,-15.65 q 4.25,5.5 4.6,14.1 0.3,7.15 -1.55,15.2 -1.95,8.4 -1.95,10.3 l 0,6 3.5,-7 -0.1,5.95 q 0,6.6 0.6,10.05 3.05,16.8 -5,19.5 -5.55,1.85 -13.1,-0.3 -7.45,-2.1 -12.4,-6.7 -7.1,-6.5 -10.45,-9.55 -5.8,-5.4 -7.05,-6.95 l -2,-2.5 1.05,0.25 q 1.65,0.25 4.45,0.25 l 4.5,0 q -15,-6.5 -22.5,-8.5 -6.6,-1.75 -14.05,-6.3 -8.6,-5.25 -9.95,-9.7 -1.45,-4.65 -1.6,-8.25 -0.2,-3.2 0.6,-6.75 0.65,-2.8 2.9,-7.2 1.1,-2.15 2.1,-3.8 l -1.5,4.65 q -1.25,5.5 0,9.85 l 2,7 q -0.25,-2.6 0,-6.05 0.5,-6.9 3,-10.95 0.4,-1.2 1.2,-2.95 1.65,-3.6 3.95,-6.55 7.25,-9.5 17.85,-9.5 11.4,0 24.05,3.2 9.75,2.45 16.95,5.8 6.5,3.05 9.9,7.4 z" id="path267" inkscape:connector-curvature="0" style="fill:url(#Gradient_2);stroke:none"/>
    </g>
    <g id="Layer0_2_FILL">
      <path d="m 1757,126.5 2.25,-2.2 q 3.25,-2.6 8.25,-4.8 5,-2.2 12.25,-3.55 3.65,-0.7 6.25,-0.95 l -12.5,0 q -7.8,0 -12.95,5.75 -1.6,1.8 -2.75,3.95 l -0.8,1.8 z" id="path270" inkscape:connector-curvature="0" style="fill:#75b5b4;stroke:none"/>
    </g>
    <g id="Layer0_3_FILL">
      <path d="m 1750.9,137.6 -0.25,0.6 q -2.25,6.35 -1.65,9.8 l 1,5.5 q -0.1,-4.6 0.2,-9.55 0.2285,-3.77051 0.7,-6.35 m 2.1,-5.1 q -1.3621,0.95977 -2.1,5.1 l 2.1,-5.1 z" id="path273" inkscape:connector-curvature="0" style="fill:#75b5b4;stroke:none"/>
    </g>
    <g id="Layer0_4_FILL">
      <path d="m 1776,123.5 q -2.25,-0.1 -5.1,0.2 -5.75,0.6 -8.9,2.8 -1.6,1 -3.25,2.65 -3.25,3.25 -3.25,6.35 0,3.76738 -0.3,5.8 0.6027,-2.69102 2,-5.65 3.35,-7.25 9.3,-9.15 l 9.5,-3 z" id="path276" inkscape:connector-curvature="0" style="fill:#75b5b4;stroke:none"/>
    </g>
    <g id="Layer0_5_FILL">
      <path d="m 1789,118.5 8.5,2.5 q 3.65,0 12,2.5 l 5,1.5 q -0.75,-1 -2.5,-2.2 -3.5,-2.35 -8.5,-3.3 -5,-0.95 -10.25,-1.05 l -4.25,0.05 z" id="path279" inkscape:connector-curvature="0" style="fill:#75b5b4;stroke:none"/>
    </g>
    <g id="Layer0_6_FILL">
      <path d="m 1762.2,158.6 q -1.3432,-0.76621 -2.65,-2.15 -3.35,-3.65 -3.05,-8.95 l -1.1,3.55 q -0.5,3.9 2.6,5.45 l 4.2,2.1 z" id="path282" inkscape:connector-curvature="0" style="fill:#75b5b4;stroke:none"/>
    </g>
    <g id="FlashAICB_Layer_37__Path__12_0_Layer0_0_FILL">
      <path d="M 12.85,6.3 Q 12.15,1.95 9.35,0.9 3.05,-1.45 0.7,2.05 -0.25,3.5 0.05,5.25 q 0.3,1.85 1.8,3.15 3.65,3.2 5.75,4.25 2.9,1.45 4.25,-0.25 1.65,-2.05 1,-6.1 z" id="path285" inkscape:connector-curvature="0" style="fill:url(#Gradient_3);stroke:none"/>
    </g>
    <g id="Layer0_8_FILL">
      <path d="m 1797.5,141.5 q -7.1,-1.7 -13.8,2.1 -6.45,3.75 -5.7,8.4 0.75,4.5 7.8,9.5 7.1,5 12.7,5 7,0 9.55,-0.85 4.1,-1.4 5.45,-6.15 1.55,-5.5 -2.55,-10.5 -4.4,-5.35 -13.45,-7.5 z" id="path288" inkscape:connector-curvature="0" style="fill:url(#Gradient_4);stroke:none"/>
    </g>
    <g id="Layer0_9_FILL">
      <path d="m 1801.95,147 q -1.9,-3 -7.95,-3 -4.7,0 -8.95,3 -4.3,3.05 -1.05,4.5 2.55,1.15 6.95,0 5.85,-1.5 8.05,-1.5 2.15,0 2.95,-0.95 0.75,-0.85 0,-2.05 z" id="path291" inkscape:connector-curvature="0" style="fill:#c68698;stroke:none"/>
    </g>
    <g id="Layer0_10_FILL">
      <path d="m 1800.1,159.75 q -1.05,-0.6 -2.1,-0.25 -4.6,1.55 -4.55,2.6 0,1 4.55,1.4 4.2,0.35 3.4,-2.2 -0.35,-0.95 -1.3,-1.55 z" id="path294" inkscape:connector-curvature="0" style="fill:#c68698;stroke:none"/>
    </g>
    <g id="Layer0_11_FILL">
      <path d="M 1809.75,158.05 Q 1810,155.6 1808,156 q -1.5,0.3 -2.4,2.35 -0.95,2.15 1.4,2.15 2.5,0 2.75,-2.45 z" id="path297" inkscape:connector-curvature="0" style="fill:#c68698;stroke:none"/>
    </g>
    <g id="FlashAICB_Layer_37__Path__7_0_Layer0_0_FILL">
      <path d="M 10.95,9 Q 13.1,7.85 11,5.35 8.15,2 6.1,0.8 3,-1 1,1.35 q -3.35,3.9 5,7.5 2.85,1.2 4.95,0.15 z" id="path300" inkscape:connector-curvature="0" style="fill:url(#Gradient_5);stroke:none"/>
    </g>
    <g id="FlashAICB_Layer_37__Path__6_0_Layer0_0_FILL">
      <path d="M 5,1.75 Q 5,0 3.25,0 0.9,0 0.15,1.75 -0.6,3.5 2.25,3.5 5,3.5 5,1.75 z" id="path303" inkscape:connector-curvature="0" style="fill:url(#Gradient_6);stroke:none"/>
    </g>
    <g id="FlashAICB_Layer_37__Path__5_0_Layer0_0_FILL">
      <path d="M 7.85,3.3 Q 8.25,1.35 5.3,0.5 1.5,-0.6 0.25,0.55 -1,1.7 3.3,3.5 7.5,5.25 7.85,3.3 z" id="path306" inkscape:connector-curvature="0" style="fill:url(#Gradient_7);stroke:none"/>
    </g>
    <g id="FlashAICB_Layer_37__Path__4_0_Layer0_0_FILL">
      <path d="M 2.9,5.05 Q 6,4.7 5.1,2.2 4.2,-0.4 2.4,0.05 0.25,0.55 0.05,2.95 -0.2,5.4 2.9,5.05 z" id="path309" inkscape:connector-curvature="0" style="fill:url(#Gradient_8);stroke:none"/>
    </g>
    <g id="FlashAICB_Layer_37__Path__3_0_Layer0_0_FILL">
      <path d="M 5.15,0.5 Q 4.75,-0.5 3.7,0.55 1.4,2.8 0.35,6.65 -0.75,10.6 1.7,9.55 4.2,8.45 5.15,3.35 5.5,1.4 5.15,0.5 z" id="path312" inkscape:connector-curvature="0" style="fill:url(#Gradient_9);stroke:none"/>
    </g>
    <g id="FlashAICB_Layer_37__Path__2_0_Layer0_0_FILL">
      <path d="M 4.15,9.1 Q 8.1,8.05 7.2,3.65 6.35,-0.7 3.15,0.1 -0.15,0.9 0.05,5.55 0.2,10.2 4.15,9.1 z" id="path315" inkscape:connector-curvature="0" style="fill:url(#Gradient_10);stroke:none"/>
    </g>
    <g id="Layer0_18_FILL">
      <path d="m 1802.4,132.8 q 4.25,-0.05 9.6,0.7 l 7,1 -19,-6 2.55,-0.35 q 3.15,-0.25 5.95,0.35 l 4.5,1 0.4,-0.8 q 1,-0.65 4.1,0.3 l 5,1.5 q -1.85,-2.5 -5.2,-5.45 -6.6,-5.85 -13.8,-8.05 -12.55,-3.8 -17.45,-5 -9.6,-2.35 -15.55,-2 -6.6,0.35 -12.35,4.2 -5.5,3.6 -11.65,11.3 -5.85,7.3 -6.75,12.75 -0.85,5.05 2.25,11.25 l 4,8 1.5,-5.5 2.05,2.55 q 2.9,2.9 6.95,4.45 l 6.5,2.5 q -1.75,-2.35 -3.45,-5.3 -3.35,-5.9 -3.05,-8.7 l 0.5,-4.5 0.5,3.95 q 1,4.35 3.5,6.55 l 4,3.5 q -0.75,-1 -1.1,-2.5 -0.75,-3 1.1,-5.5 l 1.55,-2.15 q 2.05,-2.55 4.45,-4.8 7.75,-7.1 16.5,-8.05 10.35,-1.1 14.9,-1.2 z" id="path318" inkscape:connector-curvature="0" style="fill:url(#Gradient_11);stroke:none"/>
    </g>
    <g id="Layer0_19_FILL">
      <path d="m 1848.55,161.15 q -2.25,-23.7 -20.55,-42.25 -18.3,-18.6 -41.95,-21.15 -23.7,-2.55 -38.85,12.4 -15.2,14.95 -12.95,38.65 2.2,23.7 20.5,42.25 18.35,18.6 42,21.15 23.65,2.55 38.85,-12.4 15.15,-14.95 12.95,-38.65 z" id="path321" inkscape:connector-curvature="0" style="fill:url(#Gradient_12);stroke:none"/>
    </g>
  </defs>
  <g transform="translate(-1733.9599,-97.378429)" id="g323">
    <use xlink:href="#Layer0_0_FILL" id="use325" x="0" y="0" width="114" height="115"/>
  </g>
  <g transform="translate(-1733.9599,-97.378429)" id="g327">
    <use xlink:href="#Layer0_1_FILL" id="use329" x="0" y="0" width="114" height="115"/>
  </g>
  <g transform="translate(-1733.9599,-97.378429)" id="g331">
    <use xlink:href="#Layer0_2_FILL" id="use333" x="0" y="0" width="114" height="115"/>
  </g>
  <g transform="translate(-1733.9599,-97.378429)" id="g335">
    <use xlink:href="#Layer0_3_FILL" id="use337" x="0" y="0" width="114" height="115"/>
  </g>
  <g transform="translate(-1733.9599,-97.378429)" id="g339">
    <use xlink:href="#Layer0_4_FILL" id="use341" x="0" y="0" width="114" height="115"/>
  </g>
  <g transform="translate(-1733.9599,-97.378429)" id="g343">
    <use xlink:href="#Layer0_5_FILL" id="use345" x="0" y="0" width="114" height="115"/>
  </g>
  <g transform="translate(-1733.9599,-97.378429)" id="g347">
    <use xlink:href="#Layer0_6_FILL" id="use349" x="0" y="0" width="114" height="115"/>
  </g>
  <g transform="translate(65.690115,85.721571)" id="g351">
    <g id="g353">
      <use xlink:href="#FlashAICB_Layer_37__Path__12_0_Layer0_0_FILL" id="use355" style="filter:url(#Filter_1)" x="0" y="0" width="114" height="115"/>
    </g>
  </g>
  <g transform="translate(-1733.9599,-97.378429)" id="g357">
    <use xlink:href="#Layer0_8_FILL" id="use359" x="0" y="0" width="114" height="115"/>
  </g>
  <g transform="translate(-1733.9599,-97.378429)" id="g361">
    <use xlink:href="#Layer0_9_FILL" id="use363" x="0" y="0" width="114" height="115"/>
  </g>
  <g transform="translate(-1733.9599,-97.378429)" id="g365">
    <use xlink:href="#Layer0_10_FILL" id="use367" x="0" y="0" width="114" height="115"/>
  </g>
  <g transform="translate(-1733.9599,-97.378429)" id="g369">
    <use xlink:href="#Layer0_11_FILL" id="use371" x="0" y="0" width="114" height="115"/>
  </g>
  <g transform="translate(69.540115,65.271571)" id="g373">
    <g id="g375">
      <use xlink:href="#FlashAICB_Layer_37__Path__7_0_Layer0_0_FILL" id="use377" style="filter:url(#Filter_1)" x="0" y="0" width="114" height="115"/>
    </g>
  </g>
  <g transform="translate(80.290115,80.121571)" id="g379">
    <g id="g381">
      <use xlink:href="#FlashAICB_Layer_37__Path__6_0_Layer0_0_FILL" id="use383" style="filter:url(#Filter_1)" x="0" y="0" width="114" height="115"/>
    </g>
  </g>
  <g transform="translate(47.740115,68.621571)" id="g385">
    <g id="g387">
      <use xlink:href="#FlashAICB_Layer_37__Path__5_0_Layer0_0_FILL" id="use389" style="filter:url(#Filter_1)" x="0" y="0" width="114" height="115"/>
    </g>
  </g>
  <g transform="translate(56.140115,81.071571)" id="g391">
    <g id="g393">
      <use xlink:href="#FlashAICB_Layer_37__Path__4_0_Layer0_0_FILL" id="use395" style="filter:url(#Filter_1)" x="0" y="0" width="114" height="115"/>
    </g>
  </g>
  <g transform="translate(83.340115,53.071571)" id="g397">
    <g id="g399">
      <use xlink:href="#FlashAICB_Layer_37__Path__3_0_Layer0_0_FILL" id="use401" style="filter:url(#Filter_1)" x="0" y="0" width="114" height="115"/>
    </g>
  </g>
  <g transform="translate(84.390115,89.521571)" id="g403">
    <g id="g405">
      <use xlink:href="#FlashAICB_Layer_37__Path__2_0_Layer0_0_FILL" id="use407" style="filter:url(#Filter_1)" x="0" y="0" width="114" height="115"/>
    </g>
  </g>
  <g transform="translate(-1733.9599,-97.378429)" id="g409">
    <use xlink:href="#Layer0_18_FILL" id="use411" x="0" y="0" width="114" height="115"/>
  </g>
  <g transform="translate(-1733.9599,-97.378429)" id="g413">
    <use xlink:href="#Layer0_19_FILL" id="use415" x="0" y="0" width="114" height="115"/>
  </g>
</svg>
