<?xml version="1.0" encoding="UTF-8" standalone="no"?>
<!-- Generator: Adobe Illustrator 20.1.0, SVG Export Plug-In . SVG Version: 6.00 Build 0)  -->
<svg xmlns:dc="http://purl.org/dc/elements/1.1/" xmlns:cc="http://creativecommons.org/ns#" xmlns:rdf="http://www.w3.org/1999/02/22-rdf-syntax-ns#" xmlns:svg="http://www.w3.org/2000/svg" xmlns="http://www.w3.org/2000/svg" xmlns:sodipodi="http://sodipodi.sourceforge.net/DTD/sodipodi-0.dtd" xmlns:inkscape="http://www.inkscape.org/namespaces/inkscape" version="1.1" id="Layer_1" x="0px" y="0px" viewBox="0 0 408.7 407.4" xml:space="preserve" inkscape:version="0.48.5 r10040" width="209px" height="209px" sodipodi:docname="cl2_houseTrunk.svg" preserveAspectRatio="none"><metadata id="metadata100"><rdf:RDF><cc:Work rdf:about=""><dc:format>image/svg+xml</dc:format><dc:type rdf:resource="http://purl.org/dc/dcmitype/StillImage"/></cc:Work></rdf:RDF></metadata><defs id="defs98"/><sodipodi:namedview pagecolor="#ffffff" bordercolor="#666666" borderopacity="1" objecttolerance="10" gridtolerance="10" guidetolerance="10" inkscape:pageopacity="0" inkscape:pageshadow="2" inkscape:window-width="640" inkscape:window-height="480" id="namedview96" showgrid="false" inkscape:zoom="0.5412844" inkscape:cx="204.85" inkscape:cy="200" inkscape:window-x="0" inkscape:window-y="0" inkscape:window-maximized="0" inkscape:current-layer="Layer_1"/><style type="text/css" id="style3">
	.st0{fill:#3E3A31;}
	.st1{fill:#5D5646;}
	.st2{fill:#4F4A3C;}
	.st3{fill:#595243;}
	.st4{fill:#7C705A;}
</style><g transform="translate(-22.3,-10.6)" id="g5"><g id="g7"><g id="Layer0_0_MEMBER_0_FILL"><path class="st0" d="m 288.4,104.3 -11,-44.5 c 1,9.1 1.2,18.3 0.6,27.5 -1,18.5 -5.2,28.1 -12.6,28.8 -7.4,0.7 -16.6,-16.6 -27.6,-51.8 -5.5,-17.6 -10.2,-35.2 -14.3,-52.9 3.4,19.7 5.7,39.5 7,59.4 2.7,39.7 -1,59.9 -11,60.5 -10,0.7 -22.8,-19.2 -38.5,-59.8 -7.7,-20.2 -14.5,-40.6 -20.3,-60.9 -0.9,10.5 -2.3,21.5 -4.2,33 -3.7,23.1 -7.9,37.3 -12.7,42.7 -4.7,5.4 -11.3,-2 -19.9,-22.1 -4.2,-10.1 -8,-20.7 -11.4,-31.8 0.9,4.9 1.8,11.2 2.5,18.7 1.4,15.2 1.7,29.3 0.7,42.4 -1,12.2 -4.6,27.6 -10.7,46.2 -5.5,16.3 -8.1,24.7 -7.8,25.4 12.8,29.9 54,42.7 123.7,38.6 34.9,-2.1 68.5,-7.2 100.8,-15.2 -5.3,-8.5 -10.7,-17.9 -16,-28.1 -3.5,-6.4 -9.2,-25.1 -17.3,-56.1 z" id="path10" inkscape:connector-curvature="0" style="fill:#3e3a31"/></g></g></g><g transform="translate(-22.3,-10.6)" id="g12"><g id="g14"><g id="Layer0_0_MEMBER_1_FILL"><path class="st1" d="m 340.1,244.3 6.5,-28.4 -19.3,-111.1 -9.7,36.2 -49.1,-70 c -0.3,8.6 -1.3,17 -3.1,25.3 -3.6,16.5 -9.2,23.9 -17,22.2 -7.7,-1.7 -15.6,-11.7 -23.8,-30.1 l -10,-27 -16,34.7 -13.8,-52.3 -28.9,86.1 -15.3,-28.2 c -4.8,8.1 -10,15.7 -15.4,22.8 -10.9,14.4 -17.8,19.4 -20.8,15 -3,-4.4 -3.4,-16.4 -1.1,-36.1 1.1,-9.9 2.5,-19.3 4.3,-28.3 L 65.8,186.9 c 27.3,48.3 41,73.2 41,74.8 0,0.8 -3.2,11 -9.7,30.4 -6.7,21.6 -10.7,37.8 -12,48.5 -1.4,11.1 -12.2,23.9 -32.6,38.6 -10.2,7.3 -20.2,13.5 -30.2,18.6 37,-4.3 60.8,-6.7 71.6,-7.2 6.7,-0.3 9.8,4.1 9.3,13.4 -0.3,4.6 -1.2,9.3 -2.8,14 5.4,-3.8 11.8,-7.8 19.1,-12 14.8,-8.4 27.2,-13.8 37.2,-16.1 10,-2.3 23.9,-7.6 41.7,-15.8 8.9,-4.1 16.7,-8 23.5,-11.6 l 12.4,3.7 c 10.2,2.3 20,3.4 29.4,3 9.4,-0.3 22.8,5.9 40.2,18.6 8.7,6.3 16.5,12.7 23.3,19 0.7,-1.4 1.8,-2.9 3.4,-4.7 3.3,-3.5 7.2,-6.2 11.9,-8.2 8.5,-3.6 25.8,-1.4 51.9,6.7 13,4.1 25.2,8.6 36.5,13.4 -10.7,-7 -23.3,-15.8 -37.8,-26.6 -12.5,-9.2 -24.7,-25.3 -36.5,-48 -10.8,-20.6 -17.9,-39.8 -21.4,-57.4 -0.9,-5.2 0.7,-17.7 4.9,-37.7 z" id="path17" inkscape:connector-curvature="0" style="fill:#5d5646"/></g></g></g><g transform="translate(-22.3,-10.6)" id="g19"><g id="g21"><g id="Layer0_0_MEMBER_2_MEMBER_0_FILL"><path class="st2" d="M 103.3,103.3 C 104.4,93.4 105.8,84 107.6,75 L 65.8,186.9 c 27.3,48.3 41,73.2 41,74.8 0,0.8 -3.2,11 -9.7,30.4 -6.7,21.6 -10.7,37.8 -12,48.5 -1.4,11.1 -12.2,23.9 -32.6,38.6 -10.2,7.3 -20.2,13.5 -30.2,18.6 37,-4.3 60.8,-6.7 71.6,-7.2 6.7,-0.3 9.8,4.1 9.3,13.4 -0.3,4.6 -1.2,9.3 -2.8,14 5.4,-3.8 11.8,-7.8 19.1,-12 14.8,-8.4 27.2,-13.8 37.2,-16.1 4.3,-27.4 7.5,-50.2 9.7,-68.4 1.4,-11.5 1.1,-25.3 -0.9,-41.3 -1,-8.6 -2.4,-16.5 -4,-23.8 -0.5,-2.7 -4,-17.5 -10.4,-44.3 1.6,-2.9 3.4,-6.5 5.2,-10.7 3.6,-8.5 5.9,-15.9 6.9,-22.3 L 184.9,44 156,130.1 140.7,101.9 c -4.8,8.1 -10,15.7 -15.4,22.8 -10.9,14.4 -17.8,19.4 -20.8,15 -3.1,-4.6 -3.5,-16.6 -1.2,-36.4 z" id="path24" inkscape:connector-curvature="0" style="fill:#4f4a3c"/></g></g></g><g transform="translate(-22.3,-10.6)" id="g26"><g id="g28"><g id="Layer0_0_MEMBER_3_FILL"><path class="st0" d="m 96,133.7 -0.4,-21.7 -21.8,74.1 45.1,71.6 -7.1,44.2 c -5.8,31.1 -11.2,50.7 -16.2,58.8 -5,8.1 -18.7,16.7 -41.1,25.8 -11.2,4.6 -21.9,8.3 -32.1,11.2 7,-1.3 14.9,-2.6 23.9,-4 18,-2.7 32,-4 42.1,-4 10,0 15,4.7 15,14.1 0,4.7 -1,9.4 -3,14.1 4.8,-6.7 9.9,-14.4 15.3,-23 10.7,-17.3 17.4,-30.8 20.1,-40.5 2.7,-9.7 3.7,-30.3 3.2,-61.9 L 137.3,248.2 118,183.7 142.2,112 c -2.9,6.1 -6.5,12.3 -10.8,18.6 -8.6,12.7 -16.2,19.9 -22.9,21.6 -6.8,1.7 -10.9,-4.4 -12.5,-18.5 z" id="path31" inkscape:connector-curvature="0" style="fill:#3e3a31"/></g></g></g><g transform="translate(-22.3,-10.6)" id="g33"><g id="g35"><g id="Layer0_0_MEMBER_4_FILL"><path class="st3" d="M 374.7,380.8 C 363.9,373.4 352.3,357.5 340,333 c -8.7,-17.5 -15.7,-34.3 -20.8,-50.3 -2.7,-8.4 0,-22.3 8,-41.8 L 340.1,214.2 324,149.1 315.1,167.6 275.8,96 273,108.2 c -2.9,8.9 -7.1,15 -12.5,18.4 -5.3,3.3 -14.3,0.3 -26.9,-9.1 l -17.3,-15 11.1,13.8 c 8.9,11.4 17.2,22.5 24.8,33.3 24.2,34.6 37.2,59.9 38.9,76 1.7,16.1 1.5,30.2 -0.5,42.3 -1,6.1 -2.1,10.5 -3.5,13.3 l 14.9,19.3 c 10.6,15.8 17.4,31.1 20.5,45.9 4.8,23.6 8.3,41.5 10.4,53.9 l 5.4,-2.9 c 4.7,-2 9.9,-3.2 15.5,-3.5 5.7,-0.3 20.3,2.9 43.7,9.8 11.7,3.5 22.9,6.9 33.5,10.4 -5.2,-2.7 -11.5,-6.1 -18.7,-10.2 -14.6,-8.4 -27.2,-16 -37.6,-23.1 z" id="path38" inkscape:connector-curvature="0" style="fill:#595243"/></g></g></g><g transform="translate(-22.3,-10.6)" id="g40"><g id="g42"><g id="Layer0_0_MEMBER_5_FILL"><path class="st2" d="m 343.4,396.2 c 4.7,-4 14.4,-4.2 29.2,-0.5 7.4,1.9 14.3,4.2 20.7,6.8 -4.8,-3.2 -10.1,-6.8 -15.8,-10.9 -11.4,-8.1 -19.3,-14.4 -23.6,-18.7 -4.9,-4.9 -11.5,-17.6 -19.9,-38.1 -7.6,-18.7 -13.9,-36.6 -18.7,-53.7 -3.6,-13 -2.9,-27.3 2.1,-43.2 1.5,-4.6 3.5,-9.8 6.2,-15.5 2.3,-5.2 3.6,-8.2 3.8,-8.9 0.7,-2.7 0.1,-9.2 -1.8,-19.7 l -3,-14.9 -7.3,41.1 c -0.1,-1.9 -0.7,-4.5 -1.7,-7.8 -2,-6.6 -5.2,-13.4 -9.6,-20.4 -4.4,-7 -14,-18.1 -28.9,-33.3 l -21,-20.6 18.6,23.3 c 13.3,18 22.1,33 26.5,45.1 4.4,12 6.2,28.3 5.6,48.6 -0.3,10.2 -1.1,19.2 -2.3,26.9 l 12.3,24 c 9.1,18.9 16,35.6 20.7,50 4.7,14.5 7.4,25.5 8.2,33.2 0.3,3.9 0.2,6.2 -0.3,7.2 z" id="path45" inkscape:connector-curvature="0" style="fill:#4f4a3c"/></g></g></g><g transform="translate(-22.3,-10.6)" id="g47"><g id="g49"><g id="Layer0_0_MEMBER_6_FILL"><path class="st4" d="m 303.9,174 8.1,-30.6 -40.3,-60.3 26.6,65.1 c 2.3,5.7 4,11.7 5,18.1 0.4,3.1 0.6,5.7 0.6,7.7 z" id="path52" inkscape:connector-curvature="0" style="fill:#7c705a"/></g></g></g><g transform="translate(-22.3,-10.6)" id="g54"><g id="g56"><g id="Layer0_0_MEMBER_7_FILL"><path class="st4" d="M 325.7,125.8 324,170 340.1,214.2 325.7,125.8 z" id="path59" inkscape:connector-curvature="0" style="fill:#7c705a"/></g></g></g><g transform="translate(-22.3,-10.6)" id="g61"><g id="g63"><g id="Layer0_0_MEMBER_8_FILL"><path class="st4" d="m 216,83.9 -3.7,-9.7 1,13.6 c 1,9.8 2.6,16.6 4.6,20.2 3.3,5.9 12.7,17.7 28.2,35.4 -3.2,-4.6 -6.6,-9.6 -10.2,-15.2 -7.1,-11.3 -11.5,-19.6 -13.2,-25 C 221,97.9 218.8,91.4 216,83.9 z" id="path66" inkscape:connector-curvature="0" style="fill:#7c705a"/></g></g></g><g transform="translate(-22.3,-10.6)" id="g68"><g id="g70"><g id="Layer0_0_MEMBER_9_FILL"><path class="st4" d="m 269.4,201.4 -28.2,-32.1 33,67.6 -4.8,-35.5 z" id="path73" inkscape:connector-curvature="0" style="fill:#7c705a"/></g></g></g><g transform="translate(-22.3,-10.6)" id="g75"><g id="g77"><g id="Layer0_0_MEMBER_10_FILL"><path class="st3" d="m 184.1,150.1 -1.7,-28.4 -4.3,32.7 c -3.4,22.4 -6.2,35.1 -8.6,38.2 -3.8,4.8 -7.6,10.4 -11.3,16.9 l 20.1,-12.1 c -4.2,14.9 -6.9,23.9 -8.1,27 2.5,-3.4 4.9,-6.8 7.4,-10.4 5.3,-7.7 8,-15.2 8,-22.4 0.1,-7.3 -0.4,-21.1 -1.5,-41.5 z" id="path80" inkscape:connector-curvature="0" style="fill:#595243"/></g></g></g><g transform="translate(-22.3,-10.6)" id="g82"><g id="g84"><g id="Layer0_0_MEMBER_11_MEMBER_1_FILL"><path class="st2" d="m 200.7,154.1 c 0.7,17.2 0.8,30.6 0.4,40.1 -0.4,9.6 -3,21 -7.9,34.3 -2.5,6.6 -4.9,12.3 -7.2,17 l 1.5,16.5 c 1.2,12 2.1,20.3 2.9,25 0.8,4.7 0.2,21.5 -2,50.6 -1,14.5 -2.2,28.6 -3.4,42.2 5.1,-2.1 10.5,-4.5 16.4,-7.3 4.4,-12.4 6.4,-25.4 6.1,-39.1 -0.4,-12.4 -1.9,-30.8 -4.5,-55.1 l -3.8,-32.8 7.3,-39.1 16.6,43 10.7,-7.8 -2.7,26.9 c -1.6,19.4 -1.6,32.7 -0.2,40 1.7,9 11.9,29.3 30.7,60.6 l 2.1,-0.1 c 4,-0.2 9.1,1 15.2,3.6 -11.5,-19.1 -20.5,-36.9 -27,-53.4 -4.6,-11.3 -5.1,-23.9 -1.8,-37.8 1.9,-7.8 4.6,-14.8 8.2,-21.1 -0.7,-0.3 -2.1,-2.1 -4,-5.6 C 248.8,246.6 244,239.4 240,233.1 232.5,221 227.7,210.6 225.5,202 c -2.2,-8.7 -5,-20.5 -8.4,-35.2 l -4.3,-19.4 -2.4,40 -10.7,-56.1 1,22.8 z" id="path87" inkscape:connector-curvature="0" style="fill:#4f4a3c"/></g></g></g><g transform="translate(-22.3,-10.6)" id="g89"><g id="g91"><g id="Layer0_0_MEMBER_11_MEMBER_2_FILL"><path class="st3" d="m 231.1,268.4 2.7,-26.9 -10.7,7.8 -16.6,-43 -7.3,39.1 3.8,32.8 c 2.6,24.3 4.1,42.6 4.5,55.1 0.4,13.7 -1.6,26.7 -6.1,39.1 7.8,-3.6 14.6,-7 20.5,-10.2 l 11.7,3.5 c 9.6,2.3 18.9,3.4 27.9,3.3 -18.7,-31.4 -29,-51.6 -30.7,-60.6 -1.3,-7.2 -1.3,-20.6 0.3,-40 z" id="path94" inkscape:connector-curvature="0" style="fill:#595243"/></g></g></g></svg>
