<?xml version="1.0" encoding="UTF-8" standalone="no"?>
<!-- Generator: Adobe Illustrator 20.1.0, SVG Export Plug-In . SVG Version: 6.00 Build 0)  -->
<svg xmlns:dc="http://purl.org/dc/elements/1.1/" xmlns:cc="http://creativecommons.org/ns#" xmlns:rdf="http://www.w3.org/1999/02/22-rdf-syntax-ns#" xmlns:svg="http://www.w3.org/2000/svg" xmlns="http://www.w3.org/2000/svg" xmlns:sodipodi="http://sodipodi.sourceforge.net/DTD/sodipodi-0.dtd" xmlns:inkscape="http://www.inkscape.org/namespaces/inkscape" version="1.1" id="Layer_1" x="0px" y="0px" viewBox="0 0 448.19742 416.2395" xml:space="preserve" inkscape:version="0.48.5 r10040" width="4px" height="4px" sodipodi:docname="cl2_pipeArrow_01.svg" preserveAspectRatio="none"><metadata id="metadata196"><rdf:RDF><cc:Work rdf:about=""><dc:format>image/svg+xml</dc:format><dc:type rdf:resource="http://purl.org/dc/dcmitype/StillImage"/></cc:Work></rdf:RDF></metadata><defs id="defs194"/><sodipodi:namedview pagecolor="#ffffff" bordercolor="#666666" borderopacity="1" objecttolerance="10" gridtolerance="10" guidetolerance="10" inkscape:pageopacity="0" inkscape:pageshadow="2" inkscape:window-width="640" inkscape:window-height="480" id="namedview192" showgrid="false" inkscape:zoom="0.53153153" inkscape:cx="219.69742" inkscape:cy="202.37973" inkscape:window-x="0" inkscape:window-y="0" inkscape:window-maximized="0" inkscape:current-layer="Layer_1"/><style type="text/css" id="style3">
	.st0{fill:#DC8D68;}
	.st1{fill:#CB7857;}
	.st2{fill:#CD6C49;}
	.st3{fill:#E9BB99;}
	.st4{fill:url(#SVGID_1_);}
	.st5{fill:#C46544;}
	.st6{fill:#E4AD84;}
	.st7{fill:#AD5E40;}
	.st8{fill:#7F4A34;}
	.st9{fill:#D98560;}
	.st10{fill:#1F362F;}
	.st11{fill:#4B7466;}
	.st12{fill:#9FCABA;}
	.st13{fill:#5B907C;}
	.st14{fill:#79A596;}
	.st15{fill:#486E61;}
	.st16{fill:#538171;}
</style><g transform="translate(-25.902581,-8.0902341)" id="g5"><g id="g7"><g id="Layer0_0_MEMBER_0_FILL"><path class="st0" d="m 158.4,80.6 c 13.8,7.9 26.2,16.4 37.3,25.4 -1,-1.1 -1.8,-2.7 -2.5,-4.8 -2.4,-6.6 -1.3,-15.2 3.4,-25.7 4.7,-10.5 12.7,-17.7 24,-21.5 5.6,-1.9 10.8,-2.7 15.5,-2.5 C 213.1,37.4 187.7,26.1 159.9,17.6 104.3,0.7 64.8,6.3 41.2,34.6 19.4,61 20.9,102.7 45.7,160 c 6.6,15.2 16.9,37.7 31.1,67.5 10.7,25.2 16.3,45.2 16.7,59.9 0.6,29.4 -3.3,57 -11.6,83 -4,13 -8.1,23 -12.4,29.9 15.2,12.4 35.4,17 60.4,13.8 12.4,-1.5 23.3,-4.2 32.8,-8.2 0.9,-17.5 0.8,-37.7 -0.6,-60.7 -2.3,-45.9 -8.7,-82.6 -19.2,-110.1 -7.2,-18.8 -16.5,-40.4 -28,-64.7 -13.7,-29 -21.5,-45.6 -23.2,-49.7 -12.6,-29.7 -12,-48.1 1.7,-55.1 14.2,-6.9 35.8,-2 65,15 z" id="path10" inkscape:connector-curvature="0" style="fill:#dc8d68"/></g></g></g><g transform="translate(-25.902581,-8.0902341)" id="g12"><g id="g14"><g id="Layer0_0_MEMBER_1_MEMBER_0_FILL"><path class="st1" d="M 41.2,64.2 C 46.5,43.1 54.4,28.1 64.9,19 70.4,14.5 75.2,12.1 79.3,11.9 l -0.8,-0.6 c -15.2,4 -27.7,11.7 -37.3,23.2 -21.8,26.4 -20.3,68.1 4.5,125.4 6.6,15.2 16.9,37.7 31.1,67.5 10.7,25.2 16.3,45.2 16.7,59.9 0.6,34.6 -4.4,65.4 -15,92.3 l 34.7,3.7 c 4.9,-8.7 8.7,-20.4 11.3,-35.3 5.3,-29.6 2,-59.7 -9.9,-90.4 C 109,242.7 100.6,224.8 89.5,203.7 77.1,180.5 68.1,163.5 62.7,152.6 43.3,114 36.1,84.5 41.2,64.2 z" id="path17" inkscape:connector-curvature="0" style="fill:#cb7857"/></g></g></g><g transform="translate(-25.902581,-8.0902341)" id="g19"><g id="g21"><g id="Layer0_0_MEMBER_1_MEMBER_2_FILL"><path class="st1" d="m 98.8,54 c -8.3,4.6 -12.4,10.2 -12.4,17 1.7,-1.9 4,-3.7 7.1,-5.4 13,-6.4 32.6,-2.5 58.7,11.6 14.1,7.7 28.8,17.6 44,29.6 -5.5,-6 -5.8,-15.2 -1.1,-27.7 C 185.7,71.9 178.5,67 173.6,64.1 165.3,59 156.5,55.3 147.1,52.8 126.4,47.5 110.3,47.8 98.8,54 z" id="path24" inkscape:connector-curvature="0" style="fill:#cb7857"/></g></g></g><g transform="translate(-25.902581,-8.0902341)" id="g26"><g id="g28"><g id="Layer0_0_MEMBER_2_FILL"><path class="st2" d="m 161.5,415.2 c 7,-3.2 12,-6.5 15.2,-9.9 0,-12.8 -1.4,-21.6 -4.2,-26.3 l -9.3,-14.1 c -14.5,5.6 -29.7,8.9 -45.7,9.9 -10,0.6 -18.7,-0.7 -26.3,-3.7 l -8.5,-4.8 -5.6,5.6 c -4.1,4.7 -7.4,9.4 -9.9,14.1 -3.8,7.5 -5.4,14.9 -4.8,22 l 11.6,7.6 c 10.7,5.3 23.8,8.1 39.2,8.5 18.3,0.7 34.4,-2.3 48.3,-8.9 z" id="path31" inkscape:connector-curvature="0" style="fill:#cd6c49"/></g></g></g><g transform="translate(-25.902581,-8.0902341)" id="g33"><g id="g35"><g id="Layer0_0_MEMBER_3_FILL"><path class="st3" d="m 217.4,51.5 c -6.2,2.6 -11.1,6.2 -14.7,10.7 -7.3,9 -11.3,18 -11.9,26.8 -0.6,8.1 1.8,14.4 7.1,18.9 5.1,4.3 11.2,5.5 18.4,3.4 7.3,-2.1 14.1,-7 20.3,-14.7 6.6,-8.1 10.1,-16.1 10.4,-24 0.2,-8.5 -3.5,-15.5 -11,-21.2 -4.7,-3.3 -10.9,-3.3 -18.6,0.1 z" id="path38" inkscape:connector-curvature="0" style="fill:#e9bb99"/></g></g></g><g transform="translate(-25.902581,-8.0902341)" id="g40"><g id="g42"><g id="Layer0_0_MEMBER_4_FILL"><linearGradient id="SVGID_1_" gradientUnits="userSpaceOnUse" x1="217.80521" y1="760.12793" x2="221.33479" y2="724.12701" gradientTransform="matrix(1,0,0,-1,-0.25,821.2833)"><stop offset="0" style="stop-color:#893342" id="stop46"/><stop offset="1" style="stop-color:#2D1D1E" id="stop48"/></linearGradient><path class="st4" d="m 230.4,92.4 c 10.9,-12.6 12.3,-22.7 4.2,-30.2 -6.4,-6 -14.9,-2.4 -25.4,10.7 -10.5,13.2 -12.4,22.8 -5.6,28.8 6.9,6.3 15.9,3.2 26.8,-9.3 z" id="path50" inkscape:connector-curvature="0" style="fill:url(#SVGID_1_)"/></g></g></g><g transform="translate(-25.902581,-8.0902341)" id="g52"><g id="g54"><g id="Layer0_0_MEMBER_5_FILL"><path class="st5" d="M 90.9,225.4 C 74.9,196.2 63.7,175.4 57.3,163 43.6,136.3 35.1,112.2 31.9,90.7 30.4,80 30.2,71.9 31.3,66.4 28.9,74.3 28.6,84.8 30.5,98 c 1.3,8.8 4.8,21.3 10.4,37.3 4.3,12.8 9.1,25.1 14.4,37 2.8,6.4 10.9,22.7 24.3,48.8 12,25.8 18.5,44.8 19.5,57 1.3,19.8 -1,49.1 -7.1,88.1 3.8,4.3 10.4,5.6 19.8,3.7 1.1,-7.2 2.1,-15.9 2.8,-26.3 1.5,-20.9 1.2,-39.2 -0.8,-55.1 -2.1,-15.8 -9.7,-36.9 -22.9,-63.1 z" id="path57" inkscape:connector-curvature="0" style="fill:#c46544"/></g></g></g><g transform="translate(-25.902581,-8.0902341)" id="g59"><g id="g61"><g id="Layer0_0_MEMBER_6_FILL"><path class="st5" d="M 187.2,91 C 186.6,85.7 186.9,82.2 188,80.6 185,78 180.8,75.1 175.3,72.1 164.6,66.1 153.3,62 141.4,60 129.7,57.9 119.8,57.5 111.8,58.6 l -8.5,2.3 c 16,0.9 31.1,4.7 45.2,11.3 14.1,6.6 27.5,15.2 40.1,26 -0.5,-2.4 -1,-4.7 -1.4,-7.2 z" id="path64" inkscape:connector-curvature="0" style="fill:#c46544"/></g></g></g><g transform="translate(-25.902581,-8.0902341)" id="g66"><g id="g68"><g id="Layer0_0_MEMBER_7_FILL"><path class="st3" d="m 196.8,56 c 4.1,-4.5 8.9,-7.6 14.4,-9.3 C 203.7,43.1 194.9,39.4 184.9,35.4 164.8,27.5 148.4,22.8 135.8,21.3 123.2,19.8 111,20.5 99.1,23.6 L 85,28.4 105.6,27 c 16.9,0 32.8,2.8 47.7,8.5 15.1,5.5 26.1,11.6 33,18.4 3.6,3.4 5.6,6.2 5.9,8.5 l 4.6,-6.4 z" id="path71" inkscape:connector-curvature="0" style="fill:#e9bb99"/></g></g></g><g transform="translate(-25.902581,-8.0902341)" id="g73"><g id="g75"><g id="Layer0_0_MEMBER_8_FILL"><path class="st6" d="m 81,151.7 c 20.6,37.6 35.5,69.6 44.9,96 6.4,18.3 10.4,41.6 11.9,70 0.6,14.3 0.6,26.7 0,37.3 l 15.5,-0.6 c 0.6,-11.7 0.3,-25.1 -0.8,-40.4 -1.9,-30.3 -6.5,-54 -13.8,-71.2 L 96.3,139.9 c 5.6,23 6.6,34 2.8,33 -3.6,-0.8 -8.8,-6.5 -15.8,-17.2 l -2.3,-4 z" id="path78" inkscape:connector-curvature="0" style="fill:#e4ad84"/></g></g></g><g transform="translate(-25.902581,-8.0902341)" id="g80"><g id="g82"><g id="Layer0_0_MEMBER_9_MEMBER_0_FILL"><path class="st7" d="m 160.9,415.5 0.3,-0.3 c -5.8,1.5 -12.1,2.5 -18.9,3.1 -13.2,1.5 -21.7,0.5 -25.7,-3.1 -3.8,-3.6 -4.7,-11.4 -2.8,-23.4 l 3.7,-16.9 c -10,0.6 -18.7,-0.7 -26.3,-3.7 l -8.5,-4.8 -5.6,5.6 c -4.1,4.7 -7.4,9.4 -9.9,14.1 -3.8,7.5 -5.4,14.9 -4.8,22 l 11.6,7.6 c 10.7,5.3 23.8,8.1 39.2,8.5 18.3,0.8 34.2,-2.1 47.7,-8.7 z" id="path85" inkscape:connector-curvature="0" style="fill:#ad5e40"/></g></g></g><g transform="translate(-25.902581,-8.0902341)" id="g87"><g id="g89"><g id="Layer0_0_MEMBER_10_FILL"><path class="st8" d="m 101.9,384.1 -15.5,-5.1 -4.2,6.2 c -2.8,4.9 -4.5,8.9 -5.1,12.1 -0.9,5.3 -0.5,9.5 1.4,12.7 l 20.6,6.5 C 96.3,411.8 96,405.2 98.3,396.7 l 3.6,-12.6 z" id="path92" inkscape:connector-curvature="0" style="fill:#7f4a34"/></g></g></g><g transform="translate(-25.902581,-8.0902341)" id="g94"><g id="g96"><g id="Layer0_0_MEMBER_11_FILL"><path class="st9" d="m 164.6,381.9 c -5.1,-5.5 -11.4,-7.1 -18.9,-4.8 l 4.2,7.3 c 2.8,5.3 4.2,8.9 4.2,11 v 11.3 l 7.6,-0.3 c 5.1,-1.1 7.9,-3.9 8.5,-8.2 0.8,-6 -1.1,-11.4 -5.6,-16.3 z" id="path99" inkscape:connector-curvature="0" style="fill:#d98560"/></g></g></g><g transform="translate(-25.902581,-8.0902341)" id="g101"><g id="g103"><g id="Layer0_0_MEMBER_12_FILL"><path class="st10" d="m 258.6,96.4 c 20,8.1 43.5,15 70.6,20.6 l 6.5,-24.3 c -5.8,0.8 -13.3,1.1 -22.3,1.1 -18.1,0 -35.4,-2 -52,-5.9 -16.4,-4 -28.3,-7.8 -35.9,-11.6 L 219,71.8 c -3.2,0.8 -5.3,2 -6.2,3.7 l -0.6,2 46.4,18.9 z" id="path106" inkscape:connector-curvature="0" style="fill:#1f362f"/></g></g></g><g transform="translate(-25.902581,-8.0902341)" id="g108"><g id="g110"><g id="Layer0_0_MEMBER_13_FILL"><path class="st10" d="m 254.7,111.1 c 13.2,7.5 33.4,18.2 60.7,31.9 l 4.8,-13.6 c -19.8,-4.7 -36.4,-9.9 -50,-15.5 -8.3,-3.6 -20.5,-10 -36.7,-19.2 L 212,81.7 c -1.7,0 -3,0.5 -4,1.4 l -0.8,1.1 47.5,26.9 z" id="path113" inkscape:connector-curvature="0" style="fill:#1f362f"/></g></g></g><g transform="translate(-25.902581,-8.0902341)" id="g115"><g id="g117"><g id="Layer0_0_MEMBER_14_FILL"><path class="st11" d="m 289.7,145.2 -31.1,2 46,34.7 33.9,-17.8 -48.8,-18.9 z" id="path120" inkscape:connector-curvature="0" style="fill:#4b7466"/></g></g></g><g transform="translate(-25.902581,-8.0902341)" id="g122"><g id="g124"><g id="Layer0_0_MEMBER_15_FILL"><path class="st12" d="M 336.6,10.8 367.7,70.1 395.1,60.5 366,20.1 336.6,10.8 z" id="path127" inkscape:connector-curvature="0" style="fill:#9fcaba"/></g></g></g><g transform="translate(-25.902581,-8.0902341)" id="g129"><g id="g131"><g id="Layer0_0_MEMBER_16_FILL"><path class="st13" d="m 372.4,59.7 -35.9,-48.8 -33.9,152.5 -44,-16.1 43.2,92.3 L 412,201.7 363.2,171.8 448.8,47.6 372.4,59.7 z" id="path134" inkscape:connector-curvature="0" style="fill:#5b907c"/></g></g></g><g transform="translate(-25.902581,-8.0902341)" id="g136"><g id="g138"><g id="Layer0_0_MEMBER_17_FILL"><path class="st14" d="m 448.7,47.6 -85.6,124.2 h 24.3 L 474.1,47.6 h -25.4 z" id="path141" inkscape:connector-curvature="0" style="fill:#79a596"/></g></g></g><g transform="translate(-25.902581,-8.0902341)" id="g143"><g id="g145"><g id="Layer0_0_MEMBER_18_FILL"><path class="st12" d="m 387.4,171.8 h -24.3 l 48.8,29.9 23.4,-5.6 -47.9,-24.3 z" id="path148" inkscape:connector-curvature="0" style="fill:#9fcaba"/></g></g></g><g transform="translate(-25.902581,-8.0902341)" id="g150"><g id="g152"><g id="Layer0_0_MEMBER_19_FILL"><path class="st15" d="m 302.1,197.8 1.7,-9.3 c -0.5,2.6 -1.3,4.6 -2.5,6.2 -2.4,3.6 -5.4,3.1 -8.8,-1.4 l -26,-37.3 37.6,78.2 23.2,-9 c -1.5,0.5 -3.1,0.8 -4.8,0.8 -7,0.6 -12.2,-2.1 -15.8,-7.9 -3.6,-5.8 -5.1,-12.6 -4.6,-20.3 z" id="path155" inkscape:connector-curvature="0" style="fill:#486e61"/></g></g></g><g transform="translate(-25.902581,-8.0902341)" id="g157"><g id="g159"><g id="Layer0_0_MEMBER_20_FILL"><path class="st14" d="m 364.5,57.7 c -0.9,-6.6 -9.6,-18.1 -26,-34.4 13.2,21.1 19.1,34.4 17.8,40.1 -1.1,5.6 -3.3,11.6 -6.5,17.8 l 7.9,-7.9 c 5.1,-6.3 7.4,-11.4 6.8,-15.6 z" id="path162" inkscape:connector-curvature="0" style="fill:#79a596"/></g></g></g><g transform="translate(-25.902581,-8.0902341)" id="g164"><g id="g166"><g id="Layer0_0_MEMBER_21_FILL"><path class="st14" d="m 384.6,62.8 30.2,2.5 c 4,0.4 1.6,6 -7.1,16.9 l -14.1,16.4 c 28.8,-26.9 42.3,-41.2 40.4,-42.9 -1.9,-1.5 -18.4,0.9 -49.4,7.1 z" id="path169" inkscape:connector-curvature="0" style="fill:#79a596"/></g></g></g><g transform="translate(-25.902581,-8.0902341)" id="g171"><g id="g173"><g id="Layer0_0_MEMBER_22_FILL"><path class="st16" d="m 307.5,160.8 33.9,-62.7 c -13.2,17.9 -19.1,23 -17.8,15.2 l 14.1,-71.2 -30.2,118.7 z" id="path176" inkscape:connector-curvature="0" style="fill:#538171"/></g></g></g><g transform="translate(-25.902581,-8.0902341)" id="g178"><g id="g180"><g id="Layer0_0_MEMBER_23_FILL"><path class="st16" d="m 343.6,221.5 51.4,-22 c -0.8,-0.2 -5.1,0.8 -13,2.8 -9.4,2.6 -14.8,4 -16.1,4.2 l -28.8,5.6 c 11.7,-0.8 17.1,-0.5 16.4,0.8 -0.7,1.8 -4,4.6 -9.9,8.6 z" id="path183" inkscape:connector-curvature="0" style="fill:#538171"/></g></g></g><g transform="translate(-25.902581,-8.0902341)" id="g185"><g id="g187"><g id="Layer0_0_MEMBER_24_FILL"><path class="st14" d="m 357.8,172.9 -5.1,4 38.1,17.2 -33,-21.2 z" id="path190" inkscape:connector-curvature="0" style="fill:#79a596"/></g></g></g></svg>
