<?xml version="1.0" encoding="UTF-8" standalone="no"?>
<!-- Generator: Adobe Illustrator 20.1.0, SVG Export Plug-In . SVG Version: 6.00 Build 0)  -->
<svg xmlns:dc="http://purl.org/dc/elements/1.1/" xmlns:cc="http://creativecommons.org/ns#" xmlns:rdf="http://www.w3.org/1999/02/22-rdf-syntax-ns#" xmlns:svg="http://www.w3.org/2000/svg" xmlns="http://www.w3.org/2000/svg" xmlns:sodipodi="http://sodipodi.sourceforge.net/DTD/sodipodi-0.dtd" xmlns:inkscape="http://www.inkscape.org/namespaces/inkscape" version="1.1" id="Layer_1" x="0px" y="0px" viewBox="0 0 716.09999 716.89999" xml:space="preserve" inkscape:version="0.48.5 r10040" width="449px" height="449px" sodipodi:docname="cl2_stars_tile_01.svg" preserveAspectRatio="none"><metadata id="metadata275"><rdf:RDF><cc:Work rdf:about=""><dc:format>image/svg+xml</dc:format><dc:type rdf:resource="http://purl.org/dc/dcmitype/StillImage"/></cc:Work></rdf:RDF></metadata><defs id="defs273"/><sodipodi:namedview pagecolor="#ffffff" bordercolor="#666666" borderopacity="1" objecttolerance="10" gridtolerance="10" guidetolerance="10" inkscape:pageopacity="0" inkscape:pageshadow="2" inkscape:window-width="640" inkscape:window-height="480" id="namedview271" showgrid="false" inkscape:zoom="0.30999606" inkscape:cx="356.4" inkscape:cy="356.79999" inkscape:window-x="0" inkscape:window-y="0" inkscape:window-maximized="0" inkscape:current-layer="Layer_1"/><style type="text/css" id="style3">
	.st0{fill:#2F5D60;}
	.st1{fill:#FFFFFF;}
</style><g transform="translate(-25.9,-24.8)" id="g5"><g id="g7"><g id="Layer0_0_MEMBER_0_FILL"><path class="st0" d="m 547.6,695.1 -0.2,-30.4 -7.1,28.9 -15.8,-15.8 13.8,25.6 -23.9,14.9 30.7,-7.8 7.8,27.5 -2.6,-31 16.5,9 -13.4,-15.3 12.2,-16.5 -18,10.9 z" id="path10" inkscape:connector-curvature="0" style="fill:#2f5d60"/></g></g></g><g transform="translate(-25.9,-24.8)" id="g12"><g id="g14"><g id="Layer0_0_MEMBER_1_FILL"><path class="st1" d="m 318,645.5 -13.1,-12.1 11.2,15.8 -17.2,13.1 17.8,-8.6 -2.8,20.4 5.5,-18.8 13.5,10.1 -8.4,-13 14.8,-15 -16.8,11 -1.8,-14.7 -2.7,11.8 z" id="path17" inkscape:connector-curvature="0" style="fill:#ffffff"/></g></g></g><g transform="translate(-25.9,-24.8)" id="g19"><g id="g21"><g id="Layer0_0_MEMBER_2_FILL"><path class="st1" d="m 386.3,725 -8.9,9 10.4,-4.8 9.7,12.5 -6.5,-13.7 11,0.2 -8.3,-3.3 10.3,-8.5 -12.9,6.7 -7.9,-14.2 4.5,14.1 -14.9,-4.2 13.5,6.2 z" id="path24" inkscape:connector-curvature="0" style="fill:#ffffff"/></g></g></g><g transform="translate(-25.9,-24.8)" id="g26"><g id="g28"><g id="Layer0_0_MEMBER_3_FILL"><path class="st1" d="m 69.1,680.3 -14.5,-3.6 12.9,6.3 -8.4,6.4 8.2,-2.5 -2.7,12.3 5.6,-12.6 14.2,5.8 -11.7,-7.8 13.6,-5.8 -13.6,3.5 1.2,-12 -4.8,10 z" id="path31" inkscape:connector-curvature="0" style="fill:#ffffff"/></g></g></g><g transform="translate(-25.9,-24.8)" id="g33"><g id="g35"><g id="Layer0_0_MEMBER_4_FILL"><path class="st1" d="m 174.2,603.5 c 2,8.4 3,13 3.1,13.8 0.1,0.8 -3.1,0.1 -9.8,-2.1 l 11.3,7.7 -13.9,10.6 15.8,-7.9 -0.6,12.6 4.6,-11.9 10.4,12.7 -8.3,-16.5 15.4,-6.2 -17,3 2.8,-13.7 -6.6,12.5 -7.2,-14.6 z" id="path38" inkscape:connector-curvature="0" style="fill:#ffffff"/></g></g></g><g transform="translate(-25.9,-24.8)" id="g40"><g id="g42"><g id="Layer0_0_MEMBER_5_FILL"><path class="st1" d="m 631.9,659.6 2.8,26.5 -26.9,-14.2 29.1,20.2 -21.2,18.6 20.1,-10.8 -0.7,24.8 10.2,-25.5 26.4,20.7 -24.5,-26.5 24.5,-22.1 -26.4,15.3 0.7,-35.7 -5.1,36.2 -9,-27.5 z" id="path45" inkscape:connector-curvature="0" style="fill:#ffffff"/></g></g></g><g transform="translate(-25.9,-24.8)" id="g47"><g id="g49"><g id="Layer0_0_MEMBER_6_FILL"><path class="st1" d="m 158.1,717.1 11.2,-6.4 -13.9,5.8 -1.9,-11.8 -0.7,9.6 -8.8,-5.8 6.8,9.4 -13.4,4.8 15.1,-2.8 2.3,13.8 0.5,-13 12.7,8.3 -11.8,-10 11.9,3.1 -10,-5 z" id="path52" inkscape:connector-curvature="0" style="fill:#ffffff"/></g></g></g><g transform="translate(-25.9,-24.8)" id="g54"><g id="g56"><g id="Layer0_0_MEMBER_7_FILL"><path class="st0" d="m 635.7,544.8 7.9,-27.8 23,24.8 -20.3,-28 24.2,13 -19.2,-16.2 27.6,-8 -33.1,5.4 2.2,-26.6 -6.6,20.5 -15.8,-17.4 9.8,24 -31.6,3.3 34.1,1.9 -2.2,31.1 z" id="path59" inkscape:connector-curvature="0" style="fill:#2f5d60"/></g></g></g><g transform="translate(-25.9,-24.8)" id="g61"><g id="g63"><g id="Layer0_0_MEMBER_8_FILL"><path class="st0" d="m 461.7,573 6.1,24.6 -3.6,-29.3 23.4,2.9 -17.9,-6.5 15.8,-13.3 -21.4,7.8 -1.8,-27.8 -2.9,29.9 -27.3,-3 24.2,7.9 -22.6,19.3 25.3,-16.9 -12.2,20.9 14.9,-16.5 z" id="path66" inkscape:connector-curvature="0" style="fill:#2f5d60"/></g></g></g><g transform="translate(-25.9,-24.8)" id="g68"><g id="g70"><g id="Layer0_0_MEMBER_9_FILL"><path class="st0" d="m 236.6,449.9 -13.8,13.2 5.2,-14.2 -7.4,11.8 -6.5,-14.6 5.4,17.8 -14.8,0.8 11.8,2 -8.3,10 12.4,-7.2 4.2,17.1 -1.6,-18.9 17.2,-1.1 -15.9,-2.2 12.1,-14.5 z" id="path73" inkscape:connector-curvature="0" style="fill:#2f5d60"/></g></g></g><g transform="translate(-25.9,-24.8)" id="g75"><g id="g77"><g id="Layer0_0_MEMBER_10_FILL"><path class="st0" d="m 355.7,490.5 12.1,-5.5 -2.6,15 5.1,-17 12,7.2 -8.2,-7.9 11.9,-3.6 -13.6,-0.8 5.7,-15.7 -8.8,15.7 -14.2,-8.2 11.4,10.1 -17,5.2 17.9,-3.2 -11.7,8.7 z" id="path80" inkscape:connector-curvature="0" style="fill:#2f5d60"/></g></g></g><g transform="translate(-25.9,-24.8)" id="g82"><g id="g84"><g id="Layer0_0_MEMBER_11_FILL"><path class="st1" d="m 576.2,549.4 -8.1,8.8 12.1,-6 7.9,16.5 -4.2,-16.9 12.2,-5.4 -12.4,1.3 -3.5,-17.8 -2,17 -10,-5.5 8,8 z" id="path87" inkscape:connector-curvature="0" style="fill:#ffffff"/></g></g></g><g transform="translate(-25.9,-24.8)" id="g89"><g id="g91"><g id="Layer0_0_MEMBER_12_FILL"><path class="st1" d="m 284.1,413.6 -26.4,-0.6 24.4,5.7 -1.1,19.3 6.4,-16.8 25.2,7.2 -20.6,-13.6 13.7,-9.3 -15.4,4.8 -6,-16.1 -0.2,19.4 z" id="path94" inkscape:connector-curvature="0" style="fill:#ffffff"/></g></g></g><g transform="translate(-25.9,-24.8)" id="g96"><g id="g98"><g id="Layer0_0_MEMBER_13_FILL"><path class="st1" d="m 714.7,380.3 16,-37 -22,31.3 -26.8,-12.6 20.1,18.7 -24.7,31.5 31.2,-21.4 5.3,24.8 1.9,-24.6 26.3,0.8 -27.3,-11.5 z" id="path101" inkscape:connector-curvature="0" style="fill:#ffffff"/></g></g></g><g transform="translate(-25.9,-24.8)" id="g103"><g id="g105"><g id="Layer0_0_MEMBER_14_FILL"><path class="st1" d="m 687.6,566.6 8.8,30.4 -22,10.7 22.5,-3.2 7.5,32.3 2.4,-31.2 18.7,9.4 -14.9,-14 14.2,-16.5 -21.8,11.7 -15.4,-29.6 z" id="path108" inkscape:connector-curvature="0" style="fill:#ffffff"/></g></g></g><g transform="translate(-25.9,-24.8)" id="g110"><g id="g112"><g id="Layer0_0_MEMBER_15_FILL"><path class="st1" d="m 358.6,322.4 4.9,20.8 -11.6,15.6 15.4,-11.6 13,10.1 -8,-15 14.5,-9.8 -17.6,6.4 -10.6,-16.5 z" id="path115" inkscape:connector-curvature="0" style="fill:#ffffff"/></g></g></g><g transform="translate(-25.9,-24.8)" id="g117"><g id="g119"><g id="Layer0_0_MEMBER_16_FILL"><path class="st0" d="m 596.3,317 -19.3,-4.5 16.3,12.4 -11,18 16,-15.9 19.9,12.9 -15.8,-20.4 5,-22.9 -11.1,20.4 z" id="path122" inkscape:connector-curvature="0" style="fill:#2f5d60"/></g></g></g><g transform="translate(-25.9,-24.8)" id="g124"><g id="g126"><g id="Layer0_0_MEMBER_17_FILL"><path class="st1" d="m 134.4,538.4 20.1,9.1 5.3,19.3 0.3,-19.9 16.4,-4.2 -17.3,-2.9 1.2,-18 -5.8,18.4 -20.2,-1.8 z" id="path129" inkscape:connector-curvature="0" style="fill:#ffffff"/></g></g></g><g transform="translate(-25.9,-24.8)" id="g131"><g id="g133"><g id="Layer0_0_MEMBER_18_FILL"><path class="st1" d="m 505.6,426 16.7,2.8 -14.7,-10.6 19.9,-21 -24.7,17.5 -7,-20 -0.5,23.9 -28.5,4.5 c 18.5,1 28.4,2 29.6,2.9 0.8,0.6 0.3,4.7 -1.5,12.5 -0.8,3.9 -1.8,7.7 -2.8,11.4 L 505.6,426 z" id="path136" inkscape:connector-curvature="0" style="fill:#ffffff"/></g></g></g><g transform="translate(-25.9,-24.8)" id="g138"><g id="g140"><g id="Layer0_0_MEMBER_19_FILL"><path class="st1" d="m 104,257.5 c 0,0.7 -3.4,2.1 -10.1,4.2 l 12.2,-0.7 3,6.9 0.4,-8.1 12.8,2.4 -12.6,-5.1 5.8,-7.5 -9.1,5.6 -8.7,-9.6 c 4.2,7.3 6.3,11.3 6.3,11.9 z" id="path143" inkscape:connector-curvature="0" style="fill:#ffffff"/></g></g></g><g transform="translate(-25.9,-24.8)" id="g145"><g id="g147"><g id="Layer0_0_MEMBER_20_FILL"><path class="st0" d="m 197.4,324.6 -4.6,15.9 c -3.2,10.8 -5.3,16.5 -6.1,17.2 -0.8,0.8 -5.5,-0.8 -13.9,-4.8 l -12.4,-6.1 23.8,21.5 -7.3,18.4 15.8,-14.1 19.1,28 -13.8,-32.7 24.6,-3 -27.2,-6.6 2,-33.7 z" id="path150" inkscape:connector-curvature="0" style="fill:#2f5d60"/></g></g></g><g transform="translate(-25.9,-24.8)" id="g152"><g id="g154"><g id="Layer0_0_MEMBER_21_FILL"><path class="st1" d="m 285.5,591.2 6.6,-7.8 -19.5,13.1 -11.8,-8.5 7.2,13.8 -23.5,8.6 25.9,-4 -2.3,18.1 9.5,-18.2 23.8,7.5 c -3.5,-2 -7,-4 -10.5,-6.1 -7.1,-4.2 -10.9,-6.7 -11.2,-7.5 -0.5,-0.7 1.5,-3.7 5.8,-9 z" id="path157" inkscape:connector-curvature="0" style="fill:#ffffff"/></g></g></g><g transform="translate(-25.9,-24.8)" id="g159"><g id="g161"><g id="Layer0_0_MEMBER_22_FILL"><path class="st0" d="m 340.4,91.9 c 3.8,0.6 7.5,1.2 11.2,1.9 L 327.8,82.4 329.3,66.2 320.1,81 298.5,63.3 317,86 l -18.8,8.1 23,-1.2 6.3,27.1 c -0.1,-4.5 -0.1,-9 -0.1,-13.7 0.1,-9.3 0.3,-14.3 0.8,-15.1 0.6,-0.6 4.6,-0.4 12.2,0.7 z" id="path164" inkscape:connector-curvature="0" style="fill:#2f5d60"/></g></g></g><g transform="translate(-25.9,-24.8)" id="g166"><g id="g168"><g id="Layer0_0_MEMBER_23_FILL"><path class="st1" d="m 698.3,53 14.7,-5 -17.5,0.4 -0.8,-15.8 -2.4,17 -7.8,-6.9 5.3,9.9 -8.6,7.4 11,-3.7 -3.7,16.3 7.4,-14.7 6.5,10.4 -4.1,-15.3 z" id="path171" inkscape:connector-curvature="0" style="fill:#ffffff"/></g></g></g><g transform="translate(-25.9,-24.8)" id="g173"><g id="g175"><g id="Layer0_0_MEMBER_24_FILL"><path class="st0" d="m 553.4,119.8 -3.5,18.2 11.1,-21.5 21.3,9.6 -19.6,-17.5 15.3,-18.1 -20,16.2 -1.5,-15.5 -4.4,16.3 -17,-0.7 15.9,7.3 -20.9,14.3 23.3,-8.6 z" id="path178" inkscape:connector-curvature="0" style="fill:#2f5d60"/></g></g></g><g transform="translate(-25.9,-24.8)" id="g180"><g id="g182"><g id="Layer0_0_MEMBER_25_FILL"><path class="st0" d="m 622.1,225.1 16.4,13.6 -15.4,-22.9 21.2,-16.1 -28.3,10 -9.9,-25.3 5.3,29 -16.4,-7 14,13.3 -10,16.8 16,-11.9 3,28.7 4.1,-28.2 z" id="path185" inkscape:connector-curvature="0" style="fill:#2f5d60"/></g></g></g><g transform="translate(-25.9,-24.8)" id="g187"><g id="g189"><g id="Layer0_0_MEMBER_26_FILL"><path class="st1" d="m 92.1,91.9 27.8,8.2 -28,-14.4 16.7,-9.3 L 88.2,79.6 80.6,60.2 80.2,81.5 54.1,65.3 75.1,87.1 53,92 l 29.4,1.9 -0.2,28.5 9.9,-30.5 z" id="path192" inkscape:connector-curvature="0" style="fill:#ffffff"/></g></g></g><g transform="translate(-25.9,-24.8)" id="g194"><g id="g196"><g id="Layer0_0_MEMBER_27_FILL"><path class="st1" d="m 267,195.1 22.9,6.5 -23.1,-11.7 13.6,-7.8 -16.7,2.8 -6.4,-15.8 -0.1,17.5 -21.7,-13.1 17.4,17.7 -18.1,4.3 24.2,1.3 0,23.4 8,-25.1 z" id="path199" inkscape:connector-curvature="0" style="fill:#ffffff"/></g></g></g><g transform="translate(-25.9,-24.8)" id="g201"><g id="g203"><g id="Layer0_0_MEMBER_28_FILL"><path class="st1" d="m 186.7,41.1 3.6,11.9 -0.6,-12.2 8.1,4.4 -8.4,-8.5 7.7,-8.5 -11.1,6.6 -6.2,-10 4.6,11.9 -7.5,-1.7 7,4.5 -2.9,7.9 5.7,-6.3 z" id="path206" inkscape:connector-curvature="0" style="fill:#ffffff"/></g></g></g><g transform="translate(-25.9,-24.8)" id="g208"><g id="g210"><g id="Layer0_0_MEMBER_29_FILL"><path class="st0" d="m 65.3,391.9 3.8,-7.7 8.4,2 -7.2,-5.2 11.8,-5 -12.4,2 3.6,-8.7 -7.7,9.5 -9.7,-6.9 8,10.6 -9.4,7.5 11.6,-6 -0.8,7.9 z" id="path213" inkscape:connector-curvature="0" style="fill:#2f5d60"/></g></g></g><g transform="translate(-25.9,-24.8)" id="g215"><g id="g217"><g id="Layer0_0_MEMBER_30_FILL"><path class="st0" d="m 70.2,588 -16.1,-21.5 10.1,24.2 -19.5,-3 23.2,11 -9.3,23 17.8,-21.6 19.9,15.5 -18,-20.6 16.4,-2.2 -17.5,-3.9 v -18.2 l -7,17.3 z" id="path220" inkscape:connector-curvature="0" style="fill:#2f5d60"/></g></g></g><g transform="translate(-25.9,-24.8)" id="g222"><g id="g224"><g id="Layer0_0_MEMBER_31_FILL"><path class="st0" d="m 38.1,185.8 -9.8,-8.8 7.2,10.7 -9.6,0.4 12.2,3 -2.2,12 6.5,-12.1 11,5.6 -10.6,-8.2 7.6,-2.6 -8.8,-0.2 -1.8,-8.7 -1.7,8.9 z" id="path227" inkscape:connector-curvature="0" style="fill:#2f5d60"/></g></g></g><g transform="translate(-25.9,-24.8)" id="g229"><g id="g231"><g id="Layer0_0_MEMBER_32_FILL"><path class="st1" d="m 418.6,65 20.5,2.3 -16.8,-8.5 6.3,-25 -11,22.2 -10.9,-14.5 4.2,14.1 -21.3,-4.7 21.8,9.8 -10.2,24.5 13.5,-20.1 9.7,23.3 -5.8,-23.4 z" id="path234" inkscape:connector-curvature="0" style="fill:#ffffff"/></g></g></g><g transform="translate(-25.9,-24.8)" id="g236"><g id="g238"><g id="Layer0_0_MEMBER_33_FILL"><path class="st1" d="m 466.4,256 5.8,-34.8 26.9,25.1 -21.7,-27.5 28.7,-9.4 -27.5,-1.1 -6.7,-37.1 -1.2,36 -23.2,-12.7 14.1,16.2 -31.1,6.6 34.7,-0.1 1.2,38.8 z" id="path241" inkscape:connector-curvature="0" style="fill:#ffffff"/></g></g></g><g transform="translate(-25.9,-24.8)" id="g243"><g id="g245"><g id="Layer0_0_MEMBER_34_FILL"><path class="st0" d="m 415.1,380.6 20.2,7.9 -18.6,13.1 19.4,-9.6 1.9,18.5 4.2,-16.5 23.2,0.7 -21.6,-5.4 10.6,-12.4 -11.5,6.4 -0.1,-19.6 -4.4,21 -23.3,-4.1 z" id="path248" inkscape:connector-curvature="0" style="fill:#2f5d60"/></g></g></g><g transform="translate(-25.9,-24.8)" id="g250"><g id="g252"><g id="Layer0_0_MEMBER_35_FILL"><path class="st0" d="m 703.1,151.2 20.9,-5.8 -23.7,1.6 -4,-22.9 -0.2,26.8 -15.8,11.8 18.7,-8 7.8,9.2 -3.7,-12.7 z" id="path255" inkscape:connector-curvature="0" style="fill:#2f5d60"/></g></g></g><g transform="translate(-25.9,-24.8)" id="g257"><g id="g259"><g id="Layer0_0_MEMBER_36_FILL"><path class="st0" d="m 176,102.6 15.3,-15.4 -19,11.8 -9.9,-8.8 5.9,13.2 -21.7,9.7 25.5,-5.6 8.1,24.4 -4.2,-29.3 z" id="path262" inkscape:connector-curvature="0" style="fill:#2f5d60"/></g></g></g><g transform="translate(-25.9,-24.8)" id="g264"><g id="g266"><g id="Layer0_0_MEMBER_37_FILL"><path class="st1" d="m 508.5,70.7 15.1,20 -8.3,-24.1 32,6.2 L 513.6,58.2 529,29 507,55.4 493.6,30.9 499.7,58.4 470.4,45.6 c 13.7,10.2 21.2,15.8 22.5,16.9 0.8,0.7 -1.9,2.4 -8,5.2 l -9.5,4 27,-2.8 -7.8,33.9 13.9,-32.1 z" id="path269" inkscape:connector-curvature="0" style="fill:#ffffff"/></g></g></g></svg>
