<?xml version="1.0" encoding="UTF-8" standalone="no"?>
<!-- Generator: Adobe Illustrator 20.1.0, SVG Export Plug-In . SVG Version: 6.00 Build 0)  -->
<svg xmlns:dc="http://purl.org/dc/elements/1.1/" xmlns:cc="http://creativecommons.org/ns#" xmlns:rdf="http://www.w3.org/1999/02/22-rdf-syntax-ns#" xmlns:svg="http://www.w3.org/2000/svg" xmlns="http://www.w3.org/2000/svg" xmlns:sodipodi="http://sodipodi.sourceforge.net/DTD/sodipodi-0.dtd" xmlns:inkscape="http://www.inkscape.org/namespaces/inkscape" version="1.1" id="Layer_1" x="0px" y="0px" viewBox="0 0 825.99819 263.04118" xml:space="preserve" inkscape:version="0.48.5 r10040" width="454px" height="145px" sodipodi:docname="cloud_03_transp.svg" preserveAspectRatio="none"><metadata id="metadata21"><rdf:RDF><cc:Work rdf:about=""><dc:format>image/svg+xml</dc:format><dc:type rdf:resource="http://purl.org/dc/dcmitype/StillImage"/></cc:Work></rdf:RDF></metadata><defs id="defs19"/><sodipodi:namedview pagecolor="#ffffff" bordercolor="#666666" borderopacity="1" objecttolerance="10" gridtolerance="10" guidetolerance="10" inkscape:pageopacity="0" inkscape:pageshadow="2" inkscape:window-width="640" inkscape:window-height="480" id="namedview17" showgrid="false" inkscape:zoom="0.44624277" inkscape:cx="416.06492" inkscape:cy="128.40213" inkscape:window-x="0" inkscape:window-y="0" inkscape:window-maximized="0" inkscape:current-layer="Layer_1"/><style type="text/css" id="style3">
	.st0{opacity:0.75;fill:#FBDBA1;}
	.st1{opacity:0.8;fill:#F9D38B;}
	.st2{opacity:0.7;fill:#F9D38B;}
</style><g id="g5" transform="translate(-16.435083,-18.010957)"><path class="st0" d="M 661.1,128.8 650.2,134 C 646,123.1 639.3,112 630.1,100.7 611.6,78 589.8,65.6 564.6,63.5 c -25.2,-2.1 -49.5,5.7 -73,23.3 -7.3,5.5 -14.2,11.6 -20.5,18.5 l -7.2,8.6 c -7.6,-16.8 -17.8,-33.3 -30.8,-49.7 -26,-32.7 -52.7,-48.1 -80,-46 -46.2,3.6 -74.4,23.1 -84.4,58.6 -3.1,11.1 -4.3,23.1 -3.4,36.1 0.4,6.5 1.2,11.9 2.3,16.1 -35.2,0 -72,2.3 -110.1,7 -76.5,9.2 -122,25.3 -136.8,48.4 -14.7,23.1 8.6,35.1 69.9,35.9 30.6,0.4 62.7,-1.5 96.3,-5.7 l 7.6,11.7 c 6.8,9.2 14.6,17.5 23.2,24.8 27.7,23.5 59.4,33.2 95,29 35.7,-4.2 62.4,-18 80,-41.5 8.8,-11.7 14,-23.1 15.7,-34 l 2.6,8.3 c 2.6,6.5 6.2,12.2 10.7,16.9 14.3,15.1 35,18.5 62.3,10.1 27.3,-8.4 48.1,-21 62.4,-37.8 7.1,-8.4 11.5,-15.9 13.2,-22.7 l 10,7 c 8.7,5.6 18.2,10.6 28.5,15.1 32.7,14.3 66.9,20.3 102.6,18.2 20.9,-1.2 42.9,-6.2 66.1,-15 22.2,-8.4 40.5,-18.3 54.7,-29.6 15.1,-12 22,-22.9 20.8,-32.6 -1.4,-10.9 -13.4,-18.7 -35.9,-23.5 -39.8,-8.4 -77.8,-8.4 -113.9,0 -11.4,2.5 -21.8,5.9 -31.4,9.8 z" id="path7" inkscape:connector-curvature="0" style="opacity:0.75;fill:#fbdba1"/><path class="st1" d="m 62.6,176.2 c -1.8,-5.4 0.5,-10.5 7.1,-15.3 -6.3,2 -12.8,4.6 -19.5,8 -13.4,6.7 -21.2,13.6 -23.3,20.6 -2.4,8.1 4.7,14.8 21.3,20 15.8,4.9 34.4,6.9 55.9,6 20.5,-0.8 37.6,-2 51.1,-3.6 13.5,-1.6 25,-3.8 34.5,-6.5 7.3,-2.1 15.6,-6.2 24.7,-12.3 4.5,-3.1 8.3,-6 11.4,-8.6 -6,2.8 -14,5.7 -24,8.6 -20,5.9 -40,9.1 -59.9,9.8 -11.7,0.4 -23.5,-0.6 -35.3,-3 -11.4,-2.3 -21.1,-5.6 -29,-9.7 -8.3,-4.4 -13.3,-9 -15,-14 z" id="path9" inkscape:connector-curvature="0" style="opacity:0.8;fill:#f9d38b"/><path class="st2" d="m 403.8,192 c -3.2,8.6 -8,17.4 -14.4,26.6 -12.9,18.3 -27.4,29 -43.5,32.1 -21.7,4.2 -49,-2.5 -82,-20.1 -10.4,-5.5 -20.6,-11.7 -30.8,-18.8 L 220.8,202.9 220,213 c 0,8.1 1.3,15.6 4,22.6 8.5,22.2 28.7,34.5 60.5,37 25,1.9 45.3,0.3 60.9,-5 12.7,-4.3 24,-11.6 33.9,-21.9 7.3,-7.7 13.6,-18.9 18.8,-33.7 l 5.7,-20 z" id="path11" inkscape:connector-curvature="0" style="opacity:0.7;fill:#f9d38b"/><path class="st2" d="M 436.5,177.2 C 429.9,166.4 426,156.8 424.8,148.3 l -2.2,5.7 c -1.7,4.8 -3,9.6 -4.1,14.4 -3.4,15.4 -2.9,28 1.3,37.8 5,11.7 12.3,19.8 21.9,24.3 9.6,4.4 22.1,5.6 37.7,3.4 23.6,-3.2 44.3,-14.9 62.1,-35.2 7.3,-8.4 11.8,-21.3 13.3,-38.6 0.4,-5.4 0.6,-11 0.5,-16.6 l -0.4,-6.9 -0.3,7 c -0.4,5.8 -1.3,11.4 -2.7,16.9 -4.4,17.5 -12.3,30.2 -23.8,38.3 -12.6,8.8 -26.5,12.7 -41.7,11.8 -12.7,-0.7 -22.9,-4.1 -30.5,-10.2 -6.7,-5.3 -13.1,-13 -19.4,-23.2 z" id="path13" inkscape:connector-curvature="0" style="opacity:0.7;fill:#f9d38b"/><path class="st2" d="m 804.1,181.1 c 10.1,-5.6 18.6,-11.7 25.5,-18.5 3.4,-3.4 5.8,-6.2 7.2,-8.4 -4.5,3.6 -10.1,7.7 -16.9,12.1 -13.6,8.8 -26.2,15.1 -37.7,19 -16.9,5.7 -36.7,10.2 -59.4,13.8 -27,4.3 -46.4,4.7 -58.1,1.3 C 650,196.2 629.1,186.7 602,171.9 l -36.3,-21 -3.4,20.1 9,6.2 c 7.6,5 15.5,9.6 23.7,13.8 26.1,13.5 50.2,20.8 72.3,21.9 23.8,1.1 50.2,-2.2 79.1,-10 23.4,-6.2 42.6,-13.5 57.7,-21.8 z" id="path15" inkscape:connector-curvature="0" style="opacity:0.7;fill:#f9d38b"/></g></svg>
