<?xml version="1.0" encoding="UTF-8" standalone="no"?>
<!-- Generator: Adobe Illustrator 20.1.0, SVG Export Plug-In . SVG Version: 6.00 Build 0)  -->
<svg xmlns:dc="http://purl.org/dc/elements/1.1/" xmlns:cc="http://creativecommons.org/ns#" xmlns:rdf="http://www.w3.org/1999/02/22-rdf-syntax-ns#" xmlns:svg="http://www.w3.org/2000/svg" xmlns="http://www.w3.org/2000/svg" xmlns:sodipodi="http://sodipodi.sourceforge.net/DTD/sodipodi-0.dtd" xmlns:inkscape="http://www.inkscape.org/namespaces/inkscape" version="1.1" id="Layer_1" x="0px" y="0px" viewBox="0 0 547.20127 155.9156" xml:space="preserve" inkscape:version="0.48.5 r10040" width="639px" height="181px" sodipodi:docname="cloud_02_transp.svg" preserveAspectRatio="none"><metadata id="metadata21"><rdf:RDF><cc:Work rdf:about=""><dc:format>image/svg+xml</dc:format><dc:type rdf:resource="http://purl.org/dc/dcmitype/StillImage"/></cc:Work></rdf:RDF></metadata><defs id="defs19"/><sodipodi:namedview pagecolor="#ffffff" bordercolor="#666666" borderopacity="1" objecttolerance="10" gridtolerance="10" guidetolerance="10" inkscape:pageopacity="0" inkscape:pageshadow="2" inkscape:window-width="640" inkscape:window-height="480" id="namedview17" showgrid="false" inkscape:zoom="0.65390479" inkscape:cx="268.67557" inkscape:cy="77.796706" inkscape:window-x="0" inkscape:window-y="0" inkscape:window-maximized="0" inkscape:current-layer="Layer_1"/><style type="text/css" id="style3">
	.st0{opacity:0.75;fill:#FBDBA1;}
	.st1{opacity:0.8;fill:#F9D38B;}
	.st2{opacity:0.7;fill:#F9D38B;}
</style><g id="g5" transform="translate(-26.474432,-23.281104)"><path class="st0" d="m 427.8,114.3 27.1,1.3 c 21.4,0.8 40.3,1.1 56.9,1 53,-0.6 71.9,-6.2 56.9,-16.7 -15,-10.5 -46.6,-19.1 -94.8,-25.7 -15,-2.1 -30.8,-3.9 -47.4,-5.3 L 406.2,67.4 C 407.4,59 406.7,50.8 404,43 398.6,27.4 386.1,21 366.5,24 347,27 332.7,36.3 323.6,52 c -2.8,4.9 -5,10.1 -6.4,15.7 -0.7,2.8 -1.2,5.1 -1.3,6.9 -4.8,-4.2 -10.7,-8.4 -17.6,-12.6 -13.8,-8.4 -26,-12.6 -36.6,-12.6 -21.1,0 -45.5,9 -73.2,27.1 -13.8,9 -25.5,18.1 -35.1,27.1 C 142.6,98.8 130.1,94.7 116,91.4 87.7,84.8 65.3,85.2 48.7,92.7 39,97.1 32.4,102.3 29,108.3 c -3.3,5.7 -3.4,11.3 -0.1,16.9 3.3,5.7 9.6,10.4 18.8,14.2 10,4.1 22.4,6.6 37.1,7.5 25.6,1.5 54.3,-0.4 86.2,-5.8 15.9,-2.7 29.3,-5.6 40.1,-8.6 l 0.8,9.3 c 1,7.3 2.9,13.7 5.5,19.1 8.4,17.5 23.2,22.4 44.2,14.9 21.1,-7.5 36.4,-18.2 46,-32 4.8,-6.9 7.5,-13.1 8.1,-18.5 l 6.1,4.5 c 5.2,3.5 10.6,6.7 16,9.6 17.5,9 32.9,12.8 46.5,11.3 13.6,-1.5 24.9,-7.9 33.9,-19.4 4.6,-6 7.8,-11.6 9.6,-17 z" id="path7" inkscape:connector-curvature="0" style="opacity:0.75;fill:#fbdba1"/><path class="st1" d="m 193.1,128.5 c 8.4,-4.2 14.7,-8.3 18.8,-12.3 -4.8,1.1 -10.6,2.3 -17.5,3.6 -13.7,2.6 -25.6,4.3 -35.9,5.3 -15,1.4 -31.9,1.5 -50.6,0.3 -22.3,-1.4 -36.3,-4.4 -41.9,-9 -5.7,-4.5 -8.8,-9.9 -9.4,-16.1 -0.2,-2 -0.1,-3.9 0.2,-5.8 l 0.5,-2.2 c -6.9,3.2 -12.7,6.6 -17.5,10.2 -9.1,6.8 -12,13.8 -8.7,20.9 3.9,8.1 15.8,13.9 36,17.2 18.1,3 40.9,3.7 68.4,2.3 21.6,-1.2 40.8,-5.9 57.6,-14.4 z" id="path9" inkscape:connector-curvature="0" style="opacity:0.8;fill:#f9d38b"/><path class="st2" d="m 307.3,130.9 c 4.5,-8.9 6.5,-17.3 6.1,-25.4 -3.2,4.9 -7.6,10.3 -13.1,16.1 -11,11.7 -22.1,20 -33.4,24.9 -11.3,4.9 -22.5,4 -33.6,-2.6 -3.5,-2.1 -6.7,-4.6 -9.7,-7.6 l -3.6,-3.9 -0.7,5.7 c -0.4,4.6 -0.2,8.9 0.6,13 2.4,12.9 9.7,20.3 22,22.3 7.5,1.2 15.7,0 24.5,-3.8 8.3,-3.5 16.1,-8.7 23.5,-15.7 7.4,-7 13.2,-14.7 17.4,-23 z" id="path11" inkscape:connector-curvature="0" style="opacity:0.7;fill:#f9d38b"/><path class="st2" d="m 417.9,125.4 c 5.1,-8.6 7.1,-16.6 6.1,-24 -0.8,4.9 -2.5,9.8 -5.3,15 -5.5,10.2 -13.3,16 -23.4,17.3 -10.1,1.3 -25,-5.8 -44.8,-21.4 -6.2,-4.9 -12.5,-10.3 -19,-16.2 l -7.8,-7.5 -1.3,3.4 c -1,2.8 -1.7,5.6 -2.2,8.4 -1.5,8.9 -0.4,16.3 3.4,22 2.2,3.4 6.2,6.9 11.9,10.5 5.6,3.6 11.9,6.7 18.8,9.3 16.5,6.1 29.8,7.3 39.9,3.4 10.2,-3.8 18,-10.6 23.7,-20.2 z" id="path13" inkscape:connector-curvature="0" style="opacity:0.7;fill:#f9d38b"/><path class="st1" d="m 543.7,112.2 c 5.9,-0.8 10.3,-1.7 13.3,-2.6 -4.6,0.3 -10.2,0.6 -16.8,0.8 -13.1,0.5 -24.6,0.6 -34.4,0.4 -9.8,-0.2 -25.2,-1.4 -46.1,-3.6 l -28.5,-3.1 -1.2,7.2 24.4,1.3 c 19.2,0.9 35.9,1.5 50.2,1.7 14.3,0.3 27.3,-0.4 39.1,-2.1 z" id="path15" inkscape:connector-curvature="0" style="opacity:0.8;fill:#f9d38b"/></g></svg>
