<?xml version="1.0" encoding="UTF-8" standalone="no"?>
<!-- Generator: Adobe Illustrator 20.1.0, SVG Export Plug-In . SVG Version: 6.00 Build 0)  -->
<svg xmlns:dc="http://purl.org/dc/elements/1.1/" xmlns:cc="http://creativecommons.org/ns#" xmlns:rdf="http://www.w3.org/1999/02/22-rdf-syntax-ns#" xmlns:svg="http://www.w3.org/2000/svg" xmlns="http://www.w3.org/2000/svg" xmlns:sodipodi="http://sodipodi.sourceforge.net/DTD/sodipodi-0.dtd" xmlns:inkscape="http://www.inkscape.org/namespaces/inkscape" version="1.1" id="Layer_1" x="0px" y="0px" viewBox="0 0 219.90001 643.10002" xml:space="preserve" inkscape:version="0.48.5 r10040" width="925px" height="2716px" sodipodi:docname="glowing_orbs.svg" preserveAspectRatio="none"><metadata id="metadata291"><rdf:RDF><cc:Work rdf:about=""><dc:format>image/svg+xml</dc:format><dc:type rdf:resource="http://purl.org/dc/dcmitype/StillImage"/></cc:Work></rdf:RDF></metadata><defs id="defs289"/><sodipodi:namedview pagecolor="#ffffff" bordercolor="#666666" borderopacity="1" objecttolerance="10" gridtolerance="10" guidetolerance="10" inkscape:pageopacity="0" inkscape:pageshadow="2" inkscape:window-width="640" inkscape:window-height="480" id="namedview287" showgrid="false" inkscape:zoom="0.35547522" inkscape:cx="110.05" inkscape:cy="322.15002" inkscape:window-x="0" inkscape:window-y="0" inkscape:window-maximized="0" inkscape:current-layer="Layer_1"/><style type="text/css" id="style3">
	.st0{opacity:0.2;fill:url(#SVGID_1_);}
	.st1{opacity:0.2;fill:url(#SVGID_2_);}
	.st2{opacity:0.2;fill:url(#SVGID_3_);}
	.st3{opacity:0.22;fill:url(#SVGID_4_);}
	.st4{opacity:0.1;fill:url(#SVGID_5_);}
	.st5{opacity:0.22;fill:url(#SVGID_6_);}
	.st6{opacity:0.12;fill:url(#SVGID_7_);}
	.st7{opacity:0.18;fill:url(#SVGID_8_);}
	.st8{opacity:0.18;fill:url(#SVGID_9_);}
	.st9{opacity:0.35;fill:url(#SVGID_10_);}
</style><g id="g5" transform="translate(-8,-11.000004)"><g id="g7"><g id="FlashAICB_Layer_30__Path__9_0_Layer0_0_FILL"><radialGradient id="SVGID_1_" cx="142.89999" cy="215.85001" r="31.915701" gradientUnits="userSpaceOnUse"><stop offset="0" style="stop-color:#4D6F23" id="stop11"/><stop offset="0" style="stop-color:#4C7125" id="stop13"/><stop offset="0" style="stop-color:#48782A" id="stop15"/><stop offset="0" style="stop-color:#428535" id="stop17"/><stop offset="0" style="stop-color:#399744" id="stop19"/><stop offset="0" style="stop-color:#2DAE59" id="stop21"/><stop offset="0" style="stop-color:#22CB73" id="stop23"/><stop offset="0" style="stop-color:#1AED91" id="stop25"/><stop offset="0" style="stop-color:#18FEA0" id="stop27"/><stop offset="1" style="stop-color:#19FFA2;stop-opacity:0" id="stop29"/></radialGradient><path class="st0" d="m 175.8,215.8 c 0,-8.5 -3.2,-15.8 -9.7,-21.8 -6.4,-6 -14.2,-9.1 -23.2,-9.1 -9.1,0 -16.8,3 -23.2,9.1 -6.4,6 -9.7,13.3 -9.7,21.8 0,8.5 3.2,15.8 9.7,21.9 6.5,6.1 14.2,9.1 23.2,9.1 9.1,0 16.8,-3 23.2,-9.1 6.4,-6.1 9.7,-13.3 9.7,-21.9 z" id="path31" inkscape:connector-curvature="0" style="opacity:0.2;fill:url(#SVGID_1_)"/></g></g></g><g id="g33" transform="translate(-8,-11.000004)"><g id="g35"><g id="FlashAICB_Layer_30__Path__8_0_Layer0_0_FILL"><radialGradient id="SVGID_2_" cx="58.474998" cy="397.35001" r="48.961601" gradientUnits="userSpaceOnUse"><stop offset="0" style="stop-color:#4D6F23" id="stop39"/><stop offset="0" style="stop-color:#4C7125" id="stop41"/><stop offset="0" style="stop-color:#48782A" id="stop43"/><stop offset="0" style="stop-color:#428535" id="stop45"/><stop offset="0" style="stop-color:#399744" id="stop47"/><stop offset="0" style="stop-color:#2DAE59" id="stop49"/><stop offset="0" style="stop-color:#22CB73" id="stop51"/><stop offset="0" style="stop-color:#1AED91" id="stop53"/><stop offset="0" style="stop-color:#18FEA0" id="stop55"/><stop offset="1" style="stop-color:#19FFA2;stop-opacity:0" id="stop57"/></radialGradient><path class="st1" d="M 108.9,397.4 C 108.9,384.3 104,373.2 94.1,363.9 84.2,354.6 72.4,350 58.5,350 44.6,350 32.7,354.6 22.8,363.9 12.9,373.1 8,384.3 8,397.4 c 0,13.1 4.9,24.3 14.8,33.6 9.8,9.2 21.7,13.9 35.7,13.8 14,0 25.9,-4.6 35.7,-13.8 9.8,-9.4 14.7,-20.5 14.7,-33.6 z" id="path59" inkscape:connector-curvature="0" style="opacity:0.2;fill:url(#SVGID_2_)"/></g></g></g><g id="g61" transform="translate(-8,-11.000004)"><g id="g63"><g id="FlashAICB_Layer_30__Path__7_0_Layer0_0_FILL"><radialGradient id="SVGID_3_" cx="179.89999" cy="484.85001" r="31.865601" gradientUnits="userSpaceOnUse"><stop offset="0" style="stop-color:#4D6F23" id="stop67"/><stop offset="0" style="stop-color:#4C7125" id="stop69"/><stop offset="0" style="stop-color:#48782A" id="stop71"/><stop offset="0" style="stop-color:#428535" id="stop73"/><stop offset="0" style="stop-color:#399744" id="stop75"/><stop offset="0" style="stop-color:#2DAE59" id="stop77"/><stop offset="0" style="stop-color:#22CB73" id="stop79"/><stop offset="0" style="stop-color:#1AED91" id="stop81"/><stop offset="0" style="stop-color:#18FEA0" id="stop83"/><stop offset="1" style="stop-color:#19FFA2;stop-opacity:0" id="stop85"/></radialGradient><path class="st2" d="m 212.8,484.9 c 0,-8.5 -3.2,-15.8 -9.7,-21.9 -6.4,-6 -14.2,-9 -23.2,-9 -9.1,0 -16.8,3 -23.2,9 -6.4,6 -9.6,13.3 -9.6,21.9 0,8.5 3.2,15.8 9.6,21.9 6.4,6.1 14.2,9 23.2,9 9.1,0 16.8,-3 23.2,-9 6.4,-6 9.7,-13.4 9.7,-21.9 z" id="path87" inkscape:connector-curvature="0" style="opacity:0.2;fill:url(#SVGID_3_)"/></g></g></g><g id="g89" transform="translate(-8,-11.000004)"><g id="g91"><g id="FlashAICB_Layer_30__Path__6_0_Layer0_0_FILL"><radialGradient id="SVGID_4_" cx="138.875" cy="639.70001" r="14.8697" gradientUnits="userSpaceOnUse"><stop offset="0" style="stop-color:#4D6F23" id="stop95"/><stop offset="0" style="stop-color:#4C7125" id="stop97"/><stop offset="0" style="stop-color:#48782A" id="stop99"/><stop offset="0" style="stop-color:#428535" id="stop101"/><stop offset="0" style="stop-color:#399744" id="stop103"/><stop offset="0" style="stop-color:#2DAE59" id="stop105"/><stop offset="0" style="stop-color:#22CB73" id="stop107"/><stop offset="0" style="stop-color:#1AED91" id="stop109"/><stop offset="0" style="stop-color:#18FEA0" id="stop111"/><stop offset="1" style="stop-color:#19FFA2;stop-opacity:0" id="stop113"/></radialGradient><path class="st3" d="m 154.2,639.7 c 0,-4 -1.5,-7.4 -4.5,-10.2 -3,-2.8 -6.6,-4.2 -10.8,-4.2 -4.2,0 -7.8,1.4 -10.8,4.2 -3,2.8 -4.5,6.2 -4.5,10.2 0,4 1.5,7.4 4.5,10.2 3,2.8 6.6,4.2 10.8,4.2 4.2,0 7.8,-1.4 10.8,-4.2 3,-2.8 4.5,-6.2 4.5,-10.2 z" id="path115" inkscape:connector-curvature="0" style="opacity:0.22000002;fill:url(#SVGID_4_)"/></g></g></g><g id="g117" transform="translate(-8,-11.000004)"><g id="g119"><g id="FlashAICB_Layer_30__Path__5_0_Layer0_0_FILL"><radialGradient id="SVGID_5_" cx="185.47501" cy="349.85001" r="41.2076" gradientUnits="userSpaceOnUse"><stop offset="0" style="stop-color:#4D6F23" id="stop123"/><stop offset="0" style="stop-color:#4C7125" id="stop125"/><stop offset="0" style="stop-color:#48782A" id="stop127"/><stop offset="0" style="stop-color:#428535" id="stop129"/><stop offset="0" style="stop-color:#399744" id="stop131"/><stop offset="0" style="stop-color:#2DAE59" id="stop133"/><stop offset="0" style="stop-color:#22CB73" id="stop135"/><stop offset="0" style="stop-color:#1AED91" id="stop137"/><stop offset="0" style="stop-color:#18FEA0" id="stop139"/><stop offset="1" style="stop-color:#19FFA2;stop-opacity:0" id="stop141"/></radialGradient><path class="st4" d="m 215.5,321.7 c -8.3,-7.8 -18.3,-11.7 -30,-11.7 -11.7,0 -21.8,3.9 -30.1,11.7 -8.3,7.8 -12.4,17.2 -12.4,28.2 0,11 4.1,20.4 12.4,28.2 8.3,7.8 18.3,11.7 30.1,11.7 11.8,0 21.7,-3.9 30,-11.7 8.3,-7.8 12.4,-17.2 12.4,-28.2 0,-11 -4.1,-20.4 -12.4,-28.2 z" id="path143" inkscape:connector-curvature="0" style="opacity:0.1;fill:url(#SVGID_5_)"/></g></g></g><g id="g145" transform="translate(-8,-11.000004)"><g id="g147"><g id="FlashAICB_Layer_30__Path__4_0_Layer0_0_FILL"><radialGradient id="SVGID_6_" cx="213.97501" cy="584.625" r="13.5567" gradientUnits="userSpaceOnUse"><stop offset="0" style="stop-color:#4D6F23" id="stop151"/><stop offset="0" style="stop-color:#4C7125" id="stop153"/><stop offset="0" style="stop-color:#48782A" id="stop155"/><stop offset="0" style="stop-color:#428535" id="stop157"/><stop offset="0" style="stop-color:#399744" id="stop159"/><stop offset="0" style="stop-color:#2DAE59" id="stop161"/><stop offset="0" style="stop-color:#22CB73" id="stop163"/><stop offset="0" style="stop-color:#1AED91" id="stop165"/><stop offset="0" style="stop-color:#18FEA0" id="stop167"/><stop offset="1" style="stop-color:#19FFA2;stop-opacity:0" id="stop169"/></radialGradient><path class="st5" d="m 227.9,584.7 c 0,-3.6 -1.4,-6.7 -4.1,-9.3 -2.7,-2.6 -6,-3.8 -9.9,-3.8 -3.9,0 -7.2,1.3 -9.9,3.8 -2.7,2.6 -4.1,5.7 -4.1,9.3 0,3.6 1.4,6.7 4.1,9.2 2.7,2.6 6,3.8 9.9,3.8 3.9,0 7.1,-1.3 9.9,-3.8 2.8,-2.5 4.1,-5.6 4.1,-9.2 z" id="path171" inkscape:connector-curvature="0" style="opacity:0.22000002;fill:url(#SVGID_6_)"/></g></g></g><g id="g173" transform="translate(-8,-11.000004)"><g id="g175"><g id="FlashAICB_Layer_30__Path__3_0_Layer0_0_FILL"><radialGradient id="SVGID_7_" cx="159.47501" cy="50.875" r="41.195499" gradientUnits="userSpaceOnUse"><stop offset="0" style="stop-color:#4D6F23" id="stop179"/><stop offset="0" style="stop-color:#4C7125" id="stop181"/><stop offset="0" style="stop-color:#48782A" id="stop183"/><stop offset="0" style="stop-color:#428535" id="stop185"/><stop offset="0" style="stop-color:#399744" id="stop187"/><stop offset="0" style="stop-color:#2DAE59" id="stop189"/><stop offset="0" style="stop-color:#22CB73" id="stop191"/><stop offset="0" style="stop-color:#1AED91" id="stop193"/><stop offset="0" style="stop-color:#18FEA0" id="stop195"/><stop offset="1" style="stop-color:#19FFA2;stop-opacity:0" id="stop197"/></radialGradient><path class="st6" d="M 189.5,22.7 C 181.2,14.9 171.2,11 159.5,11 c -11.7,0 -21.8,3.9 -30.1,11.7 -8.3,7.8 -12.4,17.2 -12.4,28.2 0,11 4.2,20.4 12.4,28.2 8.2,7.8 18.3,11.7 30.1,11.7 11.8,0 21.7,-3.9 30,-11.7 8.3,-7.8 12.4,-17.2 12.4,-28.2 0,-11 -4.1,-20.4 -12.4,-28.2 z" id="path199" inkscape:connector-curvature="0" style="opacity:0.12000002;fill:url(#SVGID_7_)"/></g></g></g><g id="g201" transform="translate(-8,-11.000004)"><g id="g203"><g id="FlashAICB_Layer_30__Path__2_0_Layer0_0_FILL"><radialGradient id="SVGID_8_" cx="58.974998" cy="399.64999" r="20.3475" gradientUnits="userSpaceOnUse"><stop offset="0" style="stop-color:#4D6F23" id="stop207"/><stop offset="0" style="stop-color:#4C7125" id="stop209"/><stop offset="0" style="stop-color:#48782A" id="stop211"/><stop offset="0" style="stop-color:#428535" id="stop213"/><stop offset="0" style="stop-color:#399744" id="stop215"/><stop offset="0" style="stop-color:#2DAE59" id="stop217"/><stop offset="0" style="stop-color:#22CB73" id="stop219"/><stop offset="0" style="stop-color:#1AED91" id="stop221"/><stop offset="0" style="stop-color:#18FEA0" id="stop223"/><stop offset="1" style="stop-color:#19FFA2;stop-opacity:0" id="stop225"/></radialGradient><path class="st7" d="m 73.8,385.8 c -4.1,-3.9 -9.1,-5.8 -14.9,-5.8 -5.8,0 -10.7,1.9 -14.8,5.8 -4.1,3.8 -6.2,8.5 -6.2,13.9 0,5.4 2,10.1 6.2,13.9 4.1,3.8 9,5.8 14.8,5.8 5.8,0 10.7,-1.9 14.9,-5.8 4.1,-3.9 6.1,-8.5 6.1,-13.9 0,-5.5 -2,-10.1 -6.1,-13.9 z" id="path227" inkscape:connector-curvature="0" style="opacity:0.18000004;fill:url(#SVGID_8_)"/></g></g></g><g id="g229" transform="translate(-8,-11.000004)"><g id="g231"><g id="FlashAICB_Layer_30__Path__1_0_Layer0_0_FILL"><radialGradient id="SVGID_9_" cx="181.97501" cy="487.14999" r="12.5935" gradientUnits="userSpaceOnUse"><stop offset="0" style="stop-color:#4D6F23" id="stop235"/><stop offset="0" style="stop-color:#4C7125" id="stop237"/><stop offset="0" style="stop-color:#48782A" id="stop239"/><stop offset="0" style="stop-color:#428535" id="stop241"/><stop offset="0" style="stop-color:#399744" id="stop243"/><stop offset="0" style="stop-color:#2DAE59" id="stop245"/><stop offset="0" style="stop-color:#22CB73" id="stop247"/><stop offset="0" style="stop-color:#1AED91" id="stop249"/><stop offset="0" style="stop-color:#18FEA0" id="stop251"/><stop offset="1" style="stop-color:#19FFA2;stop-opacity:0" id="stop253"/></radialGradient><path class="st8" d="m 194.9,487.2 c 0,-3.4 -1.3,-6.2 -3.8,-8.6 -2.5,-2.4 -5.6,-3.6 -9.2,-3.6 -3.6,0 -6.6,1.2 -9.1,3.6 -2.5,2.4 -3.8,5.2 -3.8,8.6 0,3.4 1.3,6.2 3.8,8.6 2.5,2.4 5.6,3.5 9.1,3.5 3.6,0 6.7,-1.2 9.2,-3.5 2.6,-2.4 3.8,-5.3 3.8,-8.6 z" id="path255" inkscape:connector-curvature="0" style="opacity:0.18000004;fill:url(#SVGID_9_)"/></g></g></g><g id="g257" transform="translate(-8,-11.000004)"><g id="g259"><g id="FlashAICB_Layer_30__Path__0_Layer0_0_FILL"><radialGradient id="SVGID_10_" cx="143.97501" cy="218.14999" r="12.5935" gradientUnits="userSpaceOnUse"><stop offset="0" style="stop-color:#4D6F23" id="stop263"/><stop offset="0" style="stop-color:#4E7025" id="stop265"/><stop offset="0" style="stop-color:#51762B" id="stop267"/><stop offset="0" style="stop-color:#577F36" id="stop269"/><stop offset="0" style="stop-color:#5F8C47" id="stop271"/><stop offset="0" style="stop-color:#6A9D5D" id="stop273"/><stop offset="0" style="stop-color:#77B378" id="stop275"/><stop offset="0" style="stop-color:#87CC99" id="stop277"/><stop offset="0" style="stop-color:#98E8BF" id="stop279"/><stop offset="0" style="stop-color:#A6FDDB" id="stop281"/><stop offset="1" style="stop-color:#A8FFDD;stop-opacity:0" id="stop283"/></radialGradient><path class="st9" d="m 156.9,218.1 c 0,-3.4 -1.3,-6.2 -3.8,-8.6 -2.5,-2.4 -5.6,-3.6 -9.2,-3.6 -3.6,0 -6.6,1.2 -9.1,3.6 -2.5,2.4 -3.8,5.2 -3.8,8.6 0,3.4 1.3,6.2 3.8,8.7 2.5,2.4 5.6,3.5 9.1,3.5 3.6,0 6.7,-1.2 9.2,-3.5 2.6,-2.4 3.8,-5.3 3.8,-8.7 z" id="path285" inkscape:connector-curvature="0" style="opacity:0.35;fill:url(#SVGID_10_)"/></g></g></g></svg>
