<?xml version="1.0" encoding="UTF-8" standalone="no"?>
<!-- Generator: Adobe Illustrator 20.1.0, SVG Export Plug-In . SVG Version: 6.00 Build 0)  -->
<svg xmlns:dc="http://purl.org/dc/elements/1.1/" xmlns:cc="http://creativecommons.org/ns#" xmlns:rdf="http://www.w3.org/1999/02/22-rdf-syntax-ns#" xmlns:svg="http://www.w3.org/2000/svg" xmlns="http://www.w3.org/2000/svg" xmlns:sodipodi="http://sodipodi.sourceforge.net/DTD/sodipodi-0.dtd" xmlns:inkscape="http://www.inkscape.org/namespaces/inkscape" version="1.1" id="Layer_1" x="0px" y="0px" viewBox="0 0 1499.9 35.450001" xml:space="preserve" inkscape:version="0.48.5 r10040" width="1656px" height="38px" sodipodi:docname="ground_front_1500px.svg" preserveAspectRatio="none"><metadata id="metadata933"><rdf:RDF><cc:Work rdf:about=""><dc:format>image/svg+xml</dc:format><dc:type rdf:resource="http://purl.org/dc/dcmitype/StillImage"/></cc:Work></rdf:RDF></metadata><defs id="defs931"/><sodipodi:namedview pagecolor="#ffffff" bordercolor="#666666" borderopacity="1" objecttolerance="10" gridtolerance="10" guidetolerance="10" inkscape:pageopacity="0" inkscape:pageshadow="2" inkscape:window-width="640" inkscape:window-height="480" id="namedview929" showgrid="false" inkscape:zoom="0.25444957" inkscape:cx="750" inkscape:cy="17.750001" inkscape:window-x="0" inkscape:window-y="0" inkscape:window-maximized="0" inkscape:current-layer="Layer_1"/><style type="text/css" id="style3">
	.st0{fill:#ABA254;}
	.st1{fill:#918B4B;}
</style><g id="g5" transform="translate(-8.5,-19.3)"><g id="g7"><g id="Layer0_0_MEMBER_0_FILL"><path class="st0" d="m 258.5,54.3 v -35 H 8.5 v 35 h 250 z" id="path10" inkscape:connector-curvature="0" style="fill:#aba254"/></g></g></g><g id="g12" transform="translate(-8.5,-19.3)"><g id="g14"><g id="Layer0_0_MEMBER_1_MEMBER_0_FILL"><path class="st1" d="m 214,51.6 4.5,-6.3 4.9,6.1 -4.9,-9.3 -4.5,9.5 z" id="path17" inkscape:connector-curvature="0" style="fill:#918b4b"/></g></g></g><g id="g19" transform="translate(-8.5,-19.3)"><g id="g21"><g id="Layer0_0_MEMBER_2_MEMBER_0_FILL"><path class="st1" d="m 184.2,50.6 4.9,-6.8 5.3,6.5 -5.3,-10 -4.9,10.3 z" id="path24" inkscape:connector-curvature="0" style="fill:#918b4b"/></g></g></g><g id="g26" transform="translate(-8.5,-19.3)"><g id="g28"><g id="Layer0_0_MEMBER_3_MEMBER_0_FILL"><path class="st1" d="m 135.1,34.1 5.1,-7.1 5.5,6.9 -5.5,-10.5 -5.1,10.7 z" id="path31" inkscape:connector-curvature="0" style="fill:#918b4b"/></g></g></g><g id="g33" transform="translate(-8.5,-19.3)"><g id="g35"><g id="Layer0_0_MEMBER_4_MEMBER_0_FILL"><path class="st1" d="m 101.9,48.9 3.6,-5 3.9,4.9 -3.9,-7.5 -3.6,7.6 z" id="path38" inkscape:connector-curvature="0" style="fill:#918b4b"/></g></g></g><g id="g40" transform="translate(-8.5,-19.3)"><g id="g42"><g id="Layer0_0_MEMBER_5_MEMBER_0_FILL"><path class="st1" d="m 65.4,33.2 4.8,-6.6 5.2,6.4 -5.2,-9.8 -4.8,10 z" id="path45" inkscape:connector-curvature="0" style="fill:#918b4b"/></g></g></g><g id="g47" transform="translate(-8.5,-19.3)"><g id="g49"><g id="Layer0_0_MEMBER_6_MEMBER_0_FILL"><path class="st1" d="m 32.2,48.4 3,-4.2 3.3,4.2 -3.3,-6.4 -3,6.4 z" id="path52" inkscape:connector-curvature="0" style="fill:#918b4b"/></g></g></g><g id="g54" transform="translate(-8.5,-19.3)"><g id="g56"><g id="Layer0_0_MEMBER_7_MEMBER_0_FILL"><path class="st1" d="m 53,50.7 5.2,-7.2 5.6,7 -5.6,-10.8 -5.2,11 z" id="path59" inkscape:connector-curvature="0" style="fill:#918b4b"/></g></g></g><g id="g61" transform="translate(-8.5,-19.3)"><g id="g63"><g id="Layer0_0_MEMBER_8_MEMBER_0_FILL"><path class="st1" d="m 105.4,27.9 2.7,-3.7 2.9,3.6 -2.9,-5.6 -2.7,5.7 z" id="path66" inkscape:connector-curvature="0" style="fill:#918b4b"/></g></g></g><g id="g68" transform="translate(-8.5,-19.3)"><g id="g70"><g id="Layer0_0_MEMBER_9_MEMBER_0_FILL"><path class="st1" d="m 130.4,50.1 3.1,-4.3 3.4,4.2 -3.4,-6.4 -3.1,6.5 z" id="path73" inkscape:connector-curvature="0" style="fill:#918b4b"/></g></g></g><g id="g75" transform="translate(-8.5,-19.3)"><g id="g77"><g id="Layer0_0_MEMBER_10_MEMBER_0_FILL"><path class="st1" d="m 162.1,34.6 2.7,-3.8 3,3.7 -3,-5.7 -2.7,5.8 z" id="path80" inkscape:connector-curvature="0" style="fill:#918b4b"/></g></g></g><g id="g82" transform="translate(-8.5,-19.3)"><g id="g84"><g id="Layer0_0_MEMBER_11_MEMBER_0_FILL"><path class="st1" d="m 17.3,31.1 2.8,-3.9 3,3.7 -3,-5.6 -2.8,5.8 z" id="path87" inkscape:connector-curvature="0" style="fill:#918b4b"/></g></g></g><g id="g89" transform="translate(-8.5,-19.3)"><g id="g91"><g id="Layer0_0_MEMBER_12_MEMBER_0_FILL"><path class="st1" d="m 175.9,32 4.1,-5.7 4.4,5.6 -4.4,-8.5 -4.1,8.6 z" id="path94" inkscape:connector-curvature="0" style="fill:#918b4b"/></g></g></g><g id="g96" transform="translate(-8.5,-19.3)"><g id="g98"><g id="Layer0_0_MEMBER_13_MEMBER_0_FILL"><path class="st1" d="m 251.9,26.1 4.9,6.1 -4.9,-9.3 -4.5,9.5 4.5,-6.3 z" id="path101" inkscape:connector-curvature="0" style="fill:#918b4b"/></g></g></g><g id="g103" transform="translate(-8.5,-19.3)"><g id="g105"><g id="Layer0_0_MEMBER_14_MEMBER_0_FILL"><path class="st1" d="m 247.3,50.5 3.1,-4.2 3.3,4.1 -3.3,-6.3 -3.1,6.4 z" id="path108" inkscape:connector-curvature="0" style="fill:#918b4b"/></g></g></g><g id="g110" transform="translate(-8.5,-19.3)"><g id="g112"><g id="Layer0_0_MEMBER_15_MEMBER_0_FILL"><path class="st1" d="m 234.6,42.8 2.9,-4 3.1,3.9 -3.1,-5.9 -2.9,6 z" id="path115" inkscape:connector-curvature="0" style="fill:#918b4b"/></g></g></g><g id="g117" transform="translate(-8.5,-19.3)"><g id="g119"><g id="Layer0_0_MEMBER_16_MEMBER_0_FILL"><path class="st1" d="m 14.1,51.3 2.9,-4 3.1,3.9 -3.1,-6 -2.9,6.1 z" id="path122" inkscape:connector-curvature="0" style="fill:#918b4b"/></g></g></g><g id="g124" transform="translate(-8.5,-19.3)"><g id="g126"><g id="Layer0_0_MEMBER_17_MEMBER_0_FILL"><path class="st1" d="m 201.2,34.7 4.8,-6.7 5.2,6.5 -5.2,-10 -4.8,10.2 z" id="path129" inkscape:connector-curvature="0" style="fill:#918b4b"/></g></g></g><g id="g131" transform="translate(-8.5,-19.3)"><g id="g133"><g id="Layer0_0_MEMBER_18_MEMBER_0_FILL"><path class="st1" d="m 146.9,49.3 4.6,-6.5 5.1,6.3 -5.1,-9.7 -4.6,9.9 z" id="path136" inkscape:connector-curvature="0" style="fill:#918b4b"/></g></g></g><g id="g138" transform="translate(-8.5,-19.3)"><g id="g140"><g id="Layer0_0_MEMBER_19_MEMBER_0_FILL"><path class="st1" d="m 119.1,39.4 4.7,-6.5 5.1,6.3 -5.1,-9.7 -4.7,9.9 z" id="path143" inkscape:connector-curvature="0" style="fill:#918b4b"/></g></g></g><g id="g145" transform="translate(-8.5,-19.3)"><g id="g147"><g id="Layer0_0_MEMBER_20_MEMBER_0_FILL"><path class="st1" d="m 90.1,34.1 5.4,6.7 -5.4,-10.2 -5,10.5 5,-7 z" id="path150" inkscape:connector-curvature="0" style="fill:#918b4b"/></g></g></g><g id="g152" transform="translate(-8.5,-19.3)"><g id="g154"><g id="Layer0_0_MEMBER_21_MEMBER_0_FILL"><path class="st1" d="m 36,33.5 5.7,-7.8 6.1,7.6 L 41.7,21.7 36,33.5 z" id="path157" inkscape:connector-curvature="0" style="fill:#918b4b"/></g></g></g><g transform="translate(241.45,-18.85)" id="g159"><g id="g161"><g id="Layer0_1_MEMBER_0_FILL"><path class="st0" d="m 258.5,54.3 v -35 H 8.5 v 35 h 250 z" id="path164" inkscape:connector-curvature="0" style="fill:#aba254"/></g></g></g><g transform="translate(241.45,-18.85)" id="g166"><g id="g168"><g id="Layer0_1_MEMBER_1_MEMBER_0_FILL"><path class="st1" d="m 214,51.6 4.5,-6.3 4.9,6.1 -4.9,-9.3 -4.5,9.5 z" id="path171" inkscape:connector-curvature="0" style="fill:#918b4b"/></g></g></g><g transform="translate(241.45,-18.85)" id="g173"><g id="g175"><g id="Layer0_1_MEMBER_2_MEMBER_0_FILL"><path class="st1" d="m 184.2,50.6 4.9,-6.8 5.3,6.5 -5.3,-10 -4.9,10.3 z" id="path178" inkscape:connector-curvature="0" style="fill:#918b4b"/></g></g></g><g transform="translate(241.45,-18.85)" id="g180"><g id="g182"><g id="Layer0_1_MEMBER_3_MEMBER_0_FILL"><path class="st1" d="m 135.1,34.1 5.1,-7.1 5.5,6.9 -5.5,-10.5 -5.1,10.7 z" id="path185" inkscape:connector-curvature="0" style="fill:#918b4b"/></g></g></g><g transform="translate(241.45,-18.85)" id="g187"><g id="g189"><g id="Layer0_1_MEMBER_4_MEMBER_0_FILL"><path class="st1" d="m 101.9,48.9 3.6,-5 3.9,4.9 -3.9,-7.5 -3.6,7.6 z" id="path192" inkscape:connector-curvature="0" style="fill:#918b4b"/></g></g></g><g transform="translate(241.45,-18.85)" id="g194"><g id="g196"><g id="Layer0_1_MEMBER_5_MEMBER_0_FILL"><path class="st1" d="m 65.4,33.2 4.8,-6.6 5.2,6.4 -5.2,-9.8 -4.8,10 z" id="path199" inkscape:connector-curvature="0" style="fill:#918b4b"/></g></g></g><g transform="translate(241.45,-18.85)" id="g201"><g id="g203"><g id="Layer0_1_MEMBER_6_MEMBER_0_FILL"><path class="st1" d="m 32.2,48.4 3.1,-4.2 3.3,4.2 -3.4,-6.4 -3,6.4 z" id="path206" inkscape:connector-curvature="0" style="fill:#918b4b"/></g></g></g><g transform="translate(241.45,-18.85)" id="g208"><g id="g210"><g id="Layer0_1_MEMBER_7_MEMBER_0_FILL"><path class="st1" d="m 53,50.7 5.2,-7.2 5.6,7 -5.6,-10.8 -5.2,11 z" id="path213" inkscape:connector-curvature="0" style="fill:#918b4b"/></g></g></g><g transform="translate(241.45,-18.85)" id="g215"><g id="g217"><g id="Layer0_1_MEMBER_8_MEMBER_0_FILL"><path class="st1" d="m 105.4,27.9 2.7,-3.7 2.9,3.6 -2.9,-5.6 -2.7,5.7 z" id="path220" inkscape:connector-curvature="0" style="fill:#918b4b"/></g></g></g><g transform="translate(241.45,-18.85)" id="g222"><g id="g224"><g id="Layer0_1_MEMBER_9_MEMBER_0_FILL"><path class="st1" d="m 130.4,50.1 3.1,-4.3 3.4,4.2 -3.4,-6.4 -3.1,6.5 z" id="path227" inkscape:connector-curvature="0" style="fill:#918b4b"/></g></g></g><g transform="translate(241.45,-18.85)" id="g229"><g id="g231"><g id="Layer0_1_MEMBER_10_MEMBER_0_FILL"><path class="st1" d="m 162.1,34.6 2.7,-3.8 3,3.7 -3,-5.7 -2.7,5.8 z" id="path234" inkscape:connector-curvature="0" style="fill:#918b4b"/></g></g></g><g transform="translate(241.45,-18.85)" id="g236"><g id="g238"><g id="Layer0_1_MEMBER_11_MEMBER_0_FILL"><path class="st1" d="M 17.3,31.1 20.1,27.2 23,31 20,25.3 17.3,31.1 z" id="path241" inkscape:connector-curvature="0" style="fill:#918b4b"/></g></g></g><g transform="translate(241.45,-18.85)" id="g243"><g id="g245"><g id="Layer0_1_MEMBER_12_MEMBER_0_FILL"><path class="st1" d="m 175.9,32 4.1,-5.7 4.4,5.6 -4.4,-8.5 -4.1,8.6 z" id="path248" inkscape:connector-curvature="0" style="fill:#918b4b"/></g></g></g><g transform="translate(241.45,-18.85)" id="g250"><g id="g252"><g id="Layer0_1_MEMBER_13_MEMBER_0_FILL"><path class="st1" d="m 251.9,26.1 4.9,6.1 -4.9,-9.3 -4.5,9.5 4.5,-6.3 z" id="path255" inkscape:connector-curvature="0" style="fill:#918b4b"/></g></g></g><g transform="translate(241.45,-18.85)" id="g257"><g id="g259"><g id="Layer0_1_MEMBER_14_MEMBER_0_FILL"><path class="st1" d="m 247.3,50.5 3.1,-4.2 3.3,4.1 -3.3,-6.3 -3.1,6.4 z" id="path262" inkscape:connector-curvature="0" style="fill:#918b4b"/></g></g></g><g transform="translate(241.45,-18.85)" id="g264"><g id="g266"><g id="Layer0_1_MEMBER_15_MEMBER_0_FILL"><path class="st1" d="m 234.6,42.8 2.9,-4 3.1,3.9 -3.1,-5.9 -2.9,6 z" id="path269" inkscape:connector-curvature="0" style="fill:#918b4b"/></g></g></g><g transform="translate(241.45,-18.85)" id="g271"><g id="g273"><g id="Layer0_1_MEMBER_16_MEMBER_0_FILL"><path class="st1" d="m 14.1,51.3 2.9,-4 3.1,3.9 -3.1,-6 -2.9,6.1 z" id="path276" inkscape:connector-curvature="0" style="fill:#918b4b"/></g></g></g><g transform="translate(241.45,-18.85)" id="g278"><g id="g280"><g id="Layer0_1_MEMBER_17_MEMBER_0_FILL"><path class="st1" d="m 201.2,34.7 4.8,-6.7 5.2,6.5 -5.2,-10 -4.8,10.2 z" id="path283" inkscape:connector-curvature="0" style="fill:#918b4b"/></g></g></g><g transform="translate(241.45,-18.85)" id="g285"><g id="g287"><g id="Layer0_1_MEMBER_18_MEMBER_0_FILL"><path class="st1" d="m 146.9,49.3 4.6,-6.5 5.1,6.3 -5.1,-9.7 -4.6,9.9 z" id="path290" inkscape:connector-curvature="0" style="fill:#918b4b"/></g></g></g><g transform="translate(241.45,-18.85)" id="g292"><g id="g294"><g id="Layer0_1_MEMBER_19_MEMBER_0_FILL"><path class="st1" d="m 119.1,39.4 4.7,-6.5 5.1,6.3 -5.1,-9.7 -4.7,9.9 z" id="path297" inkscape:connector-curvature="0" style="fill:#918b4b"/></g></g></g><g transform="translate(241.45,-18.85)" id="g299"><g id="g301"><g id="Layer0_1_MEMBER_20_MEMBER_0_FILL"><path class="st1" d="m 90.1,34.1 5.4,6.7 -5.4,-10.2 -5,10.5 5,-7 z" id="path304" inkscape:connector-curvature="0" style="fill:#918b4b"/></g></g></g><g transform="translate(241.45,-18.85)" id="g306"><g id="g308"><g id="Layer0_1_MEMBER_21_MEMBER_0_FILL"><path class="st1" d="m 36,33.5 5.7,-7.8 6.1,7.6 L 41.7,21.7 36,33.5 z" id="path311" inkscape:connector-curvature="0" style="fill:#918b4b"/></g></g></g><g transform="translate(491.45,-18.85)" id="g313"><g id="g315"><g id="Layer0_2_MEMBER_0_FILL"><path class="st0" d="m 258.5,54.3 v -35 H 8.5 v 35 h 250 z" id="path318" inkscape:connector-curvature="0" style="fill:#aba254"/></g></g></g><g transform="translate(491.45,-18.85)" id="g320"><g id="g322"><g id="Layer0_2_MEMBER_1_MEMBER_0_FILL"><path class="st1" d="m 214,51.6 4.5,-6.3 4.9,6.1 -4.9,-9.3 -4.5,9.5 z" id="path325" inkscape:connector-curvature="0" style="fill:#918b4b"/></g></g></g><g transform="translate(491.45,-18.85)" id="g327"><g id="g329"><g id="Layer0_2_MEMBER_2_MEMBER_0_FILL"><path class="st1" d="m 184.2,50.6 4.9,-6.8 5.3,6.5 -5.3,-10 -4.9,10.3 z" id="path332" inkscape:connector-curvature="0" style="fill:#918b4b"/></g></g></g><g transform="translate(491.45,-18.85)" id="g334"><g id="g336"><g id="Layer0_2_MEMBER_3_MEMBER_0_FILL"><path class="st1" d="m 135.1,34.1 5.1,-7.1 5.5,6.9 -5.5,-10.5 -5.1,10.7 z" id="path339" inkscape:connector-curvature="0" style="fill:#918b4b"/></g></g></g><g transform="translate(491.45,-18.85)" id="g341"><g id="g343"><g id="Layer0_2_MEMBER_4_MEMBER_0_FILL"><path class="st1" d="m 101.9,48.9 3.6,-5 3.9,4.9 -3.9,-7.5 -3.6,7.6 z" id="path346" inkscape:connector-curvature="0" style="fill:#918b4b"/></g></g></g><g transform="translate(491.45,-18.85)" id="g348"><g id="g350"><g id="Layer0_2_MEMBER_5_MEMBER_0_FILL"><path class="st1" d="m 65.4,33.2 4.8,-6.6 5.2,6.4 -5.2,-9.8 -4.8,10 z" id="path353" inkscape:connector-curvature="0" style="fill:#918b4b"/></g></g></g><g transform="translate(491.45,-18.85)" id="g355"><g id="g357"><g id="Layer0_2_MEMBER_6_MEMBER_0_FILL"><path class="st1" d="m 32.2,48.4 3,-4.2 3.3,4.2 -3.3,-6.4 -3,6.4 z" id="path360" inkscape:connector-curvature="0" style="fill:#918b4b"/></g></g></g><g transform="translate(491.45,-18.85)" id="g362"><g id="g364"><g id="Layer0_2_MEMBER_7_MEMBER_0_FILL"><path class="st1" d="m 53,50.7 5.2,-7.2 5.6,7 -5.6,-10.8 -5.2,11 z" id="path367" inkscape:connector-curvature="0" style="fill:#918b4b"/></g></g></g><g transform="translate(491.45,-18.85)" id="g369"><g id="g371"><g id="Layer0_2_MEMBER_8_MEMBER_0_FILL"><path class="st1" d="m 105.4,27.9 2.7,-3.7 2.9,3.6 -2.9,-5.6 -2.7,5.7 z" id="path374" inkscape:connector-curvature="0" style="fill:#918b4b"/></g></g></g><g transform="translate(491.45,-18.85)" id="g376"><g id="g378"><g id="Layer0_2_MEMBER_9_MEMBER_0_FILL"><path class="st1" d="m 130.4,50.1 3.1,-4.3 3.4,4.2 -3.4,-6.4 -3.1,6.5 z" id="path381" inkscape:connector-curvature="0" style="fill:#918b4b"/></g></g></g><g transform="translate(491.45,-18.85)" id="g383"><g id="g385"><g id="Layer0_2_MEMBER_10_MEMBER_0_FILL"><path class="st1" d="m 162.1,34.6 2.7,-3.8 3,3.7 -3,-5.7 -2.7,5.8 z" id="path388" inkscape:connector-curvature="0" style="fill:#918b4b"/></g></g></g><g transform="translate(491.45,-18.85)" id="g390"><g id="g392"><g id="Layer0_2_MEMBER_11_MEMBER_0_FILL"><path class="st1" d="m 17.3,31.1 2.8,-3.9 3,3.7 -3,-5.6 -2.8,5.8 z" id="path395" inkscape:connector-curvature="0" style="fill:#918b4b"/></g></g></g><g transform="translate(491.45,-18.85)" id="g397"><g id="g399"><g id="Layer0_2_MEMBER_12_MEMBER_0_FILL"><path class="st1" d="m 175.9,32 4.1,-5.7 4.4,5.6 -4.4,-8.5 -4.1,8.6 z" id="path402" inkscape:connector-curvature="0" style="fill:#918b4b"/></g></g></g><g transform="translate(491.45,-18.85)" id="g404"><g id="g406"><g id="Layer0_2_MEMBER_13_MEMBER_0_FILL"><path class="st1" d="m 251.9,26.1 4.9,6.1 -4.9,-9.3 -4.5,9.5 4.5,-6.3 z" id="path409" inkscape:connector-curvature="0" style="fill:#918b4b"/></g></g></g><g transform="translate(491.45,-18.85)" id="g411"><g id="g413"><g id="Layer0_2_MEMBER_14_MEMBER_0_FILL"><path class="st1" d="m 247.3,50.5 3.1,-4.2 3.3,4.1 -3.3,-6.3 -3.1,6.4 z" id="path416" inkscape:connector-curvature="0" style="fill:#918b4b"/></g></g></g><g transform="translate(491.45,-18.85)" id="g418"><g id="g420"><g id="Layer0_2_MEMBER_15_MEMBER_0_FILL"><path class="st1" d="m 234.6,42.8 2.9,-4 3.1,3.9 -3.1,-5.9 -2.9,6 z" id="path423" inkscape:connector-curvature="0" style="fill:#918b4b"/></g></g></g><g transform="translate(491.45,-18.85)" id="g425"><g id="g427"><g id="Layer0_2_MEMBER_16_MEMBER_0_FILL"><path class="st1" d="m 14.1,51.3 2.9,-4 3.1,3.9 -3.1,-6 -2.9,6.1 z" id="path430" inkscape:connector-curvature="0" style="fill:#918b4b"/></g></g></g><g transform="translate(491.45,-18.85)" id="g432"><g id="g434"><g id="Layer0_2_MEMBER_17_MEMBER_0_FILL"><path class="st1" d="m 201.2,34.7 4.8,-6.7 5.2,6.5 -5.2,-10 -4.8,10.2 z" id="path437" inkscape:connector-curvature="0" style="fill:#918b4b"/></g></g></g><g transform="translate(491.45,-18.85)" id="g439"><g id="g441"><g id="Layer0_2_MEMBER_18_MEMBER_0_FILL"><path class="st1" d="m 146.9,49.3 4.6,-6.5 5.1,6.3 -5.1,-9.7 -4.6,9.9 z" id="path444" inkscape:connector-curvature="0" style="fill:#918b4b"/></g></g></g><g transform="translate(491.45,-18.85)" id="g446"><g id="g448"><g id="Layer0_2_MEMBER_19_MEMBER_0_FILL"><path class="st1" d="m 119.1,39.4 4.7,-6.5 5.1,6.3 -5.1,-9.7 -4.7,9.9 z" id="path451" inkscape:connector-curvature="0" style="fill:#918b4b"/></g></g></g><g transform="translate(491.45,-18.85)" id="g453"><g id="g455"><g id="Layer0_2_MEMBER_20_MEMBER_0_FILL"><path class="st1" d="m 90.1,34.1 5.4,6.7 -5.4,-10.2 -5,10.5 5,-7 z" id="path458" inkscape:connector-curvature="0" style="fill:#918b4b"/></g></g></g><g transform="translate(491.45,-18.85)" id="g460"><g id="g462"><g id="Layer0_2_MEMBER_21_MEMBER_0_FILL"><path class="st1" d="m 36,33.5 5.7,-7.8 6.1,7.6 L 41.7,21.7 36,33.5 z" id="path465" inkscape:connector-curvature="0" style="fill:#918b4b"/></g></g></g><g transform="translate(741.45,-18.85)" id="g467"><g id="g469"><g id="Layer0_3_MEMBER_0_FILL"><path class="st0" d="m 258.5,54.3 v -35 H 8.5 v 35 h 250 z" id="path472" inkscape:connector-curvature="0" style="fill:#aba254"/></g></g></g><g transform="translate(741.45,-18.85)" id="g474"><g id="g476"><g id="Layer0_3_MEMBER_1_MEMBER_0_FILL"><path class="st1" d="m 214,51.6 4.5,-6.3 4.9,6.1 -4.9,-9.3 -4.5,9.5 z" id="path479" inkscape:connector-curvature="0" style="fill:#918b4b"/></g></g></g><g transform="translate(741.45,-18.85)" id="g481"><g id="g483"><g id="Layer0_3_MEMBER_2_MEMBER_0_FILL"><path class="st1" d="m 184.2,50.6 4.9,-6.8 5.3,6.5 -5.3,-10 -4.9,10.3 z" id="path486" inkscape:connector-curvature="0" style="fill:#918b4b"/></g></g></g><g transform="translate(741.45,-18.85)" id="g488"><g id="g490"><g id="Layer0_3_MEMBER_3_MEMBER_0_FILL"><path class="st1" d="m 135.1,34.1 5.1,-7.1 5.5,6.9 -5.5,-10.5 -5.1,10.7 z" id="path493" inkscape:connector-curvature="0" style="fill:#918b4b"/></g></g></g><g transform="translate(741.45,-18.85)" id="g495"><g id="g497"><g id="Layer0_3_MEMBER_4_MEMBER_0_FILL"><path class="st1" d="m 101.9,48.9 3.6,-5 3.9,4.9 -3.9,-7.5 -3.6,7.6 z" id="path500" inkscape:connector-curvature="0" style="fill:#918b4b"/></g></g></g><g transform="translate(741.45,-18.85)" id="g502"><g id="g504"><g id="Layer0_3_MEMBER_5_MEMBER_0_FILL"><path class="st1" d="m 65.4,33.2 4.8,-6.6 5.2,6.4 -5.2,-9.8 -4.8,10 z" id="path507" inkscape:connector-curvature="0" style="fill:#918b4b"/></g></g></g><g transform="translate(741.45,-18.85)" id="g509"><g id="g511"><g id="Layer0_3_MEMBER_6_MEMBER_0_FILL"><path class="st1" d="m 32.2,48.4 3,-4.2 3.3,4.2 -3.3,-6.4 -3,6.4 z" id="path514" inkscape:connector-curvature="0" style="fill:#918b4b"/></g></g></g><g transform="translate(741.45,-18.85)" id="g516"><g id="g518"><g id="Layer0_3_MEMBER_7_MEMBER_0_FILL"><path class="st1" d="m 53,50.7 5.2,-7.2 5.6,7 -5.6,-10.8 -5.2,11 z" id="path521" inkscape:connector-curvature="0" style="fill:#918b4b"/></g></g></g><g transform="translate(741.45,-18.85)" id="g523"><g id="g525"><g id="Layer0_3_MEMBER_8_MEMBER_0_FILL"><path class="st1" d="m 105.4,27.9 2.7,-3.7 2.9,3.6 -2.9,-5.6 -2.7,5.7 z" id="path528" inkscape:connector-curvature="0" style="fill:#918b4b"/></g></g></g><g transform="translate(741.45,-18.85)" id="g530"><g id="g532"><g id="Layer0_3_MEMBER_9_MEMBER_0_FILL"><path class="st1" d="m 130.4,50.1 3.1,-4.3 3.4,4.2 -3.4,-6.4 -3.1,6.5 z" id="path535" inkscape:connector-curvature="0" style="fill:#918b4b"/></g></g></g><g transform="translate(741.45,-18.85)" id="g537"><g id="g539"><g id="Layer0_3_MEMBER_10_MEMBER_0_FILL"><path class="st1" d="m 162.1,34.6 2.7,-3.8 3,3.7 -3,-5.7 -2.7,5.8 z" id="path542" inkscape:connector-curvature="0" style="fill:#918b4b"/></g></g></g><g transform="translate(741.45,-18.85)" id="g544"><g id="g546"><g id="Layer0_3_MEMBER_11_MEMBER_0_FILL"><path class="st1" d="m 17.3,31.1 2.8,-3.9 3,3.7 -3,-5.6 -2.8,5.8 z" id="path549" inkscape:connector-curvature="0" style="fill:#918b4b"/></g></g></g><g transform="translate(741.45,-18.85)" id="g551"><g id="g553"><g id="Layer0_3_MEMBER_12_MEMBER_0_FILL"><path class="st1" d="m 175.9,32 4.1,-5.7 4.4,5.6 -4.4,-8.5 -4.1,8.6 z" id="path556" inkscape:connector-curvature="0" style="fill:#918b4b"/></g></g></g><g transform="translate(741.45,-18.85)" id="g558"><g id="g560"><g id="Layer0_3_MEMBER_13_MEMBER_0_FILL"><path class="st1" d="m 251.9,26.1 4.9,6.1 -4.9,-9.3 -4.5,9.5 4.5,-6.3 z" id="path563" inkscape:connector-curvature="0" style="fill:#918b4b"/></g></g></g><g transform="translate(741.45,-18.85)" id="g565"><g id="g567"><g id="Layer0_3_MEMBER_14_MEMBER_0_FILL"><path class="st1" d="m 247.3,50.5 3.1,-4.2 3.3,4.1 -3.3,-6.3 -3.1,6.4 z" id="path570" inkscape:connector-curvature="0" style="fill:#918b4b"/></g></g></g><g transform="translate(741.45,-18.85)" id="g572"><g id="g574"><g id="Layer0_3_MEMBER_15_MEMBER_0_FILL"><path class="st1" d="m 234.6,42.8 2.9,-4 3.1,3.9 -3.1,-5.9 -2.9,6 z" id="path577" inkscape:connector-curvature="0" style="fill:#918b4b"/></g></g></g><g transform="translate(741.45,-18.85)" id="g579"><g id="g581"><g id="Layer0_3_MEMBER_16_MEMBER_0_FILL"><path class="st1" d="m 14.1,51.3 2.9,-4 3.1,3.9 -3.1,-6 -2.9,6.1 z" id="path584" inkscape:connector-curvature="0" style="fill:#918b4b"/></g></g></g><g transform="translate(741.45,-18.85)" id="g586"><g id="g588"><g id="Layer0_3_MEMBER_17_MEMBER_0_FILL"><path class="st1" d="m 201.2,34.7 4.8,-6.7 5.2,6.5 -5.2,-10 -4.8,10.2 z" id="path591" inkscape:connector-curvature="0" style="fill:#918b4b"/></g></g></g><g transform="translate(741.45,-18.85)" id="g593"><g id="g595"><g id="Layer0_3_MEMBER_18_MEMBER_0_FILL"><path class="st1" d="m 146.9,49.3 4.6,-6.5 5.1,6.3 -5.1,-9.7 -4.6,9.9 z" id="path598" inkscape:connector-curvature="0" style="fill:#918b4b"/></g></g></g><g transform="translate(741.45,-18.85)" id="g600"><g id="g602"><g id="Layer0_3_MEMBER_19_MEMBER_0_FILL"><path class="st1" d="m 119.1,39.4 4.7,-6.5 5.1,6.3 -5.1,-9.7 -4.7,9.9 z" id="path605" inkscape:connector-curvature="0" style="fill:#918b4b"/></g></g></g><g transform="translate(741.45,-18.85)" id="g607"><g id="g609"><g id="Layer0_3_MEMBER_20_MEMBER_0_FILL"><path class="st1" d="m 90.1,34.1 5.4,6.7 -5.4,-10.2 -5,10.5 5,-7 z" id="path612" inkscape:connector-curvature="0" style="fill:#918b4b"/></g></g></g><g transform="translate(741.45,-18.85)" id="g614"><g id="g616"><g id="Layer0_3_MEMBER_21_MEMBER_0_FILL"><path class="st1" d="m 36,33.5 5.7,-7.8 6.1,7.6 L 41.7,21.7 36,33.5 z" id="path619" inkscape:connector-curvature="0" style="fill:#918b4b"/></g></g></g><g transform="translate(991.45,-18.85)" id="g621"><g id="g623"><g id="Layer0_4_MEMBER_0_FILL"><path class="st0" d="m 258.5,54.3 v -35 H 8.5 v 35 h 250 z" id="path626" inkscape:connector-curvature="0" style="fill:#aba254"/></g></g></g><g transform="translate(991.45,-18.85)" id="g628"><g id="g630"><g id="Layer0_4_MEMBER_1_MEMBER_0_FILL"><path class="st1" d="m 214,51.6 4.5,-6.3 4.9,6.1 -4.9,-9.3 -4.5,9.5 z" id="path633" inkscape:connector-curvature="0" style="fill:#918b4b"/></g></g></g><g transform="translate(991.45,-18.85)" id="g635"><g id="g637"><g id="Layer0_4_MEMBER_2_MEMBER_0_FILL"><path class="st1" d="m 184.2,50.6 4.9,-6.8 5.3,6.5 -5.3,-10 -4.9,10.3 z" id="path640" inkscape:connector-curvature="0" style="fill:#918b4b"/></g></g></g><g transform="translate(991.45,-18.85)" id="g642"><g id="g644"><g id="Layer0_4_MEMBER_3_MEMBER_0_FILL"><path class="st1" d="m 135.1,34.1 5.1,-7.1 5.5,6.9 -5.5,-10.5 -5.1,10.7 z" id="path647" inkscape:connector-curvature="0" style="fill:#918b4b"/></g></g></g><g transform="translate(991.45,-18.85)" id="g649"><g id="g651"><g id="Layer0_4_MEMBER_4_MEMBER_0_FILL"><path class="st1" d="m 101.9,48.9 3.6,-5 3.9,4.9 -3.9,-7.5 -3.6,7.6 z" id="path654" inkscape:connector-curvature="0" style="fill:#918b4b"/></g></g></g><g transform="translate(991.45,-18.85)" id="g656"><g id="g658"><g id="Layer0_4_MEMBER_5_MEMBER_0_FILL"><path class="st1" d="m 65.4,33.2 4.8,-6.6 5.2,6.4 -5.2,-9.8 -4.8,10 z" id="path661" inkscape:connector-curvature="0" style="fill:#918b4b"/></g></g></g><g transform="translate(991.45,-18.85)" id="g663"><g id="g665"><g id="Layer0_4_MEMBER_6_MEMBER_0_FILL"><path class="st1" d="m 32.2,48.4 3,-4.2 3.3,4.2 -3.3,-6.4 -3,6.4 z" id="path668" inkscape:connector-curvature="0" style="fill:#918b4b"/></g></g></g><g transform="translate(991.45,-18.85)" id="g670"><g id="g672"><g id="Layer0_4_MEMBER_7_MEMBER_0_FILL"><path class="st1" d="m 53,50.7 5.2,-7.2 5.6,7 -5.6,-10.8 -5.2,11 z" id="path675" inkscape:connector-curvature="0" style="fill:#918b4b"/></g></g></g><g transform="translate(991.45,-18.85)" id="g677"><g id="g679"><g id="Layer0_4_MEMBER_8_MEMBER_0_FILL"><path class="st1" d="m 105.4,27.9 2.7,-3.7 2.9,3.6 -2.9,-5.6 -2.7,5.7 z" id="path682" inkscape:connector-curvature="0" style="fill:#918b4b"/></g></g></g><g transform="translate(991.45,-18.85)" id="g684"><g id="g686"><g id="Layer0_4_MEMBER_9_MEMBER_0_FILL"><path class="st1" d="m 130.4,50.1 3.1,-4.3 3.4,4.2 -3.4,-6.4 -3.1,6.5 z" id="path689" inkscape:connector-curvature="0" style="fill:#918b4b"/></g></g></g><g transform="translate(991.45,-18.85)" id="g691"><g id="g693"><g id="Layer0_4_MEMBER_10_MEMBER_0_FILL"><path class="st1" d="m 162.1,34.6 2.7,-3.8 3,3.7 -3,-5.7 -2.7,5.8 z" id="path696" inkscape:connector-curvature="0" style="fill:#918b4b"/></g></g></g><g transform="translate(991.45,-18.85)" id="g698"><g id="g700"><g id="Layer0_4_MEMBER_11_MEMBER_0_FILL"><path class="st1" d="m 17.3,31.1 2.8,-3.9 3,3.7 -3,-5.6 -2.8,5.8 z" id="path703" inkscape:connector-curvature="0" style="fill:#918b4b"/></g></g></g><g transform="translate(991.45,-18.85)" id="g705"><g id="g707"><g id="Layer0_4_MEMBER_12_MEMBER_0_FILL"><path class="st1" d="m 175.9,32 4.1,-5.7 4.4,5.6 -4.4,-8.5 -4.1,8.6 z" id="path710" inkscape:connector-curvature="0" style="fill:#918b4b"/></g></g></g><g transform="translate(991.45,-18.85)" id="g712"><g id="g714"><g id="Layer0_4_MEMBER_13_MEMBER_0_FILL"><path class="st1" d="m 251.9,26.1 4.9,6.1 -4.9,-9.3 -4.5,9.5 4.5,-6.3 z" id="path717" inkscape:connector-curvature="0" style="fill:#918b4b"/></g></g></g><g transform="translate(991.45,-18.85)" id="g719"><g id="g721"><g id="Layer0_4_MEMBER_14_MEMBER_0_FILL"><path class="st1" d="m 247.3,50.5 3.1,-4.2 3.3,4.1 -3.3,-6.3 -3.1,6.4 z" id="path724" inkscape:connector-curvature="0" style="fill:#918b4b"/></g></g></g><g transform="translate(991.45,-18.85)" id="g726"><g id="g728"><g id="Layer0_4_MEMBER_15_MEMBER_0_FILL"><path class="st1" d="m 234.6,42.8 2.9,-4 3.1,3.9 -3.1,-5.9 -2.9,6 z" id="path731" inkscape:connector-curvature="0" style="fill:#918b4b"/></g></g></g><g transform="translate(991.45,-18.85)" id="g733"><g id="g735"><g id="Layer0_4_MEMBER_16_MEMBER_0_FILL"><path class="st1" d="m 14.1,51.3 2.9,-4 3.1,3.9 -3.1,-6 -2.9,6.1 z" id="path738" inkscape:connector-curvature="0" style="fill:#918b4b"/></g></g></g><g transform="translate(991.45,-18.85)" id="g740"><g id="g742"><g id="Layer0_4_MEMBER_17_MEMBER_0_FILL"><path class="st1" d="m 201.2,34.7 4.8,-6.7 5.2,6.5 -5.2,-10 -4.8,10.2 z" id="path745" inkscape:connector-curvature="0" style="fill:#918b4b"/></g></g></g><g transform="translate(991.45,-18.85)" id="g747"><g id="g749"><g id="Layer0_4_MEMBER_18_MEMBER_0_FILL"><path class="st1" d="m 146.9,49.3 4.6,-6.5 5.1,6.3 -5.1,-9.7 -4.6,9.9 z" id="path752" inkscape:connector-curvature="0" style="fill:#918b4b"/></g></g></g><g transform="translate(991.45,-18.85)" id="g754"><g id="g756"><g id="Layer0_4_MEMBER_19_MEMBER_0_FILL"><path class="st1" d="m 119.1,39.4 4.7,-6.5 5.1,6.3 -5.1,-9.7 -4.7,9.9 z" id="path759" inkscape:connector-curvature="0" style="fill:#918b4b"/></g></g></g><g transform="translate(991.45,-18.85)" id="g761"><g id="g763"><g id="Layer0_4_MEMBER_20_MEMBER_0_FILL"><path class="st1" d="m 90.1,34.1 5.4,6.7 -5.4,-10.2 -5,10.5 5,-7 z" id="path766" inkscape:connector-curvature="0" style="fill:#918b4b"/></g></g></g><g transform="translate(991.45,-18.85)" id="g768"><g id="g770"><g id="Layer0_4_MEMBER_21_MEMBER_0_FILL"><path class="st1" d="m 36,33.5 5.7,-7.8 6.1,7.6 L 41.7,21.7 36,33.5 z" id="path773" inkscape:connector-curvature="0" style="fill:#918b4b"/></g></g></g><g transform="translate(1241.4,-18.85)" id="g775"><g id="g777"><g id="Layer0_5_MEMBER_0_FILL"><path class="st0" d="m 258.5,54.3 v -35 H 8.5 v 35 h 250 z" id="path780" inkscape:connector-curvature="0" style="fill:#aba254"/></g></g></g><g transform="translate(1241.4,-18.85)" id="g782"><g id="g784"><g id="Layer0_5_MEMBER_1_MEMBER_0_FILL"><path class="st1" d="m 214,51.6 4.5,-6.3 4.9,6.1 -4.9,-9.3 -4.5,9.5 z" id="path787" inkscape:connector-curvature="0" style="fill:#918b4b"/></g></g></g><g transform="translate(1241.4,-18.85)" id="g789"><g id="g791"><g id="Layer0_5_MEMBER_2_MEMBER_0_FILL"><path class="st1" d="m 184.2,50.6 4.9,-6.8 5.3,6.5 -5.3,-10 -4.9,10.3 z" id="path794" inkscape:connector-curvature="0" style="fill:#918b4b"/></g></g></g><g transform="translate(1241.4,-18.85)" id="g796"><g id="g798"><g id="Layer0_5_MEMBER_3_MEMBER_0_FILL"><path class="st1" d="m 135.1,34.1 5.1,-7.1 5.5,6.9 -5.5,-10.5 -5.1,10.7 z" id="path801" inkscape:connector-curvature="0" style="fill:#918b4b"/></g></g></g><g transform="translate(1241.4,-18.85)" id="g803"><g id="g805"><g id="Layer0_5_MEMBER_4_MEMBER_0_FILL"><path class="st1" d="m 101.9,48.9 3.6,-5 3.9,4.9 -3.9,-7.5 -3.6,7.6 z" id="path808" inkscape:connector-curvature="0" style="fill:#918b4b"/></g></g></g><g transform="translate(1241.4,-18.85)" id="g810"><g id="g812"><g id="Layer0_5_MEMBER_5_MEMBER_0_FILL"><path class="st1" d="m 65.4,33.2 4.8,-6.6 5.2,6.4 -5.2,-9.8 -4.8,10 z" id="path815" inkscape:connector-curvature="0" style="fill:#918b4b"/></g></g></g><g transform="translate(1241.4,-18.85)" id="g817"><g id="g819"><g id="Layer0_5_MEMBER_6_MEMBER_0_FILL"><path class="st1" d="m 32.2,48.4 3,-4.2 3.3,4.2 -3.3,-6.4 -3,6.4 z" id="path822" inkscape:connector-curvature="0" style="fill:#918b4b"/></g></g></g><g transform="translate(1241.4,-18.85)" id="g824"><g id="g826"><g id="Layer0_5_MEMBER_7_MEMBER_0_FILL"><path class="st1" d="m 53,50.7 5.2,-7.2 5.6,7 -5.6,-10.8 -5.2,11 z" id="path829" inkscape:connector-curvature="0" style="fill:#918b4b"/></g></g></g><g transform="translate(1241.4,-18.85)" id="g831"><g id="g833"><g id="Layer0_5_MEMBER_8_MEMBER_0_FILL"><path class="st1" d="m 105.4,27.9 2.7,-3.7 2.9,3.6 -2.9,-5.6 -2.7,5.7 z" id="path836" inkscape:connector-curvature="0" style="fill:#918b4b"/></g></g></g><g transform="translate(1241.4,-18.85)" id="g838"><g id="g840"><g id="Layer0_5_MEMBER_9_MEMBER_0_FILL"><path class="st1" d="m 130.4,50.1 3.1,-4.3 3.4,4.2 -3.4,-6.4 -3.1,6.5 z" id="path843" inkscape:connector-curvature="0" style="fill:#918b4b"/></g></g></g><g transform="translate(1241.4,-18.85)" id="g845"><g id="g847"><g id="Layer0_5_MEMBER_10_MEMBER_0_FILL"><path class="st1" d="m 162.1,34.6 2.7,-3.8 3,3.7 -3,-5.7 -2.7,5.8 z" id="path850" inkscape:connector-curvature="0" style="fill:#918b4b"/></g></g></g><g transform="translate(1241.4,-18.85)" id="g852"><g id="g854"><g id="Layer0_5_MEMBER_11_MEMBER_0_FILL"><path class="st1" d="m 17.3,31.1 2.8,-3.9 3,3.7 -3,-5.6 -2.8,5.8 z" id="path857" inkscape:connector-curvature="0" style="fill:#918b4b"/></g></g></g><g transform="translate(1241.4,-18.85)" id="g859"><g id="g861"><g id="Layer0_5_MEMBER_12_MEMBER_0_FILL"><path class="st1" d="m 175.9,32 4.1,-5.7 4.4,5.6 -4.4,-8.5 -4.1,8.6 z" id="path864" inkscape:connector-curvature="0" style="fill:#918b4b"/></g></g></g><g transform="translate(1241.4,-18.85)" id="g866"><g id="g868"><g id="Layer0_5_MEMBER_13_MEMBER_0_FILL"><path class="st1" d="m 251.9,26.1 4.9,6.1 -4.9,-9.3 -4.5,9.5 4.5,-6.3 z" id="path871" inkscape:connector-curvature="0" style="fill:#918b4b"/></g></g></g><g transform="translate(1241.4,-18.85)" id="g873"><g id="g875"><g id="Layer0_5_MEMBER_14_MEMBER_0_FILL"><path class="st1" d="m 247.3,50.5 3.1,-4.2 3.3,4.1 -3.3,-6.3 -3.1,6.4 z" id="path878" inkscape:connector-curvature="0" style="fill:#918b4b"/></g></g></g><g transform="translate(1241.4,-18.85)" id="g880"><g id="g882"><g id="Layer0_5_MEMBER_15_MEMBER_0_FILL"><path class="st1" d="m 234.6,42.8 2.9,-4 3.1,3.9 -3.1,-5.9 -2.9,6 z" id="path885" inkscape:connector-curvature="0" style="fill:#918b4b"/></g></g></g><g transform="translate(1241.4,-18.85)" id="g887"><g id="g889"><g id="Layer0_5_MEMBER_16_MEMBER_0_FILL"><path class="st1" d="m 14.1,51.3 2.9,-4 3.1,3.9 -3.1,-6 -2.9,6.1 z" id="path892" inkscape:connector-curvature="0" style="fill:#918b4b"/></g></g></g><g transform="translate(1241.4,-18.85)" id="g894"><g id="g896"><g id="Layer0_5_MEMBER_17_MEMBER_0_FILL"><path class="st1" d="m 201.2,34.7 4.8,-6.7 5.2,6.5 -5.2,-10 -4.8,10.2 z" id="path899" inkscape:connector-curvature="0" style="fill:#918b4b"/></g></g></g><g transform="translate(1241.4,-18.85)" id="g901"><g id="g903"><g id="Layer0_5_MEMBER_18_MEMBER_0_FILL"><path class="st1" d="m 146.9,49.3 4.6,-6.5 5.1,6.3 -5.1,-9.7 -4.6,9.9 z" id="path906" inkscape:connector-curvature="0" style="fill:#918b4b"/></g></g></g><g transform="translate(1241.4,-18.85)" id="g908"><g id="g910"><g id="Layer0_5_MEMBER_19_MEMBER_0_FILL"><path class="st1" d="m 119.1,39.4 4.7,-6.5 5.1,6.3 -5.1,-9.7 -4.7,9.9 z" id="path913" inkscape:connector-curvature="0" style="fill:#918b4b"/></g></g></g><g transform="translate(1241.4,-18.85)" id="g915"><g id="g917"><g id="Layer0_5_MEMBER_20_MEMBER_0_FILL"><path class="st1" d="m 90.1,34.1 5.4,6.7 -5.4,-10.2 -5,10.5 5,-7 z" id="path920" inkscape:connector-curvature="0" style="fill:#918b4b"/></g></g></g><g transform="translate(1241.4,-18.85)" id="g922"><g id="g924"><g id="Layer0_5_MEMBER_21_MEMBER_0_FILL"><path class="st1" d="m 36,33.5 5.7,-7.8 6.1,7.6 L 41.7,21.7 36,33.5 z" id="path927" inkscape:connector-curvature="0" style="fill:#918b4b"/></g></g></g></svg>
