<?xml version="1.0" encoding="UTF-8" standalone="no"?>
<!-- Generator: Adobe Illustrator 20.1.0, SVG Export Plug-In . SVG Version: 6.00 Build 0)  -->
<svg xmlns:dc="http://purl.org/dc/elements/1.1/" xmlns:cc="http://creativecommons.org/ns#" xmlns:rdf="http://www.w3.org/1999/02/22-rdf-syntax-ns#" xmlns:svg="http://www.w3.org/2000/svg" xmlns="http://www.w3.org/2000/svg" xmlns:sodipodi="http://sodipodi.sourceforge.net/DTD/sodipodi-0.dtd" xmlns:inkscape="http://www.inkscape.org/namespaces/inkscape" version="1.1" id="Layer_1" x="0px" y="0px" viewBox="0 0 2500.2382 110.77835" xml:space="preserve" inkscape:version="0.48.5 r10040" width="2441px" height="108px" sodipodi:docname="ground_front_2500px_02.svg" preserveAspectRatio="none"><metadata id="metadata2396"><rdf:RDF><cc:Work rdf:about=""><dc:format>image/svg+xml</dc:format><dc:type rdf:resource="http://purl.org/dc/dcmitype/StillImage"/></cc:Work></rdf:RDF></metadata><defs id="defs2394"/><sodipodi:namedview pagecolor="#ffffff" bordercolor="#666666" borderopacity="1" objecttolerance="10" gridtolerance="10" guidetolerance="10" inkscape:pageopacity="0" inkscape:pageshadow="2" inkscape:window-width="640" inkscape:window-height="480" id="namedview2392" showgrid="false" inkscape:zoom="0.14846154" inkscape:cx="1250.1992" inkscape:cy="55.5" inkscape:window-x="0" inkscape:window-y="0" inkscape:window-maximized="0" inkscape:current-layer="Layer_1"/><style type="text/css" id="style3">
	.st0{fill:#ABA254;}
	.st1{fill:#918B4B;}
</style><g transform="matrix(1.0000153,0,0,1,-49.80076,-48.721647)" id="g5"><g id="g7"><g id="Layer0_0_MEMBER_0_MEMBER_0_FILL"><path class="st0" d="m 2550,89.2 c -10.5,0 -28,-2.2 -52.4,-6.6 -31.7,-6.1 -56.7,-10.9 -74.8,-14.3 -33.3,-6.3 -61.3,-11 -84,-14 -31.2,-4.1 -57.9,-6 -80.1,-5.5 -25.2,0.3 -48.6,2.6 -70.4,6.9 -15.1,3 -32,7.6 -50.8,13.8 -22.9,7.7 -37,12.2 -42.3,13.6 -15.5,4.1 -30.6,6.1 -45.2,6.1 v 70.1 h 500 V 89.2 z" id="path10" inkscape:connector-curvature="0" style="fill:#aba254"/></g></g></g><g transform="matrix(1.0000153,0,0,1,-49.80076,-48.721647)" id="g12"><g id="g14"><g id="Layer0_0_MEMBER_1_MEMBER_0_FILL"><path class="st1" d="m 2091.9,144 4.2,5.9 -4.2,-9 -4.6,8.8 4.6,-5.7 z" id="path17" inkscape:connector-curvature="0" style="fill:#918b4b"/></g></g></g><g transform="matrix(1.0000153,0,0,1,-49.80076,-48.721647)" id="g19"><g id="g21"><g id="Layer0_0_MEMBER_2_MEMBER_0_FILL"><path class="st1" d="m 2121.1,130.8 5.2,7.1 -5.2,-10.8 -5.6,10.6 5.6,-6.9 z" id="path24" inkscape:connector-curvature="0" style="fill:#918b4b"/></g></g></g><g transform="matrix(1.0000153,0,0,1,-49.80076,-48.721647)" id="g26"><g id="g28"><g id="Layer0_0_MEMBER_3_MEMBER_0_FILL"><path class="st1" d="m 2148.4,141 4.4,-5.4 4.1,5.6 -4.1,-8.5 -4.4,8.3 z" id="path31" inkscape:connector-curvature="0" style="fill:#918b4b"/></g></g></g><g transform="matrix(1.0000153,0,0,1,-49.80076,-48.721647)" id="g33"><g id="g35"><g id="Layer0_0_MEMBER_4_MEMBER_0_FILL"><path class="st1" d="m 2184.9,136.9 4.5,6.2 -4.5,-9.4 -4.8,9.2 4.8,-6 z" id="path38" inkscape:connector-curvature="0" style="fill:#918b4b"/></g></g></g><g transform="matrix(1.0000153,0,0,1,-49.80076,-48.721647)" id="g40"><g id="g42"><g id="Layer0_0_MEMBER_5_MEMBER_0_FILL"><path class="st1" d="m 2208.8,127 4.8,6.7 -4.8,-10.2 -5.2,10 5.2,-6.5 z" id="path45" inkscape:connector-curvature="0" style="fill:#918b4b"/></g></g></g><g transform="matrix(1.0000153,0,0,1,-49.80076,-48.721647)" id="g47"><g id="g49"><g id="Layer0_0_MEMBER_6_MEMBER_0_FILL"><path class="st1" d="m 2244.3,137.8 2.8,3.9 -2.8,-6 -3.1,5.9 3.1,-3.8 z" id="path52" inkscape:connector-curvature="0" style="fill:#918b4b"/></g></g></g><g transform="matrix(1.0000153,0,0,1,-49.80076,-48.721647)" id="g54"><g id="g56"><g id="Layer0_0_MEMBER_7_MEMBER_0_FILL"><path class="st1" d="m 2270.3,133.5 5.1,-6.4 4.8,6.6 -4.8,-10 -5.1,9.8 z" id="path59" inkscape:connector-curvature="0" style="fill:#918b4b"/></g></g></g><g transform="matrix(1.0000153,0,0,1,-49.80076,-48.721647)" id="g61"><g id="g63"><g id="Layer0_0_MEMBER_8_MEMBER_0_FILL"><path class="st1" d="m 2302.2,140 4.6,6.4 -4.6,-9.7 -5,9.4 5,-6.1 z" id="path66" inkscape:connector-curvature="0" style="fill:#918b4b"/></g></g></g><g transform="matrix(1.0000153,0,0,1,-49.80076,-48.721647)" id="g68"><g id="g70"><g id="Layer0_0_MEMBER_9_MEMBER_0_FILL"><path class="st1" d="m 2323.4,131.8 5.2,7.2 -5.2,-11.1 -5.7,10.9 5.7,-7 z" id="path73" inkscape:connector-curvature="0" style="fill:#918b4b"/></g></g></g><g transform="matrix(1.0000153,0,0,1,-49.80076,-48.721647)" id="g75"><g id="g77"><g id="Layer0_0_MEMBER_10_MEMBER_0_FILL"><path class="st1" d="m 2366.1,133.3 4.1,5.7 -4.1,-8.6 -4.4,8.4 4.4,-5.5 z" id="path80" inkscape:connector-curvature="0" style="fill:#918b4b"/></g></g></g><g transform="matrix(1.0000153,0,0,1,-49.80076,-48.721647)" id="g82"><g id="g84"><g id="Layer0_0_MEMBER_11_MEMBER_0_FILL"><path class="st1" d="m 2397.6,142.2 5.1,7.2 -5.1,-10.8 -5.6,10.6 5.6,-7 z" id="path87" inkscape:connector-curvature="0" style="fill:#918b4b"/></g></g></g><g transform="matrix(1.0000153,0,0,1,-49.80076,-48.721647)" id="g89"><g id="g91"><g id="Layer0_0_MEMBER_12_MEMBER_0_FILL"><path class="st1" d="m 2429.5,148.8 2.9,4.1 -2.9,-6.2 -3.2,6.1 3.2,-4 z" id="path94" inkscape:connector-curvature="0" style="fill:#918b4b"/></g></g></g><g transform="matrix(1.0000153,0,0,1,-49.80076,-48.721647)" id="g96"><g id="g98"><g id="Layer0_0_MEMBER_13_MEMBER_0_FILL"><path class="st1" d="m 2452.3,136.7 2.6,3.7 -2.6,-5.6 -2.9,5.4 2.9,-3.5 z" id="path101" inkscape:connector-curvature="0" style="fill:#918b4b"/></g></g></g><g transform="matrix(1.0000153,0,0,1,-49.80076,-48.721647)" id="g103"><g id="g105"><g id="Layer0_0_MEMBER_14_MEMBER_0_FILL"><path class="st1" d="m 2468.9,82.1 2.6,3.7 -2.6,-5.6 -2.9,5.5 2.9,-3.6 z" id="path108" inkscape:connector-curvature="0" style="fill:#918b4b"/></g></g></g><g transform="matrix(1.0000153,0,0,1,-49.80076,-48.721647)" id="g110"><g id="g112"><g id="Layer0_0_MEMBER_15_MEMBER_0_FILL"><path class="st1" d="m 2483,137 5.4,7.4 -5.4,-11.3 -5.8,11.1 5.8,-7.2 z" id="path115" inkscape:connector-curvature="0" style="fill:#918b4b"/></g></g></g><g transform="matrix(1.0000153,0,0,1,-49.80076,-48.721647)" id="g117"><g id="g119"><g id="Layer0_0_MEMBER_16_MEMBER_0_FILL"><path class="st1" d="m 2509.7,136 6.1,-7.5 5.6,7.8 -5.6,-11.8 -6.1,11.5 z" id="path122" inkscape:connector-curvature="0" style="fill:#918b4b"/></g></g></g><g transform="matrix(1.0000153,0,0,1,-49.80076,-48.721647)" id="g124"><g id="g126"><g id="Layer0_0_MEMBER_17_MEMBER_0_FILL"><path class="st1" d="m 2541.6,142.6 4.7,6.6 -4.7,-10 -5.2,9.8 5.2,-6.4 z" id="path129" inkscape:connector-curvature="0" style="fill:#918b4b"/></g></g></g><g transform="matrix(1.0000153,0,0,1,-49.80076,-48.721647)" id="g131"><g id="g133"><g id="Layer0_0_MEMBER_18_MEMBER_0_FILL"><path class="st1" d="m 2272.4,146.3 5.4,7.4 -5.4,-11.2 -5.8,11.1 5.8,-7.3 z" id="path136" inkscape:connector-curvature="0" style="fill:#918b4b"/></g></g></g><g transform="matrix(1.0000153,0,0,1,-49.80076,-48.721647)" id="g138"><g id="g140"><g id="Layer0_0_MEMBER_19_MEMBER_0_FILL"><path class="st1" d="m 2503.2,149.3 3.1,4.2 -3.1,-6.4 -3.3,6.3 3.3,-4.1 z" id="path143" inkscape:connector-curvature="0" style="fill:#918b4b"/></g></g></g><g transform="matrix(1.0000153,0,0,1,-49.80076,-48.721647)" id="g145"><g id="g147"><g id="Layer0_0_MEMBER_20_MEMBER_0_FILL"><path class="st1" d="m 2214.4,145.3 5.2,7.2 -5.2,-11 -5.6,10.8 5.6,-7 z" id="path150" inkscape:connector-curvature="0" style="fill:#918b4b"/></g></g></g><g transform="matrix(1.0000153,0,0,1,-49.80076,-48.721647)" id="g152"><g id="g154"><g id="Layer0_0_MEMBER_21_MEMBER_0_FILL"><path class="st1" d="m 2544.4,115.7 3,4.1 -3,-6.2 -3.1,6 3.1,-3.9 z" id="path157" inkscape:connector-curvature="0" style="fill:#918b4b"/></g></g></g><g transform="matrix(1.0000153,0,0,1,-49.80076,-48.721647)" id="g159"><g id="g161"><g id="Layer0_0_MEMBER_22_MEMBER_0_FILL"><path class="st1" d="m 2515,111.3 2.6,3.7 -2.6,-5.5 -2.9,5.4 2.9,-3.6 z" id="path164" inkscape:connector-curvature="0" style="fill:#918b4b"/></g></g></g><g transform="matrix(1.0000153,0,0,1,-49.80076,-48.721647)" id="g166"><g id="g168"><g id="Layer0_0_MEMBER_23_MEMBER_0_FILL"><path class="st1" d="m 2483.9,118.3 4.5,6.3 -4.5,-9.6 -5,9.4 5,-6.1 z" id="path171" inkscape:connector-curvature="0" style="fill:#918b4b"/></g></g></g><g transform="matrix(1.0000153,0,0,1,-49.80076,-48.721647)" id="g173"><g id="g175"><g id="Layer0_0_MEMBER_24_MEMBER_0_FILL"><path class="st1" d="m 2446.3,114.4 4.6,6.5 -4.6,-9.8 -5.1,9.5 5.1,-6.2 z" id="path178" inkscape:connector-curvature="0" style="fill:#918b4b"/></g></g></g><g transform="matrix(1.0000153,0,0,1,-49.80076,-48.721647)" id="g180"><g id="g182"><g id="Layer0_0_MEMBER_25_MEMBER_0_FILL"><path class="st1" d="m 2417.8,117.1 3.4,4.8 -3.4,-7.3 -3.8,7.2 3.8,-4.7 z" id="path185" inkscape:connector-curvature="0" style="fill:#918b4b"/></g></g></g><g transform="matrix(1.0000153,0,0,1,-49.80076,-48.721647)" id="g187"><g id="g189"><g id="Layer0_0_MEMBER_26_MEMBER_0_FILL"><path class="st1" d="m 2394.5,123.8 2.7,3.7 -2.7,-5.6 -2.9,5.5 2.9,-3.6 z" id="path192" inkscape:connector-curvature="0" style="fill:#918b4b"/></g></g></g><g transform="matrix(1.0000153,0,0,1,-49.80076,-48.721647)" id="g194"><g id="g196"><g id="Layer0_0_MEMBER_27_MEMBER_0_FILL"><path class="st1" d="m 2516.1,95.4 2.9,-3.6 2.7,3.7 -2.7,-5.6 -2.9,5.5 z" id="path199" inkscape:connector-curvature="0" style="fill:#918b4b"/></g></g></g><g transform="matrix(1.0000153,0,0,1,-49.80076,-48.721647)" id="g201"><g id="g203"><g id="Layer0_0_MEMBER_28_MEMBER_0_FILL"><path class="st1" d="m 2340.5,59.6 2.7,3.7 -2.7,-5.6 -2.9,5.5 2.9,-3.6 z" id="path206" inkscape:connector-curvature="0" style="fill:#918b4b"/></g></g></g><g transform="matrix(1.0000153,0,0,1,-49.80076,-48.721647)" id="g208"><g id="g210"><g id="Layer0_0_MEMBER_29_MEMBER_0_FILL"><path class="st1" d="m 2371.3,113.3 2.8,3.8 -2.8,-5.8 -3,5.7 3,-3.7 z" id="path213" inkscape:connector-curvature="0" style="fill:#918b4b"/></g></g></g><g transform="matrix(1.0000153,0,0,1,-49.80076,-48.721647)" id="g215"><g id="g217"><g id="Layer0_0_MEMBER_30_MEMBER_0_FILL"><path class="st1" d="m 2426.8,132.8 2.8,3.9 -2.8,-5.8 -3,5.6 3,-3.7 z" id="path220" inkscape:connector-curvature="0" style="fill:#918b4b"/></g></g></g><g transform="matrix(1.0000153,0,0,1,-49.80076,-48.721647)" id="g222"><g id="g224"><g id="Layer0_0_MEMBER_31_MEMBER_0_FILL"><path class="st1" d="m 2341.3,122.4 3.4,4.8 -3.4,-7.2 -3.8,7.1 3.8,-4.7 z" id="path227" inkscape:connector-curvature="0" style="fill:#918b4b"/></g></g></g><g transform="matrix(1.0000153,0,0,1,-49.80076,-48.721647)" id="g229"><g id="g231"><g id="Layer0_0_MEMBER_32_MEMBER_0_FILL"><path class="st1" d="m 2309.4,112 3.2,4.4 -3.2,-6.7 -3.4,6.6 3.4,-4.3 z" id="path234" inkscape:connector-curvature="0" style="fill:#918b4b"/></g></g></g><g transform="matrix(1.0000153,0,0,1,-49.80076,-48.721647)" id="g236"><g id="g238"><g id="Layer0_0_MEMBER_33_MEMBER_0_FILL"><path class="st1" d="m 2314,58.6 3.2,4.4 -3.2,-6.7 -3.4,6.5 3.4,-4.2 z" id="path241" inkscape:connector-curvature="0" style="fill:#918b4b"/></g></g></g><g transform="matrix(1.0000153,0,0,1,-49.80076,-48.721647)" id="g243"><g id="g245"><g id="Layer0_0_MEMBER_34_MEMBER_0_FILL"><path class="st1" d="m 2265.4,70.9 3.1,4.4 -3.1,-6.7 -3.5,6.5 3.5,-4.2 z" id="path248" inkscape:connector-curvature="0" style="fill:#918b4b"/></g></g></g><g transform="matrix(1.0000153,0,0,1,-49.80076,-48.721647)" id="g250"><g id="g252"><g id="Layer0_0_MEMBER_35_MEMBER_0_FILL"><path class="st1" d="m 2245,153.1 3.2,4.4 -3.2,-6.7 -3.4,6.6 3.4,-4.3 z" id="path255" inkscape:connector-curvature="0" style="fill:#918b4b"/></g></g></g><g transform="matrix(1.0000153,0,0,1,-49.80076,-48.721647)" id="g257"><g id="g259"><g id="Layer0_0_MEMBER_36_MEMBER_0_FILL"><path class="st1" d="m 2257,53.1 3.2,4.4 -3.2,-6.7 -3.4,6.5 3.4,-4.2 z" id="path262" inkscape:connector-curvature="0" style="fill:#918b4b"/></g></g></g><g transform="matrix(1.0000153,0,0,1,-49.80076,-48.721647)" id="g264"><g id="g266"><g id="Layer0_0_MEMBER_37_MEMBER_0_FILL"><path class="st1" d="m 2279.1,107.1 5,6.9 -5,-10.5 -5.4,10.3 5.4,-6.7 z" id="path269" inkscape:connector-curvature="0" style="fill:#918b4b"/></g></g></g><g transform="matrix(1.0000153,0,0,1,-49.80076,-48.721647)" id="g271"><g id="g273"><g id="Layer0_0_MEMBER_38_MEMBER_0_FILL"><path class="st1" d="m 2249.2,117.4 5.2,7.3 -5.2,-11.1 -5.8,10.8 5.8,-7 z" id="path276" inkscape:connector-curvature="0" style="fill:#918b4b"/></g></g></g><g transform="matrix(1.0000153,0,0,1,-49.80076,-48.721647)" id="g278"><g id="g280"><g id="Layer0_0_MEMBER_39_MEMBER_0_FILL"><path class="st1" d="m 2224.8,116.1 4.6,6.3 -4.6,-9.6 -5,9.4 5,-6.1 z" id="path283" inkscape:connector-curvature="0" style="fill:#918b4b"/></g></g></g><g transform="matrix(1.0000153,0,0,1,-49.80076,-48.721647)" id="g285"><g id="g287"><g id="Layer0_0_MEMBER_40_MEMBER_0_FILL"><path class="st1" d="m 2192.1,115 3.4,4.8 -3.4,-7.2 -3.8,7.1 3.8,-4.7 z" id="path290" inkscape:connector-curvature="0" style="fill:#918b4b"/></g></g></g><g transform="matrix(1.0000153,0,0,1,-49.80076,-48.721647)" id="g292"><g id="g294"><g id="Layer0_0_MEMBER_41_MEMBER_0_FILL"><path class="st1" d="m 2460,152.1 3.4,4.8 -3.4,-7.2 -3.7,7 3.7,-4.6 z" id="path297" inkscape:connector-curvature="0" style="fill:#918b4b"/></g></g></g><g transform="matrix(1.0000153,0,0,1,-49.80076,-48.721647)" id="g299"><g id="g301"><g id="Layer0_0_MEMBER_42_MEMBER_0_FILL"><path class="st1" d="m 2158.4,106.3 4.8,6.6 -4.8,-10 -5.2,9.8 5.2,-6.4 z" id="path304" inkscape:connector-curvature="0" style="fill:#918b4b"/></g></g></g><g transform="matrix(1.0000153,0,0,1,-49.80076,-48.721647)" id="g306"><g id="g308"><g id="Layer0_0_MEMBER_43_MEMBER_0_FILL"><path class="st1" d="m 2129.3,110.8 3,4.2 -3,-6.3 -3.3,6.2 3.3,-4.1 z" id="path311" inkscape:connector-curvature="0" style="fill:#918b4b"/></g></g></g><g transform="matrix(1.0000153,0,0,1,-49.80076,-48.721647)" id="g313"><g id="g315"><g id="Layer0_0_MEMBER_44_MEMBER_0_FILL"><path class="st1" d="m 2060.6,123.2 3,4.2 -3,-6.3 -3.2,6.2 3.2,-4.1 z" id="path318" inkscape:connector-curvature="0" style="fill:#918b4b"/></g></g></g><g transform="matrix(1.0000153,0,0,1,-49.80076,-48.721647)" id="g320"><g id="g322"><g id="Layer0_0_MEMBER_45_MEMBER_0_FILL"><path class="st1" d="m 2102.3,113.9 5.5,7.7 -5.5,-11.6 -5.9,11.3 5.9,-7.4 z" id="path325" inkscape:connector-curvature="0" style="fill:#918b4b"/></g></g></g><g transform="matrix(1.0000153,0,0,1,-49.80076,-48.721647)" id="g327"><g id="g329"><g id="Layer0_0_MEMBER_46_MEMBER_0_FILL"><path class="st1" d="m 2078.5,110.7 4.2,5.8 -4.2,-8.8 -4.5,8.7 4.5,-5.7 z" id="path332" inkscape:connector-curvature="0" style="fill:#918b4b"/></g></g></g><g transform="matrix(1.0000153,0,0,1,-49.80076,-48.721647)" id="g334"><g id="g336"><g id="Layer0_0_MEMBER_47_MEMBER_0_FILL"><path class="st1" d="m 2064.8,91.6 4.4,6.1 -4.4,-9.2 -4.8,9 4.8,-5.9 z" id="path339" inkscape:connector-curvature="0" style="fill:#918b4b"/></g></g></g><g transform="matrix(1.0000153,0,0,1,-49.80076,-48.721647)" id="g341"><g id="g343"><g id="Layer0_0_MEMBER_48_MEMBER_0_FILL"><path class="st1" d="m 2096.5,89 4.9,6.8 -4.9,-10.2 -5.2,10.1 5.2,-6.7 z" id="path346" inkscape:connector-curvature="0" style="fill:#918b4b"/></g></g></g><g transform="matrix(1.0000153,0,0,1,-49.80076,-48.721647)" id="g348"><g id="g350"><g id="Layer0_0_MEMBER_49_MEMBER_0_FILL"><path class="st1" d="m 2116.5,94.5 5.7,7.9 -5.7,-12 -6.2,11.8 6.2,-7.7 z" id="path353" inkscape:connector-curvature="0" style="fill:#918b4b"/></g></g></g><g transform="matrix(1.0000153,0,0,1,-49.80076,-48.721647)" id="g355"><g id="g357"><g id="Layer0_0_MEMBER_50_MEMBER_0_FILL"><path class="st1" d="m 2146.7,89.8 3.7,5.2 -3.7,-7.9 -4,7.7 4,-5 z" id="path360" inkscape:connector-curvature="0" style="fill:#918b4b"/></g></g></g><g transform="matrix(1.0000153,0,0,1,-49.80076,-48.721647)" id="g362"><g id="g364"><g id="Layer0_0_MEMBER_51_MEMBER_0_FILL"><path class="st1" d="m 2177.4,75.9 3.2,4.5 -3.2,-6.8 -3.6,6.7 3.6,-4.4 z" id="path367" inkscape:connector-curvature="0" style="fill:#918b4b"/></g></g></g><g transform="matrix(1.0000153,0,0,1,-49.80076,-48.721647)" id="g369"><g id="g371"><g id="Layer0_0_MEMBER_52_MEMBER_0_FILL"><path class="st1" d="m 2188.9,63.4 3.2,4.5 -3.2,-6.8 -3.6,6.7 3.6,-4.4 z" id="path374" inkscape:connector-curvature="0" style="fill:#918b4b"/></g></g></g><g transform="matrix(1.0000153,0,0,1,-49.80076,-48.721647)" id="g376"><g id="g378"><g id="Layer0_0_MEMBER_53_MEMBER_0_FILL"><path class="st1" d="m 2198,100.3 3.2,4.4 -3.2,-6.7 -3.4,6.6 3.4,-4.3 z" id="path381" inkscape:connector-curvature="0" style="fill:#918b4b"/></g></g></g><g transform="matrix(1.0000153,0,0,1,-49.80076,-48.721647)" id="g383"><g id="g385"><g id="Layer0_0_MEMBER_54_MEMBER_0_FILL"><path class="st1" d="m 2241.3,103.3 2.6,3.8 -2.6,-5.7 -2.9,5.6 2.9,-3.7 z" id="path388" inkscape:connector-curvature="0" style="fill:#918b4b"/></g></g></g><g transform="matrix(1.0000153,0,0,1,-49.80076,-48.721647)" id="g390"><g id="g392"><g id="Layer0_0_MEMBER_55_MEMBER_0_FILL"><path class="st1" d="m 2221.2,94.3 2.7,3.8 -2.7,-5.7 -2.9,5.6 2.9,-3.7 z" id="path395" inkscape:connector-curvature="0" style="fill:#918b4b"/></g></g></g><g transform="matrix(1.0000153,0,0,1,-49.80076,-48.721647)" id="g397"><g id="g399"><g id="Layer0_0_MEMBER_56_MEMBER_0_FILL"><path class="st1" d="m 2067.5,150.8 2.7,3.8 -2.7,-5.6 -2.9,5.5 2.9,-3.7 z" id="path402" inkscape:connector-curvature="0" style="fill:#918b4b"/></g></g></g><g transform="matrix(1.0000153,0,0,1,-49.80076,-48.721647)" id="g404"><g id="g406"><g id="Layer0_0_MEMBER_57_MEMBER_0_FILL"><path class="st1" d="m 2271.5,90.3 4.4,-5.5 4.1,5.7 -4.1,-8.6 -4.4,8.4 z" id="path409" inkscape:connector-curvature="0" style="fill:#918b4b"/></g></g></g><g transform="matrix(1.0000153,0,0,1,-49.80076,-48.721647)" id="g411"><g id="g413"><g id="Layer0_0_MEMBER_58_MEMBER_0_FILL"><path class="st1" d="m 2287,59.5 4.1,5.7 -4.1,-8.6 -4.4,8.4 4.4,-5.5 z" id="path416" inkscape:connector-curvature="0" style="fill:#918b4b"/></g></g></g><g transform="matrix(1.0000153,0,0,1,-49.80076,-48.721647)" id="g418"><g id="g420"><g id="Layer0_0_MEMBER_59_MEMBER_0_FILL"><path class="st1" d="m 2301.6,97.7 4.9,6.9 -4.9,-10.4 -5.4,10.2 5.4,-6.7 z" id="path423" inkscape:connector-curvature="0" style="fill:#918b4b"/></g></g></g><g transform="matrix(1.0000153,0,0,1,-49.80076,-48.721647)" id="g425"><g id="g427"><g id="Layer0_0_MEMBER_60_MEMBER_0_FILL"><path class="st1" d="m 2334.9,101.2 3.6,5 -3.6,-7.5 -3.9,7.4 3.9,-4.9 z" id="path430" inkscape:connector-curvature="0" style="fill:#918b4b"/></g></g></g><g transform="matrix(1.0000153,0,0,1,-49.80076,-48.721647)" id="g432"><g id="g434"><g id="Layer0_0_MEMBER_61_MEMBER_0_FILL"><path class="st1" d="m 2360.5,99.1 4.9,6.8 -4.9,-10.3 -5.4,10.1 5.4,-6.6 z" id="path437" inkscape:connector-curvature="0" style="fill:#918b4b"/></g></g></g><g transform="matrix(1.0000153,0,0,1,-49.80076,-48.721647)" id="g439"><g id="g441"><g id="Layer0_0_MEMBER_62_MEMBER_0_FILL"><path class="st1" d="m 2394.2,99.7 3,4.1 -3,-6.2 -3.2,6.2 3.2,-4.1 z" id="path444" inkscape:connector-curvature="0" style="fill:#918b4b"/></g></g></g><g transform="matrix(1.0000153,0,0,1,-49.80076,-48.721647)" id="g446"><g id="g448"><g id="Layer0_0_MEMBER_63_MEMBER_0_FILL"><path class="st1" d="m 2425.3,91.2 4.7,6.5 -4.7,-9.9 -5.1,9.7 5.1,-6.3 z" id="path451" inkscape:connector-curvature="0" style="fill:#918b4b"/></g></g></g><g transform="matrix(1.0000153,0,0,1,-49.80076,-48.721647)" id="g453"><g id="g455"><g id="Layer0_0_MEMBER_64_MEMBER_0_FILL"><path class="st1" d="m 2453.3,97.6 5.2,7.3 -5.2,-11.1 -5.7,10.9 5.7,-7.1 z" id="path458" inkscape:connector-curvature="0" style="fill:#918b4b"/></g></g></g><g transform="matrix(1.0000153,0,0,1,-49.80076,-48.721647)" id="g460"><g id="g462"><g id="Layer0_0_MEMBER_65_MEMBER_0_FILL"><path class="st1" d="m 2474.1,107.6 3.6,-4.6 3.4,4.7 -3.4,-7.1 -3.6,7 z" id="path465" inkscape:connector-curvature="0" style="fill:#918b4b"/></g></g></g><g transform="matrix(1.0000153,0,0,1,-49.80076,-48.721647)" id="g467"><g id="g469"><g id="Layer0_0_MEMBER_66_MEMBER_0_FILL"><path class="st1" d="m 2502.7,102.3 3.4,4.7 -3.4,-7.1 -3.6,6.9 3.6,-4.5 z" id="path472" inkscape:connector-curvature="0" style="fill:#918b4b"/></g></g></g><g transform="matrix(1.0000153,0,0,1,-49.80076,-48.721647)" id="g474"><g id="g476"><g id="Layer0_0_MEMBER_67_MEMBER_0_FILL"><path class="st1" d="m 2536.2,100.2 4.3,6 -4.3,-9.1 -4.7,8.9 4.7,-5.8 z" id="path479" inkscape:connector-curvature="0" style="fill:#918b4b"/></g></g></g><g transform="matrix(1.0000153,0,0,1,-49.80076,-48.721647)" id="g481"><g id="g483"><g id="Layer0_0_MEMBER_68_MEMBER_0_FILL"><path class="st1" d="m 2076,132.4 5.8,8 -5.8,-12.1 -6.2,11.9 6.2,-7.8 z" id="path486" inkscape:connector-curvature="0" style="fill:#918b4b"/></g></g></g><g transform="matrix(1.0000153,0,0,1,-49.80076,-48.721647)" id="g488"><g id="g490"><g id="Layer0_0_MEMBER_69_MEMBER_0_FILL"><path class="st1" d="m 2105.7,157.7 6.2,-7.8 5.8,8 -5.8,-12.1 -6.2,11.9 z" id="path493" inkscape:connector-curvature="0" style="fill:#918b4b"/></g></g></g><g transform="matrix(1.0000153,0,0,1,-49.80076,-48.721647)" id="g495"><g id="g497"><g id="Layer0_0_MEMBER_70_MEMBER_0_FILL"><path class="st1" d="m 2318.5,152.5 3.6,5 -3.6,-7.6 -3.9,7.4 3.9,-4.8 z" id="path500" inkscape:connector-curvature="0" style="fill:#918b4b"/></g></g></g><g transform="matrix(1.0000153,0,0,1,-49.80076,-48.721647)" id="g502"><g id="g504"><g id="Layer0_0_MEMBER_71_MEMBER_0_FILL"><path class="st1" d="m 2347.4,148.3 4.9,6.9 -4.9,-10.4 -5.4,10.2 5.4,-6.7 z" id="path507" inkscape:connector-curvature="0" style="fill:#918b4b"/></g></g></g><g transform="matrix(1.0000153,0,0,1,-49.80076,-48.721647)" id="g509"><g id="g511"><g id="Layer0_0_MEMBER_72_MEMBER_0_FILL"><path class="st1" d="m 2136.2,147.3 3.1,4.2 -3.1,-6.4 -3.3,6.3 3.3,-4.1 z" id="path514" inkscape:connector-curvature="0" style="fill:#918b4b"/></g></g></g><g transform="matrix(1.0000153,0,0,1,-49.80076,-48.721647)" id="g516"><g id="g518"><g id="Layer0_0_MEMBER_73_MEMBER_0_FILL"><path class="st1" d="m 2524,150 4.8,6.6 -4.8,-10 -5.1,9.8 5.1,-6.4 z" id="path521" inkscape:connector-curvature="0" style="fill:#918b4b"/></g></g></g><g transform="matrix(1.0000153,0,0,1,-49.80076,-48.721647)" id="g523"><g id="g525"><g id="Layer0_0_MEMBER_74_MEMBER_0_FILL"><path class="st1" d="m 2496.2,85.7 3.2,4.3 -3.2,-6.5 -3.3,6.4 3.3,-4.2 z" id="path528" inkscape:connector-curvature="0" style="fill:#918b4b"/></g></g></g><g transform="matrix(1.0000153,0,0,1,-49.80076,-48.721647)" id="g530"><g id="g532"><g id="Layer0_0_MEMBER_75_MEMBER_0_FILL"><path class="st1" d="m 2375.5,152.1 3.4,4.6 -3.4,-7.1 -3.6,6.9 3.6,-4.4 z" id="path535" inkscape:connector-curvature="0" style="fill:#918b4b"/></g></g></g><g transform="matrix(1.0000153,0,0,1,-49.80076,-48.721647)" id="g537"><g id="g539"><g id="Layer0_0_MEMBER_76_MEMBER_0_FILL"><path class="st1" d="m 2446,81.1 2.8,4 -2.8,-5.9 -3.1,5.8 3.1,-3.9 z" id="path542" inkscape:connector-curvature="0" style="fill:#918b4b"/></g></g></g><g transform="matrix(1.0000153,0,0,1,-49.80076,-48.721647)" id="g544"><g id="g546"><g id="Layer0_0_MEMBER_77_MEMBER_0_FILL"><path class="st1" d="m 2414,74.6 5.4,7.5 -5.4,-11.3 -5.8,11.2 5.8,-7.4 z" id="path549" inkscape:connector-curvature="0" style="fill:#918b4b"/></g></g></g><g transform="matrix(1.0000153,0,0,1,-49.80076,-48.721647)" id="g551"><g id="g553"><g id="Layer0_0_MEMBER_78_MEMBER_0_FILL"><path class="st1" d="m 2383.5,73.6 5.4,7.6 -5.4,-11.4 -5.9,11.2 5.9,-7.4 z" id="path556" inkscape:connector-curvature="0" style="fill:#918b4b"/></g></g></g><g transform="matrix(1.0000153,0,0,1,-49.80076,-48.721647)" id="g558"><g id="g560"><g id="Layer0_0_MEMBER_79_MEMBER_0_FILL"><path class="st1" d="m 2348.5,71.7 5.2,7.1 -5.2,-10.8 -5.6,10.6 5.6,-6.9 z" id="path563" inkscape:connector-curvature="0" style="fill:#918b4b"/></g></g></g><g transform="matrix(1.0000153,0,0,1,-49.80076,-48.721647)" id="g565"><g id="g567"><g id="Layer0_0_MEMBER_80_MEMBER_0_FILL"><path class="st1" d="m 2322.5,79.7 5,6.9 -5,-10.4 -5.4,10.2 5.4,-6.7 z" id="path570" inkscape:connector-curvature="0" style="fill:#918b4b"/></g></g></g><g transform="matrix(1.0000153,0,0,1,-49.80076,-48.721647)" id="g572"><g id="g574"><g id="Layer0_0_MEMBER_81_MEMBER_0_FILL"><path class="st1" d="m 2297.6,77.1 5.8,8 -5.8,-12.1 -6.2,11.8 6.2,-7.7 z" id="path577" inkscape:connector-curvature="0" style="fill:#918b4b"/></g></g></g><g transform="matrix(1.0000153,0,0,1,-49.80076,-48.721647)" id="g579"><g id="g581"><g id="Layer0_0_MEMBER_82_MEMBER_0_FILL"><path class="st1" d="m 2259.9,93.9 3.9,5.4 -3.9,-8.2 -4.2,8.1 4.2,-5.3 z" id="path584" inkscape:connector-curvature="0" style="fill:#918b4b"/></g></g></g><g transform="matrix(1.0000153,0,0,1,-49.80076,-48.721647)" id="g586"><g id="g588"><g id="Layer0_0_MEMBER_83_MEMBER_0_FILL"><path class="st1" d="m 2239.7,75.6 5.4,7.4 -5.4,-11.3 -5.8,11.1 5.8,-7.2 z" id="path591" inkscape:connector-curvature="0" style="fill:#918b4b"/></g></g></g><g transform="matrix(1.0000153,0,0,1,-49.80076,-48.721647)" id="g593"><g id="g595"><g id="Layer0_0_MEMBER_84_MEMBER_0_FILL"><path class="st1" d="m 2207,75.2 3.1,4.4 -3.1,-6.6 -3.4,6.5 3.4,-4.3 z" id="path598" inkscape:connector-curvature="0" style="fill:#918b4b"/></g></g></g><g transform="matrix(1.0000153,0,0,1,-49.80076,-48.721647)" id="g600"><g id="g602"><g id="Layer0_0_MEMBER_85_MEMBER_0_FILL"><path class="st1" d="m 2228.5,60.1 3.2,4.4 -3.2,-6.6 -3.4,6.5 3.4,-4.3 z" id="path605" inkscape:connector-curvature="0" style="fill:#918b4b"/></g></g></g><g transform="matrix(1.0000153,0,0,1,-49.80076,-48.721647)" id="g607"><g id="g609"><g id="Layer0_0_MEMBER_86_MEMBER_0_FILL"><path class="st1" d="m 2186.1,89 4.1,5.8 -4.1,-8.8 -4.6,8.6 4.6,-5.6 z" id="path612" inkscape:connector-curvature="0" style="fill:#918b4b"/></g></g></g><g transform="matrix(1.0000153,0,0,1,-49.80076,-48.721647)" id="g614"><g id="g616"><g id="Layer0_0_MEMBER_87_MEMBER_0_FILL"><path class="st1" d="m 2149.8,78.2 3.5,-4.3 3.2,4.5 -3.2,-6.8 -3.5,6.6 z" id="path619" inkscape:connector-curvature="0" style="fill:#918b4b"/></g></g></g><g transform="matrix(1.0000153,0,0,1,-49.80076,-48.721647)" id="g621"><g id="g623"><g id="Layer0_0_MEMBER_88_MEMBER_0_FILL"><path class="st1" d="m 2174.5,149.9 5.7,7.9 -5.7,-11.9 -6.1,11.6 6.1,-7.6 z" id="path626" inkscape:connector-curvature="0" style="fill:#918b4b"/></g></g></g><g transform="matrix(1.0000153,0,0,1,-49.80076,-48.721647)" id="g628"><g id="g630"><g id="Layer0_0_MEMBER_89_MEMBER_0_FILL"><path class="st1" d="m 2132,77.6 3.4,4.8 -3.4,-7.3 -3.8,7.1 3.8,-4.6 z" id="path633" inkscape:connector-curvature="0" style="fill:#918b4b"/></g></g></g><g transform="matrix(1.0000153,0,0,1,-49.80076,-48.721647)" id="g635"><g id="g637"><g id="Layer0_0_MEMBER_90_MEMBER_0_FILL"><path class="st1" d="m 2060.5,106 3.6,4.9 -3.6,-7.5 -3.8,7.3 3.8,-4.7 z" id="path640" inkscape:connector-curvature="0" style="fill:#918b4b"/></g></g></g><g transform="matrix(1.0000153,0,0,1,-49.80076,-48.721647)" id="g642"><g id="g644"><g id="Layer0_1_MEMBER_0_MEMBER_0_FILL"><path class="st0" d="m 1050,159.3 v -40.1 c -10.7,0 -29.3,-1.2 -55.7,-3.5 -2.9,-0.3 -30,-2.8 -81.2,-7.8 C 834.7,100.4 778,96.7 743.1,96.7 718.4,96.7 683.7,95.5 639,92.9 594.3,90.4 564.6,89.1 549.9,89.1 v 70.1 H 1050 z" id="path647" inkscape:connector-curvature="0" style="fill:#aba254"/></g></g></g><g transform="matrix(1.0000153,0,0,1,-49.80076,-48.721647)" id="g649"><g id="g651"><g id="Layer0_1_MEMBER_1_MEMBER_0_FILL"><path class="st1" d="m 591.9,144 4.2,5.9 -4.2,-9 -4.6,8.8 4.6,-5.7 z" id="path654" inkscape:connector-curvature="0" style="fill:#918b4b"/></g></g></g><g transform="matrix(1.0000153,0,0,1,-49.80076,-48.721647)" id="g656"><g id="g658"><g id="Layer0_1_MEMBER_2_MEMBER_0_FILL"><path class="st1" d="m 621.1,130.8 5.2,7.1 -5.2,-10.8 -5.5,10.6 5.5,-6.9 z" id="path661" inkscape:connector-curvature="0" style="fill:#918b4b"/></g></g></g><g transform="matrix(1.0000153,0,0,1,-49.80076,-48.721647)" id="g663"><g id="g665"><g id="Layer0_1_MEMBER_3_MEMBER_0_FILL"><path class="st1" d="m 652.9,135.5 4.1,5.6 -4.1,-8.5 -4.4,8.3 4.4,-5.4 z" id="path668" inkscape:connector-curvature="0" style="fill:#918b4b"/></g></g></g><g transform="matrix(1.0000153,0,0,1,-49.80076,-48.721647)" id="g670"><g id="g672"><g id="Layer0_1_MEMBER_4_MEMBER_0_FILL"><path class="st1" d="m 684.9,136.9 4.5,6.2 -4.5,-9.4 -4.8,9.2 4.8,-6 z" id="path675" inkscape:connector-curvature="0" style="fill:#918b4b"/></g></g></g><g transform="matrix(1.0000153,0,0,1,-49.80076,-48.721647)" id="g677"><g id="g679"><g id="Layer0_1_MEMBER_5_MEMBER_0_FILL"><path class="st1" d="m 708.8,127 4.8,6.7 -4.8,-10.2 -5.2,10 5.2,-6.5 z" id="path682" inkscape:connector-curvature="0" style="fill:#918b4b"/></g></g></g><g transform="matrix(1.0000153,0,0,1,-49.80076,-48.721647)" id="g684"><g id="g686"><g id="Layer0_1_MEMBER_6_MEMBER_0_FILL"><path class="st1" d="m 744.4,137.8 2.9,3.9 -2.9,-6 -3.1,5.9 3.1,-3.8 z" id="path689" inkscape:connector-curvature="0" style="fill:#918b4b"/></g></g></g><g transform="matrix(1.0000153,0,0,1,-49.80076,-48.721647)" id="g691"><g id="g693"><g id="Layer0_1_MEMBER_7_MEMBER_0_FILL"><path class="st1" d="m 770.4,133.5 5.2,-6.4 4.8,6.6 -4.8,-10 -5.2,9.8 z" id="path696" inkscape:connector-curvature="0" style="fill:#918b4b"/></g></g></g><g transform="matrix(1.0000153,0,0,1,-49.80076,-48.721647)" id="g698"><g id="g700"><g id="Layer0_1_MEMBER_8_MEMBER_0_FILL"><path class="st1" d="m 802.3,140 4.6,6.4 -4.6,-9.7 -5,9.4 5,-6.1 z" id="path703" inkscape:connector-curvature="0" style="fill:#918b4b"/></g></g></g><g transform="matrix(1.0000153,0,0,1,-49.80076,-48.721647)" id="g705"><g id="g707"><g id="Layer0_1_MEMBER_9_MEMBER_0_FILL"><path class="st1" d="m 823.5,131.8 5.2,7.2 -5.2,-11.1 -5.7,10.9 5.7,-7 z" id="path710" inkscape:connector-curvature="0" style="fill:#918b4b"/></g></g></g><g transform="matrix(1.0000153,0,0,1,-49.80076,-48.721647)" id="g712"><g id="g714"><g id="Layer0_1_MEMBER_10_MEMBER_0_FILL"><path class="st1" d="m 866.1,133.3 4.1,5.7 -4.1,-8.6 -4.4,8.4 4.4,-5.5 z" id="path717" inkscape:connector-curvature="0" style="fill:#918b4b"/></g></g></g><g transform="matrix(1.0000153,0,0,1,-49.80076,-48.721647)" id="g719"><g id="g721"><g id="Layer0_1_MEMBER_11_MEMBER_0_FILL"><path class="st1" d="m 897.7,142.2 5.1,7.2 -5.1,-10.8 -5.6,10.6 5.6,-7 z" id="path724" inkscape:connector-curvature="0" style="fill:#918b4b"/></g></g></g><g transform="matrix(1.0000153,0,0,1,-49.80076,-48.721647)" id="g726"><g id="g728"><g id="Layer0_1_MEMBER_12_MEMBER_0_FILL"><path class="st1" d="m 929.5,148.8 3,4.1 -3,-6.2 -3.2,6.1 3.2,-4 z" id="path731" inkscape:connector-curvature="0" style="fill:#918b4b"/></g></g></g><g transform="matrix(1.0000153,0,0,1,-49.80076,-48.721647)" id="g733"><g id="g735"><g id="Layer0_1_MEMBER_13_MEMBER_0_FILL"><path class="st1" d="m 952.3,136.7 2.7,3.7 -2.7,-5.6 -2.9,5.4 2.9,-3.5 z" id="path738" inkscape:connector-curvature="0" style="fill:#918b4b"/></g></g></g><g transform="matrix(1.0000153,0,0,1,-49.80076,-48.721647)" id="g740"><g id="g742"><g id="Layer0_1_MEMBER_14_MEMBER_0_FILL"><path class="st1" d="m 983,137 5.3,7.4 -5.3,-11.3 -5.8,11.1 5.8,-7.2 z" id="path745" inkscape:connector-curvature="0" style="fill:#918b4b"/></g></g></g><g transform="matrix(1.0000153,0,0,1,-49.80076,-48.721647)" id="g747"><g id="g749"><g id="Layer0_1_MEMBER_15_MEMBER_0_FILL"><path class="st1" d="m 1015.9,128.5 5.6,7.8 -5.6,-11.8 -6.1,11.5 6.1,-7.5 z" id="path752" inkscape:connector-curvature="0" style="fill:#918b4b"/></g></g></g><g transform="matrix(1.0000153,0,0,1,-49.80076,-48.721647)" id="g754"><g id="g756"><g id="Layer0_1_MEMBER_16_MEMBER_0_FILL"><path class="st1" d="m 1041.7,142.6 4.7,6.6 -4.7,-10 -5.2,9.8 5.2,-6.4 z" id="path759" inkscape:connector-curvature="0" style="fill:#918b4b"/></g></g></g><g transform="matrix(1.0000153,0,0,1,-49.80076,-48.721647)" id="g761"><g id="g763"><g id="Layer0_1_MEMBER_17_MEMBER_0_FILL"><path class="st1" d="m 772.5,146.3 5.3,7.4 -5.3,-11.2 -5.8,11.1 5.8,-7.3 z" id="path766" inkscape:connector-curvature="0" style="fill:#918b4b"/></g></g></g><g transform="matrix(1.0000153,0,0,1,-49.80076,-48.721647)" id="g768"><g id="g770"><g id="Layer0_1_MEMBER_18_MEMBER_0_FILL"><path class="st1" d="m 1003.3,149.3 3.1,4.2 -3.1,-6.4 -3.3,6.3 3.3,-4.1 z" id="path773" inkscape:connector-curvature="0" style="fill:#918b4b"/></g></g></g><g transform="matrix(1.0000153,0,0,1,-49.80076,-48.721647)" id="g775"><g id="g777"><g id="Layer0_1_MEMBER_19_MEMBER_0_FILL"><path class="st1" d="m 714.5,145.3 5.2,7.2 -5.2,-11 -5.7,10.8 5.7,-7 z" id="path780" inkscape:connector-curvature="0" style="fill:#918b4b"/></g></g></g><g transform="matrix(1.0000153,0,0,1,-49.80076,-48.721647)" id="g782"><g id="g784"><g id="Layer0_1_MEMBER_20_MEMBER_0_FILL"><path class="st1" d="m 1041,124.1 2.9,4.1 -2.9,-6.2 -3.2,6.1 3.2,-4 z" id="path787" inkscape:connector-curvature="0" style="fill:#918b4b"/></g></g></g><g transform="matrix(1.0000153,0,0,1,-49.80076,-48.721647)" id="g789"><g id="g791"><g id="Layer0_1_MEMBER_21_MEMBER_0_FILL"><path class="st1" d="m 975.5,154.1 2.7,3.7 -2.7,-5.6 -2.8,5.4 2.8,-3.5 z" id="path794" inkscape:connector-curvature="0" style="fill:#918b4b"/></g></g></g><g transform="matrix(1.0000153,0,0,1,-49.80076,-48.721647)" id="g796"><g id="g798"><g id="Layer0_1_MEMBER_22_MEMBER_0_FILL"><path class="st1" d="m 983.9,118.3 4.5,6.3 -4.5,-9.6 -5,9.4 5,-6.1 z" id="path801" inkscape:connector-curvature="0" style="fill:#918b4b"/></g></g></g><g transform="matrix(1.0000153,0,0,1,-49.80076,-48.721647)" id="g803"><g id="g805"><g id="Layer0_1_MEMBER_23_MEMBER_0_FILL"><path class="st1" d="m 946.4,114.4 4.6,6.5 -4.6,-9.8 -5,9.5 5,-6.2 z" id="path808" inkscape:connector-curvature="0" style="fill:#918b4b"/></g></g></g><g transform="matrix(1.0000153,0,0,1,-49.80076,-48.721647)" id="g810"><g id="g812"><g id="Layer0_1_MEMBER_24_MEMBER_0_FILL"><path class="st1" d="m 917.8,117.1 3.5,4.8 -3.5,-7.3 -3.8,7.2 3.8,-4.7 z" id="path815" inkscape:connector-curvature="0" style="fill:#918b4b"/></g></g></g><g transform="matrix(1.0000153,0,0,1,-49.80076,-48.721647)" id="g817"><g id="g819"><g id="Layer0_1_MEMBER_25_MEMBER_0_FILL"><path class="st1" d="m 894.5,123.8 2.7,3.7 -2.7,-5.6 -2.9,5.5 2.9,-3.6 z" id="path822" inkscape:connector-curvature="0" style="fill:#918b4b"/></g></g></g><g transform="matrix(1.0000153,0,0,1,-49.80076,-48.721647)" id="g824"><g id="g826"><g id="Layer0_1_MEMBER_26_MEMBER_0_FILL"><path class="st1" d="m 871.3,113.3 2.8,3.8 -2.8,-5.8 -3,5.7 3,-3.7 z" id="path829" inkscape:connector-curvature="0" style="fill:#918b4b"/></g></g></g><g transform="matrix(1.0000153,0,0,1,-49.80076,-48.721647)" id="g831"><g id="g833"><g id="Layer0_1_MEMBER_27_MEMBER_0_FILL"><path class="st1" d="m 841.3,122.4 3.4,4.8 -3.4,-7.2 -3.8,7.1 3.8,-4.7 z" id="path836" inkscape:connector-curvature="0" style="fill:#918b4b"/></g></g></g><g transform="matrix(1.0000153,0,0,1,-49.80076,-48.721647)" id="g838"><g id="g840"><g id="Layer0_1_MEMBER_28_MEMBER_0_FILL"><path class="st1" d="m 809.5,112 3.2,4.4 -3.2,-6.7 -3.4,6.6 3.4,-4.3 z" id="path843" inkscape:connector-curvature="0" style="fill:#918b4b"/></g></g></g><g transform="matrix(1.0000153,0,0,1,-49.80076,-48.721647)" id="g845"><g id="g847"><g id="Layer0_1_MEMBER_29_MEMBER_0_FILL"><path class="st1" d="m 779.1,107.1 5,6.9 -5,-10.5 -5.4,10.3 5.4,-6.7 z" id="path850" inkscape:connector-curvature="0" style="fill:#918b4b"/></g></g></g><g transform="matrix(1.0000153,0,0,1,-49.80076,-48.721647)" id="g852"><g id="g854"><g id="Layer0_1_MEMBER_30_MEMBER_0_FILL"><path class="st1" d="m 749.2,117.4 5.2,7.3 -5.2,-11.1 -5.8,10.8 5.8,-7 z" id="path857" inkscape:connector-curvature="0" style="fill:#918b4b"/></g></g></g><g transform="matrix(1.0000153,0,0,1,-49.80076,-48.721647)" id="g859"><g id="g861"><g id="Layer0_1_MEMBER_31_MEMBER_0_FILL"><path class="st1" d="m 724.8,116.1 4.5,6.3 -4.5,-9.6 -5,9.4 5,-6.1 z" id="path864" inkscape:connector-curvature="0" style="fill:#918b4b"/></g></g></g><g transform="matrix(1.0000153,0,0,1,-49.80076,-48.721647)" id="g866"><g id="g868"><g id="Layer0_1_MEMBER_32_MEMBER_0_FILL"><path class="st1" d="m 692.2,115 3.4,4.8 -3.4,-7.2 -3.8,7.1 3.8,-4.7 z" id="path871" inkscape:connector-curvature="0" style="fill:#918b4b"/></g></g></g><g transform="matrix(1.0000153,0,0,1,-49.80076,-48.721647)" id="g873"><g id="g875"><g id="Layer0_1_MEMBER_33_MEMBER_0_FILL"><path class="st1" d="m 658.4,106.3 4.8,6.6 -4.8,-10 -5.2,9.8 5.2,-6.4 z" id="path878" inkscape:connector-curvature="0" style="fill:#918b4b"/></g></g></g><g transform="matrix(1.0000153,0,0,1,-49.80076,-48.721647)" id="g880"><g id="g882"><g id="Layer0_1_MEMBER_34_MEMBER_0_FILL"><path class="st1" d="m 629.3,110.8 3,4.2 -3,-6.3 -3.3,6.2 3.3,-4.1 z" id="path885" inkscape:connector-curvature="0" style="fill:#918b4b"/></g></g></g><g transform="matrix(1.0000153,0,0,1,-49.80076,-48.721647)" id="g887"><g id="g889"><g id="Layer0_1_MEMBER_35_MEMBER_0_FILL"><path class="st1" d="m 560.7,123.2 3,4.2 -3,-6.3 -3.2,6.2 3.2,-4.1 z" id="path892" inkscape:connector-curvature="0" style="fill:#918b4b"/></g></g></g><g transform="matrix(1.0000153,0,0,1,-49.80076,-48.721647)" id="g894"><g id="g896"><g id="Layer0_1_MEMBER_36_MEMBER_0_FILL"><path class="st1" d="m 602.4,113.9 5.5,7.7 -5.5,-11.6 -5.9,11.3 5.9,-7.4 z" id="path899" inkscape:connector-curvature="0" style="fill:#918b4b"/></g></g></g><g transform="matrix(1.0000153,0,0,1,-49.80076,-48.721647)" id="g901"><g id="g903"><g id="Layer0_1_MEMBER_37_MEMBER_0_FILL"><path class="st1" d="m 578.5,110.7 4.2,5.8 -4.2,-8.8 -4.5,8.7 4.5,-5.7 z" id="path906" inkscape:connector-curvature="0" style="fill:#918b4b"/></g></g></g><g transform="matrix(1.0000153,0,0,1,-49.80076,-48.721647)" id="g908"><g id="g910"><g id="Layer0_1_MEMBER_38_MEMBER_0_FILL"><path class="st1" d="m 564.9,91.6 4.4,6.1 -4.4,-9.2 -4.7,9 4.7,-5.9 z" id="path913" inkscape:connector-curvature="0" style="fill:#918b4b"/></g></g></g><g transform="matrix(1.0000153,0,0,1,-49.80076,-48.721647)" id="g915"><g id="g917"><g id="Layer0_1_MEMBER_39_MEMBER_0_FILL"><path class="st1" d="m 610.3,102.2 6.2,-7.7 5.7,7.9 -5.7,-12 -6.2,11.8 z" id="path920" inkscape:connector-curvature="0" style="fill:#918b4b"/></g></g></g><g transform="matrix(1.0000153,0,0,1,-49.80076,-48.721647)" id="g922"><g id="g924"><g id="Layer0_1_MEMBER_40_MEMBER_0_FILL"><path class="st1" d="m 698,100.3 3.2,4.4 -3.2,-6.7 -3.5,6.6 3.5,-4.3 z" id="path927" inkscape:connector-curvature="0" style="fill:#918b4b"/></g></g></g><g transform="matrix(1.0000153,0,0,1,-49.80076,-48.721647)" id="g929"><g id="g931"><g id="Layer0_1_MEMBER_41_MEMBER_0_FILL"><path class="st1" d="m 741.3,103.3 2.7,3.8 -2.7,-5.7 -3,5.6 3,-3.7 z" id="path934" inkscape:connector-curvature="0" style="fill:#918b4b"/></g></g></g><g transform="matrix(1.0000153,0,0,1,-49.80076,-48.721647)" id="g936"><g id="g938"><g id="Layer0_1_MEMBER_42_MEMBER_0_FILL"><path class="st1" d="m 741,152.2 2.7,3.7 -2.7,-5.6 -2.9,5.6 2.9,-3.7 z" id="path941" inkscape:connector-curvature="0" style="fill:#918b4b"/></g></g></g><g transform="matrix(1.0000153,0,0,1,-49.80076,-48.721647)" id="g943"><g id="g945"><g id="Layer0_1_MEMBER_43_MEMBER_0_FILL"><path class="st1" d="m 567.5,150.8 2.7,3.8 -2.7,-5.6 -2.9,5.5 2.9,-3.7 z" id="path948" inkscape:connector-curvature="0" style="fill:#918b4b"/></g></g></g><g transform="matrix(1.0000153,0,0,1,-49.80076,-48.721647)" id="g950"><g id="g952"><g id="Layer0_1_MEMBER_44_MEMBER_0_FILL"><path class="st1" d="m 797,105.5 5,6.8 -5,-10.4 -5.3,10.2 5.3,-6.6 z" id="path955" inkscape:connector-curvature="0" style="fill:#918b4b"/></g></g></g><g transform="matrix(1.0000153,0,0,1,-49.80076,-48.721647)" id="g957"><g id="g959"><g id="Layer0_1_MEMBER_45_MEMBER_0_FILL"><path class="st1" d="m 835,105.5 3.5,5 -3.5,-7.5 -3.9,7.4 3.9,-4.9 z" id="path962" inkscape:connector-curvature="0" style="fill:#918b4b"/></g></g></g><g transform="matrix(1.0000153,0,0,1,-49.80076,-48.721647)" id="g964"><g id="g966"><g id="Layer0_1_MEMBER_46_MEMBER_0_FILL"><path class="st1" d="m 852.2,115.6 5.3,-6.6 4.9,6.8 -4.9,-10.3 -5.3,10.1 z" id="path969" inkscape:connector-curvature="0" style="fill:#918b4b"/></g></g></g><g transform="matrix(1.0000153,0,0,1,-49.80076,-48.721647)" id="g971"><g id="g973"><g id="Layer0_1_MEMBER_47_MEMBER_0_FILL"><path class="st1" d="m 896.5,112.6 3,4.2 -3,-6.3 -3.2,6.1 3.2,-4 z" id="path976" inkscape:connector-curvature="0" style="fill:#918b4b"/></g></g></g><g transform="matrix(1.0000153,0,0,1,-49.80076,-48.721647)" id="g978"><g id="g980"><g id="Layer0_1_MEMBER_48_MEMBER_0_FILL"><path class="st1" d="m 871.4,151.7 4.7,6.6 -4.7,-9.9 -5.1,9.7 5.1,-6.4 z" id="path983" inkscape:connector-curvature="0" style="fill:#918b4b"/></g></g></g><g transform="matrix(1.0000153,0,0,1,-49.80076,-48.721647)" id="g985"><g id="g987"><g id="Layer0_1_MEMBER_49_MEMBER_0_FILL"><path class="st1" d="m 933.5,131 5.2,7.2 -5.2,-11.1 -5.7,10.9 5.7,-7 z" id="path990" inkscape:connector-curvature="0" style="fill:#918b4b"/></g></g></g><g transform="matrix(1.0000153,0,0,1,-49.80076,-48.721647)" id="g992"><g id="g994"><g id="Layer0_1_MEMBER_50_MEMBER_0_FILL"><path class="st1" d="m 945.8,152.6 3.4,4.7 -3.4,-7.1 -3.6,7 3.6,-4.6 z" id="path997" inkscape:connector-curvature="0" style="fill:#918b4b"/></g></g></g><g transform="matrix(1.0000153,0,0,1,-49.80076,-48.721647)" id="g999"><g id="g1001"><g id="Layer0_1_MEMBER_51_MEMBER_0_FILL"><path class="st1" d="m 1026.5,151 4.3,6 -4.3,-9.1 -4.7,8.9 4.7,-5.8 z" id="path1004" inkscape:connector-curvature="0" style="fill:#918b4b"/></g></g></g><g transform="matrix(1.0000153,0,0,1,-49.80076,-48.721647)" id="g1006"><g id="g1008"><g id="Layer0_1_MEMBER_52_MEMBER_0_FILL"><path class="st1" d="m 847.5,148.3 4.9,6.9 -4.9,-10.4 -5.4,10.2 5.4,-6.7 z" id="path1011" inkscape:connector-curvature="0" style="fill:#918b4b"/></g></g></g><g transform="matrix(1.0000153,0,0,1,-49.80076,-48.721647)" id="g1013"><g id="g1015"><g id="Layer0_1_MEMBER_53_MEMBER_0_FILL"><path class="st1" d="m 636.3,147.3 3.1,4.2 -3.1,-6.4 -3.3,6.3 3.3,-4.1 z" id="path1018" inkscape:connector-curvature="0" style="fill:#918b4b"/></g></g></g><g transform="matrix(1.0000153,0,0,1,-49.80076,-48.721647)" id="g1020"><g id="g1022"><g id="Layer0_1_MEMBER_54_MEMBER_0_FILL"><path class="st1" d="m 717.5,104.1 3.2,4.4 -3.2,-6.6 -3.4,6.5 3.4,-4.3 z" id="path1025" inkscape:connector-curvature="0" style="fill:#918b4b"/></g></g></g><g transform="matrix(1.0000153,0,0,1,-49.80076,-48.721647)" id="g1027"><g id="g1029"><g id="Layer0_1_MEMBER_55_MEMBER_0_FILL"><path class="st1" d="m 671.5,149.4 5.7,7.9 -5.7,-11.9 -6.1,11.6 6.1,-7.6 z" id="path1032" inkscape:connector-curvature="0" style="fill:#918b4b"/></g></g></g><g transform="matrix(1.0000153,0,0,1,-49.80076,-48.721647)" id="g1034"><g id="g1036"><g id="Layer0_1_MEMBER_56_MEMBER_0_FILL"><path class="st1" d="m 612.7,158.3 3.8,-4.8 3.5,4.9 -3.5,-7.5 -3.8,7.4 z" id="path1039" inkscape:connector-curvature="0" style="fill:#918b4b"/></g></g></g><g transform="matrix(1.0000153,0,0,1,-49.80076,-48.721647)" id="g1041"><g id="g1043"><g id="Layer0_2_MEMBER_0_MEMBER_0_FILL"><path class="st0" d="m 1550,159.3 v -40.1 c -14.1,0 -33.6,-2.7 -58.6,-7.9 -31.8,-7.4 -56.9,-13.2 -75.4,-17.3 -33.9,-7.6 -64.2,-13.3 -90.9,-17.1 -36.3,-5.1 -71.3,-7.4 -104.9,-7.1 -12.3,0.1 -26.7,2.8 -43,7.9 -10.1,3.2 -24.9,8.9 -44.2,17 -19.9,8.3 -34.3,13.9 -43.2,16.8 -15.5,5.1 -28.7,7.7 -39.7,7.7 v 40.1 H 1550 z" id="path1046" inkscape:connector-curvature="0" style="fill:#aba254"/></g></g></g><g transform="matrix(1.0000153,0,0,1,-49.80076,-48.721647)" id="g1048"><g id="g1050"><g id="Layer0_2_MEMBER_1_MEMBER_0_FILL"><path class="st1" d="m 1091.9,144 4.2,5.9 -4.2,-9 -4.6,8.8 4.6,-5.7 z" id="path1053" inkscape:connector-curvature="0" style="fill:#918b4b"/></g></g></g><g transform="matrix(1.0000153,0,0,1,-49.80076,-48.721647)" id="g1055"><g id="g1057"><g id="Layer0_2_MEMBER_2_MEMBER_0_FILL"><path class="st1" d="m 1121.1,130.8 5.2,7.1 -5.2,-10.8 -5.5,10.6 5.5,-6.9 z" id="path1060" inkscape:connector-curvature="0" style="fill:#918b4b"/></g></g></g><g transform="matrix(1.0000153,0,0,1,-49.80076,-48.721647)" id="g1062"><g id="g1064"><g id="Layer0_2_MEMBER_3_MEMBER_0_FILL"><path class="st1" d="m 1152.9,135.5 4.1,5.6 -4.1,-8.5 -4.4,8.3 4.4,-5.4 z" id="path1067" inkscape:connector-curvature="0" style="fill:#918b4b"/></g></g></g><g transform="matrix(1.0000153,0,0,1,-49.80076,-48.721647)" id="g1069"><g id="g1071"><g id="Layer0_2_MEMBER_4_MEMBER_0_FILL"><path class="st1" d="m 1184.9,136.9 4.5,6.2 -4.5,-9.4 -4.8,9.2 4.8,-6 z" id="path1074" inkscape:connector-curvature="0" style="fill:#918b4b"/></g></g></g><g transform="matrix(1.0000153,0,0,1,-49.80076,-48.721647)" id="g1076"><g id="g1078"><g id="Layer0_2_MEMBER_5_MEMBER_0_FILL"><path class="st1" d="m 1208.8,127 4.8,6.7 -4.8,-10.2 -5.2,10 5.2,-6.5 z" id="path1081" inkscape:connector-curvature="0" style="fill:#918b4b"/></g></g></g><g transform="matrix(1.0000153,0,0,1,-49.80076,-48.721647)" id="g1083"><g id="g1085"><g id="Layer0_2_MEMBER_6_MEMBER_0_FILL"><path class="st1" d="m 1244.4,137.8 2.8,3.9 -2.8,-6 -3.1,5.9 3.1,-3.8 z" id="path1088" inkscape:connector-curvature="0" style="fill:#918b4b"/></g></g></g><g transform="matrix(1.0000153,0,0,1,-49.80076,-48.721647)" id="g1090"><g id="g1092"><g id="Layer0_2_MEMBER_7_MEMBER_0_FILL"><path class="st1" d="m 1275.5,127.1 4.8,6.6 -4.8,-10 -5.2,9.8 5.2,-6.4 z" id="path1095" inkscape:connector-curvature="0" style="fill:#918b4b"/></g></g></g><g transform="matrix(1.0000153,0,0,1,-49.80076,-48.721647)" id="g1097"><g id="g1099"><g id="Layer0_2_MEMBER_8_MEMBER_0_FILL"><path class="st1" d="m 1297.3,146.2 5,-6.1 4.6,6.4 -4.6,-9.7 -5,9.4 z" id="path1102" inkscape:connector-curvature="0" style="fill:#918b4b"/></g></g></g><g transform="matrix(1.0000153,0,0,1,-49.80076,-48.721647)" id="g1104"><g id="g1106"><g id="Layer0_2_MEMBER_9_MEMBER_0_FILL"><path class="st1" d="m 1323.5,131.8 5.2,7.2 -5.2,-11.1 -5.7,10.9 5.7,-7 z" id="path1109" inkscape:connector-curvature="0" style="fill:#918b4b"/></g></g></g><g transform="matrix(1.0000153,0,0,1,-49.80076,-48.721647)" id="g1111"><g id="g1113"><g id="Layer0_2_MEMBER_10_MEMBER_0_FILL"><path class="st1" d="m 1366.1,133.3 4.1,5.7 -4.1,-8.6 -4.4,8.4 4.4,-5.5 z" id="path1116" inkscape:connector-curvature="0" style="fill:#918b4b"/></g></g></g><g transform="matrix(1.0000153,0,0,1,-49.80076,-48.721647)" id="g1118"><g id="g1120"><g id="Layer0_2_MEMBER_11_MEMBER_0_FILL"><path class="st1" d="m 1397.7,142.2 5.1,7.2 -5.1,-10.8 -5.6,10.6 5.6,-7 z" id="path1123" inkscape:connector-curvature="0" style="fill:#918b4b"/></g></g></g><g transform="matrix(1.0000153,0,0,1,-49.80076,-48.721647)" id="g1125"><g id="g1127"><g id="Layer0_2_MEMBER_12_MEMBER_0_FILL"><path class="st1" d="m 1429.5,148.8 2.9,4.1 -2.9,-6.2 -3.2,6.1 3.2,-4 z" id="path1130" inkscape:connector-curvature="0" style="fill:#918b4b"/></g></g></g><g transform="matrix(1.0000153,0,0,1,-49.80076,-48.721647)" id="g1132"><g id="g1134"><g id="Layer0_2_MEMBER_13_MEMBER_0_FILL"><path class="st1" d="m 1452.3,136.7 2.6,3.7 -2.6,-5.6 -2.9,5.4 2.9,-3.5 z" id="path1137" inkscape:connector-curvature="0" style="fill:#918b4b"/></g></g></g><g transform="matrix(1.0000153,0,0,1,-49.80076,-48.721647)" id="g1139"><g id="g1141"><g id="Layer0_2_MEMBER_14_MEMBER_0_FILL"><path class="st1" d="m 1483,137 5.3,7.4 -5.3,-11.3 -5.8,11.1 5.8,-7.2 z" id="path1144" inkscape:connector-curvature="0" style="fill:#918b4b"/></g></g></g><g transform="matrix(1.0000153,0,0,1,-49.80076,-48.721647)" id="g1146"><g id="g1148"><g id="Layer0_2_MEMBER_15_MEMBER_0_FILL"><path class="st1" d="m 1515.9,128.5 5.6,7.8 -5.6,-11.8 -6.1,11.5 6.1,-7.5 z" id="path1151" inkscape:connector-curvature="0" style="fill:#918b4b"/></g></g></g><g transform="matrix(1.0000153,0,0,1,-49.80076,-48.721647)" id="g1153"><g id="g1155"><g id="Layer0_2_MEMBER_16_MEMBER_0_FILL"><path class="st1" d="m 1541.7,142.6 4.7,6.6 -4.7,-10 -5.2,9.8 5.2,-6.4 z" id="path1158" inkscape:connector-curvature="0" style="fill:#918b4b"/></g></g></g><g transform="matrix(1.0000153,0,0,1,-49.80076,-48.721647)" id="g1160"><g id="g1162"><g id="Layer0_2_MEMBER_17_MEMBER_0_FILL"><path class="st1" d="m 1272.5,146.3 5.4,7.4 -5.4,-11.2 -5.8,11.1 5.8,-7.3 z" id="path1165" inkscape:connector-curvature="0" style="fill:#918b4b"/></g></g></g><g transform="matrix(1.0000153,0,0,1,-49.80076,-48.721647)" id="g1167"><g id="g1169"><g id="Layer0_2_MEMBER_18_MEMBER_0_FILL"><path class="st1" d="m 1503.3,149.3 3.1,4.2 -3.1,-6.4 -3.3,6.3 3.3,-4.1 z" id="path1172" inkscape:connector-curvature="0" style="fill:#918b4b"/></g></g></g><g transform="matrix(1.0000153,0,0,1,-49.80076,-48.721647)" id="g1174"><g id="g1176"><g id="Layer0_2_MEMBER_19_MEMBER_0_FILL"><path class="st1" d="m 1214.5,145.3 5.2,7.2 -5.2,-11 -5.6,10.8 5.6,-7 z" id="path1179" inkscape:connector-curvature="0" style="fill:#918b4b"/></g></g></g><g transform="matrix(1.0000153,0,0,1,-49.80076,-48.721647)" id="g1181"><g id="g1183"><g id="Layer0_2_MEMBER_20_MEMBER_0_FILL"><path class="st1" d="m 1526,153.3 2.9,4.1 -2.9,-6.2 -3.2,6.1 3.2,-4 z" id="path1186" inkscape:connector-curvature="0" style="fill:#918b4b"/></g></g></g><g transform="matrix(1.0000153,0,0,1,-49.80076,-48.721647)" id="g1188"><g id="g1190"><g id="Layer0_2_MEMBER_21_MEMBER_0_FILL"><path class="st1" d="m 1533.5,124.1 2.7,3.7 -2.7,-5.6 -2.8,5.4 2.8,-3.5 z" id="path1193" inkscape:connector-curvature="0" style="fill:#918b4b"/></g></g></g><g transform="matrix(1.0000153,0,0,1,-49.80076,-48.721647)" id="g1195"><g id="g1197"><g id="Layer0_2_MEMBER_22_MEMBER_0_FILL"><path class="st1" d="m 1483.9,118.3 4.5,6.3 -4.5,-9.6 -5,9.4 5,-6.1 z" id="path1200" inkscape:connector-curvature="0" style="fill:#918b4b"/></g></g></g><g transform="matrix(1.0000153,0,0,1,-49.80076,-48.721647)" id="g1202"><g id="g1204"><g id="Layer0_2_MEMBER_23_MEMBER_0_FILL"><path class="st1" d="m 1446.4,114.4 4.6,6.5 -4.6,-9.8 -5,9.5 5,-6.2 z" id="path1207" inkscape:connector-curvature="0" style="fill:#918b4b"/></g></g></g><g transform="matrix(1.0000153,0,0,1,-49.80076,-48.721647)" id="g1209"><g id="g1211"><g id="Layer0_2_MEMBER_24_MEMBER_0_FILL"><path class="st1" d="m 1417.8,117.1 3.4,4.8 -3.4,-7.3 -3.8,7.2 3.8,-4.7 z" id="path1214" inkscape:connector-curvature="0" style="fill:#918b4b"/></g></g></g><g transform="matrix(1.0000153,0,0,1,-49.80076,-48.721647)" id="g1216"><g id="g1218"><g id="Layer0_2_MEMBER_25_MEMBER_0_FILL"><path class="st1" d="m 1394.5,123.8 2.7,3.7 -2.7,-5.6 -2.9,5.5 2.9,-3.6 z" id="path1221" inkscape:connector-curvature="0" style="fill:#918b4b"/></g></g></g><g transform="matrix(1.0000153,0,0,1,-49.80076,-48.721647)" id="g1223"><g id="g1225"><g id="Layer0_2_MEMBER_26_MEMBER_0_FILL"><path class="st1" d="m 1371.3,113.3 2.8,3.8 -2.8,-5.8 -3,5.7 3,-3.7 z" id="path1228" inkscape:connector-curvature="0" style="fill:#918b4b"/></g></g></g><g transform="matrix(1.0000153,0,0,1,-49.80076,-48.721647)" id="g1230"><g id="g1232"><g id="Layer0_2_MEMBER_27_MEMBER_0_FILL"><path class="st1" d="m 1341.3,122.4 3.4,4.8 -3.4,-7.2 -3.8,7.1 3.8,-4.7 z" id="path1235" inkscape:connector-curvature="0" style="fill:#918b4b"/></g></g></g><g transform="matrix(1.0000153,0,0,1,-49.80076,-48.721647)" id="g1237"><g id="g1239"><g id="Layer0_2_MEMBER_28_MEMBER_0_FILL"><path class="st1" d="m 1309.5,112 3.2,4.4 -3.2,-6.7 -3.4,6.6 3.4,-4.3 z" id="path1242" inkscape:connector-curvature="0" style="fill:#918b4b"/></g></g></g><g transform="matrix(1.0000153,0,0,1,-49.80076,-48.721647)" id="g1244"><g id="g1246"><g id="Layer0_2_MEMBER_29_MEMBER_0_FILL"><path class="st1" d="m 1261.1,79.3 3.4,-4.2 3.2,4.4 -3.2,-6.7 -3.4,6.5 z" id="path1249" inkscape:connector-curvature="0" style="fill:#918b4b"/></g></g></g><g transform="matrix(1.0000153,0,0,1,-49.80076,-48.721647)" id="g1251"><g id="g1253"><g id="Layer0_2_MEMBER_30_MEMBER_0_FILL"><path class="st1" d="m 1279.1,107.1 5,6.9 -5,-10.5 -5.4,10.3 5.4,-6.7 z" id="path1256" inkscape:connector-curvature="0" style="fill:#918b4b"/></g></g></g><g transform="matrix(1.0000153,0,0,1,-49.80076,-48.721647)" id="g1258"><g id="g1260"><g id="Layer0_2_MEMBER_31_MEMBER_0_FILL"><path class="st1" d="m 1249.2,117.4 5.2,7.3 -5.2,-11.1 -5.8,10.8 5.8,-7 z" id="path1263" inkscape:connector-curvature="0" style="fill:#918b4b"/></g></g></g><g transform="matrix(1.0000153,0,0,1,-49.80076,-48.721647)" id="g1265"><g id="g1267"><g id="Layer0_2_MEMBER_32_MEMBER_0_FILL"><path class="st1" d="m 1224.8,116.1 4.5,6.3 -4.5,-9.6 -5,9.4 5,-6.1 z" id="path1270" inkscape:connector-curvature="0" style="fill:#918b4b"/></g></g></g><g transform="matrix(1.0000153,0,0,1,-49.80076,-48.721647)" id="g1272"><g id="g1274"><g id="Layer0_2_MEMBER_33_MEMBER_0_FILL"><path class="st1" d="m 1192.2,115 3.4,4.8 -3.4,-7.2 -3.8,7.1 3.8,-4.7 z" id="path1277" inkscape:connector-curvature="0" style="fill:#918b4b"/></g></g></g><g transform="matrix(1.0000153,0,0,1,-49.80076,-48.721647)" id="g1279"><g id="g1281"><g id="Layer0_2_MEMBER_34_MEMBER_0_FILL"><path class="st1" d="m 1158.4,106.3 4.8,6.6 -4.8,-10 -5.2,9.8 5.2,-6.4 z" id="path1284" inkscape:connector-curvature="0" style="fill:#918b4b"/></g></g></g><g transform="matrix(1.0000153,0,0,1,-49.80076,-48.721647)" id="g1286"><g id="g1288"><g id="Layer0_2_MEMBER_35_MEMBER_0_FILL"><path class="st1" d="m 1129.3,110.8 3,4.2 -3,-6.3 -3.3,6.2 3.3,-4.1 z" id="path1291" inkscape:connector-curvature="0" style="fill:#918b4b"/></g></g></g><g transform="matrix(1.0000153,0,0,1,-49.80076,-48.721647)" id="g1293"><g id="g1295"><g id="Layer0_2_MEMBER_36_MEMBER_0_FILL"><path class="st1" d="m 1057.4,127.3 3.2,-4.1 3,4.2 -3,-6.3 -3.2,6.2 z" id="path1298" inkscape:connector-curvature="0" style="fill:#918b4b"/></g></g></g><g transform="matrix(1.0000153,0,0,1,-49.80076,-48.721647)" id="g1300"><g id="g1302"><g id="Layer0_2_MEMBER_37_MEMBER_0_FILL"><path class="st1" d="m 1096.4,121.3 5.9,-7.4 5.5,7.7 -5.5,-11.6 -5.9,11.3 z" id="path1305" inkscape:connector-curvature="0" style="fill:#918b4b"/></g></g></g><g transform="matrix(1.0000153,0,0,1,-49.80076,-48.721647)" id="g1307"><g id="g1309"><g id="Layer0_2_MEMBER_38_MEMBER_0_FILL"><path class="st1" d="m 1079,128 4.2,5.8 -4.2,-8.8 -4.6,8.6 4.6,-5.6 z" id="path1312" inkscape:connector-curvature="0" style="fill:#918b4b"/></g></g></g><g transform="matrix(1.0000153,0,0,1,-49.80076,-48.721647)" id="g1314"><g id="g1316"><g id="Layer0_2_MEMBER_39_MEMBER_0_FILL"><path class="st1" d="m 1114,149.9 5.8,8 -5.8,-12.1 -6.2,11.8 6.2,-7.7 z" id="path1319" inkscape:connector-curvature="0" style="fill:#918b4b"/></g></g></g><g transform="matrix(1.0000153,0,0,1,-49.80076,-48.721647)" id="g1321"><g id="g1323"><g id="Layer0_2_MEMBER_40_MEMBER_0_FILL"><path class="st1" d="m 1147.5,95.5 3.7,5.2 -3.7,-7.8 -4.1,7.7 4.1,-5.1 z" id="path1326" inkscape:connector-curvature="0" style="fill:#918b4b"/></g></g></g><g transform="matrix(1.0000153,0,0,1,-49.80076,-48.721647)" id="g1328"><g id="g1330"><g id="Layer0_2_MEMBER_41_MEMBER_0_FILL"><path class="st1" d="m 1241,153.6 3.2,4.5 -3.2,-6.9 -3.5,6.7 3.5,-4.3 z" id="path1333" inkscape:connector-curvature="0" style="fill:#918b4b"/></g></g></g><g transform="matrix(1.0000153,0,0,1,-49.80076,-48.721647)" id="g1335"><g id="g1337"><g id="Layer0_2_MEMBER_42_MEMBER_0_FILL"><path class="st1" d="m 1198,100.3 3.2,4.4 -3.2,-6.7 -3.4,6.6 3.4,-4.3 z" id="path1340" inkscape:connector-curvature="0" style="fill:#918b4b"/></g></g></g><g transform="matrix(1.0000153,0,0,1,-49.80076,-48.721647)" id="g1342"><g id="g1344"><g id="Layer0_2_MEMBER_43_MEMBER_0_FILL"><path class="st1" d="m 1241.3,103.3 2.6,3.8 -2.6,-5.7 -3,5.6 3,-3.7 z" id="path1347" inkscape:connector-curvature="0" style="fill:#918b4b"/></g></g></g><g transform="matrix(1.0000153,0,0,1,-49.80076,-48.721647)" id="g1349"><g id="g1351"><g id="Layer0_2_MEMBER_44_MEMBER_0_FILL"><path class="st1" d="m 1221.3,94.3 2.7,3.8 -2.7,-5.7 -2.9,5.6 2.9,-3.7 z" id="path1354" inkscape:connector-curvature="0" style="fill:#918b4b"/></g></g></g><g transform="matrix(1.0000153,0,0,1,-49.80076,-48.721647)" id="g1356"><g id="g1358"><g id="Layer0_2_MEMBER_45_MEMBER_0_FILL"><path class="st1" d="m 1067.5,150.8 2.7,3.8 -2.7,-5.6 -2.9,5.5 2.9,-3.7 z" id="path1361" inkscape:connector-curvature="0" style="fill:#918b4b"/></g></g></g><g transform="matrix(1.0000153,0,0,1,-49.80076,-48.721647)" id="g1363"><g id="g1365"><g id="Layer0_2_MEMBER_46_MEMBER_0_FILL"><path class="st1" d="m 1276,84.8 4.1,5.7 -4.1,-8.6 -4.4,8.4 4.4,-5.5 z" id="path1368" inkscape:connector-curvature="0" style="fill:#918b4b"/></g></g></g><g transform="matrix(1.0000153,0,0,1,-49.80076,-48.721647)" id="g1370"><g id="g1372"><g id="Layer0_2_MEMBER_47_MEMBER_0_FILL"><path class="st1" d="m 1301.7,97.7 4.9,6.9 -4.9,-10.4 -5.4,10.2 5.4,-6.7 z" id="path1375" inkscape:connector-curvature="0" style="fill:#918b4b"/></g></g></g><g transform="matrix(1.0000153,0,0,1,-49.80076,-48.721647)" id="g1377"><g id="g1379"><g id="Layer0_2_MEMBER_48_MEMBER_0_FILL"><path class="st1" d="m 1335,101.2 3.6,5 -3.6,-7.5 -3.9,7.4 3.9,-4.9 z" id="path1382" inkscape:connector-curvature="0" style="fill:#918b4b"/></g></g></g><g transform="matrix(1.0000153,0,0,1,-49.80076,-48.721647)" id="g1384"><g id="g1386"><g id="Layer0_2_MEMBER_49_MEMBER_0_FILL"><path class="st1" d="m 1360.6,99.1 4.9,6.8 -4.9,-10.3 -5.4,10.1 5.4,-6.6 z" id="path1389" inkscape:connector-curvature="0" style="fill:#918b4b"/></g></g></g><g transform="matrix(1.0000153,0,0,1,-49.80076,-48.721647)" id="g1391"><g id="g1393"><g id="Layer0_2_MEMBER_50_MEMBER_0_FILL"><path class="st1" d="m 1394.2,99.7 3,4.1 -3,-6.2 -3.2,6.2 3.2,-4.1 z" id="path1396" inkscape:connector-curvature="0" style="fill:#918b4b"/></g></g></g><g transform="matrix(1.0000153,0,0,1,-49.80076,-48.721647)" id="g1398"><g id="g1400"><g id="Layer0_2_MEMBER_51_MEMBER_0_FILL"><path class="st1" d="m 1417.4,106.8 5.1,-6.3 4.7,6.6 -4.7,-9.9 -5.1,9.6 z" id="path1403" inkscape:connector-curvature="0" style="fill:#918b4b"/></g></g></g><g transform="matrix(1.0000153,0,0,1,-49.80076,-48.721647)" id="g1405"><g id="g1407"><g id="Layer0_2_MEMBER_52_MEMBER_0_FILL"><path class="st1" d="m 1371.3,152.6 3.3,4.7 -3.3,-7.1 -3.7,7 3.7,-4.6 z" id="path1410" inkscape:connector-curvature="0" style="fill:#918b4b"/></g></g></g><g transform="matrix(1.0000153,0,0,1,-49.80076,-48.721647)" id="g1412"><g id="g1414"><g id="Layer0_2_MEMBER_53_MEMBER_0_FILL"><path class="st1" d="m 1470.7,151.7 4.3,6 -4.3,-9.1 -4.7,8.9 4.7,-5.8 z" id="path1417" inkscape:connector-curvature="0" style="fill:#918b4b"/></g></g></g><g transform="matrix(1.0000153,0,0,1,-49.80076,-48.721647)" id="g1419"><g id="g1421"><g id="Layer0_2_MEMBER_54_MEMBER_0_FILL"><path class="st1" d="m 1347.5,148.3 4.9,6.9 -4.9,-10.4 -5.4,10.2 5.4,-6.7 z" id="path1424" inkscape:connector-curvature="0" style="fill:#918b4b"/></g></g></g><g transform="matrix(1.0000153,0,0,1,-49.80076,-48.721647)" id="g1426"><g id="g1428"><g id="Layer0_2_MEMBER_55_MEMBER_0_FILL"><path class="st1" d="m 1136.3,147.3 3.1,4.2 -3.1,-6.4 -3.3,6.3 3.3,-4.1 z" id="path1431" inkscape:connector-curvature="0" style="fill:#918b4b"/></g></g></g><g transform="matrix(1.0000153,0,0,1,-49.80076,-48.721647)" id="g1433"><g id="g1435"><g id="Layer0_2_MEMBER_56_MEMBER_0_FILL"><path class="st1" d="m 1318,153.8 2.8,3.9 -2.8,-5.9 -3.1,5.8 3.1,-3.8 z" id="path1438" inkscape:connector-curvature="0" style="fill:#918b4b"/></g></g></g><g transform="matrix(1.0000153,0,0,1,-49.80076,-48.721647)" id="g1440"><g id="g1442"><g id="Layer0_2_MEMBER_57_MEMBER_0_FILL"><path class="st1" d="m 1322.5,79.7 5,6.9 -5,-10.4 -5.4,10.2 5.4,-6.7 z" id="path1445" inkscape:connector-curvature="0" style="fill:#918b4b"/></g></g></g><g transform="matrix(1.0000153,0,0,1,-49.80076,-48.721647)" id="g1447"><g id="g1449"><g id="Layer0_2_MEMBER_58_MEMBER_0_FILL"><path class="st1" d="m 1297.7,77.1 5.8,8 -5.8,-12.1 -6.2,11.8 6.2,-7.7 z" id="path1452" inkscape:connector-curvature="0" style="fill:#918b4b"/></g></g></g><g transform="matrix(1.0000153,0,0,1,-49.80076,-48.721647)" id="g1454"><g id="g1456"><g id="Layer0_2_MEMBER_59_MEMBER_0_FILL"><path class="st1" d="m 1260,93.9 3.9,5.4 -3.9,-8.2 -4.2,8.1 4.2,-5.3 z" id="path1459" inkscape:connector-curvature="0" style="fill:#918b4b"/></g></g></g><g transform="matrix(1.0000153,0,0,1,-49.80076,-48.721647)" id="g1461"><g id="g1463"><g id="Layer0_2_MEMBER_60_MEMBER_0_FILL"><path class="st1" d="m 1239.7,75.6 5.4,7.4 -5.4,-11.3 -5.8,11.1 5.8,-7.2 z" id="path1466" inkscape:connector-curvature="0" style="fill:#918b4b"/></g></g></g><g transform="matrix(1.0000153,0,0,1,-49.80076,-48.721647)" id="g1468"><g id="g1470"><g id="Layer0_2_MEMBER_61_MEMBER_0_FILL"><path class="st1" d="m 1207.1,75.2 3.1,4.4 -3.1,-6.7 -3.4,6.5 3.4,-4.2 z" id="path1473" inkscape:connector-curvature="0" style="fill:#918b4b"/></g></g></g><g transform="matrix(1.0000153,0,0,1,-49.80076,-48.721647)" id="g1475"><g id="g1477"><g id="Layer0_2_MEMBER_62_MEMBER_0_FILL"><path class="st1" d="m 1186.1,89 4.2,5.8 -4.2,-8.8 -4.5,8.6 4.5,-5.6 z" id="path1480" inkscape:connector-curvature="0" style="fill:#918b4b"/></g></g></g><g transform="matrix(1.0000153,0,0,1,-49.80076,-48.721647)" id="g1482"><g id="g1484"><g id="Layer0_2_MEMBER_63_MEMBER_0_FILL"><path class="st1" d="m 1171.3,151.4 3.2,4.5 -3.2,-6.9 -3.5,6.7 3.5,-4.3 z" id="path1487" inkscape:connector-curvature="0" style="fill:#918b4b"/></g></g></g><g transform="matrix(1.0000153,0,0,1,-49.80076,-48.721647)" id="g1489"><g id="g1491"><g id="Layer0_3_MEMBER_0_MEMBER_0_FILL"><path class="st0" d="m 2050,89.2 c -10.5,0 -28.4,-2.1 -53.7,-6.2 -24.7,-4 -43.4,-5.9 -56.1,-5.7 -28.3,0.6 -63.2,3.1 -104.8,7.6 -28.9,3.1 -66.4,7.9 -112.7,14.3 -56.9,7.9 -90.8,12.5 -101.5,13.8 -33,4.1 -56.7,6.2 -71.2,6.2 v 40.1 h 500 V 89.2 z" id="path1494" inkscape:connector-curvature="0" style="fill:#aba254"/></g></g></g><g transform="matrix(1.0000153,0,0,1,-49.80076,-48.721647)" id="g1496"><g id="g1498"><g id="Layer0_3_MEMBER_1_MEMBER_0_FILL"><path class="st1" d="m 1591.9,144 4.2,5.9 -4.2,-9 -4.6,8.8 4.6,-5.7 z" id="path1501" inkscape:connector-curvature="0" style="fill:#918b4b"/></g></g></g><g transform="matrix(1.0000153,0,0,1,-49.80076,-48.721647)" id="g1503"><g id="g1505"><g id="Layer0_3_MEMBER_2_MEMBER_0_FILL"><path class="st1" d="m 1621.1,130.8 5.2,7.1 -5.2,-10.8 -5.5,10.6 5.5,-6.9 z" id="path1508" inkscape:connector-curvature="0" style="fill:#918b4b"/></g></g></g><g transform="matrix(1.0000153,0,0,1,-49.80076,-48.721647)" id="g1510"><g id="g1512"><g id="Layer0_3_MEMBER_3_MEMBER_0_FILL"><path class="st1" d="m 1652.9,135.5 4.1,5.6 -4.1,-8.5 -4.4,8.3 4.4,-5.4 z" id="path1515" inkscape:connector-curvature="0" style="fill:#918b4b"/></g></g></g><g transform="matrix(1.0000153,0,0,1,-49.80076,-48.721647)" id="g1517"><g id="g1519"><g id="Layer0_3_MEMBER_4_MEMBER_0_FILL"><path class="st1" d="m 1684.9,136.9 4.5,6.2 -4.5,-9.4 -4.8,9.2 4.8,-6 z" id="path1522" inkscape:connector-curvature="0" style="fill:#918b4b"/></g></g></g><g transform="matrix(1.0000153,0,0,1,-49.80076,-48.721647)" id="g1524"><g id="g1526"><g id="Layer0_3_MEMBER_5_MEMBER_0_FILL"><path class="st1" d="m 1703.6,133.5 5.2,-6.5 4.8,6.7 -4.8,-10.2 -5.2,10 z" id="path1529" inkscape:connector-curvature="0" style="fill:#918b4b"/></g></g></g><g transform="matrix(1.0000153,0,0,1,-49.80076,-48.721647)" id="g1531"><g id="g1533"><g id="Layer0_3_MEMBER_6_MEMBER_0_FILL"><path class="st1" d="m 1744.4,137.8 2.8,3.9 -2.8,-6 -3.1,5.9 3.1,-3.8 z" id="path1536" inkscape:connector-curvature="0" style="fill:#918b4b"/></g></g></g><g transform="matrix(1.0000153,0,0,1,-49.80076,-48.721647)" id="g1538"><g id="g1540"><g id="Layer0_3_MEMBER_7_MEMBER_0_FILL"><path class="st1" d="m 1775.5,127.1 4.8,6.6 -4.8,-10 -5.2,9.8 5.2,-6.4 z" id="path1543" inkscape:connector-curvature="0" style="fill:#918b4b"/></g></g></g><g transform="matrix(1.0000153,0,0,1,-49.80076,-48.721647)" id="g1545"><g id="g1547"><g id="Layer0_3_MEMBER_8_MEMBER_0_FILL"><path class="st1" d="m 1802.3,140 4.6,6.4 -4.6,-9.7 -5,9.4 5,-6.1 z" id="path1550" inkscape:connector-curvature="0" style="fill:#918b4b"/></g></g></g><g transform="matrix(1.0000153,0,0,1,-49.80076,-48.721647)" id="g1552"><g id="g1554"><g id="Layer0_3_MEMBER_9_MEMBER_0_FILL"><path class="st1" d="m 1823.5,131.8 5.2,7.2 -5.2,-11.1 -5.7,10.9 5.7,-7 z" id="path1557" inkscape:connector-curvature="0" style="fill:#918b4b"/></g></g></g><g transform="matrix(1.0000153,0,0,1,-49.80076,-48.721647)" id="g1559"><g id="g1561"><g id="Layer0_3_MEMBER_10_MEMBER_0_FILL"><path class="st1" d="m 1866.1,133.3 4.1,5.7 -4.1,-8.6 -4.4,8.4 4.4,-5.5 z" id="path1564" inkscape:connector-curvature="0" style="fill:#918b4b"/></g></g></g><g transform="matrix(1.0000153,0,0,1,-49.80076,-48.721647)" id="g1566"><g id="g1568"><g id="Layer0_3_MEMBER_11_MEMBER_0_FILL"><path class="st1" d="m 1897.7,142.2 5.1,7.2 -5.1,-10.8 -5.6,10.6 5.6,-7 z" id="path1571" inkscape:connector-curvature="0" style="fill:#918b4b"/></g></g></g><g transform="matrix(1.0000153,0,0,1,-49.80076,-48.721647)" id="g1573"><g id="g1575"><g id="Layer0_3_MEMBER_12_MEMBER_0_FILL"><path class="st1" d="m 1929.5,148.8 2.9,4.1 -2.9,-6.2 -3.2,6.1 3.2,-4 z" id="path1578" inkscape:connector-curvature="0" style="fill:#918b4b"/></g></g></g><g transform="matrix(1.0000153,0,0,1,-49.80076,-48.721647)" id="g1580"><g id="g1582"><g id="Layer0_3_MEMBER_13_MEMBER_0_FILL"><path class="st1" d="m 1949.4,140.3 2.9,-3.6 2.6,3.7 -2.6,-5.6 -2.9,5.5 z" id="path1585" inkscape:connector-curvature="0" style="fill:#918b4b"/></g></g></g><g transform="matrix(1.0000153,0,0,1,-49.80076,-48.721647)" id="g1587"><g id="g1589"><g id="Layer0_3_MEMBER_14_MEMBER_0_FILL"><path class="st1" d="m 1983,137 5.3,7.4 -5.3,-11.3 -5.8,11.1 5.8,-7.2 z" id="path1592" inkscape:connector-curvature="0" style="fill:#918b4b"/></g></g></g><g transform="matrix(1.0000153,0,0,1,-49.80076,-48.721647)" id="g1594"><g id="g1596"><g id="Layer0_3_MEMBER_15_MEMBER_0_FILL"><path class="st1" d="m 2015.9,128.5 5.6,7.8 -5.6,-11.8 -6.1,11.5 6.1,-7.5 z" id="path1599" inkscape:connector-curvature="0" style="fill:#918b4b"/></g></g></g><g transform="matrix(1.0000153,0,0,1,-49.80076,-48.721647)" id="g1601"><g id="g1603"><g id="Layer0_3_MEMBER_16_MEMBER_0_FILL"><path class="st1" d="m 2041.6,142.6 4.7,6.6 -4.7,-10 -5.2,9.8 5.2,-6.4 z" id="path1606" inkscape:connector-curvature="0" style="fill:#918b4b"/></g></g></g><g transform="matrix(1.0000153,0,0,1,-49.80076,-48.721647)" id="g1608"><g id="g1610"><g id="Layer0_3_MEMBER_17_MEMBER_0_FILL"><path class="st1" d="m 1772.5,146.3 5.4,7.4 -5.4,-11.2 -5.8,11.1 5.8,-7.3 z" id="path1613" inkscape:connector-curvature="0" style="fill:#918b4b"/></g></g></g><g transform="matrix(1.0000153,0,0,1,-49.80076,-48.721647)" id="g1615"><g id="g1617"><g id="Layer0_3_MEMBER_18_MEMBER_0_FILL"><path class="st1" d="m 2003.3,149.3 3.1,4.2 -3.1,-6.4 -3.3,6.3 3.3,-4.1 z" id="path1620" inkscape:connector-curvature="0" style="fill:#918b4b"/></g></g></g><g transform="matrix(1.0000153,0,0,1,-49.80076,-48.721647)" id="g1622"><g id="g1624"><g id="Layer0_3_MEMBER_19_MEMBER_0_FILL"><path class="st1" d="m 1714.5,145.3 5.2,7.2 -5.2,-11 -5.6,10.8 5.6,-7 z" id="path1627" inkscape:connector-curvature="0" style="fill:#918b4b"/></g></g></g><g transform="matrix(1.0000153,0,0,1,-49.80076,-48.721647)" id="g1629"><g id="g1631"><g id="Layer0_3_MEMBER_20_MEMBER_0_FILL"><path class="st1" d="m 2044.4,115.7 2.9,4.1 -2.9,-6.2 -3.2,6 3.2,-3.9 z" id="path1634" inkscape:connector-curvature="0" style="fill:#918b4b"/></g></g></g><g transform="matrix(1.0000153,0,0,1,-49.80076,-48.721647)" id="g1636"><g id="g1638"><g id="Layer0_3_MEMBER_21_MEMBER_0_FILL"><path class="st1" d="m 2015.1,111.3 2.6,3.7 -2.6,-5.5 -2.9,5.4 2.9,-3.6 z" id="path1641" inkscape:connector-curvature="0" style="fill:#918b4b"/></g></g></g><g transform="matrix(1.0000153,0,0,1,-49.80076,-48.721647)" id="g1643"><g id="g1645"><g id="Layer0_3_MEMBER_22_MEMBER_0_FILL"><path class="st1" d="m 1983.9,118.3 4.5,6.3 -4.5,-9.6 -5,9.4 5,-6.1 z" id="path1648" inkscape:connector-curvature="0" style="fill:#918b4b"/></g></g></g><g transform="matrix(1.0000153,0,0,1,-49.80076,-48.721647)" id="g1650"><g id="g1652"><g id="Layer0_3_MEMBER_23_MEMBER_0_FILL"><path class="st1" d="m 1946.4,114.4 4.6,6.5 -4.6,-9.8 -5,9.5 5,-6.2 z" id="path1655" inkscape:connector-curvature="0" style="fill:#918b4b"/></g></g></g><g transform="matrix(1.0000153,0,0,1,-49.80076,-48.721647)" id="g1657"><g id="g1659"><g id="Layer0_3_MEMBER_24_MEMBER_0_FILL"><path class="st1" d="m 1917.8,117.1 3.4,4.8 -3.4,-7.3 -3.8,7.2 3.8,-4.7 z" id="path1662" inkscape:connector-curvature="0" style="fill:#918b4b"/></g></g></g><g transform="matrix(1.0000153,0,0,1,-49.80076,-48.721647)" id="g1664"><g id="g1666"><g id="Layer0_3_MEMBER_25_MEMBER_0_FILL"><path class="st1" d="m 1894.5,123.8 2.7,3.7 -2.7,-5.6 -2.9,5.5 2.9,-3.6 z" id="path1669" inkscape:connector-curvature="0" style="fill:#918b4b"/></g></g></g><g transform="matrix(1.0000153,0,0,1,-49.80076,-48.721647)" id="g1671"><g id="g1673"><g id="Layer0_3_MEMBER_26_MEMBER_0_FILL"><path class="st1" d="m 1868.3,117 3,-3.7 2.8,3.8 -2.8,-5.8 -3,5.7 z" id="path1676" inkscape:connector-curvature="0" style="fill:#918b4b"/></g></g></g><g transform="matrix(1.0000153,0,0,1,-49.80076,-48.721647)" id="g1678"><g id="g1680"><g id="Layer0_3_MEMBER_27_MEMBER_0_FILL"><path class="st1" d="m 1841.3,122.4 3.4,4.8 -3.4,-7.2 -3.8,7.1 3.8,-4.7 z" id="path1683" inkscape:connector-curvature="0" style="fill:#918b4b"/></g></g></g><g transform="matrix(1.0000153,0,0,1,-49.80076,-48.721647)" id="g1685"><g id="g1687"><g id="Layer0_3_MEMBER_28_MEMBER_0_FILL"><path class="st1" d="m 1809.5,112 3.2,4.4 -3.2,-6.7 -3.4,6.6 3.4,-4.3 z" id="path1690" inkscape:connector-curvature="0" style="fill:#918b4b"/></g></g></g><g transform="matrix(1.0000153,0,0,1,-49.80076,-48.721647)" id="g1692"><g id="g1694"><g id="Layer0_3_MEMBER_29_MEMBER_0_FILL"><path class="st1" d="m 1694.5,152 3.2,4.4 -3.2,-6.7 -3.4,6.6 3.4,-4.3 z" id="path1697" inkscape:connector-curvature="0" style="fill:#918b4b"/></g></g></g><g transform="matrix(1.0000153,0,0,1,-49.80076,-48.721647)" id="g1699"><g id="g1701"><g id="Layer0_3_MEMBER_30_MEMBER_0_FILL"><path class="st1" d="m 1779.1,107.1 5,6.9 -5,-10.5 -5.4,10.3 5.4,-6.7 z" id="path1704" inkscape:connector-curvature="0" style="fill:#918b4b"/></g></g></g><g transform="matrix(1.0000153,0,0,1,-49.80076,-48.721647)" id="g1706"><g id="g1708"><g id="Layer0_3_MEMBER_31_MEMBER_0_FILL"><path class="st1" d="m 1743.5,124.4 5.8,-7 5.2,7.3 -5.2,-11.1 -5.8,10.8 z" id="path1711" inkscape:connector-curvature="0" style="fill:#918b4b"/></g></g></g><g transform="matrix(1.0000153,0,0,1,-49.80076,-48.721647)" id="g1713"><g id="g1715"><g id="Layer0_3_MEMBER_32_MEMBER_0_FILL"><path class="st1" d="m 1724.8,116.1 4.5,6.3 -4.5,-9.6 -5,9.4 5,-6.1 z" id="path1718" inkscape:connector-curvature="0" style="fill:#918b4b"/></g></g></g><g transform="matrix(1.0000153,0,0,1,-49.80076,-48.721647)" id="g1720"><g id="g1722"><g id="Layer0_3_MEMBER_33_MEMBER_0_FILL"><path class="st1" d="m 1692.2,115 3.4,4.8 -3.4,-7.2 -3.8,7.1 3.8,-4.7 z" id="path1725" inkscape:connector-curvature="0" style="fill:#918b4b"/></g></g></g><g transform="matrix(1.0000153,0,0,1,-49.80076,-48.721647)" id="g1727"><g id="g1729"><g id="Layer0_3_MEMBER_34_MEMBER_0_FILL"><path class="st1" d="m 1962.5,153.6 3.4,4.8 -3.4,-7.2 -3.7,7 3.7,-4.6 z" id="path1732" inkscape:connector-curvature="0" style="fill:#918b4b"/></g></g></g><g transform="matrix(1.0000153,0,0,1,-49.80076,-48.721647)" id="g1734"><g id="g1736"><g id="Layer0_3_MEMBER_35_MEMBER_0_FILL"><path class="st1" d="m 1660.4,121.9 5.2,-6.4 4.8,6.6 -4.8,-10 -5.2,9.8 z" id="path1739" inkscape:connector-curvature="0" style="fill:#918b4b"/></g></g></g><g transform="matrix(1.0000153,0,0,1,-49.80076,-48.721647)" id="g1741"><g id="g1743"><g id="Layer0_3_MEMBER_36_MEMBER_0_FILL"><path class="st1" d="m 1636,118.4 3,4.2 -3,-6.3 -3.2,6.2 3.2,-4.1 z" id="path1746" inkscape:connector-curvature="0" style="fill:#918b4b"/></g></g></g><g transform="matrix(1.0000153,0,0,1,-49.80076,-48.721647)" id="g1748"><g id="g1750"><g id="Layer0_3_MEMBER_37_MEMBER_0_FILL"><path class="st1" d="m 1560.7,123.2 3,4.2 -3,-6.3 -3.2,6.2 3.2,-4.1 z" id="path1753" inkscape:connector-curvature="0" style="fill:#918b4b"/></g></g></g><g transform="matrix(1.0000153,0,0,1,-49.80076,-48.721647)" id="g1755"><g id="g1757"><g id="Layer0_3_MEMBER_38_MEMBER_0_FILL"><path class="st1" d="m 1576.5,149.4 5.5,7.7 -5.5,-11.6 -5.9,11.4 5.9,-7.5 z" id="path1760" inkscape:connector-curvature="0" style="fill:#918b4b"/></g></g></g><g transform="matrix(1.0000153,0,0,1,-49.80076,-48.721647)" id="g1762"><g id="g1764"><g id="Layer0_3_MEMBER_39_MEMBER_0_FILL"><path class="st1" d="m 1583,128.2 4.2,5.8 -4.2,-8.8 -4.6,8.7 4.6,-5.7 z" id="path1767" inkscape:connector-curvature="0" style="fill:#918b4b"/></g></g></g><g transform="matrix(1.0000153,0,0,1,-49.80076,-48.721647)" id="g1769"><g id="g1771"><g id="Layer0_3_MEMBER_40_MEMBER_0_FILL"><path class="st1" d="m 1601.5,123 4.8,6.8 -4.8,-10.2 -5.2,10.1 5.2,-6.7 z" id="path1774" inkscape:connector-curvature="0" style="fill:#918b4b"/></g></g></g><g transform="matrix(1.0000153,0,0,1,-49.80076,-48.721647)" id="g1776"><g id="g1778"><g id="Layer0_3_MEMBER_41_MEMBER_0_FILL"><path class="st1" d="m 1614,148.4 5.8,8 -5.8,-12.1 -6.2,11.8 6.2,-7.7 z" id="path1781" inkscape:connector-curvature="0" style="fill:#918b4b"/></g></g></g><g transform="matrix(1.0000153,0,0,1,-49.80076,-48.721647)" id="g1783"><g id="g1785"><g id="Layer0_3_MEMBER_42_MEMBER_0_FILL"><path class="st1" d="m 1704,105.1 3.2,4.5 -3.2,-6.8 -3.4,6.6 3.4,-4.3 z" id="path1788" inkscape:connector-curvature="0" style="fill:#918b4b"/></g></g></g><g transform="matrix(1.0000153,0,0,1,-49.80076,-48.721647)" id="g1790"><g id="g1792"><g id="Layer0_3_MEMBER_43_MEMBER_0_FILL"><path class="st1" d="m 1741.3,103.3 2.6,3.8 -2.6,-5.7 -3,5.6 3,-3.7 z" id="path1795" inkscape:connector-curvature="0" style="fill:#918b4b"/></g></g></g><g transform="matrix(1.0000153,0,0,1,-49.80076,-48.721647)" id="g1797"><g id="g1799"><g id="Layer0_3_MEMBER_44_MEMBER_0_FILL"><path class="st1" d="m 1560,149.6 2.7,3.8 -2.7,-5.7 -2.9,5.6 2.9,-3.7 z" id="path1802" inkscape:connector-curvature="0" style="fill:#918b4b"/></g></g></g><g transform="matrix(1.0000153,0,0,1,-49.80076,-48.721647)" id="g1804"><g id="g1806"><g id="Layer0_3_MEMBER_45_MEMBER_0_FILL"><path class="st1" d="m 1734.5,151.4 4.1,5.7 -4.1,-8.6 -4.4,8.4 4.4,-5.5 z" id="path1809" inkscape:connector-curvature="0" style="fill:#918b4b"/></g></g></g><g transform="matrix(1.0000153,0,0,1,-49.80076,-48.721647)" id="g1811"><g id="g1813"><g id="Layer0_3_MEMBER_46_MEMBER_0_FILL"><path class="st1" d="m 1801.7,97.7 4.9,6.9 -4.9,-10.4 -5.4,10.2 5.4,-6.7 z" id="path1816" inkscape:connector-curvature="0" style="fill:#918b4b"/></g></g></g><g transform="matrix(1.0000153,0,0,1,-49.80076,-48.721647)" id="g1818"><g id="g1820"><g id="Layer0_3_MEMBER_47_MEMBER_0_FILL"><path class="st1" d="m 1835,101.2 3.6,5 -3.6,-7.5 -3.9,7.4 3.9,-4.9 z" id="path1823" inkscape:connector-curvature="0" style="fill:#918b4b"/></g></g></g><g transform="matrix(1.0000153,0,0,1,-49.80076,-48.721647)" id="g1825"><g id="g1827"><g id="Layer0_3_MEMBER_48_MEMBER_0_FILL"><path class="st1" d="m 1860.6,99.1 4.9,6.8 -4.9,-10.3 -5.4,10.1 5.4,-6.6 z" id="path1830" inkscape:connector-curvature="0" style="fill:#918b4b"/></g></g></g><g transform="matrix(1.0000153,0,0,1,-49.80076,-48.721647)" id="g1832"><g id="g1834"><g id="Layer0_3_MEMBER_49_MEMBER_0_FILL"><path class="st1" d="m 1894.2,99.7 3,4.1 -3,-6.2 -3.2,6.2 3.2,-4.1 z" id="path1837" inkscape:connector-curvature="0" style="fill:#918b4b"/></g></g></g><g transform="matrix(1.0000153,0,0,1,-49.80076,-48.721647)" id="g1839"><g id="g1841"><g id="Layer0_3_MEMBER_50_MEMBER_0_FILL"><path class="st1" d="m 1925.4,91.2 4.7,6.5 -4.7,-9.9 -5.1,9.7 5.1,-6.3 z" id="path1844" inkscape:connector-curvature="0" style="fill:#918b4b"/></g></g></g><g transform="matrix(1.0000153,0,0,1,-49.80076,-48.721647)" id="g1846"><g id="g1848"><g id="Layer0_3_MEMBER_51_MEMBER_0_FILL"><path class="st1" d="m 1953.3,97.6 5.2,7.3 -5.2,-11.1 -5.7,10.9 5.7,-7.1 z" id="path1851" inkscape:connector-curvature="0" style="fill:#918b4b"/></g></g></g><g transform="matrix(1.0000153,0,0,1,-49.80076,-48.721647)" id="g1853"><g id="g1855"><g id="Layer0_3_MEMBER_52_MEMBER_0_FILL"><path class="st1" d="m 1977.8,103.1 3.3,4.7 -3.3,-7.1 -3.7,6.9 3.7,-4.5 z" id="path1858" inkscape:connector-curvature="0" style="fill:#918b4b"/></g></g></g><g transform="matrix(1.0000153,0,0,1,-49.80076,-48.721647)" id="g1860"><g id="g1862"><g id="Layer0_3_MEMBER_53_MEMBER_0_FILL"><path class="st1" d="m 2002.8,102.3 3.4,4.7 -3.4,-7.1 -3.7,6.9 3.7,-4.5 z" id="path1865" inkscape:connector-curvature="0" style="fill:#918b4b"/></g></g></g><g transform="matrix(1.0000153,0,0,1,-49.80076,-48.721647)" id="g1867"><g id="g1869"><g id="Layer0_3_MEMBER_54_MEMBER_0_FILL"><path class="st1" d="m 2036.2,100.2 4.3,6 -4.3,-9.1 -4.7,8.9 4.7,-5.8 z" id="path1872" inkscape:connector-curvature="0" style="fill:#918b4b"/></g></g></g><g transform="matrix(1.0000153,0,0,1,-49.80076,-48.721647)" id="g1874"><g id="g1876"><g id="Layer0_3_MEMBER_55_MEMBER_0_FILL"><path class="st1" d="m 1908.1,157.4 3.9,-4.9 3.6,5 -3.6,-7.6 -3.9,7.5 z" id="path1879" inkscape:connector-curvature="0" style="fill:#918b4b"/></g></g></g><g transform="matrix(1.0000153,0,0,1,-49.80076,-48.721647)" id="g1881"><g id="g1883"><g id="Layer0_3_MEMBER_56_MEMBER_0_FILL"><path class="st1" d="m 1847.5,148.3 4.9,6.9 -4.9,-10.4 -5.4,10.2 5.4,-6.7 z" id="path1886" inkscape:connector-curvature="0" style="fill:#918b4b"/></g></g></g><g transform="matrix(1.0000153,0,0,1,-49.80076,-48.721647)" id="g1888"><g id="g1890"><g id="Layer0_3_MEMBER_57_MEMBER_0_FILL"><path class="st1" d="m 1636.3,147.3 3.1,4.2 -3.1,-6.4 -3.3,6.3 3.3,-4.1 z" id="path1893" inkscape:connector-curvature="0" style="fill:#918b4b"/></g></g></g><g transform="matrix(1.0000153,0,0,1,-49.80076,-48.721647)" id="g1895"><g id="g1897"><g id="Layer0_3_MEMBER_58_MEMBER_0_FILL"><path class="st1" d="m 2025,151 4.7,6.6 -4.7,-10 -5.2,9.8 5.2,-6.4 z" id="path1900" inkscape:connector-curvature="0" style="fill:#918b4b"/></g></g></g><g transform="matrix(1.0000153,0,0,1,-49.80076,-48.721647)" id="g1902"><g id="g1904"><g id="Layer0_3_MEMBER_59_MEMBER_0_FILL"><path class="st1" d="m 1995,88.6 3.1,4.4 -3.1,-6.6 -3.4,6.5 3.4,-4.3 z" id="path1907" inkscape:connector-curvature="0" style="fill:#918b4b"/></g></g></g><g transform="matrix(1.0000153,0,0,1,-49.80076,-48.721647)" id="g1909"><g id="g1911"><g id="Layer0_3_MEMBER_60_MEMBER_0_FILL"><path class="st1" d="m 1941,82.1 2.8,4 -2.8,-5.9 -3.1,5.8 3.1,-3.9 z" id="path1914" inkscape:connector-curvature="0" style="fill:#918b4b"/></g></g></g><g transform="matrix(1.0000153,0,0,1,-49.80076,-48.721647)" id="g1916"><g id="g1918"><g id="Layer0_3_MEMBER_61_MEMBER_0_FILL"><path class="st1" d="m 1874,149.9 5.4,7.5 -5.4,-11.3 -5.8,11.1 5.8,-7.3 z" id="path1921" inkscape:connector-curvature="0" style="fill:#918b4b"/></g></g></g><g transform="matrix(1.0000153,0,0,1,-49.80076,-48.721647)" id="g1923"><g id="g1925"><g id="Layer0_3_MEMBER_62_MEMBER_0_FILL"><path class="st1" d="m 1884,85.9 5.5,7.5 -5.5,-11.4 -5.9,11.2 5.9,-7.3 z" id="path1928" inkscape:connector-curvature="0" style="fill:#918b4b"/></g></g></g><g transform="matrix(1.0000153,0,0,1,-49.80076,-48.721647)" id="g1930"><g id="g1932"><g id="Layer0_3_MEMBER_63_MEMBER_0_FILL"><path class="st1" d="m 1847.5,90.2 5.2,7.1 -5.2,-10.8 -5.6,10.6 5.6,-6.9 z" id="path1935" inkscape:connector-curvature="0" style="fill:#918b4b"/></g></g></g><g transform="matrix(1.0000153,0,0,1,-49.80076,-48.721647)" id="g1937"><g id="g1939"><g id="Layer0_3_MEMBER_64_MEMBER_0_FILL"><path class="st1" d="m 1785.6,157.2 5.4,-6.7 5,6.9 -5,-10.5 -5.4,10.3 z" id="path1942" inkscape:connector-curvature="0" style="fill:#918b4b"/></g></g></g><g transform="matrix(1.0000153,0,0,1,-49.80076,-48.721647)" id="g1944"><g id="g1946"><g id="Layer0_3_MEMBER_65_MEMBER_0_FILL"><path class="st1" d="m 1759.5,99.5 3.9,5.4 -3.9,-8.2 -4.2,8.1 4.2,-5.3 z" id="path1949" inkscape:connector-curvature="0" style="fill:#918b4b"/></g></g></g><g transform="matrix(1.0000153,0,0,1,-49.80076,-48.721647)" id="g1951"><g id="g1953"><g id="Layer0_3_MEMBER_66_MEMBER_0_FILL"><path class="st1" d="m 1660.2,155.7 5.8,-7.2 5.4,7.5 -5.4,-11.3 -5.8,11 z" id="path1956" inkscape:connector-curvature="0" style="fill:#918b4b"/></g></g></g><g transform="matrix(1.0000153,0,0,1,-49.80076,-48.721647)" id="g1958"><g id="g1960"><g id="Layer0_4_MEMBER_0_MEMBER_0_FILL"><path class="st0" d="M 550,159.3 V 89.2 c -11.7,0 -25.8,0.9 -42.4,2.7 -8,0.8 -23.2,2.7 -45.4,5.7 -39.9,5.2 -69.5,7.4 -88.7,6.8 -43,0.7 -106.4,-1.6 -190,-6.8 C 143,94.9 114.9,93 99.2,92 73,90.3 56.5,89.4 49.8,89.4 v 70.1 H 550 z" id="path1963" inkscape:connector-curvature="0" style="fill:#aba254"/></g></g></g><g transform="matrix(1.0000153,0,0,1,-49.80076,-48.721647)" id="g1965"><g id="g1967"><g id="Layer0_4_MEMBER_1_MEMBER_0_FILL"><path class="st1" d="m 91.9,144 4.2,5.9 -4.2,-9 -4.6,8.8 4.6,-5.7 z" id="path1970" inkscape:connector-curvature="0" style="fill:#918b4b"/></g></g></g><g transform="matrix(1.0000153,0,0,1,-49.80076,-48.721647)" id="g1972"><g id="g1974"><g id="Layer0_4_MEMBER_2_MEMBER_0_FILL"><path class="st1" d="m 121.1,130.8 5.2,7.1 -5.2,-10.8 -5.5,10.6 5.5,-6.9 z" id="path1977" inkscape:connector-curvature="0" style="fill:#918b4b"/></g></g></g><g transform="matrix(1.0000153,0,0,1,-49.80076,-48.721647)" id="g1979"><g id="g1981"><g id="Layer0_4_MEMBER_3_MEMBER_0_FILL"><path class="st1" d="m 152.9,135.5 4.1,5.6 -4.1,-8.5 -4.4,8.3 4.4,-5.4 z" id="path1984" inkscape:connector-curvature="0" style="fill:#918b4b"/></g></g></g><g transform="matrix(1.0000153,0,0,1,-49.80076,-48.721647)" id="g1986"><g id="g1988"><g id="Layer0_4_MEMBER_4_MEMBER_0_FILL"><path class="st1" d="m 184.9,136.9 4.5,6.2 -4.5,-9.4 -4.8,9.2 4.8,-6 z" id="path1991" inkscape:connector-curvature="0" style="fill:#918b4b"/></g></g></g><g transform="matrix(1.0000153,0,0,1,-49.80076,-48.721647)" id="g1993"><g id="g1995"><g id="Layer0_4_MEMBER_5_MEMBER_0_FILL"><path class="st1" d="m 203.6,133.5 5.3,-6.5 4.8,6.7 -4.8,-10.2 -5.3,10 z" id="path1998" inkscape:connector-curvature="0" style="fill:#918b4b"/></g></g></g><g transform="matrix(1.0000153,0,0,1,-49.80076,-48.721647)" id="g2000"><g id="g2002"><g id="Layer0_4_MEMBER_6_MEMBER_0_FILL"><path class="st1" d="m 244.4,137.8 2.8,3.9 -2.8,-6 -3.1,5.9 3.1,-3.8 z" id="path2005" inkscape:connector-curvature="0" style="fill:#918b4b"/></g></g></g><g transform="matrix(1.0000153,0,0,1,-49.80076,-48.721647)" id="g2007"><g id="g2009"><g id="Layer0_4_MEMBER_7_MEMBER_0_FILL"><path class="st1" d="m 275.5,127.1 4.8,6.6 -4.8,-10 -5.1,9.8 5.1,-6.4 z" id="path2012" inkscape:connector-curvature="0" style="fill:#918b4b"/></g></g></g><g transform="matrix(1.0000153,0,0,1,-49.80076,-48.721647)" id="g2014"><g id="g2016"><g id="Layer0_4_MEMBER_8_MEMBER_0_FILL"><path class="st1" d="m 302.3,140 4.6,6.4 -4.6,-9.7 -5,9.4 5,-6.1 z" id="path2019" inkscape:connector-curvature="0" style="fill:#918b4b"/></g></g></g><g transform="matrix(1.0000153,0,0,1,-49.80076,-48.721647)" id="g2021"><g id="g2023"><g id="Layer0_4_MEMBER_9_MEMBER_0_FILL"><path class="st1" d="m 323.5,131.8 5.2,7.2 -5.2,-11.1 -5.7,10.9 5.7,-7 z" id="path2026" inkscape:connector-curvature="0" style="fill:#918b4b"/></g></g></g><g transform="matrix(1.0000153,0,0,1,-49.80076,-48.721647)" id="g2028"><g id="g2030"><g id="Layer0_4_MEMBER_10_MEMBER_0_FILL"><path class="st1" d="m 366.1,133.3 4.1,5.7 -4.1,-8.6 -4.5,8.4 4.5,-5.5 z" id="path2033" inkscape:connector-curvature="0" style="fill:#918b4b"/></g></g></g><g transform="matrix(1.0000153,0,0,1,-49.80076,-48.721647)" id="g2035"><g id="g2037"><g id="Layer0_4_MEMBER_11_MEMBER_0_FILL"><path class="st1" d="m 397.7,142.2 5.1,7.2 -5.1,-10.8 -5.6,10.6 5.6,-7 z" id="path2040" inkscape:connector-curvature="0" style="fill:#918b4b"/></g></g></g><g transform="matrix(1.0000153,0,0,1,-49.80076,-48.721647)" id="g2042"><g id="g2044"><g id="Layer0_4_MEMBER_12_MEMBER_0_FILL"><path class="st1" d="m 429.5,148.8 3,4.1 -3,-6.2 -3.2,6.1 3.2,-4 z" id="path2047" inkscape:connector-curvature="0" style="fill:#918b4b"/></g></g></g><g transform="matrix(1.0000153,0,0,1,-49.80076,-48.721647)" id="g2049"><g id="g2051"><g id="Layer0_4_MEMBER_13_MEMBER_0_FILL"><path class="st1" d="m 452.3,136.7 2.7,3.7 -2.7,-5.6 -2.9,5.4 2.9,-3.5 z" id="path2054" inkscape:connector-curvature="0" style="fill:#918b4b"/></g></g></g><g transform="matrix(1.0000153,0,0,1,-49.80076,-48.721647)" id="g2056"><g id="g2058"><g id="Layer0_4_MEMBER_14_MEMBER_0_FILL"><path class="st1" d="m 483,137 5.4,7.4 -5.4,-11.3 -5.9,11.1 5.9,-7.2 z" id="path2061" inkscape:connector-curvature="0" style="fill:#918b4b"/></g></g></g><g transform="matrix(1.0000153,0,0,1,-49.80076,-48.721647)" id="g2063"><g id="g2065"><g id="Layer0_4_MEMBER_15_MEMBER_0_FILL"><path class="st1" d="m 515.9,128.5 5.6,7.8 -5.6,-11.8 -6.1,11.5 6.1,-7.5 z" id="path2068" inkscape:connector-curvature="0" style="fill:#918b4b"/></g></g></g><g transform="matrix(1.0000153,0,0,1,-49.80076,-48.721647)" id="g2070"><g id="g2072"><g id="Layer0_4_MEMBER_16_MEMBER_0_FILL"><path class="st1" d="m 541.7,142.6 4.7,6.6 -4.7,-10 -5.2,9.8 5.2,-6.4 z" id="path2075" inkscape:connector-curvature="0" style="fill:#918b4b"/></g></g></g><g transform="matrix(1.0000153,0,0,1,-49.80076,-48.721647)" id="g2077"><g id="g2079"><g id="Layer0_4_MEMBER_17_MEMBER_0_FILL"><path class="st1" d="m 272.5,146.3 5.4,7.4 -5.4,-11.2 -5.8,11.1 5.8,-7.3 z" id="path2082" inkscape:connector-curvature="0" style="fill:#918b4b"/></g></g></g><g transform="matrix(1.0000153,0,0,1,-49.80076,-48.721647)" id="g2084"><g id="g2086"><g id="Layer0_4_MEMBER_18_MEMBER_0_FILL"><path class="st1" d="m 503.3,149.3 3.1,4.2 -3.1,-6.4 -3.3,6.3 3.3,-4.1 z" id="path2089" inkscape:connector-curvature="0" style="fill:#918b4b"/></g></g></g><g transform="matrix(1.0000153,0,0,1,-49.80076,-48.721647)" id="g2091"><g id="g2093"><g id="Layer0_4_MEMBER_19_MEMBER_0_FILL"><path class="st1" d="m 214.5,145.3 5.2,7.2 -5.2,-11 -5.6,10.8 5.6,-7 z" id="path2096" inkscape:connector-curvature="0" style="fill:#918b4b"/></g></g></g><g transform="matrix(1.0000153,0,0,1,-49.80076,-48.721647)" id="g2098"><g id="g2100"><g id="Layer0_4_MEMBER_20_MEMBER_0_FILL"><path class="st1" d="m 544.5,115.7 3,4.1 -3,-6.2 -3.2,6 3.2,-3.9 z" id="path2103" inkscape:connector-curvature="0" style="fill:#918b4b"/></g></g></g><g transform="matrix(1.0000153,0,0,1,-49.80076,-48.721647)" id="g2105"><g id="g2107"><g id="Layer0_4_MEMBER_21_MEMBER_0_FILL"><path class="st1" d="m 515.1,111.3 2.6,3.7 -2.6,-5.5 -2.8,5.4 2.8,-3.6 z" id="path2110" inkscape:connector-curvature="0" style="fill:#918b4b"/></g></g></g><g transform="matrix(1.0000153,0,0,1,-49.80076,-48.721647)" id="g2112"><g id="g2114"><g id="Layer0_4_MEMBER_22_MEMBER_0_FILL"><path class="st1" d="m 483.9,118.3 4.6,6.3 -4.6,-9.6 -4.9,9.4 4.9,-6.1 z" id="path2117" inkscape:connector-curvature="0" style="fill:#918b4b"/></g></g></g><g transform="matrix(1.0000153,0,0,1,-49.80076,-48.721647)" id="g2119"><g id="g2121"><g id="Layer0_4_MEMBER_23_MEMBER_0_FILL"><path class="st1" d="m 446.4,114.4 4.6,6.5 -4.6,-9.8 -5.1,9.5 5.1,-6.2 z" id="path2124" inkscape:connector-curvature="0" style="fill:#918b4b"/></g></g></g><g transform="matrix(1.0000153,0,0,1,-49.80076,-48.721647)" id="g2126"><g id="g2128"><g id="Layer0_4_MEMBER_24_MEMBER_0_FILL"><path class="st1" d="m 417.8,117.1 3.5,4.8 -3.5,-7.3 -3.8,7.2 3.8,-4.7 z" id="path2131" inkscape:connector-curvature="0" style="fill:#918b4b"/></g></g></g><g transform="matrix(1.0000153,0,0,1,-49.80076,-48.721647)" id="g2133"><g id="g2135"><g id="Layer0_4_MEMBER_25_MEMBER_0_FILL"><path class="st1" d="m 394.5,123.8 2.6,3.7 -2.6,-5.6 -2.9,5.5 2.9,-3.6 z" id="path2138" inkscape:connector-curvature="0" style="fill:#918b4b"/></g></g></g><g transform="matrix(1.0000153,0,0,1,-49.80076,-48.721647)" id="g2140"><g id="g2142"><g id="Layer0_4_MEMBER_26_MEMBER_0_FILL"><path class="st1" d="m 368.3,117 3,-3.7 2.8,3.8 -2.8,-5.8 -3,5.7 z" id="path2145" inkscape:connector-curvature="0" style="fill:#918b4b"/></g></g></g><g transform="matrix(1.0000153,0,0,1,-49.80076,-48.721647)" id="g2147"><g id="g2149"><g id="Layer0_4_MEMBER_27_MEMBER_0_FILL"><path class="st1" d="m 341.3,122.4 3.4,4.8 -3.4,-7.2 -3.8,7.1 3.8,-4.7 z" id="path2152" inkscape:connector-curvature="0" style="fill:#918b4b"/></g></g></g><g transform="matrix(1.0000153,0,0,1,-49.80076,-48.721647)" id="g2154"><g id="g2156"><g id="Layer0_4_MEMBER_28_MEMBER_0_FILL"><path class="st1" d="m 309.5,112 3.2,4.4 -3.2,-6.7 -3.4,6.6 3.4,-4.3 z" id="path2159" inkscape:connector-curvature="0" style="fill:#918b4b"/></g></g></g><g transform="matrix(1.0000153,0,0,1,-49.80076,-48.721647)" id="g2161"><g id="g2163"><g id="Layer0_4_MEMBER_29_MEMBER_0_FILL"><path class="st1" d="m 279.1,107.1 5,6.9 -5,-10.5 -5.5,10.3 5.5,-6.7 z" id="path2166" inkscape:connector-curvature="0" style="fill:#918b4b"/></g></g></g><g transform="matrix(1.0000153,0,0,1,-49.80076,-48.721647)" id="g2168"><g id="g2170"><g id="Layer0_4_MEMBER_30_MEMBER_0_FILL"><path class="st1" d="m 243.5,124.4 5.8,-7 5.2,7.3 -5.2,-11.1 -5.8,10.8 z" id="path2173" inkscape:connector-curvature="0" style="fill:#918b4b"/></g></g></g><g transform="matrix(1.0000153,0,0,1,-49.80076,-48.721647)" id="g2175"><g id="g2177"><g id="Layer0_4_MEMBER_31_MEMBER_0_FILL"><path class="st1" d="m 224.8,116.1 4.6,6.3 -4.6,-9.6 -5,9.4 5,-6.1 z" id="path2180" inkscape:connector-curvature="0" style="fill:#918b4b"/></g></g></g><g transform="matrix(1.0000153,0,0,1,-49.80076,-48.721647)" id="g2182"><g id="g2184"><g id="Layer0_4_MEMBER_32_MEMBER_0_FILL"><path class="st1" d="m 192.2,115 3.4,4.8 -3.4,-7.2 -3.8,7.1 3.8,-4.7 z" id="path2187" inkscape:connector-curvature="0" style="fill:#918b4b"/></g></g></g><g transform="matrix(1.0000153,0,0,1,-49.80076,-48.721647)" id="g2189"><g id="g2191"><g id="Layer0_4_MEMBER_33_MEMBER_0_FILL"><path class="st1" d="m 158.4,106.3 4.8,6.6 -4.8,-10 -5.1,9.8 5.1,-6.4 z" id="path2194" inkscape:connector-curvature="0" style="fill:#918b4b"/></g></g></g><g transform="matrix(1.0000153,0,0,1,-49.80076,-48.721647)" id="g2196"><g id="g2198"><g id="Layer0_4_MEMBER_34_MEMBER_0_FILL"><path class="st1" d="m 126,114.9 3.3,-4.1 3,4.2 -3,-6.3 -3.3,6.2 z" id="path2201" inkscape:connector-curvature="0" style="fill:#918b4b"/></g></g></g><g transform="matrix(1.0000153,0,0,1,-49.80076,-48.721647)" id="g2203"><g id="g2205"><g id="Layer0_4_MEMBER_35_MEMBER_0_FILL"><path class="st1" d="m 60.7,123.2 3,4.2 -3,-6.3 -3.2,6.2 3.2,-4.1 z" id="path2208" inkscape:connector-curvature="0" style="fill:#918b4b"/></g></g></g><g transform="matrix(1.0000153,0,0,1,-49.80076,-48.721647)" id="g2210"><g id="g2212"><g id="Layer0_4_MEMBER_36_MEMBER_0_FILL"><path class="st1" d="m 102.4,113.9 5.5,7.7 -5.5,-11.6 -6,11.3 6,-7.4 z" id="path2215" inkscape:connector-curvature="0" style="fill:#918b4b"/></g></g></g><g transform="matrix(1.0000153,0,0,1,-49.80076,-48.721647)" id="g2217"><g id="g2219"><g id="Layer0_4_MEMBER_37_MEMBER_0_FILL"><path class="st1" d="m 78.5,110.7 4.2,5.8 -4.2,-8.8 -4.6,8.7 4.6,-5.7 z" id="path2222" inkscape:connector-curvature="0" style="fill:#918b4b"/></g></g></g><g transform="matrix(1.0000153,0,0,1,-49.80076,-48.721647)" id="g2224"><g id="g2226"><g id="Layer0_4_MEMBER_38_MEMBER_0_FILL"><path class="st1" d="m 66.5,95.5 4.4,6 -4.4,-9.2 -4.8,9 4.8,-5.8 z" id="path2229" inkscape:connector-curvature="0" style="fill:#918b4b"/></g></g></g><g transform="matrix(1.0000153,0,0,1,-49.80076,-48.721647)" id="g2231"><g id="g2233"><g id="Layer0_4_MEMBER_39_MEMBER_0_FILL"><path class="st1" d="m 91.5,101 4.8,6.8 -4.8,-10.2 -5.2,10.1 5.2,-6.7 z" id="path2236" inkscape:connector-curvature="0" style="fill:#918b4b"/></g></g></g><g transform="matrix(1.0000153,0,0,1,-49.80076,-48.721647)" id="g2238"><g id="g2240"><g id="Layer0_4_MEMBER_40_MEMBER_0_FILL"><path class="st1" d="m 117.5,98.5 5.7,7.9 -5.7,-12 -6.2,11.8 6.2,-7.7 z" id="path2243" inkscape:connector-curvature="0" style="fill:#918b4b"/></g></g></g><g transform="matrix(1.0000153,0,0,1,-49.80076,-48.721647)" id="g2245"><g id="g2247"><g id="Layer0_4_MEMBER_41_MEMBER_0_FILL"><path class="st1" d="m 152.5,153 3.7,5.2 -3.7,-7.8 -4.1,7.6 4.1,-5 z" id="path2250" inkscape:connector-curvature="0" style="fill:#918b4b"/></g></g></g><g transform="matrix(1.0000153,0,0,1,-49.80076,-48.721647)" id="g2252"><g id="g2254"><g id="Layer0_4_MEMBER_42_MEMBER_0_FILL"><path class="st1" d="m 198,100.3 3.2,4.4 -3.2,-6.7 -3.4,6.6 3.4,-4.3 z" id="path2257" inkscape:connector-curvature="0" style="fill:#918b4b"/></g></g></g><g transform="matrix(1.0000153,0,0,1,-49.80076,-48.721647)" id="g2259"><g id="g2261"><g id="Layer0_4_MEMBER_43_MEMBER_0_FILL"><path class="st1" d="m 241.3,103.3 2.6,3.8 -2.6,-5.7 -2.9,5.6 2.9,-3.7 z" id="path2264" inkscape:connector-curvature="0" style="fill:#918b4b"/></g></g></g><g transform="matrix(1.0000153,0,0,1,-49.80076,-48.721647)" id="g2266"><g id="g2268"><g id="Layer0_4_MEMBER_44_MEMBER_0_FILL"><path class="st1" d="m 194,154.1 2.7,3.8 -2.7,-5.7 -2.9,5.6 2.9,-3.7 z" id="path2271" inkscape:connector-curvature="0" style="fill:#918b4b"/></g></g></g><g transform="matrix(1.0000153,0,0,1,-49.80076,-48.721647)" id="g2273"><g id="g2275"><g id="Layer0_4_MEMBER_45_MEMBER_0_FILL"><path class="st1" d="m 67.5,150.8 2.7,3.8 -2.7,-5.6 -2.9,5.5 2.9,-3.7 z" id="path2278" inkscape:connector-curvature="0" style="fill:#918b4b"/></g></g></g><g transform="matrix(1.0000153,0,0,1,-49.80076,-48.721647)" id="g2280"><g id="g2282"><g id="Layer0_4_MEMBER_46_MEMBER_0_FILL"><path class="st1" d="m 245.2,158.6 5.4,-6.7 4.9,6.9 -4.9,-10.4 -5.4,10.2 z" id="path2285" inkscape:connector-curvature="0" style="fill:#918b4b"/></g></g></g><g transform="matrix(1.0000153,0,0,1,-49.80076,-48.721647)" id="g2287"><g id="g2289"><g id="Layer0_4_MEMBER_47_MEMBER_0_FILL"><path class="st1" d="m 316,153.2 3.5,5 -3.5,-7.5 -3.9,7.3 3.9,-4.8 z" id="path2292" inkscape:connector-curvature="0" style="fill:#918b4b"/></g></g></g><g transform="matrix(1.0000153,0,0,1,-49.80076,-48.721647)" id="g2294"><g id="g2296"><g id="Layer0_4_MEMBER_48_MEMBER_0_FILL"><path class="st1" d="m 355.5,113 4.9,6.8 -4.9,-10.3 -5.3,10.1 5.3,-6.6 z" id="path2299" inkscape:connector-curvature="0" style="fill:#918b4b"/></g></g></g><g transform="matrix(1.0000153,0,0,1,-49.80076,-48.721647)" id="g2301"><g id="g2303"><g id="Layer0_4_MEMBER_49_MEMBER_0_FILL"><path class="st1" d="m 455.5,153.6 3,4.1 -3,-6.3 -3.2,6.2 3.2,-4 z" id="path2306" inkscape:connector-curvature="0" style="fill:#918b4b"/></g></g></g><g transform="matrix(1.0000153,0,0,1,-49.80076,-48.721647)" id="g2308"><g id="g2310"><g id="Layer0_4_MEMBER_50_MEMBER_0_FILL"><path class="st1" d="m 427.9,108.2 4.7,6.5 -4.7,-9.9 -5.1,9.7 5.1,-6.3 z" id="path2313" inkscape:connector-curvature="0" style="fill:#918b4b"/></g></g></g><g transform="matrix(1.0000153,0,0,1,-49.80076,-48.721647)" id="g2315"><g id="g2317"><g id="Layer0_4_MEMBER_51_MEMBER_0_FILL"><path class="st1" d="m 458,103 5.2,7.2 -5.2,-11 -5.7,10.8 5.7,-7 z" id="path2320" inkscape:connector-curvature="0" style="fill:#918b4b"/></g></g></g><g transform="matrix(1.0000153,0,0,1,-49.80076,-48.721647)" id="g2322"><g id="g2324"><g id="Layer0_4_MEMBER_52_MEMBER_0_FILL"><path class="st1" d="m 477.8,103.1 3.4,4.7 -3.4,-7.1 -3.6,6.9 3.6,-4.5 z" id="path2327" inkscape:connector-curvature="0" style="fill:#918b4b"/></g></g></g><g transform="matrix(1.0000153,0,0,1,-49.80076,-48.721647)" id="g2329"><g id="g2331"><g id="Layer0_4_MEMBER_53_MEMBER_0_FILL"><path class="st1" d="m 502.8,102.3 3.4,4.7 -3.4,-7.1 -3.6,6.9 3.6,-4.5 z" id="path2334" inkscape:connector-curvature="0" style="fill:#918b4b"/></g></g></g><g transform="matrix(1.0000153,0,0,1,-49.80076,-48.721647)" id="g2336"><g id="g2338"><g id="Layer0_4_MEMBER_54_MEMBER_0_FILL"><path class="st1" d="m 536.2,100.2 4.3,6 -4.3,-9.1 -4.7,8.9 4.7,-5.8 z" id="path2341" inkscape:connector-curvature="0" style="fill:#918b4b"/></g></g></g><g transform="matrix(1.0000153,0,0,1,-49.80076,-48.721647)" id="g2343"><g id="g2345"><g id="Layer0_4_MEMBER_55_MEMBER_0_FILL"><path class="st1" d="m 347.5,148.3 4.9,6.9 -4.9,-10.4 -5.4,10.2 5.4,-6.7 z" id="path2348" inkscape:connector-curvature="0" style="fill:#918b4b"/></g></g></g><g transform="matrix(1.0000153,0,0,1,-49.80076,-48.721647)" id="g2350"><g id="g2352"><g id="Layer0_4_MEMBER_56_MEMBER_0_FILL"><path class="st1" d="m 136.3,147.3 3.1,4.2 -3.1,-6.4 -3.3,6.3 3.3,-4.1 z" id="path2355" inkscape:connector-curvature="0" style="fill:#918b4b"/></g></g></g><g transform="matrix(1.0000153,0,0,1,-49.80076,-48.721647)" id="g2357"><g id="g2359"><g id="Layer0_4_MEMBER_57_MEMBER_0_FILL"><path class="st1" d="m 527.5,152 4.8,6.6 -4.8,-10 -5.1,9.8 5.1,-6.4 z" id="path2362" inkscape:connector-curvature="0" style="fill:#918b4b"/></g></g></g><g transform="matrix(1.0000153,0,0,1,-49.80076,-48.721647)" id="g2364"><g id="g2366"><g id="Layer0_4_MEMBER_58_MEMBER_0_FILL"><path class="st1" d="m 369.1,157.8 3.4,-4.2 3.1,4.3 -3.1,-6.6 -3.4,6.5 z" id="path2369" inkscape:connector-curvature="0" style="fill:#918b4b"/></g></g></g><g transform="matrix(1.0000153,0,0,1,-49.80076,-48.721647)" id="g2371"><g id="g2373"><g id="Layer0_4_MEMBER_59_MEMBER_0_FILL"><path class="st1" d="m 180.5,103 4.1,5.8 -4.1,-8.8 -4.5,8.6 4.5,-5.6 z" id="path2376" inkscape:connector-curvature="0" style="fill:#918b4b"/></g></g></g><g transform="matrix(1.0000153,0,0,1,-49.80076,-48.721647)" id="g2378"><g id="g2380"><g id="Layer0_4_MEMBER_60_MEMBER_0_FILL"><path class="st1" d="m 111,149.4 5.7,7.9 -5.7,-11.9 -6.1,11.6 6.1,-7.6 z" id="path2383" inkscape:connector-curvature="0" style="fill:#918b4b"/></g></g></g><g transform="matrix(1.0000153,0,0,1,-49.80076,-48.721647)" id="g2385"><g id="g2387"><g id="Layer0_4_MEMBER_61_MEMBER_0_FILL"><path class="st1" d="m 73,135.5 3.5,4.9 -3.5,-7.4 -3.9,7.4 3.9,-4.9 z" id="path2390" inkscape:connector-curvature="0" style="fill:#918b4b"/></g></g></g></svg>
