<?xml version="1.0" encoding="UTF-8" standalone="no"?>
<!-- Generator: Adobe Illustrator 20.1.0, SVG Export Plug-In . SVG Version: 6.00 Build 0)  -->
<svg xmlns:dc="http://purl.org/dc/elements/1.1/" xmlns:cc="http://creativecommons.org/ns#" xmlns:rdf="http://www.w3.org/1999/02/22-rdf-syntax-ns#" xmlns:svg="http://www.w3.org/2000/svg" xmlns="http://www.w3.org/2000/svg" xmlns:sodipodi="http://sodipodi.sourceforge.net/DTD/sodipodi-0.dtd" xmlns:inkscape="http://www.inkscape.org/namespaces/inkscape" version="1.1" id="Layer_1" x="0px" y="0px" viewBox="0 0 745.69999 235.725" xml:space="preserve" inkscape:version="0.48.5 r10040" width="116px" height="37px" sodipodi:docname="mound_01.svg" preserveAspectRatio="none"><metadata id="metadata77"><rdf:RDF><cc:Work rdf:about=""><dc:format>image/svg+xml</dc:format><dc:type rdf:resource="http://purl.org/dc/dcmitype/StillImage"/></cc:Work></rdf:RDF></metadata><defs id="defs75"/><sodipodi:namedview pagecolor="#ffffff" bordercolor="#666666" borderopacity="1" objecttolerance="10" gridtolerance="10" guidetolerance="10" inkscape:pageopacity="0" inkscape:pageshadow="2" inkscape:window-width="640" inkscape:window-height="480" id="namedview73" showgrid="false" inkscape:zoom="0.50175484" inkscape:cx="370.55" inkscape:cy="123.55" inkscape:window-x="0" inkscape:window-y="0" inkscape:window-maximized="0" inkscape:current-layer="Layer_1"/><style type="text/css" id="style3">
	.st0{fill:url(#SVGID_1_);}
	.st1{fill:#918B4B;}
	.st2{fill:#99A5A8;}
	.st3{fill:#839295;}
	.st4{fill:#6C7D80;}
	.st5{fill:#BEB778;}
</style><g transform="translate(-14.1,-23.875002)" id="g5"><g id="g7"><g id="Layer0_0_MEMBER_0_FILL"><linearGradient id="SVGID_1_" gradientUnits="userSpaceOnUse" x1="387" y1="255.7756" x2="387" y2="29.182899" gradientTransform="matrix(1,0,0,-1,0,285.3833)"><stop offset="7.843137e-03" style="stop-color:#C0B87B" id="stop11"/><stop offset="1" style="stop-color:#ABA254" id="stop13"/></linearGradient><path class="st0" d="M 652.8,131 C 621.3,99.7 597.7,77.1 582.1,63.2 554.7,38.8 531.1,25.7 511.4,24 c -17.1,-1.5 -40.5,10.5 -70.1,36 -32.4,27.9 -54.7,43 -67.2,45.3 -81.4,16.5 -139.9,33.6 -175.5,51.4 -34.3,17.1 -95.8,51.4 -184.5,102.9 H 759.8 C 749.9,245.5 738.1,229.4 724.1,211.4 696.3,175.8 672.5,149 652.8,131 z" id="path15" inkscape:connector-curvature="0" style="fill:url(#SVGID_1_)"/></g></g></g><g transform="translate(-14.1,-23.875002)" id="g17"><g id="g19"><g id="Layer0_0_MEMBER_1_FILL"><path class="st1" d="M 423.6,71.2 C 409.5,86 377.3,98 327.2,107.2 269.8,117.7 233.3,127.1 217.9,135.5 180.6,155.4 112.7,196.8 14.1,259.6 90,253 148.2,247 188.9,241.6 c 11.8,-1.5 22.2,-8.4 31.2,-20.6 9.6,-13.1 26,-22.3 49.2,-27.6 12.2,-2.8 39.6,-6.9 82.3,-12.2 23.4,-2.8 38.8,-8.8 46.3,-18 27.6,-33.4 54,-67 79.1,-100.6 12.9,-17.1 24.3,-30 34.4,-38.6 -8.1,1.1 -17.9,3.9 -29.2,8.4 -23,8.9 -42.5,21.9 -58.6,38.8 z" id="path22" inkscape:connector-curvature="0" style="fill:#918b4b"/></g></g></g><g transform="translate(-14.1,-23.875002)" id="g24"><g id="g26"><g id="Layer0_0_MEMBER_2_FILL"><path class="st1" d="m 538.7,120.4 49.8,62 -49.8,-95.1 -46,97.1 46,-64 z" id="path29" inkscape:connector-curvature="0" style="fill:#918b4b"/></g></g></g><g transform="translate(-14.1,-23.875002)" id="g31"><g id="g33"><g id="Layer0_0_MEMBER_3_FILL"><path class="st1" d="m 615.8,224.5 29.2,-40.8 31.8,39.5 -31.8,-60.7 -29.2,62 z" id="path36" inkscape:connector-curvature="0" style="fill:#918b4b"/></g></g></g><g transform="translate(-14.1,-23.875002)" id="g38"><g id="g40"><g id="Layer0_0_MEMBER_4_FILL"><path class="st1" d="M 369.3,250.9 390.2,221.7 413,250 390.2,206.6 369.3,250.9 z" id="path43" inkscape:connector-curvature="0" style="fill:#918b4b"/></g></g></g><g transform="translate(-14.1,-23.875002)" id="g45"><g id="g47"><g id="Layer0_0_MEMBER_5_FILL"><path class="st2" d="M 486.6,24 459,31.4 439.7,29.5 388.3,59.4 358.1,101.2 418.2,98 432,74.4 455.8,59.3 493.1,28.1 486.6,24 z" id="path50" inkscape:connector-curvature="0" style="fill:#99a5a8"/></g></g></g><g transform="translate(-14.1,-23.875002)" id="g52"><g id="g54"><g id="Layer0_0_MEMBER_6_FILL"><path class="st3" d="m 417.5,99.5 14.5,-25.1 -2.2,-7.1 8,-20.9 1.9,-17 -19.6,20.9 -30.5,13.8 -3.2,28 31.1,7.4 z" id="path57" inkscape:connector-curvature="0" style="fill:#839295"/></g></g></g><g transform="translate(-14.1,-23.875002)" id="g59"><g id="g61"><g id="Layer0_0_MEMBER_7_FILL"><path class="st4" d="m 422.4,53.9 17.4,-24.4 -51.4,29.9 -12.9,5.5 -3.2,17 -9.6,7.4 -5.5,19.3 13.8,3.2 46.6,-12.2 -21.9,-16.7 3.2,-19.3 23.5,-9.7 z" id="path64" inkscape:connector-curvature="0" style="fill:#6c7d80"/></g></g></g><g transform="translate(-14.1,-23.875002)" id="g66"><g id="g68"><g id="Layer0_0_MEMBER_8_FILL"><path class="st5" d="M 648.9,149.3 C 635,130 619.8,111.2 603.3,92.7 570.1,56.1 546.7,40.1 533.2,44.8 c -4.3,1.5 -0.4,11.1 11.6,28.9 6.9,9.9 17.5,24.9 31.8,45 10.7,17.1 20.9,39.1 30.5,65.9 -4.7,-14.8 -8.6,-29 -11.6,-42.7 -6,-27.6 -4.3,-39.1 5.1,-34.4 9.4,4.7 20.2,13.1 32.5,25.1 6.3,6 11.6,11.6 15.8,16.7 z" id="path71" inkscape:connector-curvature="0" style="fill:#beb778"/></g></g></g></svg>
