<?xml version="1.0" encoding="UTF-8" standalone="no"?>
<!-- Generator: Adobe Illustrator 20.1.0, SVG Export Plug-In . SVG Version: 6.00 Build 0)  -->
<svg xmlns:dc="http://purl.org/dc/elements/1.1/" xmlns:cc="http://creativecommons.org/ns#" xmlns:rdf="http://www.w3.org/1999/02/22-rdf-syntax-ns#" xmlns:svg="http://www.w3.org/2000/svg" xmlns="http://www.w3.org/2000/svg" xmlns:sodipodi="http://sodipodi.sourceforge.net/DTD/sodipodi-0.dtd" xmlns:inkscape="http://www.inkscape.org/namespaces/inkscape" version="1.1" id="Layer_1" x="0px" y="0px" viewBox="0 0 944 975" xml:space="preserve" inkscape:version="0.48.5 r10040" width="585px" height="603px" sodipodi:docname="neuron_01.svg" preserveAspectRatio="none"><metadata id="metadata1085"><rdf:RDF><cc:Work rdf:about=""><dc:format>image/svg+xml</dc:format><dc:type rdf:resource="http://purl.org/dc/dcmitype/StillImage"/></cc:Work></rdf:RDF></metadata><defs id="defs1083"/><sodipodi:namedview pagecolor="#ffffff" bordercolor="#666666" borderopacity="1" objecttolerance="10" gridtolerance="10" guidetolerance="10" inkscape:pageopacity="0" inkscape:pageshadow="2" inkscape:window-width="640" inkscape:window-height="480" id="namedview1081" showgrid="false" inkscape:zoom="0.236" inkscape:cx="472" inkscape:cy="487.8" inkscape:window-x="0" inkscape:window-y="0" inkscape:window-maximized="0" inkscape:current-layer="Layer_1"/><style type="text/css" id="style3">
	.st0{fill:#437879;}
	.st1{fill:#75B5B4;}
	.st2{fill:#3C6162;}
	.st3{fill:url(#SVGID_1_);}
	.st4{fill:#A35F77;}
	.st5{fill:url(#SVGID_2_);}
	.st6{fill:#C68698;}
	.st7{fill:url(#SVGID_3_);}
	.st8{fill:url(#SVGID_4_);}
	.st9{fill:url(#SVGID_5_);}
	.st10{fill:url(#SVGID_6_);}
	.st11{fill:url(#SVGID_7_);}
	.st12{fill:url(#SVGID_8_);}
	.st13{fill:url(#SVGID_9_);}
	.st14{filter:url(#Filter_1);}
	.st15{fill:url(#SVGID_10_);}
	.st16{filter:url(#Filter_2);}
	.st17{fill:url(#SVGID_11_);}
	.st18{fill:url(#SVGID_12_);}
	.st19{fill:url(#SVGID_13_);}
	.st20{fill:url(#SVGID_14_);}
	.st21{fill:url(#SVGID_15_);}
	.st22{fill:url(#SVGID_16_);}
	.st23{fill:url(#SVGID_17_);}
	.st24{fill:url(#SVGID_18_);}
	.st25{fill:url(#SVGID_19_);}
	.st26{fill:url(#SVGID_20_);}
	.st27{fill:url(#SVGID_21_);}
</style><filter color-interpolation-filters="sRGB" height="1.4" id="Filter_2" width="1.4" x="-0.2" y="-0.2"><feColorMatrix in="SourceGraphic" result="result1" type="matrix" values="1 0 0 0 0 0 1 0 0 0 0 0 1 0 0 0 0 0 0.76 0" id="feColorMatrix6"/></filter><filter color-interpolation-filters="sRGB" height="1.4" id="Filter_1" width="1.4" x="-0.2" y="-0.2"><feColorMatrix in="SourceGraphic" result="result1" type="matrix" values="1 0 0 0 0 0 1 0 0 0 0 0 1 0 0 0 0 0 0.72 0" id="feColorMatrix9"/></filter><g id="g11" transform="translate(-28,-12.8)"><g transform="translate(-266.4,25.5)" id="g13"><g id="g15"><g id="Symbol_1_0_Layer0_0_MEMBER_0_FILL"><path class="st0" d="M 870.8,18 C 859.5,6.2 847.6,-2.5 835.3,-8 l -15.2,-4.7 3.9,1.5 c 3.5,2 7.7,5.4 12.6,10.2 17.1,17.1 27.9,28.1 32.3,32.9 16.4,17.9 26.9,32.1 31.3,42.5 2.7,6.2 10.3,20.9 22.9,43.9 11.7,21.4 20.2,39 25.4,52.7 5.9,15.2 12.8,26.9 20.6,34.9 4.3,4.5 10,9.3 17.1,14.6 6.3,6.3 15.7,16.9 28.3,31.8 -2.4,-1.2 -5.5,-2.4 -9.4,-3.8 -7.9,-2.7 -15.7,-4.6 -23.6,-5.7 -5.2,-0.6 -14.3,-0.1 -27.3,1.5 -12.3,1.5 -23.2,1.4 -32.7,-0.4 -12.2,-2.2 -23.6,-5.6 -34.4,-10.1 -9.8,-4.2 -16,-7.9 -18.6,-11.1 -0.6,-0.9 -2.5,-5.3 -5.5,-13.4 -2.7,-7 -6.3,-12.3 -11,-16 -4.9,-3.8 -12.5,-4.3 -22.9,-1.3 -11.9,4.4 -20.3,7.2 -25.4,8.4 -5.9,1.3 -10.8,0.3 -14.8,-3.2 -7.4,-6.5 -12.6,-10.6 -15.8,-12.1 -6.7,-3.3 -13.7,-4.3 -21.1,-2.9 -8.3,2.4 -15,3.7 -20.1,4.1 -6.4,0.5 -13.4,0.6 -21.1,0.5 l -9.5,-0.5 14.1,4.7 c 5.5,1.8 10.2,2.3 14.1,1.5 10,-2.2 17,-3.5 21.2,-3.9 9.1,-0.9 18.3,2.6 27.4,10.6 2.4,2 5.6,5 9.7,9 3.5,3 6.4,4.7 8.8,5.2 5.4,1.1 11.9,0.6 19.3,-1.4 6.5,-1.9 11.5,-4.2 14.8,-6.8 3.1,-2.5 6.7,-3.8 10.6,-4 4.2,-0.2 6.5,1.2 7.1,4 0.4,2 0.8,4.5 1.2,7.7 0.7,3.5 2.3,8.4 4.7,14.7 2.7,7.1 14.5,14.5 35.2,22.3 19.2,7.1 34.1,10.7 44.9,10.7 5.3,0 13.6,-0.7 25.1,-2 8.8,-1.1 15.4,-1.2 19.7,-0.4 9.8,2 16.6,3.6 20.5,4.8 7.9,2.7 12,5.8 12.5,9.3 0.9,6 1.2,10.1 0.9,12.1 -0.7,4.8 -3.4,10.6 -8,17.3 -5.3,7.6 -9.6,15.5 -13.1,23.7 -3.5,8.1 -7,18.7 -10.5,31.7 -1.6,5.8 -5.1,21.1 -10.5,45.9 -4.1,19.1 -7.3,30.9 -9.5,35.3 -2.6,5.3 -7.6,9.3 -15,12.1 -5.7,2.1 -11.3,3.2 -16.8,3.2 l 6.2,5.7 c 5.9,3.9 13.2,6.4 22,7.3 8.9,1 20.8,8.8 35.7,23.3 7.5,7.2 14,14.4 19.7,21.4 -4.7,-21.2 -7.9,-41.2 -9.4,-60.1 -0.9,-10.9 -1.2,-18.3 -0.8,-22 0.5,-7.1 0.8,-12.7 0.8,-16.8 0,-10.1 2,-21.3 6,-33.7 3.7,-11.3 8.4,-21.7 14,-31.1 4.6,-7.8 14.4,-17.4 29.3,-28.7 10.1,-7.7 21.9,-15.8 35.5,-24.3 15.1,-9.4 26,-15.9 32.7,-19.3 14.3,-7.3 28.1,-12.3 41.5,-14.8 13.4,-2.6 26.7,-8.9 39.8,-19 8.9,-6.9 16.8,-14.7 23.8,-23.4 3.9,-4.9 7.1,-13 9.4,-24.4 l 2.4,-15.7 c -2.4,5.5 -9,18.1 -20,37.7 -6.8,12.3 -20.9,21.6 -42.1,28.2 -6.7,2 -13.6,3.7 -20.9,4.8 l -9,1.2 -2.4,-18.8 c -1.7,-13.7 1.8,-28.2 10.6,-43.6 1.6,-2.7 4.4,-7.2 8.4,-13.4 3.4,-6.1 5.3,-12.6 5.8,-19.6 0.5,-6.5 4.2,-12.4 11.2,-17.7 11.4,-8.5 17.5,-13.2 18.3,-14.1 4.4,-4.9 5.9,-11.6 4.6,-20.3 l -3.4,-11.5 -1.2,20 c -0.4,7.2 -5.7,14 -16,20.4 -11.5,7.1 -18.4,13.2 -20.5,18.5 -2,5 -3.2,9.7 -3.8,14.1 -0.3,2.4 -2.2,5.9 -5.7,10.6 -7.1,9.7 -11.6,17 -13.5,21.8 -4.3,10.6 -6.5,24.9 -6.5,43 0,9.7 -1.4,17.1 -4.2,22.1 -2.4,4.3 -6.5,7.7 -12.3,10.2 -0.5,0.2 -7,2.5 -19.3,6.7 -9.5,3.2 -18,7.1 -25.4,11.5 -15.7,9.3 -29.8,19.8 -42.4,31.3 l -14.1,14.6 c 0.8,-1.6 1.9,-4.6 3.4,-9 2.9,-8.9 6.1,-20.4 9.5,-34.6 3.9,-16.3 6.2,-27.5 7,-33.7 0.5,-5.2 0.2,-9.7 -1.1,-13.4 -1.1,-3.3 -7.6,-11.1 -19.6,-23.4 -11.2,-11.5 -20.3,-20.1 -27.6,-26 -5.6,-4.6 -13.7,-15.4 -24.3,-32.4 -4.9,-7.9 -13.4,-22.3 -25.2,-43 C 925.4,99.6 916.1,83 908.4,70.3 894.8,47.4 882.2,29.9 870.8,18 z" id="path18" inkscape:connector-curvature="0" style="fill:#437879"/></g></g></g><g transform="translate(-266.4,25.5)" id="g20"><g id="g22"><g id="Symbol_1_0_Layer0_0_MEMBER_1_FILL"><path class="st1" d="m 820.4,-12.5 c 3.6,0.6 9,4.5 16.3,11.7 17.1,17.1 27.9,28.1 32.3,32.9 16.4,17.9 26.9,32.1 31.3,42.5 2.7,6.2 10.3,20.9 22.9,43.9 11.7,21.4 20.2,39 25.4,52.7 5.9,15.2 12.8,26.9 20.6,34.9 4.3,4.5 10,9.3 17.1,14.6 6.3,6.3 15.7,16.9 28.3,31.8 -2.4,-1.2 -5.5,-2.4 -9.4,-3.8 -7.9,-2.7 -15.7,-4.6 -23.6,-5.7 -2.2,-0.3 -4.6,-0.5 -7.3,-0.5 -3.6,0 -9.4,0.5 -17.3,1.5 -7.9,1 -14.3,1.5 -19.2,1.5 -5.6,0 -11,-0.5 -16.3,-1.4 -12.2,-2.2 -23.6,-5.6 -34.4,-10.1 -9.8,-4.2 -16,-7.9 -18.6,-11.1 -0.6,-0.9 -2.5,-5.3 -5.5,-13.4 -2.7,-7 -6.3,-12.3 -11,-16 -2.8,-2.3 -6.4,-3.4 -10.8,-3.4 -4.5,0 -10.8,1.4 -18.8,4.2 -10.8,3.8 -17,5.9 -18.6,6.2 -1.7,0.4 -3.5,0.6 -5.4,0.6 -3.6,0 -7.3,-1.8 -11.1,-5.3 -5.3,-5 -10.1,-8.6 -14.1,-10.6 -4.9,-2.4 -9.7,-3.7 -14.4,-3.7 -3.1,0 -7.5,0.7 -13,2.1 -6,1.6 -10.7,2.5 -13.9,2.7 -4.6,0.3 -9.6,0.5 -14.8,0.5 l -15.8,-0.5 14.1,4.7 c 4.1,1.3 7.3,2 9.5,2 1.5,0 4.4,-0.5 8.8,-1.6 5.3,-1.3 10.9,-2.2 17,-2.7 l 3.1,-0.2 c 8.2,0 16.6,3.9 25.2,11.7 9.4,8.4 15.3,12.8 17.7,13.3 1.6,0.3 3.5,0.5 5.8,0.5 5.1,0 10.6,-1 16.4,-2.9 5.2,-1.7 9.2,-3.7 12,-5.8 3.1,-2.7 6.8,-4 11.1,-4 3.8,0 6,1.3 6.6,4 0.4,2 0.8,4.5 1.2,7.7 0.7,3.5 2.3,8.4 4.7,14.7 2.7,7.1 14.5,14.5 35.2,22.3 19.2,7.1 34.1,10.7 44.9,10.7 5.4,0 12.3,-0.5 20.5,-1.5 8.2,-1 13.9,-1.5 16.8,-1.5 3.1,0 5.5,0.2 7.4,0.7 9.8,2 16.6,3.6 20.5,4.8 7.9,2.7 12,5.8 12.5,9.3 0.9,6 1.2,10.1 0.9,12.1 -0.7,4.8 -3.4,10.6 -8,17.3 -5.3,7.6 -9.6,15.5 -13.1,23.7 -3.5,8.1 -7,18.7 -10.5,31.7 -1.6,5.8 -5.1,21.1 -10.5,45.9 -4.1,19.1 -7.3,30.9 -9.5,35.3 -2.6,5.3 -7.6,9.3 -15,12.1 -5.7,2.1 -11.3,3.2 -16.8,3.2 l 6.2,5.7 c 5.9,3.9 13.2,6.4 22,7.3 8.9,1 20.8,8.8 35.7,23.3 7.5,7.2 14,14.4 19.7,21.4 -4.7,-21.2 -7.9,-41.2 -9.4,-60.1 -0.9,-10.9 -1.2,-18.3 -0.8,-22 0.5,-7.1 0.8,-12.7 0.8,-16.8 0,-10.1 2,-21.3 6,-33.7 3.7,-11.3 8.4,-21.7 14,-31.1 4.6,-7.8 14.4,-17.4 29.3,-28.7 10.1,-7.7 21.9,-15.8 35.5,-24.3 15.1,-9.4 26,-15.9 32.7,-19.3 14.3,-7.3 28.1,-12.3 41.5,-14.8 13.4,-2.6 26.7,-8.9 39.8,-19 8.9,-6.9 16.8,-14.7 23.8,-23.4 3.9,-4.9 7.1,-13 9.4,-24.4 l 2.4,-15.7 c -2.4,5.5 -9,18.1 -20,37.7 -6.8,12.3 -20.9,21.6 -42.1,28.2 -6.7,2 -13.6,3.7 -20.9,4.8 l -9,1.2 -2.4,-18.8 c -1.7,-13.7 1.8,-28.2 10.6,-43.6 1.6,-2.7 4.4,-7.2 8.4,-13.4 3.4,-6.1 5.3,-12.6 5.8,-19.6 0.5,-6.5 4.2,-12.4 11.2,-17.7 11.4,-8.5 17.5,-13.2 18.3,-14.1 4.4,-4.9 5.9,-11.6 4.6,-20.3 l -3.4,-11.5 -1.2,20 c -0.4,7.2 -5.7,14 -16,20.4 -11.5,7.1 -18.4,13.2 -20.5,18.5 -2,5 -3.2,9.7 -3.8,14.1 -0.3,2.4 -2.2,5.9 -5.7,10.6 -7.1,9.7 -11.6,17 -13.5,21.8 -4.3,10.6 -6.5,24.9 -6.5,43 0,9.7 -1.4,17.1 -4.2,22.1 -2.4,4.3 -6.5,7.7 -12.3,10.2 -0.5,0.2 -7,2.5 -19.3,6.7 -9.5,3.2 -18,7.1 -25.4,11.5 -15.7,9.3 -29.8,19.8 -42.4,31.3 l -14.1,14.6 c 0.8,-1.6 1.9,-4.6 3.4,-9 2.9,-8.9 6.1,-20.4 9.5,-34.6 3.9,-16.3 6.2,-27.5 7,-33.7 0.5,-5.2 0.2,-9.7 -1.1,-13.4 -1.1,-3.3 -7.6,-11.1 -19.6,-23.4 -11.2,-11.5 -20.3,-20.1 -27.6,-26 -5.6,-4.6 -13.7,-15.4 -24.3,-32.4 -4.9,-7.9 -13.4,-22.3 -25.2,-43 C 925.5,99.8 916.2,83.2 908.5,70.5 894.8,47.4 882.2,29.9 870.7,18 860.1,6.9 848.9,-1.4 837.3,-7 c -6.7,-3.2 -12.4,-5 -16.9,-5.5 m 22.5,14.6 -7.4,-7.3 c 11.7,5.4 22.9,13.7 33.6,24.9 9.7,10.1 20.2,24.1 31.3,41.9 6.6,10.5 15.2,25.4 25.8,44.8 l 11.2,20 c 10.7,18.7 18.8,32.5 24.5,41.5 9.7,15.4 17.4,25.3 22.9,29.8 7.2,5.9 16.4,14.5 27.4,25.9 11.6,12 17.9,19.5 19,22.5 1.2,3.5 1.5,7.7 0.8,12.7 -0.7,6 -3,17.1 -6.8,33.1 -3.3,13.8 -6.4,25.1 -9.3,33.9 -1.5,4.5 -2.6,7.5 -3.4,9.2 l -9.9,19.8 13.8,-17.3 c 0.1,-0.1 4.8,-4.9 14.3,-14.6 12.4,-11.4 26.3,-21.6 41.7,-30.7 5.4,-3.2 11.2,-6 17.3,-8.5 3.6,-1.5 8.5,-3.2 14.7,-5.2 11.2,-3.6 18.5,-7.2 22,-10.7 5.6,-5.7 8.4,-15.1 8.4,-28.3 0,-16.6 1.8,-29.8 5.4,-39.8 2.2,-6.1 6.1,-13 11.8,-20.5 l 2.4,-3.2 c 2.5,-3.4 4.2,-6 4.9,-7.8 0.6,-1.3 1,-2.9 1.2,-4.7 0.4,-3.6 1.6,-7.9 3.5,-12.7 1.6,-3.8 4.5,-7.3 8.7,-10.5 -3.8,4.2 -5.8,8.9 -6.1,14.1 -0.4,5.4 -1.7,10.5 -3.9,15.3 -1.3,2.8 -3.4,6.5 -6.4,11.1 -1.7,2.5 -2.9,4.4 -3.7,5.7 -9,15.8 -12.6,30.8 -10.8,45 l 2.6,21.1 2.2,-0.2 c 2.2,-0.1 5.6,-0.5 10.1,-1.3 7.4,-1.3 14.5,-2.9 21.3,-5.1 21.1,-6.7 35.2,-16.3 42.3,-29 l 13.5,-24.7 c -2.4,11.6 -5.4,19.8 -9.2,24.5 -6.3,7.9 -13.5,15 -21.7,21.6 -13.4,10.8 -26.9,17.4 -40.5,20 -12.8,2.4 -26,7 -39.5,13.7 -7.7,3.8 -18.3,10 -31.8,18.4 l -3.8,2.5 c -13.7,8.6 -25.8,16.8 -36.3,24.9 -14.8,11.4 -24.6,21 -29.3,28.9 -5.4,9.1 -10,19.1 -13.7,30 -4.4,13.2 -6.6,25.2 -6.6,36 0,4.1 -0.2,8.8 -0.7,14.3 -0.3,2.8 -0.4,5.3 -0.4,7.5 0,3.7 0.4,9.4 1.1,17.2 1.2,14.2 3.7,31.3 7.5,51.4 -8.2,-9.3 -16,-17 -23.3,-23.2 -11.1,-9.4 -20.3,-14.5 -27.6,-15.3 -9.8,-1.1 -17.6,-4 -23.3,-8.7 5.7,-0.7 11,-2.2 15.7,-4.4 6.2,-3 10.5,-7 13,-11.9 2.6,-5.2 6.5,-20.3 11.8,-45.2 4,-18.4 6.8,-30.5 8.5,-36.4 3.5,-13 7,-23.5 10.4,-31.6 3.5,-7.9 7.7,-15.6 12.8,-23.1 4.5,-6.5 7.2,-12.3 8.1,-17.2 0.5,-2.9 0.4,-6.8 -0.4,-11.7 l -0.4,-2.2 c -0.5,-4.2 -4.5,-7.7 -11.9,-10.5 -4.4,-1.6 -11.4,-3.4 -21.1,-5.3 l -1.9,-0.4 c -2.4,-0.5 -4.9,-0.7 -7.8,-0.7 -3.5,0 -8.7,0.4 -15.4,1.3 -9.3,1.2 -16.6,1.8 -21.9,1.8 -10.3,0 -24.9,-3.5 -43.7,-10.5 -20.3,-7.5 -31.8,-14.6 -34.3,-21.1 -2.8,-7.5 -4.6,-13.5 -5.2,-17.9 -0.2,-1.6 -0.4,-2.9 -0.6,-4 -0.7,-3.9 -3.7,-5.9 -8.8,-5.9 -4.6,0 -8.8,1.5 -12.6,4.5 -2.4,2 -6.1,3.8 -11.1,5.4 -5.6,1.9 -10.8,2.8 -15.8,2.8 -2.1,0 -3.9,-0.2 -5.4,-0.5 -1.6,-0.3 -3.6,-1.3 -5.8,-3.1 -1.4,-1.1 -3.6,-3 -6.5,-5.8 -5.3,-5 -9.6,-8.6 -13.1,-10.7 -5.8,-3.6 -11.8,-5.4 -17.9,-5.4 l -3.3,0.2 c -6.4,0.6 -12.6,1.7 -18.7,3.2 -3.1,0.8 -5.4,1.2 -6.8,1.2 -2,0 -4.5,-0.5 -7.7,-1.5 4.9,0 9.8,-0.2 14.7,-0.6 3.8,-0.2 8.4,-1.1 13.7,-2.6 6,-1.4 10.3,-2.1 13.1,-2.1 4.2,0 8.7,1.1 13.3,3.3 2.7,1.3 5.1,2.9 7.4,4.7 1,0.9 2.8,2.4 5.3,4.7 2.4,2.4 4.4,4 5.8,4.8 2.4,1.3 4.9,2 7.8,2 1.7,0 3.7,-0.2 5.9,-0.7 3.1,-0.8 7.8,-2.3 14,-4.5 10.7,-3.9 18.3,-5.9 23,-5.9 3.8,0 7,0.9 9.3,2.8 3.1,2.5 5.6,5.7 7.7,9.4 1.3,2.4 2.6,5.7 4,10 1.8,5 3.3,8.2 4.5,9.7 2.9,3.5 9.5,7.5 19.8,11.8 11,4.6 22.5,8 34.6,10.2 5.4,1 11,1.5 16.7,1.5 5.2,0 11.9,-0.5 20.3,-1.6 7.5,-0.9 13,-1.4 16.3,-1.4 2.4,0 4.8,0.1 7,0.4 7.5,0.9 15.2,2.8 22.9,5.5 3.8,1.3 7,2.6 9.4,3.7 l 10.1,5.2 -7.3,-8.7 c -12.7,-15.1 -22.2,-25.8 -28.4,-32 -1.4,-1.3 -3.8,-3.3 -7.3,-6 -6,-4.7 -10.8,-9.1 -14.1,-13.3 -5.8,-7.3 -11.1,-17.1 -15.8,-29.3 -3.7,-9.5 -8.5,-20.1 -14.4,-31.7 -3.7,-7.4 -9,-17.2 -15.8,-29.6 C 911.1,92.1 905.1,80.4 902.3,73.8 898.1,64.1 889,51.3 875,35.5 867.6,26.9 856.8,15.8 842.9,2.1 m 357.6,109 0.4,-4.8 c 0.2,3 -0.1,5.5 -0.7,7.7 0.2,-1 0.3,-1.9 0.3,-2.9 z" id="path25" inkscape:connector-curvature="0" style="fill:#75b5b4"/></g></g></g><g transform="translate(-266.4,25.5)" id="g27"><g id="g29"><g id="Symbol_1_0_Layer0_0_MEMBER_2_FILL"><path class="st1" d="m 1001.3,312.6 c -7.1,12.6 -11.1,20.1 -12.1,22.3 -0.8,1.9 -1.5,5.7 -2,11.3 -0.7,6.6 -1.4,11.3 -2.1,14 -1.6,5.9 -1.6,15.5 0,28.9 0,-4.3 0.8,-11.2 2.4,-20.6 0.6,-3.8 1.8,-9.1 3.7,-16.1 1.3,-5.1 2,-9.7 2.2,-13.9 0.2,-4.1 3.2,-11.7 9,-23 5.9,-11.6 9,-18.7 9.3,-21.2 -3.5,5.8 -6.9,11.9 -10.4,18.3 z" id="path32" inkscape:connector-curvature="0" style="fill:#75b5b4"/></g></g></g><g transform="translate(-266.4,25.5)" id="g34"><g id="g36"><g id="Symbol_1_0_Layer0_0_MEMBER_3_FILL"><path class="st1" d="m 980.6,428.9 c -0.5,2.7 -0.9,5.5 -1.4,8.5 l 1.2,-5.3 c 0.2,-1.2 0.2,-2.2 0.2,-3.2 m 3.8,-22.8 -2.4,1.8 -3.5,-11.2 c -0.3,2.7 -1.1,8 -2.5,15.7 -1.5,8.4 -2.6,14.4 -3.4,17.9 -0.6,2.7 -1.5,5.4 -2.7,8.2 -0.9,2.2 -1.4,3.8 -1.4,4.7 0,2 0.8,2.9 2.4,2.9 2,-3.1 3.5,-6.1 4.7,-8.8 0.6,-1.5 1,-3.1 1.1,-4.9 0.2,-2.2 0.4,-3.9 0.7,-5.1 l 1.2,-4.1 1.3,2.5 c 0.4,1 0.6,2.1 0.7,3.2 0.7,-4 1.4,-7.7 2.1,-11 0.7,-3.5 1.2,-6.4 1.5,-9 l 0.2,-2.8 z" id="path39" inkscape:connector-curvature="0" style="fill:#75b5b4"/></g></g></g><g transform="translate(-266.4,25.5)" id="g41"><g id="g43"><g id="Symbol_1_0_Layer0_0_MEMBER_4_FILL"><path class="st1" d="m 966.3,449.8 -2.5,-0.7 c -3.6,1.8 -6.2,3.1 -7.9,3.9 -3,1.5 -3.9,2.4 -2.7,2.6 2.3,0.5 4.8,0.6 7.5,0.4 3.6,-0.2 5.8,-1.1 6.6,-2.7 0.8,-1.6 0.4,-2.7 -1,-3.5 z" id="path46" inkscape:connector-curvature="0" style="fill:#75b5b4"/></g></g></g><g transform="translate(-266.4,25.5)" id="g48"><g id="g50"><g id="Symbol_1_0_Layer0_0_MEMBER_5_FILL"><path class="st1" d="m 971.6,444.5 c 0.9,-7.7 1.2,-12.4 1.1,-14.3 -0.2,-1.8 0.9,-10.1 3.2,-25 2,-12.5 2.3,-17.5 0.9,-15.1 -1.1,2 -3.7,9.7 -7.7,23.1 -4.6,15.3 -7.1,23.7 -7.7,25.2 -1.3,3.5 -6,7.3 -14.4,11.7 l -12.3,5.5 3.1,1.5 c 2.6,1 5.3,1.6 8.2,1.9 2.4,0.2 4.8,1.1 7.2,2.7 3.7,2.4 7.6,4.5 11.7,6.1 4.3,1.8 10.1,4.2 17.2,7.2 5,2 7.5,2.7 7.5,2.2 0,-2.4 -0.6,-4.5 -1.8,-6.5 -0.9,-1.5 -1.4,-2.6 -1.6,-3.2 -0.2,-0.6 -0.4,-2.1 -0.7,-4.5 l -0.6,-7.1 c -1.2,2 -2.9,3.5 -5.3,4.7 -1.2,0.6 -1.6,0.7 -1.4,0.4 0.8,-1 1.1,-1.9 0.8,-2.7 -0.3,-1.2 -0.2,-2.7 0.2,-4.6 0.4,-1.8 1.5,-5.4 3.3,-10.7 1.5,-4.4 2.4,-8.7 2.8,-12.8 l 0.1,-4.8 -2.4,8.8 c -0.6,2 -1.5,4.2 -2.5,6.5 -1.3,2.8 -2.5,5.6 -3.4,8.2 -0.4,1.2 -1.1,3.5 -2,6.8 -0.2,0.7 -0.9,1.8 -2.1,3.2 -0.9,1.2 -1.4,1.5 -1.3,0.9 0.3,-1.6 0.2,-2.9 -0.5,-3.9 -0.3,-0.8 -0.3,-4.7 0.4,-11.4 z" id="path53" inkscape:connector-curvature="0" style="fill:#75b5b4"/></g></g></g><g transform="translate(-266.4,25.5)" id="g55"><g id="g57"><g id="Symbol_1_0_Layer0_0_MEMBER_6_FILL"><path class="st1" d="m 1012.8,246.1 -3.1,-1.4 c 1.9,5.8 2.1,8.5 0.6,8.2 l 4.2,0.9 c 3,1.3 5.1,3.5 6.4,6.7 2,5.1 2.7,8.8 2.4,11.2 1.2,-1.5 2,-3.3 2.5,-5.5 1,-4.4 -0.2,-8.4 -3.7,-12.1 -3.4,-3.6 -6.5,-6.3 -9.3,-8 z" id="path60" inkscape:connector-curvature="0" style="fill:#75b5b4"/></g></g></g><g transform="translate(-266.4,25.5)" id="g62"><g id="g64"><g id="Symbol_1_0_Layer0_0_MEMBER_7_FILL"><path class="st1" d="m 838.6,200.3 c 3,0.6 6.3,2.2 10,5.1 2.9,2.2 5.4,4.5 7.4,7 l -5.4,-7.5 c -2.1,-3.2 -6.1,-4.7 -12,-4.6 z" id="path67" inkscape:connector-curvature="0" style="fill:#75b5b4"/></g></g></g><g transform="translate(-266.4,25.5)" id="g69"><g id="g71"><g id="Symbol_1_0_Layer0_0_MEMBER_8_FILL"><path class="st1" d="m 839.6,197 c -2.3,-0.5 -5.4,-0.6 -9.3,-0.5 -7.9,0.4 -15.9,2.3 -24.3,5.8 -5.9,2.4 -7.7,3.5 -5.3,3.5 1.4,0 3.3,0.1 5.7,0.2 2.3,-0.1 4.9,-0.7 7.9,-2 1.7,-0.7 3.6,-1.6 5.7,-2.8 1,-0.5 2.9,-1.2 5.5,-1.9 6.3,-1.6 10.4,-2.4 12.4,-2.4 h 1.7 z" id="path74" inkscape:connector-curvature="0" style="fill:#75b5b4"/></g></g></g><g transform="translate(-266.4,25.5)" id="g76"><g id="g78"><g id="Symbol_1_0_Layer0_0_MEMBER_9_FILL"><path class="st1" d="m 1145.2,247.9 -1.2,2.4 c -0.4,1.8 -2,3.9 -4.7,6.2 l -4.1,3.5 5.7,-2.8 c 3.7,-2.4 5.5,-4.8 5.5,-7.2 0,-2.4 -0.4,-3.1 -1.2,-2.1 z" id="path81" inkscape:connector-curvature="0" style="fill:#75b5b4"/></g></g></g><g transform="translate(-266.4,25.5)" id="g83"><g id="g85"><g id="Symbol_1_0_Layer0_0_MEMBER_10_FILL"><path class="st1" d="m 833.9,-5 0.4,0.6 c 2.4,2.3 8.9,8.9 19.4,19.8 10.3,10.7 16.8,17.6 19.4,20.7 3.8,4.4 8.7,10.4 14.7,18.1 7.5,9.4 11.7,15.2 12.7,17.4 1,2.2 2.3,4.4 3.9,6.7 0.9,1.3 2.5,3.4 4.7,6.2 1,1.4 1.9,2.6 2.5,3.5 C 903.6,72.7 899,62.1 897.8,56.2 896.9,52.1 893,45.4 886,36.1 880.3,28.5 875.2,22.4 870.7,17.8 c -3.3,-3.2 -8.8,-7.4 -16.5,-12.5 -7.5,-5.1 -12.9,-8.2 -16.1,-9.4 -2.6,-0.8 -4,-1.1 -4.2,-0.9 z" id="path88" inkscape:connector-curvature="0" style="fill:#75b5b4"/></g></g></g><g transform="translate(-266.4,25.5)" id="g90"><g id="g92"><g id="Symbol_1_0_Layer0_0_MEMBER_11_FILL"><path class="st1" d="m 791.1,34.7 c 3.8,-2.5 7.3,-3.8 10.5,-3.8 6.1,0 11.5,1.5 16.1,4.4 4.6,3 9.7,4.3 15.3,3.9 14.8,-0.8 24.5,-1 29,-0.7 2.3,0.2 5.1,0.3 8.6,0.4 2.8,0.2 5.3,1 7.5,2.4 l 5.1,3.2 -7.1,-10.2 c -4,-1.7 -8.3,-2.4 -13,-2 -1.3,0.5 -2.4,0.8 -3.4,1.1 -1.9,0.5 -6.5,0.8 -13.8,0.9 -12,0.2 -18.3,0.4 -18.7,0.4 -3.8,-0.2 -7.2,-0.9 -10,-2.4 -4.1,-2 -6.9,-3.2 -8.5,-3.7 -2.9,-0.8 -6.1,-0.7 -9.5,0.1 -3.4,0.9 -6,2 -7.9,3.3 -2.2,1.9 -4.2,3.5 -5.9,4.9 -2.3,2 -3.8,3.9 -4.5,5.8 -0.4,1 -0.7,2.9 -0.9,5.5 l -0.5,4 c 0.2,-1.1 0.5,-2.5 0.8,-4 0.8,-3.1 1.8,-5.5 3.2,-7 2.1,-2.4 4.7,-4.5 7.6,-6.5 z" id="path95" inkscape:connector-curvature="0" style="fill:#75b5b4"/></g></g></g><g transform="translate(-266.4,25.5)" id="g97"><g id="g99"><g id="Symbol_1_0_Layer0_0_MEMBER_12_FILL"><path class="st1" d="m 945.2,146 c -7.5,-13.1 -13.3,-22.7 -17.6,-28.7 l 10.6,19.2 c 1.7,3.1 5.5,10.3 11.2,21.8 5.3,10.4 8.7,17.5 10.4,21.1 1.4,2.9 2.6,4.9 3.5,6 0.9,1 2.3,2 4.4,2.9 l 3.9,2 c -1.6,-1.7 -3.5,-3.8 -5.4,-6.2 -3.8,-4.9 -6.4,-9 -7.5,-12.3 -1.4,-3.8 -5.9,-12.4 -13.5,-25.8 z" id="path102" inkscape:connector-curvature="0" style="fill:#75b5b4"/></g></g></g><g transform="translate(-266.4,25.5)" id="g104"><g id="g106"><g id="Symbol_1_0_Layer0_0_MEMBER_13_FILL"><path class="st1" d="m 1013.5,236.4 c -3.1,-4.4 -4.9,-7.1 -5.4,-8 -1.1,-2.3 -3.8,-6 -8.1,-11.1 -4.2,-5 -7.3,-8.2 -9.1,-9.7 -2.2,-2.5 -3.8,-4.4 -4.9,-5.5 -2.1,-2.1 -4.3,-2.8 -6.5,-2 -1.3,0.5 -2,1 -2,1.6 -0.1,0.7 0.6,1.3 2,1.9 1.1,0.5 4.6,3.3 10.4,8.6 3.1,2.7 6.8,6.2 11.2,10.2 1.3,1.2 2.8,3 4.4,5.4 1.9,3 3.7,5.5 5.5,7.5 1.8,2.1 3.8,5.2 6,9.2 1.1,2 1.5,2 1.1,0.2 -0.5,-2 -2,-4.8 -4.6,-8.3 z" id="path109" inkscape:connector-curvature="0" style="fill:#75b5b4"/></g></g></g><g transform="translate(-266.4,25.5)" id="g111"><g id="g113"><g id="Symbol_1_0_Layer0_0_MEMBER_14_FILL"><path class="st1" d="m 904.2,248 -13.4,-3.9 10.4,4.1 c 7.9,2.9 14.2,4.8 19.1,5.7 5.7,0.9 10.9,1.3 15.4,1.2 4.3,-0.2 8.6,-0.8 12.8,-2 3.6,-1 7.5,-1.6 11.5,-1.8 0.8,-0.1 4.9,-0.1 12.4,-0.1 h 11 c -2.8,-0.5 -6.4,-0.8 -10.7,-1.1 -8.6,-0.5 -16.4,-0.4 -23.4,0.6 -9.9,1.4 -15.8,2.2 -17.7,2.4 -3.6,0.3 -6.8,0.2 -9.4,-0.4 -2.5,-0.4 -8.5,-2 -18,-4.7 z" id="path116" inkscape:connector-curvature="0" style="fill:#75b5b4"/></g></g></g><g transform="translate(-266.4,25.5)" id="g118"><g id="g120"><g id="Symbol_1_0_Layer0_0_MEMBER_15_FILL"><path class="st1" d="m 861.3,224.5 -1.2,-2 c -0.3,1.4 -0.4,2.5 -0.1,3.3 0.4,1.4 1.6,2.8 3.7,4.2 3.1,2 5.2,3.5 6.2,4.2 L 864,228 c -0.8,-0.9 -1.7,-2 -2.7,-3.5 z" id="path123" inkscape:connector-curvature="0" style="fill:#75b5b4"/></g></g></g><g transform="translate(-266.4,25.5)" id="g125"><g id="g127"><g id="Symbol_1_0_Layer0_0_MEMBER_16_FILL"><path class="st1" d="m 1070.2,300.7 c 4.9,-3.7 9.3,-6.9 13.4,-9.7 4.1,-2.6 6.8,-4.1 8.1,-4.5 2.2,-0.6 1.3,-0.5 -2.7,0.5 -3.4,0.7 -5.5,1.3 -6.2,1.9 -12.1,7.5 -19.9,12.8 -23.6,15.7 -7.4,5.8 -12,9.6 -13.8,11.4 -1.3,1.3 -2.8,2.6 -4.5,3.8 l 8.2,-5.1 c 10,-6.3 17,-11 21.1,-14 z" id="path130" inkscape:connector-curvature="0" style="fill:#75b5b4"/></g></g></g><g transform="translate(-266.4,25.5)" id="g132"><g id="g134"><g id="Symbol_1_0_Layer0_0_MEMBER_17_FILL"><path class="st1" d="m 1165.5,160.4 c -0.5,-1.5 -0.9,-2.5 -1.1,-3.1 -0.2,-0.8 -0.7,-1.2 -1.5,-1.3 -0.8,-0.1 -1.6,0.2 -2.4,0.8 -0.7,0.5 -1,1.4 -0.9,2.6 0,0.2 0.2,1.6 0.7,4 -1.2,3.8 -2.7,6.7 -4.5,8.7 -1.2,1.3 -2.9,3.7 -5.2,7.1 l -3.1,4.7 1.2,-1.5 c 2.9,-3.8 5.7,-5.9 8.2,-6.2 1.4,-0.2 2.4,-0.4 3.1,-0.6 0.2,-0.1 0.5,-0.5 1.2,-1.4 2.1,-2.1 3.6,-5.1 4.4,-9.1 0.3,-1.6 0.3,-3.1 -0.1,-4.7 z" id="path137" inkscape:connector-curvature="0" style="fill:#75b5b4"/></g></g></g><g transform="translate(-266.4,25.5)" id="g139"><g id="g141"><g id="Symbol_1_0_Layer0_0_MEMBER_18_FILL"><path class="st1" d="m 1141.4,206.2 c 1.4,-5.7 3.1,-10.4 5.1,-14.4 -0.7,1 -1.5,2.2 -2.2,3.5 -1.6,2.7 -2.6,4.9 -2.9,6.7 -0.1,0.5 -0.9,3.8 -2.5,9.9 -1.3,5.3 -2.1,9.3 -2.2,12 -0.2,4.7 -0.4,8.5 -0.4,11.4 1.8,-7.9 2.9,-13.6 3.2,-17.3 0.1,-3.2 0.8,-7.2 1.9,-11.8 z" id="path144" inkscape:connector-curvature="0" style="fill:#75b5b4"/></g></g></g><g transform="translate(-266.4,25.5)" id="g146"><g id="g148"><g id="Symbol_1_0_Layer0_0_MEMBER_19_FILL"><path class="st1" d="m 1174.6,251.4 c 4.2,-0.5 8.4,-2.6 12.6,-6.2 -3.1,1.9 -6.4,3.1 -9.8,3.5 -2.1,0.3 -4.1,0.8 -5.9,1.5 l -2,0.8 5.1,0.4 z" id="path151" inkscape:connector-curvature="0" style="fill:#75b5b4"/></g></g></g><g transform="translate(-266.4,25.5)" id="g153"><g id="g155"><g id="Symbol_1_0_Layer0_0_MEMBER_20_FILL"><path class="st2" d="m 997.2,401.5 c 0,3.7 0.1,8.6 0.2,14.7 -0.1,4.9 -0.9,9.1 -2.6,12.8 -1.3,2.7 -2.9,5.4 -5.1,8.2 -1.6,2 -2.5,3.9 -2.8,5.9 -0.3,2.2 -0.2,4 0.5,5.5 0.4,1 1.3,3.1 2.7,6.2 1.6,4.4 2.5,6.7 2.6,6.8 0.5,1.7 1,3.6 1.3,5.7 0.5,3.1 4,7.6 10.2,13.4 -0.6,-1.4 -1.3,-3.5 -1.9,-6.1 -1.3,-5.3 -2,-10.8 -2,-16.7 0,-5.8 0.3,-13.8 0.8,-24 0.8,-11.4 1.3,-19.6 1.5,-24.6 0.4,-8 0.7,-12.9 1.1,-14.7 0.5,-2.8 2.2,-8.9 5.2,-18.3 3.7,-11.6 6,-18.5 7,-20.7 1.9,-4.4 4.8,-8.8 8.7,-13.1 l 8.7,-9.4 c -2.4,1.3 -5.1,3.3 -8.1,5.8 -6.2,4.9 -11.1,10.4 -14.7,16.3 l -6.6,19.1 c -4.5,13.6 -6.7,22.7 -6.7,27.2 z" id="path158" inkscape:connector-curvature="0" style="fill:#3c6162"/></g></g></g><g transform="translate(-266.4,25.5)" id="g160"><g id="g162"><g id="Symbol_1_0_Layer0_1_FILL"><radialGradient id="SVGID_1_" cx="638.1048" cy="399.5275" r="139.241" gradientTransform="matrix(1,0,0,0.8481,253.4,240.1938)" gradientUnits="userSpaceOnUse"><stop offset="0" style="stop-color:#3D6F70" id="stop166"/><stop offset="0.4863" style="stop-color:#3F7171" id="stop168"/><stop offset="0.702" style="stop-color:#467878" id="stop170"/><stop offset="0.8588" style="stop-color:#538484" id="stop172"/><stop offset="0.9922" style="stop-color:#649594" id="stop174"/><stop offset="1" style="stop-color:#669696" id="stop176"/></radialGradient><path class="st3" d="m 903.9,451.2 c -21.4,0.8 -37.6,1.9 -48.4,3.3 -18.8,2.5 -36.1,8.8 -52.1,18.7 -7.9,4.9 -13.4,8.9 -16.7,12.1 -3.6,3.5 -7,8.4 -10,14.5 -1,2.1 -6.2,12 -15.4,29.7 -7.8,14.7 -12.6,24.2 -14.4,28.5 -2.2,5.1 -3.5,10.3 -3.9,15.7 -0.4,4.4 -0.2,9.6 0.7,15.7 0.6,4.4 3.3,11.1 8,20.1 6.1,11.5 9.2,17.3 9.3,17.6 1,2.6 2.9,5.5 5.8,8.6 -0.9,4.7 -2.8,9.2 -5.8,13.4 -5.5,7.9 -16.1,17.6 -31.9,29 -20.3,14.6 -39,23.3 -56.1,26 -17.6,2.8 -32.2,9.2 -43.7,19.2 -8.7,7.5 -15.1,16.2 -19.1,26.3 -1.3,3.1 -2.2,7.8 -2.7,13.9 -0.3,3.5 -0.9,9.1 -1.6,17.1 -2,15.4 -7.3,28.1 -16,38.2 -12,13.7 -21.2,26.3 -27.7,37.7 -7.5,13.1 -10.8,24.1 -10,33 0.9,11.3 0.9,20.7 0,28 -1.3,10.1 -4.5,19.1 -9.4,26.9 l -11.1,17.3 c 4.1,-3.1 8.2,-7.8 12.4,-14 8.5,-12.3 13.1,-26.1 13.8,-41.3 1.5,-30.3 10.3,-51.7 26.5,-64.2 7.5,-5.8 13.9,-11.6 19.2,-17.3 6.4,-7 10.4,-13.2 12,-18.6 0.4,-1.3 2.1,-11.7 5.2,-31 2.6,-15.9 5.4,-25.8 8.4,-29.7 3.5,-4.5 10.2,-7.7 20.4,-9.5 6.1,-1.2 17.8,-2.3 35,-3.4 10.1,-0.6 33.5,-5.8 70.4,-15.4 36.6,-9.6 56.7,-14.5 60.3,-14.6 6.9,-0.2 11.5,-1.4 13.8,-3.5 -2.2,2.7 -5.4,5.5 -9.5,8.4 -6.4,4.5 -14.3,8.4 -23.7,11.7 -11.5,4.1 -22.1,13.5 -31.7,28.2 -6.6,10.1 -11.5,20.3 -14.8,30.7 -3.2,10.1 -5.2,15.8 -6,17 -3.5,5.4 -10.6,9.8 -21.1,13.1 -11.9,3.8 -19,5.9 -21.6,6.4 -2,0.4 -9.4,1 -22,1.9 -11.5,0.9 -22.4,4.1 -32.6,9.8 -8.9,4.9 -15.5,10.4 -19.8,16.7 l -7.7,11.2 3.5,-4.2 c 3.1,-3.5 6.5,-6.6 10.2,-9.4 12.1,-9.3 25.4,-14.1 39.8,-14.6 26.3,-0.9 44.2,-1.9 53.7,-3.2 19,-2.4 30.5,-6.9 34.6,-13.3 2.7,-4.1 6.2,-13.2 10.5,-27.4 3.7,-12.1 7.5,-19.6 11.3,-22.6 3.7,-2.8 14.3,-9.4 31.9,-19.7 18.5,-10.8 30.1,-17.7 34.6,-21 3.2,-2.3 8,-8.3 14.5,-18.1 4.9,-7.5 11.1,-12 18.6,-13.4 2.4,0 11.2,0.7 26.4,2 11,0.9 19,0.8 23.9,-0.5 4.2,-1 15.5,-5.7 34.2,-13.9 18.1,-7.9 28.7,-12.2 31.8,-12.7 4.9,-0.9 10.8,-4.6 17.6,-11.1 7,-6.8 11.6,-13.5 13.9,-20.4 2.2,-6.5 3.5,-18 3.9,-34.5 0.4,-14.1 0.1,-28.8 -0.8,-44.1 -0.8,-14.1 -4.5,-27.9 -11.2,-41.3 -7.1,-14.5 -16,-24.8 -26.5,-30.9 -15.4,-8.9 -29.2,-15.5 -41.3,-20 -18.7,-7.4 -35.3,-10.2 -49.8,-8.8 z" id="path178" inkscape:connector-curvature="0" style="fill:url(#SVGID_1_)"/></g></g></g><g transform="translate(-266.4,25.5)" id="g180"><g id="g182"><g id="Symbol_1_0_Layer0_2_FILL"><path class="st1" d="m 649.4,736 c 6.1,-1.2 17.8,-2.3 35,-3.4 10.1,-0.6 33.5,-5.8 70.4,-15.4 36.6,-9.6 56.7,-14.5 60.3,-14.6 6.9,-0.2 11.5,-1.4 13.8,-3.5 -2.2,2.7 -5.4,5.5 -9.5,8.4 -6.4,4.5 -14.3,8.4 -23.7,11.7 -11.5,4.1 -22.1,13.5 -31.7,28.2 -6.6,10.1 -11.5,20.3 -14.8,30.7 -3.2,10.1 -5.2,15.8 -6,17 -3.5,5.4 -10.6,9.8 -21.1,13.1 -11.9,3.8 -19,5.9 -21.6,6.4 -2,0.4 -9.4,1 -22,1.9 -11.5,0.9 -22.4,4.1 -32.6,9.8 -8.9,4.9 -15.5,10.4 -19.8,16.7 l -7.7,11.2 3.5,-4.2 c 3.1,-3.5 6.5,-6.6 10.2,-9.4 12.1,-9.3 25.4,-14.1 39.8,-14.6 26.3,-0.9 44.2,-1.9 53.7,-3.2 19,-2.4 30.5,-6.9 34.6,-13.3 2.7,-4.1 6.2,-13.2 10.5,-27.4 3.7,-12.1 7.5,-19.6 11.3,-22.6 3.7,-2.8 14.3,-9.4 31.9,-19.7 18.5,-10.8 30.1,-17.7 34.6,-21 3.7,-2.6 8,-7.9 13,-15.9 4.4,-7.1 9,-11.7 13.9,-13.8 -2.1,-1 -3.8,-1.9 -4.9,-2.7 -3,1.8 -5.7,4.2 -8.1,7.2 -1.6,1.9 -3.5,4.6 -5.7,8.2 -2,3.2 -3.5,5.6 -4.7,7.2 -2,2.4 -4,4.4 -6.1,6 -5.4,3.7 -16.3,10.3 -32.7,19.8 -19.1,11.2 -30.4,18.1 -34,21 -3.1,2.5 -5.9,6.5 -8.4,11.9 -1.5,3.4 -3.4,8.9 -5.7,16.5 -3.3,11.1 -6.2,18.7 -8.8,22.9 -3.1,4.8 -12.2,8.3 -27.4,10.6 -10,1.5 -24.7,2.6 -44.1,3.3 l 1.6,-0.1 c 7.5,-0.5 12.7,-1.1 15.4,-1.6 2.7,-0.5 8.2,-2.1 16.5,-4.7 l 5.1,-1.6 c 10.3,-3.2 17.6,-7.5 21.9,-12.7 2.6,-3.1 4.8,-8.2 6.7,-15.2 l 1.5,-5.2 c 3.4,-10.6 8.4,-20.9 15.1,-30.7 8.8,-13.1 18.3,-21.5 28.5,-25.1 9.7,-3.5 18,-7.5 24.9,-12.3 4.4,-3.1 7.9,-6.1 10.5,-9.2 l -6.8,-6.6 c -0.2,0.3 -0.9,0.7 -2.2,1.2 -2.1,0.6 -5,1 -8.6,1.2 -2.9,0.1 -8.7,1.2 -17.3,3.4 -10.4,2.6 -21.1,5.3 -32,8.2 -20.7,5.4 -36.1,9.3 -46.2,11.8 -16.9,4 -28.7,6.2 -35.3,6.6 l -1.3,0.1 c -17.6,1.2 -29.6,2.4 -36,3.8 -10.3,2.1 -17.4,5.8 -21.4,11 -2.5,3.3 -4.7,9.3 -6.6,18 -1.3,5.4 -2.7,13.7 -4.2,24.9 -1.5,10 -2.6,16.4 -3.4,19.3 -1.3,4.3 -4.6,9.5 -9.9,15.4 -5.3,5.9 -11.9,11.9 -19.8,18.1 -1.6,1.2 -3,2.4 -4.2,3.7 4.5,-6.3 9.9,-13 16.3,-20.3 6.9,-7.9 11.8,-16.9 14.6,-27.1 1.6,-5.8 2.8,-14.3 3.8,-25.3 0.5,-8.8 1.5,-14.8 2.8,-18 3.5,-8.6 8.8,-16.2 16,-22.9 11.2,-10.4 25.5,-17 43.1,-19.8 17.7,-2.8 37,-11.7 57.8,-26.6 16.3,-11.6 27.4,-21.7 33.3,-30.3 3.4,-5 5.5,-10.1 6.5,-15.3 l 0.2,-0.9 c -1.4,0.5 -3,0.6 -4.8,0.2 -0.9,4.6 -2.8,9.1 -5.8,13.3 -5.5,7.9 -16.1,17.6 -31.9,29 -20.3,14.6 -39,23.3 -56.1,26 -17.6,2.8 -32.2,9.2 -43.7,19.2 -8.7,7.5 -15.1,16.2 -19.1,26.3 -1.3,3.1 -2.2,7.8 -2.7,13.9 -0.3,3.5 -0.9,9.1 -1.6,17.1 -2,15.4 -7.3,28.1 -16,38.2 -12,13.7 -21.2,26.3 -27.7,37.7 -7.5,13.1 -10.8,24.1 -10,33 0.9,11.3 0.9,20.7 0,28 -1.3,10.1 -4.5,19.1 -9.4,26.9 l -11.1,17.3 c 4.1,-3.1 8.2,-7.8 12.4,-14 8.5,-12.3 13.1,-26.1 13.8,-41.3 1.5,-30.3 10.3,-51.7 26.5,-64.2 7.5,-5.8 13.9,-11.6 19.2,-17.3 6.4,-7 10.4,-13.2 12,-18.6 0.4,-1.3 2.1,-11.7 5.2,-31 2.6,-15.9 5.4,-25.8 8.4,-29.7 3.2,-5.2 10,-8.4 20.1,-10.2 z" id="path185" inkscape:connector-curvature="0" style="fill:#75b5b4"/></g></g></g><g transform="translate(-266.4,25.5)" id="g187"><g id="g189"><g id="Symbol_1_0_Layer0_3_MEMBER_0_FILL"><path class="st4" d="m 898.7,581.5 -1.6,-0.9 c -0.4,1.2 -1.6,4.6 -3.8,10.4 -2.1,5.7 -3.4,9.9 -3.9,12.6 -0.5,2.5 -1.3,4.8 -2.5,6.8 -1.1,1.7 -1.6,2.8 -1.6,3.2 0,1 1,1.9 2.9,2.7 2,0.9 3.6,0.7 4.7,-0.4 0.9,-0.9 1.1,-2.2 0.4,-3.8 -1,-2 -1.5,-3.1 -1.5,-3.3 0,-1.6 0.5,-4.9 1.6,-9.9 1.3,-6 2.7,-10.2 4.2,-12.5 1.5,-2.1 1.9,-3.8 1.1,-4.9 z" id="path192" inkscape:connector-curvature="0" style="fill:#a35f77"/></g></g></g><g transform="translate(-266.4,25.5)" id="g194"><g id="g196"><g id="Symbol_1_0_Layer0_3_MEMBER_1_FILL"><path class="st4" d="m 920.6,502.8 c -0.4,-1.2 -0.6,-1.6 -0.7,-1.3 -0.3,1.1 -0.9,1.7 -1.6,1.9 -1.1,0.3 -1.8,0.9 -2.2,1.9 -0.4,0.9 -0.4,1.9 -0.1,2.8 0.2,0.6 0.6,3 1.2,7.1 0.4,2.7 0.6,6.4 0.6,11 0,5.4 -0.4,9 -1.2,10.8 l 4.5,3.8 c 2.5,1.5 2.8,-0.4 0.8,-5.5 -1.9,-4.9 -2.5,-11.4 -1.9,-19.6 0.4,-8.3 0.7,-12.6 0.6,-12.9 z" id="path199" inkscape:connector-curvature="0" style="fill:#a35f77"/></g></g></g><g transform="translate(-266.4,25.5)" id="g201"><g id="g203"><g id="Symbol_1_0_Layer0_3_MEMBER_2_FILL"><path class="st4" d="m 869.6,562.2 -7.3,-3.4 c -1.6,0.5 -4.1,0.6 -7.3,0.5 -5.7,-0.3 -8.7,-0.5 -9.2,-0.5 -2.2,0 -4.8,-0.1 -7.9,-0.2 -3.1,-0.2 -5.5,-0.4 -7.4,-0.4 -0.9,0 -3.3,-0.2 -7,-0.5 -2,-0.2 -3.7,0 -4.8,0.5 -1.4,0.5 -2.3,1.5 -2.6,2.9 -0.4,1.3 -0.1,2.3 0.8,2.9 0.8,0.5 1.9,0.8 3.4,0.7 0.8,-0.1 2.4,-0.3 4.8,-0.7 1.2,-0.2 4.2,-0.9 9.1,-2.1 6.2,-0.9 14.4,-0.5 24.5,0.9 10.1,1.6 13.7,1.4 10.9,-0.6 z" id="path206" inkscape:connector-curvature="0" style="fill:#a35f77"/></g></g></g><g transform="translate(-266.4,25.5)" id="g208"><g id="g210"><g id="Symbol_1_0_Layer0_3_MEMBER_3_FILL"><path class="st4" d="m 934,564.2 c 1.5,1.6 3.5,3.7 6,6.4 l 3.5,2.5 c 3,2 5.9,3.7 8.8,5.2 2.4,1.2 5.8,2.7 10.4,4.7 3.7,1.7 6.1,3.3 7.3,4.7 0.8,0.9 1.6,2.6 2.4,5.1 0.5,1.6 1.3,2.2 2.4,2 1.3,-0.2 2.6,-1.5 3.8,-3.8 1,-2 1.5,-3.7 1.5,-5.1 0,-0.3 -5.3,-2.2 -15.8,-5.7 -12,-3.9 -20.7,-8.3 -26,-13.2 -5.7,-5.2 -7.1,-6.1 -4.3,-2.8 z" id="path213" inkscape:connector-curvature="0" style="fill:#a35f77"/></g></g></g><g transform="translate(-266.4,25.5)" id="g215"><g id="g217"><g id="Symbol_1_0_Layer0_4_FILL"><radialGradient id="SVGID_2_" cx="646.0376" cy="337.81271" r="46.619801" gradientTransform="matrix(1,0,0,0.6166,259.25,353.3353)" gradientUnits="userSpaceOnUse"><stop offset="0" style="stop-color:#D4565A;stop-opacity:0.3059" id="stop221"/><stop offset="0.5216" style="stop-color:#D5565C;stop-opacity:0.3255" id="stop223"/><stop offset="0.749" style="stop-color:#D75563;stop-opacity:0.4039" id="stop225"/><stop offset="0.9176" style="stop-color:#DB536F;stop-opacity:0.5294" id="stop227"/><stop offset="1" style="stop-color:#DE5277;stop-opacity:0.6275" id="stop229"/></radialGradient><path class="st5" d="m 947.6,537.9 c -3.5,-6 -9.7,-9 -18.7,-9.2 -6,-0.1 -17.5,1.4 -34.5,4.5 -19.5,3.5 -31.5,6.9 -36.2,10.2 -6.7,4.8 -9.3,10.9 -7.9,18.4 1.6,8.9 9.5,15.3 23.8,19.3 10.6,3 21,6.5 31.1,10.5 6.5,2.1 13.6,2 21.3,-0.5 4.6,-1.5 9.2,-5.5 13.8,-12.1 4.5,-6.6 7.5,-13.6 9.1,-21.1 1.7,-8.2 1.1,-14.9 -1.8,-20 z" id="path231" inkscape:connector-curvature="0" style="fill:url(#SVGID_2_)"/></g></g></g><g transform="translate(-266.4,25.5)" id="g233"><g id="g235"><g id="Symbol_1_0_Layer0_5_FILL"><path class="st6" d="m 913.5,547 c 0.9,-2.9 0.5,-4.9 -1.2,-6.1 -2.1,-1.4 -6.6,-2.1 -13.5,-2.1 -6.5,0 -12.9,1.3 -19.1,4 -5.5,2.4 -8.8,4.8 -9.8,7.2 -1.2,2.7 0.2,5.2 4.1,7.4 4.8,2.7 11.9,3.2 21.2,1.4 5.8,-1.1 10.2,-2.7 13.1,-4.8 2.6,-1.8 4.3,-4.1 5.2,-7 z" id="path238" inkscape:connector-curvature="0" style="fill:#c68698"/></g></g></g><g transform="translate(-266.4,25.5)" id="g240"><g id="g242"><g id="Symbol_1_0_Layer0_6_FILL"><path class="st6" d="m 921.1,567.4 c -1,-1.2 -3.1,-1.5 -6.4,-0.9 -3.1,0.6 -5.2,2.7 -6.1,6.4 -1,3.8 -0.4,4.8 2,3.1 1.3,-0.9 2.9,-1.3 4.9,-1.3 1.7,0 3.2,-0.7 4.5,-2.2 1.8,-2.2 2.2,-3.9 1.1,-5.1 z" id="path245" inkscape:connector-curvature="0" style="fill:#c68698"/></g></g></g><g transform="translate(-266.4,25.5)" id="g247"><g id="g249"><g id="Symbol_1_0_Layer0_7_FILL"><radialGradient id="SVGID_3_" cx="615.05243" cy="374.7099" r="30.5105" gradientTransform="matrix(1,0,0,0.6168,236.4,369.958)" gradientUnits="userSpaceOnUse"><stop offset="0" style="stop-color:#D4565A;stop-opacity:0.3059" id="stop253"/><stop offset="0.5216" style="stop-color:#D5565C;stop-opacity:0.3255" id="stop255"/><stop offset="0.749" style="stop-color:#D75563;stop-opacity:0.4039" id="stop257"/><stop offset="0.9176" style="stop-color:#DB536F;stop-opacity:0.5294" id="stop259"/><stop offset="1" style="stop-color:#DE5277;stop-opacity:0.6275" id="stop261"/></radialGradient><path class="st7" d="m 823.4,619.5 c -0.5,1.8 1.1,4.1 4.6,7 3.9,3.1 7.7,3.3 11.3,0.7 3.5,-2.4 5.3,-4.6 5.7,-6.5 -0.2,-2.7 -0.2,-5.5 0.2,-8.2 0.5,-3.4 2.6,-7.5 6.5,-12.4 2.2,-2.7 5.5,-6.9 10,-12.4 2.5,-3.5 5.1,-5.9 7.8,-7.3 l 4.6,-1.5 c 1,-0.3 0.5,-1.6 -1.5,-3.9 -2,-2.3 -3.9,-3.1 -5.5,-2.6 -2,0.4 -3.2,0.7 -3.7,0.8 -0.5,0.2 -0.7,0.9 -0.5,2.1 0.4,1.9 -0.7,5.5 -3.4,10.7 -3.2,6.3 -7.6,12.3 -13.1,18.1 -5.7,6.3 -9,9.9 -10,11 -0.9,0.9 -2.4,1.5 -4.7,2 -0.5,0.1 -2.4,0.3 -5.9,0.7 -1.4,0.2 -2.1,0.7 -2.4,1.7 z" id="path263" inkscape:connector-curvature="0" style="fill:url(#SVGID_3_)"/></g></g></g><g transform="translate(-266.4,25.5)" id="g265"><g id="g267"><g id="Symbol_1_0_Layer0_8_FILL"><radialGradient id="SVGID_4_" cx="620.54431" cy="288.0625" r="33.808899" gradientTransform="matrix(1,0,0,0.6167,240.45,330.5948)" gradientUnits="userSpaceOnUse"><stop offset="0" style="stop-color:#D4565A;stop-opacity:0.3059" id="stop271"/><stop offset="0.5216" style="stop-color:#D5565C;stop-opacity:0.3255" id="stop273"/><stop offset="0.749" style="stop-color:#D75563;stop-opacity:0.4039" id="stop275"/><stop offset="0.9176" style="stop-color:#DB536F;stop-opacity:0.5294" id="stop277"/><stop offset="1" style="stop-color:#DE5277;stop-opacity:0.6275" id="stop279"/></radialGradient><path class="st8" d="m 834,482.8 c -2.1,1.4 -2.7,2 -1.8,1.6 3.1,-0.8 5.5,-1 7.3,-0.7 2.6,0.5 6.9,3.8 12.8,9.8 5.7,5.7 10.3,11.4 14,17 2.4,3.6 5.2,9.9 8.4,19 2.5,7.1 4.2,10.6 5.2,10.5 1.9,-0.4 3.4,-1.2 4.6,-2.5 1.3,-1.5 0.7,-2.6 -1.6,-3.4 -2.2,-0.7 -4.4,-3.6 -6.7,-8.7 -2.6,-6.8 -4.7,-11.9 -6.2,-15.4 -5.4,-12.3 -10.7,-20.1 -15.9,-23.6 -2.1,-1.4 -2.9,-2.8 -2.2,-4.2 1.5,-3.3 2.2,-5 2.2,-5.2 0.2,-2.1 -2.2,-2.2 -7.3,-0.4 -4.5,1.5 -8.7,3.6 -12.8,6.2 z" id="path281" inkscape:connector-curvature="0" style="fill:url(#SVGID_4_)"/></g></g></g><g transform="translate(-266.4,25.5)" id="g283"><g id="g285"><g id="Symbol_1_0_Layer0_9_FILL"><radialGradient id="SVGID_5_" cx="682.10779" cy="316.59891" r="19.4666" gradientTransform="matrix(1,0,0,0.6172,285.85,343.2232)" gradientUnits="userSpaceOnUse"><stop offset="0" style="stop-color:#D4565A;stop-opacity:0.3059" id="stop289"/><stop offset="0.5216" style="stop-color:#D5565C;stop-opacity:0.3255" id="stop291"/><stop offset="0.749" style="stop-color:#D75563;stop-opacity:0.4039" id="stop293"/><stop offset="0.9176" style="stop-color:#DB536F;stop-opacity:0.5294" id="stop295"/><stop offset="1" style="stop-color:#DE5277;stop-opacity:0.6275" id="stop297"/></radialGradient><path class="st9" d="m 989.9,539.7 c -0.4,-2.4 -1.3,-4.5 -2.7,-6.2 -1.3,-1.6 -2.3,-2.2 -2.9,-1.9 -0.4,0.2 -0.8,1 -1.2,2.5 -0.3,1.3 -2.4,2.4 -6.4,3.3 -4.1,0.9 -8.8,1.4 -14.3,1.4 -3.9,0 -8.7,-0.8 -14.3,-2.4 -4.1,-1.1 -6.2,-1.3 -6.4,-0.6 l -0.7,3.4 c -0.2,2.5 0,4.1 0.7,4.8 0.6,0.6 0.9,1 0.9,1.1 2.5,-0.7 4.8,-1.3 6.7,-1.6 10.8,-2 19.3,-2.8 25.3,-2.4 3,0.2 5.1,0.7 6.2,1.5 1.3,0.9 2.2,1.3 2.6,1.4 0.2,0.1 1.3,0.5 3.1,1.2 0.8,0.3 1.5,0.1 2.2,-0.6 1.2,-0.9 1.5,-2.5 1.2,-4.9 z" id="path299" inkscape:connector-curvature="0" style="fill:url(#SVGID_5_)"/></g></g></g><g transform="translate(-266.4,25.5)" id="g301"><g id="g303"><g id="Symbol_1_0_Layer0_10_FILL"><radialGradient id="SVGID_6_" cx="664.07269" cy="389.60721" r="33.1021" gradientTransform="matrix(1,0,0,0.6165,272.55,376.8867)" gradientUnits="userSpaceOnUse"><stop offset="0" style="stop-color:#D4565A;stop-opacity:0.3059" id="stop307"/><stop offset="0.5216" style="stop-color:#D5565C;stop-opacity:0.3255" id="stop309"/><stop offset="0.749" style="stop-color:#D75563;stop-opacity:0.4039" id="stop311"/><stop offset="0.9176" style="stop-color:#DB536F;stop-opacity:0.5294" id="stop313"/><stop offset="1" style="stop-color:#DE5277;stop-opacity:0.6275" id="stop315"/></radialGradient><path class="st10" d="m 927.8,583.6 c -0.3,-2.4 -1.3,-3.4 -3.1,-3.1 -1.5,0.2 -3.4,1.3 -5.8,3.2 -2.6,2.2 -3.6,4.1 -3.1,5.7 0.4,1.1 1.3,2.3 2.6,3.5 1.6,1.5 2.9,3.3 3.9,5.3 2.4,4.8 4.7,10.6 6.7,17.4 2.8,9.3 3.7,16.2 2.7,20.9 -0.8,3.5 -1.8,6.8 -3.1,9.9 -0.7,1.6 -0.9,2.9 -0.5,3.7 0.5,1.2 2.8,1.9 6.7,2.1 3.8,0.2 7.1,-0.1 9.8,-0.9 3.5,-1.2 5.9,-2.2 7,-3.1 1.9,-1.3 2.3,-3.1 1.3,-5.2 -0.9,-1.9 -2.4,-3.5 -4.4,-4.7 -2.7,-1.7 -4.2,-2.7 -4.5,-2.9 -1.2,-1.2 -3,-4.4 -5.4,-9.8 -2.4,-5.2 -4.6,-10.4 -6.4,-15.5 -0.3,-0.8 -2,-4.5 -5.2,-11.2 -1.4,-3 -1.6,-5.5 -0.7,-7.7 1.4,-2.8 1.8,-5.3 1.5,-7.6 z" id="path317" inkscape:connector-curvature="0" style="fill:url(#SVGID_6_)"/></g></g></g><g transform="translate(-266.4,25.5)" id="g319"><g id="g321"><g id="Symbol_1_0_Layer0_11_FILL"><radialGradient id="SVGID_7_" cx="647.59698" cy="393.45001" r="166.09419" gradientTransform="matrix(1,0,0,0.8635,260.4,226.9819)" gradientUnits="userSpaceOnUse"><stop offset="0" style="stop-color:#2FEBFA;stop-opacity:0.3647" id="stop325"/><stop offset="1" style="stop-color:#2CEBFD;stop-opacity:0" id="stop327"/></radialGradient><path class="st11" d="M 1025.4,465.4 C 993,437.4 953.8,423.3 908,423.3 c -45.9,0 -85,14 -117.4,42.1 -32.4,28 -48.7,61.8 -48.7,101.4 0,39.6 16.2,73.4 48.7,101.4 32.4,28 71.6,41.9 117.4,41.9 45.9,0 85,-14 117.4,-41.9 32.4,-28 48.7,-61.8 48.7,-101.4 0,-39.7 -16.2,-73.5 -48.7,-101.4 z" id="path329" inkscape:connector-curvature="0" style="fill:url(#SVGID_7_)"/></g></g></g><g transform="translate(-266.4,25.5)" id="g331"><g id="g333"><g id="Symbol_1_0_Layer0_12_FILL"><radialGradient id="SVGID_8_" cx="636.20093" cy="412.75961" r="133.00031" gradientTransform="translate(252,157.4)" gradientUnits="userSpaceOnUse"><stop offset="0" style="stop-color:#4D6F23" id="stop337"/><stop offset="0" style="stop-color:#4E7025" id="stop339"/><stop offset="0" style="stop-color:#51752B" id="stop341"/><stop offset="0" style="stop-color:#567D36" id="stop343"/><stop offset="0" style="stop-color:#5E8846" id="stop345"/><stop offset="0" style="stop-color:#68975C" id="stop347"/><stop offset="0" style="stop-color:#74A978" id="stop349"/><stop offset="0" style="stop-color:#82BE99" id="stop351"/><stop offset="0" style="stop-color:#93D7BF" id="stop353"/><stop offset="0" style="stop-color:#A6F2EA" id="stop355"/><stop offset="0" style="stop-color:#AFFFFE" id="stop357"/><stop offset="1" style="stop-color:#71A5A5;stop-opacity:0" id="stop359"/></radialGradient><path class="st12" d="m 842.6,470.9 c -4.2,-0.9 -9.1,-1.5 -14.5,-1.6 h -6.7 l 11.8,-3.1 c 8.2,-2.2 14.4,-3.7 18.5,-4.4 7.9,-1.3 17.2,-2 27.9,-2 10.1,0 18.5,0.4 25.2,1.1 4,0.4 10.2,1.1 18.7,2.1 10.4,1 19.1,2.6 25.9,4.7 l -3.2,5.5 6,0.8 c 5.1,0.7 10.4,1.2 16,1.5 5.7,0.3 10.4,1.7 14,4.1 2.6,1.7 7.9,5.9 15.8,12.4 6.5,4.9 12,17 16.5,36.3 2.2,9.6 3.8,18.7 4.7,27.3 l 3.2,-8.7 c 1.6,-4.5 2.1,-9.1 1.3,-13.9 l 3.4,17.9 c 0.8,4.6 0.3,10.9 -1.5,18.8 -2.4,10.1 -3.8,18.7 -4,25.9 -0.4,11.9 -0.9,20.3 -1.4,25.2 -0.7,5.6 -1.8,10.2 -3.3,14 -1.4,3.5 -5.2,7.5 -11.3,12 -5.7,4 -9.5,6 -11.4,6 -1,0 -1.2,-0.2 -0.6,-0.5 2,-0.9 3.7,-2.1 5.3,-3.4 3.1,-2.6 5.2,-6.5 6.2,-11.8 l -11,7.9 c -4.7,3.3 -11.2,6.4 -19.6,9.3 -4.5,1.5 -8.6,2.7 -12.3,3.5 l 2,-0.4 c 2.6,-0.5 6.5,-0.7 11.8,-0.7 l -7.1,7.1 c -3.1,3.1 -9.1,6.2 -18.3,9.3 -7.7,2.7 -12.6,4 -14.7,4 -0.9,0 -0.2,-1.2 2.2,-3.5 1.3,-1.2 2.6,-2.4 4,-3.5 -1.8,1 -4.6,2.1 -8.2,3.2 -7.3,2 -15.5,3.1 -24.7,3.1 -9.2,0 -17,-0.6 -23.6,-1.9 l -7.1,-2 3.2,3.2 c 2,2 6.8,4.4 14.1,7.1 L 877,681.2 c -1.5,-0.1 -3.5,-0.4 -6,-0.8 -0.3,0.8 -0.7,1.4 -1.1,1.9 l -0.1,0.4 c -0.1,0.2 -0.4,1 -1.1,2.6 4.6,1 8.9,1.5 12.8,1.5 2.4,0 11.2,0.7 26.4,2 11,0.9 19,0.8 23.9,-0.5 4.2,-1 15.5,-5.7 34.2,-13.9 18.1,-7.9 28.7,-12.2 31.8,-12.7 4.9,-0.9 10.8,-4.6 17.6,-11.1 7,-6.8 11.6,-13.5 13.9,-20.4 2.2,-6.5 3.5,-18 3.9,-34.5 0.4,-14.1 0.1,-28.8 -0.8,-44.1 -0.8,-14.1 -4.5,-27.9 -11.2,-41.3 -7.1,-14.5 -16,-24.8 -26.5,-30.9 -15.4,-8.9 -29.2,-15.5 -41.3,-20 -18.6,-6.9 -35.2,-9.7 -49.7,-8.2 -21.4,0.8 -37.6,1.9 -48.4,3.3 -18.8,2.5 -36.1,8.8 -52.1,18.7 -7.9,4.9 -13.4,8.9 -16.7,12.1 -3.6,3.5 -7,8.4 -10,14.5 -1,2.1 -6.2,12 -15.4,29.7 -7.8,14.7 -12.6,24.2 -14.4,28.5 -2.2,5.1 -3.5,10.3 -3.9,15.7 -0.4,4.4 -0.2,9.6 0.7,15.7 0.6,4.4 3.3,11.1 8,20.1 6.1,11.5 9.2,17.3 9.3,17.6 1.6,4 5.3,8.7 11.2,14.1 -0.9,-6 -1,-11.8 -0.2,-17.4 -3.1,-3.5 -6.3,-7.3 -9.4,-11.5 -2,-2.7 -3.3,-6.5 -4,-11.3 -0.6,-4.4 -2.2,-8 -4.6,-10.7 -3.1,-3.5 -5,-8 -5.5,-13.5 -0.4,-3.8 -0.1,-8.8 0.8,-14.7 0.6,-3.9 2.5,-5.9 5.7,-5.9 1.6,0 3.2,0.4 4.6,1.2 l 0.9,-7.8 c 0.9,-7.1 1.6,-11.8 2.1,-14.3 0.6,-3.7 3.9,-9.3 9.8,-16.8 7.2,-9.3 9.5,-11.8 6.7,-7.4 -2.6,4.2 -3.8,11.3 -3.5,21.1 0.2,4.9 0.5,9.3 1.2,13.4 l 1.6,-7.1 c 0.7,-3.1 2,-7 3.9,-11.9 0.6,-1.6 2.7,-6.5 6.2,-14.8 2.3,-6.8 4.1,-11.6 5.5,-14.6 2.4,-4.9 6.6,-9.2 12.6,-12.8 5.9,-3.6 15.4,-6.5 28.5,-8.7 6.5,-1.1 12.4,-1.8 17.8,-2.2 l -10.1,-2.6 z" id="path361" inkscape:connector-curvature="0" style="fill:url(#SVGID_8_)"/></g></g></g><g transform="translate(-266.4,25.5)" id="g363"><g id="g365"><g id="Symbol_1_0_Layer0_13_MEMBER_0_FILL"><path class="st1" d="m 823.8,511 c -2,0.2 -4.4,0.5 -7.2,1.1 -5.5,1.2 -9.9,2.9 -13.2,5.2 -2,1.2 -4,2.8 -6.1,4.9 -4.3,4.2 -7,8.5 -8,13.1 -1.6,7.4 -1.8,13.2 -0.8,17.3 0.5,-2.6 1.7,-5.7 3.4,-9.4 3.4,-7.3 8,-13.6 13.9,-18.8 5.9,-5.3 10.7,-9.1 14.4,-11.4 1.7,-1.3 2.9,-1.9 3.6,-2 z" id="path368" inkscape:connector-curvature="0" style="fill:#75b5b4"/></g></g></g><g transform="translate(-266.4,25.5)" id="g370"><g id="g372"><g id="Symbol_1_0_Layer0_13_MEMBER_1_FILL"><path class="st1" d="m 857.2,466.5 c -5.6,1 -10.2,2.3 -13.9,3.9 l -3.8,2 13.7,2.4 c -1.8,0.9 -3.7,1.9 -5.8,3.1 -4.2,2.3 -6.8,4.2 -7.9,5.9 l -2.8,4 2.4,-1.4 c 2,-1.2 4.3,-2.3 6.7,-3.3 l 11.8,-4.5 c 9.6,-3.1 18.6,-4.6 27.1,-4.6 h 20.4 c -13.6,-2.6 -23.8,-3.9 -30.6,-3.9 h -10.1 l 3.3,-1.3 c 3,-0.9 6.4,-1.2 10.4,-1.1 l 9.4,0.4 c -2.8,-0.6 -6.2,-1.2 -10.1,-1.6 -7.9,-0.9 -14.6,-0.9 -20.2,0 z" id="path375" inkscape:connector-curvature="0" style="fill:#75b5b4"/></g></g></g><g transform="translate(-266.4,25.5)" id="g377"><g id="g379"><g id="Symbol_1_0_Layer0_13_MEMBER_2_FILL"><path class="st1" d="m 922.1,476.7 -8,2 8.2,-0.8 c 6.5,-0.3 12.4,0.4 17.7,2 l 12.6,3.9 c -0.5,-0.9 -1.5,-1.8 -2.9,-2.8 -2.9,-2 -6.6,-3.6 -11.2,-4.6 -4.6,-1 -10.1,-0.9 -16.4,0.3 z" id="path382" inkscape:connector-curvature="0" style="fill:#75b5b4"/></g></g></g><g transform="translate(-266.4,25.5)" id="g384"><g id="g386"><g id="Symbol_1_0_Layer0_13_MEMBER_3_FILL"><path class="st1" d="m 918.6,469.1 -3.3,1.3 2.4,-0.7 c 2.4,-0.2 5.5,0.1 9.4,1.1 l 9.4,2.4 c -0.5,-0.8 -1.4,-1.6 -2.6,-2.4 -2.2,-1.6 -4.6,-2.6 -7.2,-2.7 -2.6,-0.2 -5.4,0.2 -8.1,1 z" id="path389" inkscape:connector-curvature="0" style="fill:#75b5b4"/></g></g></g><g transform="translate(-266.4,25.5)" id="g391"><g id="g393"><g id="Symbol_1_0_Layer0_13_MEMBER_4_FILL"><path class="st1" d="m 869.6,485.4 -2.2,4.2 3.3,-2.4 c 3.6,-1.6 9.2,-2.6 16.7,-2.7 l 18.1,-0.4 c -1.5,-0.7 -3.6,-1.4 -6.2,-2.1 -5.4,-1.3 -11.1,-1.7 -17,-1.4 -5.9,0.4 -10.1,2 -12.7,4.8 z" id="path396" inkscape:connector-curvature="0" style="fill:#75b5b4"/></g></g></g><g transform="translate(-266.4,25.5)" id="g398"><g id="g400"><g id="Symbol_1_0_Layer0_13_MEMBER_5_FILL"><path class="st1" d="m 861.5,491.3 c -6.8,-0.8 -13.2,-0.7 -19.2,0.4 -4.7,0.2 -8.8,1.5 -12.1,3.9 -2.1,1.5 -3.9,3 -5.3,4.5 l -1.4,1.9 6,-1.1 c 4.3,-0.8 7.3,-1.6 9,-2.5 7,-3.6 12.7,-5.7 17.2,-6.4 l 5.8,-0.7 z" id="path403" inkscape:connector-curvature="0" style="fill:#75b5b4"/></g></g></g><g transform="translate(-266.4,25.5)" id="g405"><g id="g407"><g id="Symbol_1_0_Layer0_13_MEMBER_6_FILL"><path class="st1" d="m 832.5,488.1 c -6.8,0.5 -11.8,1.3 -15,2.4 -1.4,0.2 -3.1,0.7 -4.9,1.4 -3.8,1.5 -6.7,3.4 -8.8,5.7 -2.2,2.4 -4,4.9 -5.4,7.5 -0.8,1.4 -1.7,3.5 -2.8,6.2 -1,2.6 -1.5,4.8 -1.5,6.6 l 5.7,-8.5 c 4.5,-5.9 8.6,-9.6 12.4,-11.1 3.4,-1.3 6.1,-2.7 8.1,-4 2.4,-1.6 4.4,-2.8 6,-3.5 l 6.2,-2.7 z" id="path410" inkscape:connector-curvature="0" style="fill:#75b5b4"/></g></g></g><g transform="translate(-266.4,25.5)" id="g412"><g id="g414"><g id="Symbol_1_0_Layer0_13_MEMBER_7_FILL"><path class="st1" d="m 773.9,566.7 c 1,-3.1 1.5,-5.8 1.5,-7.9 0,-1.6 -0.9,-2.2 -2.6,-1.8 -1.7,0.4 -2.9,1.8 -3.7,4.1 -0.5,1.8 -1.5,4.5 -2.7,8 -0.9,3.1 -0.9,6 0,8.5 1.3,3.9 2.8,6.7 4.7,8.2 0,-4.4 0.4,-7.7 1.2,-9.8 l 1.2,-3.2 0.6,9.4 c 0.9,6.8 2.6,11.2 5.3,13.3 l 6.2,5.2 c -2.9,-9.7 -4.6,-18.3 -5.1,-25.6 -0.3,-4.6 0.2,-9 1.6,-13.3 l 2.2,-5.2 c -0.9,0.3 -2,0.8 -3.2,1.4 -2.2,1.2 -3.6,2.4 -4.2,3.8 -0.7,1.3 -1.5,2.4 -2.2,3.5 l -0.8,1.4 z" id="path417" inkscape:connector-curvature="0" style="fill:#75b5b4"/></g></g></g><g transform="translate(-266.4,25.5)" id="g419"><g id="g421"><g id="Symbol_1_0_Layer0_13_MEMBER_8_FILL"><path class="st1" d="m 770.9,543.4 c 0,-0.4 -0.2,-2.6 -0.5,-6.6 -0.2,-1.9 -0.7,-2.6 -1.5,-2.2 -0.9,0.4 -1.9,1.9 -2.8,4.6 -0.9,2.5 -1.4,4.4 -1.5,5.5 0,0.2 -0.1,2 -0.4,5.5 -0.2,2 -0.5,4.1 -1.2,6.5 -0.5,2 -0.8,3.4 -0.8,4.1 v 2.4 c 0.5,-1.3 1.1,-2.7 1.8,-4.4 1.5,-3.4 3,-6.1 4.5,-8.2 1.4,-2.3 2.2,-4.7 2.4,-7.2 z" id="path424" inkscape:connector-curvature="0" style="fill:#75b5b4"/></g></g></g><g transform="translate(-266.4,25.5)" id="g426"><g id="g428"><g id="Symbol_1_0_Layer0_13_MEMBER_9_FILL"><path class="st1" d="m 759,567 c -0.4,0.5 -1.5,0.7 -3.2,0.6 -1.3,-0.2 -2.1,0.7 -2.2,2.6 -0.2,3 -0.3,4.9 -0.2,5.8 0.2,1.6 0.9,3.4 2.1,5.5 0.9,1.6 2,3.4 3.3,5.4 0.9,1.6 1.6,3.6 2.2,6 0.6,2.3 2.5,4.9 5.7,8 1.6,1.5 3.2,2.7 4.6,3.8 -1.4,-1.9 -2.8,-4.1 -4.2,-6.6 -2.8,-5.1 -4.3,-9.2 -4.5,-12.3 -0.2,-5.1 -0.6,-9.5 -1.2,-13.1 -0.8,-4.8 -1.6,-6.7 -2.4,-5.7 z" id="path431" inkscape:connector-curvature="0" style="fill:#75b5b4"/></g></g></g><g transform="translate(-266.4,25.5)" id="g433"><g id="g435"><g id="Symbol_1_0_Layer0_13_MEMBER_10_FILL"><path class="st1" d="m 783.5,606.8 -4,-5.3 c -0.9,-0.9 -1.8,-1.1 -2.7,-0.6 -0.9,0.5 -1.3,1.3 -1.3,2.6 0,0.7 1,2.8 3.1,6.2 2.3,3.8 3.6,6.8 4,8.7 0.5,2.4 1.7,4.4 3.5,6 0.6,0.6 2.4,1.9 5.2,3.8 2.4,1.6 4.2,2.6 5.4,3.2 -1.2,-0.5 -2.4,-1.5 -3.7,-2.9 -2.6,-2.7 -4.1,-5.9 -4.6,-9.7 -0.4,-3.7 -2.1,-7.7 -4.9,-12 z" id="path438" inkscape:connector-curvature="0" style="fill:#75b5b4"/></g></g></g><g transform="translate(-266.4,25.5)" id="g440"><g id="g442"><g id="Symbol_1_0_Layer0_13_MEMBER_11_FILL"><path class="st1" d="m 792.4,638.9 c 0.8,-1.3 -1.5,-4.1 -6.7,-8.2 -1.4,-1.4 -2.6,-1.8 -3.4,-1.1 -0.9,0.6 -0.6,1.9 0.7,3.8 1.4,2 3.2,3.7 5.3,5.1 2.2,1.3 3.6,1.4 4.1,0.4 z" id="path445" inkscape:connector-curvature="0" style="fill:#75b5b4"/></g></g></g><g transform="translate(-266.4,25.5)" id="g447"><g id="g449"><g id="Symbol_1_0_Layer0_13_MEMBER_12_FILL"><path class="st1" d="m 807,559.7 c -1.3,-2.7 -4.1,-2.9 -8.4,-0.6 -1.4,0.9 -2.4,2.5 -2.9,4.9 -0.4,1.7 -0.6,4.3 -0.6,7.7 0,4.9 0.9,8.9 2.7,12.1 l 2,3.5 c 0.2,-2.3 0.6,-4.8 1.2,-7.5 1.1,-5.5 2.6,-9.4 4.4,-11.7 2.3,-3 2.9,-5.8 1.6,-8.4 z" id="path452" inkscape:connector-curvature="0" style="fill:#75b5b4"/></g></g></g><g transform="translate(-266.4,25.5)" id="g454"><g id="g456"><g id="Symbol_1_0_Layer0_13_MEMBER_13_FILL"><path class="st1" d="m 847,521.1 c -3.7,0.3 -6.4,1.4 -8.2,3.2 -2.9,2.7 -4.8,4.4 -5.8,5.3 -1.6,1.5 -1.7,2.1 -0.5,1.8 1,-0.2 3.4,-1.6 7.2,-4 3.9,-2.6 6.6,-4.2 8.1,-4.7 l 4.2,-1.5 c -1.5,-0.3 -3.1,-0.3 -5,-0.1 z" id="path459" inkscape:connector-curvature="0" style="fill:#75b5b4"/></g></g></g><g transform="translate(-266.4,25.5)" id="g461"><g id="g463"><g id="Symbol_1_0_Layer0_13_MEMBER_14_FILL"><path class="st1" d="m 828.2,522.6 c -2.4,-0.2 -4.1,0.4 -5.2,1.6 -1.3,1.4 -2,2.7 -2.4,3.9 -0.5,1.3 0,1.7 1.5,1.2 1.1,-0.4 2.3,-1.3 3.5,-2.7 1.3,-1.5 2.5,-2.4 3.5,-2.8 2.1,-0.7 1.7,-1.1 -0.9,-1.2 z" id="path466" inkscape:connector-curvature="0" style="fill:#75b5b4"/></g></g></g><g transform="translate(-266.4,25.5)" id="g468"><g id="g470"><g id="Symbol_1_0_Layer0_13_MEMBER_15_FILL"><path class="st1" d="m 898,503.9 c 3.1,-0.4 5.8,-0.2 8.2,0.7 2,0.7 3.3,1.3 4.1,1.8 0.3,0.2 0.9,0.2 1.8,0.2 1.7,0 2.2,-0.8 1.3,-2.4 -0.9,-1.6 -3,-2.8 -6.4,-3.5 -2.1,-0.5 -4.9,0 -8.4,1.5 l -4.6,2.4 4,-0.7 z" id="path473" inkscape:connector-curvature="0" style="fill:#75b5b4"/></g></g></g><g transform="translate(-266.4,25.5)" id="g475"><g id="g477"><g id="Symbol_1_0_Layer0_13_MEMBER_16_FILL"><path class="st1" d="m 1004.5,531 -1.2,-5.2 c -4.9,-2.4 -8.5,-3.6 -10.6,-3.8 -2.1,-0.2 -2.4,0.8 -0.8,2.9 4.9,6.8 7.4,12.4 7.4,17 0,3.9 -0.4,7.7 -1.2,11.3 4.5,-6 6.8,-10.5 7.1,-13.7 0.2,-1.9 0,-4.7 -0.7,-8.5 z" id="path480" inkscape:connector-curvature="0" style="fill:#75b5b4"/></g></g></g><g transform="translate(-266.4,25.5)" id="g482"><g id="g484"><g id="Symbol_1_0_Layer0_13_MEMBER_17_FILL"><path class="st1" d="m 1011,599.7 c -0.7,2.5 -1.1,4.2 -1.1,5.1 -1.6,8.9 -3.5,15.5 -5.9,20 l -3.5,6.7 4.7,-1.8 c 3.5,-2.4 5.8,-6.5 7.1,-12.4 1.3,-5.9 1.7,-11.2 1.1,-15.9 l -1.4,-5.3 -1,3.6 z" id="path487" inkscape:connector-curvature="0" style="fill:#75b5b4"/></g></g></g><g transform="translate(-266.4,25.5)" id="g489"><g id="g491"><g id="Symbol_1_0_Layer0_13_MEMBER_18_FILL"><path class="st1" d="m 1000.9,626.8 -1.2,-9.9 c -2.4,2.7 -5.3,5.6 -8.7,8.6 -6.8,6 -12.5,9.7 -17.2,11.1 l -11.4,3.2 c 0.4,0 2.3,0.1 5.7,0.4 4,0.2 8.1,-0.1 12.4,-0.8 4.2,-0.6 7.8,-1.7 10.6,-3.3 1.3,-0.8 2.3,-1.5 2.8,-2.1 -0.1,1.3 -1.1,2.6 -3.2,3.9 -1,0.7 -2.2,1.3 -3.5,1.6 -0.4,0.2 -0.3,0.3 0.4,0.4 2,0.4 4,0.4 5.8,-0.1 2.9,-0.8 4.8,-2.7 5.7,-5.8 l 1.8,-7.2 z" id="path494" inkscape:connector-curvature="0" style="fill:#75b5b4"/></g></g></g><g transform="translate(-266.4,25.5)" id="g496"><g id="g498"><g id="Symbol_1_0_Layer0_13_MEMBER_19_FILL"><path class="st1" d="m 960.1,650.3 c -5.7,-0.5 -9.4,-1.9 -11,-4 -0.5,1.3 -1.3,2.7 -2.6,4 -2.6,2.8 -5.9,4.4 -10,4.7 l -11.4,1.2 6.6,1.4 c 5.3,0.6 10.2,0.3 14.6,-1.1 7.1,-2.1 11.6,-4.1 13.8,-6.2 z" id="path501" inkscape:connector-curvature="0" style="fill:#75b5b4"/></g></g></g><g transform="translate(-266.4,25.5)" id="g503"><g id="g505"><g id="Symbol_1_0_Layer0_13_MEMBER_20_FILL"><path class="st1" d="m 882.7,658.6 6.5,4.5 c 5.7,2.8 11.9,4.1 18.7,3.8 11,-0.5 17.1,-1.1 18.4,-1.6 -1.6,1.9 -3.7,3.1 -6.2,3.5 -1.3,0.3 -2.7,0.5 -4.5,0.7 -0.5,0.1 -0.4,0.1 0.6,0.1 3,0 6.4,-0.3 10.2,-0.9 5.9,-0.9 10.2,-2.2 12.8,-4.1 2.1,-1.4 4.1,-2.6 6,-3.7 0.6,-0.3 0.7,-0.5 0.4,-0.7 -0.8,-0.2 -4.7,-0.4 -11.8,-0.4 -7.4,-0.2 -12.2,-0.2 -14.5,-0.2 -3.5,0 -6,0.3 -7.5,0.9 -0.5,0.5 -1.6,0.9 -3.2,1.2 -3.1,0.5 -7.2,0.3 -12.1,-0.7 -4.9,-0.9 -8.6,-1.6 -11.3,-2 l -2.5,-0.4 z" id="path508" inkscape:connector-curvature="0" style="fill:#75b5b4"/></g></g></g><g transform="translate(-266.4,25.5)" id="g510"><g id="g512"><g id="Symbol_1_0_Layer0_13_MEMBER_21_FILL"><path class="st1" d="m 881.5,666.8 -11.8,-4 c -5.7,-0.8 -11.1,-2.4 -16,-4.7 -3.1,-1.5 -5.9,-2.5 -8.4,-3.1 l -2.7,-0.5 2.9,6 c 3.1,4 7.7,6.1 13.5,6.2 5.2,0.2 9.3,-0.2 12.4,-0.9 2.2,-0.5 4,-0.5 5.3,-0.2 l 4.8,1.2 z" id="path515" inkscape:connector-curvature="0" style="fill:#75b5b4"/></g></g></g><g transform="translate(-266.4,25.5)" id="g517"><g id="g519"><g id="Symbol_1_0_Layer0_13_MEMBER_22_FILL"><path class="st1" d="m 853.7,655.4 c 8.3,-0.8 12.3,-1.6 11.8,-2.4 -0.9,-1.2 -5.2,-2.1 -13,-2.7 -3.8,-0.3 -7.1,-1.5 -9.9,-3.7 l -3.1,-3.1 5.4,7.9 c 2.3,3.3 4.4,4.9 6.5,4.9 1,0.1 1.7,-0.2 2.3,-0.9 z" id="path522" inkscape:connector-curvature="0" style="fill:#75b5b4"/></g></g></g><g transform="translate(-266.4,25.5)" id="g524"><g id="g526"><g id="Symbol_1_0_Layer0_14_MEMBER_0_FILL"><radialGradient id="SVGID_9_" cx="613.49298" cy="365.6239" r="87.968002" gradientTransform="translate(235.25,122.6)" gradientUnits="userSpaceOnUse"><stop offset="0" style="stop-color:#4D6F23" id="stop530"/><stop offset="0" style="stop-color:#4E7025" id="stop532"/><stop offset="0" style="stop-color:#51752B" id="stop534"/><stop offset="0" style="stop-color:#567D36" id="stop536"/><stop offset="0" style="stop-color:#5E8846" id="stop538"/><stop offset="0" style="stop-color:#68975C" id="stop540"/><stop offset="0" style="stop-color:#74A978" id="stop542"/><stop offset="0" style="stop-color:#82BE99" id="stop544"/><stop offset="0" style="stop-color:#93D7BF" id="stop546"/><stop offset="0" style="stop-color:#A6F2EA" id="stop548"/><stop offset="0" style="stop-color:#AFFFFE" id="stop550"/><stop offset="1" style="stop-color:#71A5A5;stop-opacity:0" id="stop552"/></radialGradient><path class="st13" d="m 922.7,512.8 c 0.7,0 1.2,-0.1 1.4,-0.4 0.6,-0.5 0.4,-0.5 -0.8,0 -0.2,0.2 -0.4,0.3 -0.6,0.4 m -80.8,-25.4 c -7.6,3.5 -14.8,7.7 -21.7,12.4 -7.8,5.4 -11.5,9.3 -11.3,11.8 0.2,2 4.3,2.6 12.3,1.8 8.5,-0.8 13,-0.8 13.7,0 0.7,0.9 -1.3,2.7 -5.9,5.4 -5.8,3.5 -9.5,6.8 -11.2,9.9 -2.7,5 -5.1,15.4 -7.2,31.2 -2,15.7 -1,19.6 3.1,11.8 4,-7.7 10.4,-13.8 19.1,-18.4 7.2,-3.8 13.4,-5.6 18.6,-5.2 2.2,0.2 3.5,1.4 3.8,3.8 0.3,2.2 3.2,3.3 8.6,3.3 4.9,0 9.1,0.2 12.5,0.6 1.8,-0.1 5.1,-1.6 9.9,-4.7 7.3,-4.6 11.3,-7.1 12,-7.4 3.2,-1.6 8.2,-3 15.1,-4.4 4.1,-0.8 11.6,-0.9 22.5,-0.5 3,0.1 4.6,-0.1 4.7,-0.5 0.2,-0.5 -1.4,-1.5 -4.8,-3.2 -7.1,-3.4 -12.6,-5.8 -16.6,-7.2 -3.5,-1.2 -6.8,-1.9 -9.9,-2.2 -4.5,-0.5 -6.9,-0.8 -7.3,-0.9 -1.3,-0.5 0.3,-1.6 4.9,-3.2 1.2,-0.4 4.7,-1.1 10.5,-2.1 1.9,-0.3 3.3,-1.8 4.2,-4.4 0.3,-1 0.8,-1.7 1.3,-2.2 -1.8,0.1 -4.9,-0.8 -9.5,-2.5 -8.2,-2.7 -13.1,-4.3 -14.6,-4.8 -1.7,-0.5 -2.4,-1.7 -1.9,-3.4 0.4,-1.4 2,-2.5 4.8,-3.2 2.7,-0.6 4,-1.5 4,-2.7 0,-1.5 -1.1,-2.4 -3.4,-2.6 -2.8,0 -4.8,-0.1 -6,-0.4 -0.5,-0.1 -2.1,-0.1 -4.7,0 -1.5,0.1 -2.6,-0.3 -3.2,-1.2 -0.4,-0.5 1.9,-1.3 7,-2.1 5.3,-0.9 7.5,-2.3 6.8,-4.4 -1.3,-3.8 -7.2,-6.2 -17.9,-7.1 -13.2,-1 -27.3,1.9 -42.3,8.9 z" id="path554" inkscape:connector-curvature="0" style="fill:url(#SVGID_9_)"/></g></g></g><g transform="translate(-266.4,25.5)" id="g556"><g id="g558"><g id="Symbol_1_0_Layer0_15_FILL"><path class="st0" d="m 490.5,261.1 c -6.5,-2.7 -13,-1.7 -19.3,3.2 -6.9,5.3 -9.3,14.7 -7.3,28.4 1.5,10.6 5.2,21.8 11.2,33.7 3.9,7.8 9.5,14.8 16.7,21 3.9,3.3 9.1,7.3 15.5,12 2.6,2.4 6.3,5.6 11.2,9.7 3.5,3.3 5.3,6.1 5.3,8.4 0,4.4 -5.5,11.5 -16.5,21.2 -2.9,2.7 -6,6.2 -9.3,10.6 l -4.1,5.9 c -7.9,-6.8 -13.6,-11.5 -17.2,-14.1 -5.7,-6.9 -11.3,-13.2 -17.1,-19 -11.1,-11.2 -22.4,-18 -34,-20.3 -6.6,-1.3 -21.3,-3.8 -44.1,-7.5 -16.1,-2.7 -25.5,-4.6 -28.2,-5.8 -1.9,-0.9 -6,-5.5 -12.3,-13.8 -6,-8 -11.1,-12.6 -15.2,-13.8 -4.6,-1.3 -11.3,-1.1 -19.9,0.5 l -11.5,2.7 11.9,-2 c 8.6,-0.8 14.6,0.2 17.9,2.8 0.5,0.5 4.2,5.4 11.1,14.7 5.2,7.1 11.2,11.7 18,13.5 4.8,1.3 17.6,3.7 38.5,7.2 18.8,3.1 30.9,5.7 36,7.7 6.4,2.5 14.1,7.6 23.1,15.3 7.2,6.3 13.9,13 20.1,20 5.5,6.4 9.9,12.1 13.1,17.2 3.8,6 6.8,12.3 9,19 3.6,10.9 5.7,17 6.2,18.1 2.5,5.6 6.2,10.2 11,14 3.7,2.9 10.5,8 20.4,15.2 9,6.7 15.5,12.1 19.7,16.3 4.6,4.6 9.9,7.7 16,9.3 4.1,1.1 9.2,1.6 15.4,1.6 5.2,0 9,1 11.5,3.1 3.1,2.4 5.5,7.2 7.3,14.3 2.1,8.3 5.5,14.6 10.1,18.7 5.5,5.1 13.4,8 23.7,8.7 6.8,0.5 20.3,0.6 40.6,0.1 18.8,-0.4 31.5,-0.2 37.8,0.7 5.7,0.7 13.4,1 22.9,0.8 6.9,-0.1 11.3,0.4 13.3,1.5 3.7,2.1 7,3.8 9.8,5.1 0.9,-0.5 1.7,-1.6 2.5,-3.2 1.6,-3 2.2,-6.8 1.9,-11.3 -0.3,-4.6 -1.6,-7.6 -3.9,-9.2 l -3.2,-1.1 c -2,2 -6.7,3.5 -14,4.2 -0.5,0.1 -8.4,0.6 -23.7,1.6 -20.7,1.4 -32.6,2.2 -35.5,2.2 -17.3,0.5 -32.9,-0.2 -47,-2.2 -13.9,-2 -22.7,-6.6 -26.5,-14 -1.2,-2.4 -2.2,-5.7 -2.9,-10 -0.9,-5 -1.7,-8.4 -2.4,-10.1 -1.8,-4.9 -6.9,-7.6 -15.2,-7.9 -11.4,-0.5 -18.5,-1.5 -21.3,-2.7 -6.1,-2.7 -10.9,-5.6 -14.4,-8.5 -3,-2.4 -6,-5.9 -9.2,-10.4 -1.5,-2 -8.1,-6 -19.9,-12 -10.3,-5.3 -15.4,-9.9 -15.4,-13.9 0,-1.9 -0.9,-5.2 -2.6,-10 -2.1,-5.8 -3.5,-10.2 -4,-13.2 -2.4,-12.3 0.9,-23 10.1,-32.2 7.5,-7.5 14.6,-14.2 21.6,-20.1 1.4,-2 1.7,-3.9 0.9,-5.9 -0.6,-1.8 -2.6,-4.5 -6,-8.1 -2.4,-2.7 -7,-6.5 -13.8,-11.4 -9.2,-6.7 -15.2,-11.2 -18.1,-13.5 -15.3,-12.6 -23.9,-25.1 -25.8,-37.5 -2.1,-14.1 -2.4,-24.3 -0.8,-30.9 1.1,-4.9 3.7,-8.8 7.9,-11.5 3,-2 7.2,-2.2 12.7,-0.6 2.7,0.8 5.2,1.8 7.3,2.9 -1.8,-2.2 -4.4,-4.1 -7.6,-5.4 z" id="path561" inkscape:connector-curvature="0" style="fill:#437879"/></g></g></g><g transform="translate(-266.4,25.5)" id="g563"><g id="g565"><g id="Symbol_1_0_Layer0_16_MEMBER_0_FILL"><path class="st1" d="m 494.3,263.1 c -3.5,-2.4 -7,-3.5 -10.7,-3.5 -4.2,0 -8.3,1.6 -12.4,4.7 -6.9,5.3 -9.3,14.7 -7.3,28.4 1.5,10.6 5.2,21.8 11.2,33.7 3.9,7.8 9.5,14.8 16.7,21 3.9,3.3 9.1,7.3 15.5,12 2.6,2.4 6.3,5.6 11.2,9.7 3.5,3.3 5.3,6.1 5.3,8.4 0,4.4 -5.5,11.5 -16.5,21.2 -2.9,2.7 -6,6.2 -9.3,10.6 l -4.1,5.9 c -7.9,-6.8 -13.6,-11.5 -17.2,-14.1 -5.7,-6.9 -11.3,-13.2 -17.1,-19 -11.1,-11.2 -22.4,-18 -34,-20.3 -6.6,-1.3 -21.3,-3.8 -44.1,-7.5 -16.1,-2.7 -25.5,-4.6 -28.2,-5.8 -1.9,-0.9 -6,-5.5 -12.3,-13.8 -6,-8 -11.1,-12.6 -15.2,-13.8 -2.1,-0.5 -4.6,-0.8 -7.5,-0.8 -4.5,0 -9.8,0.7 -16,2 l -7.9,2 5.5,-1.1 c 4.3,-0.8 8.3,-1.2 11.9,-1.2 5.8,0 9.9,1 12.4,3.1 0.5,0.5 4.2,5.4 11.1,14.7 5.2,7.1 11.2,11.7 18,13.5 4.8,1.3 17.6,3.7 38.5,7.2 18.8,3.1 30.9,5.7 36,7.7 6.4,2.5 14.1,7.6 23.1,15.3 7.2,6.3 13.9,13 20.1,20 5.5,6.4 9.9,12.1 13.1,17.2 3.8,6 6.8,12.3 9,19 3.6,10.9 5.7,17 6.2,18.1 2.5,5.6 6.2,10.2 11,14 3.7,2.9 10.5,8 20.4,15.2 9,6.7 15.5,12.1 19.7,16.3 4.6,4.6 9.9,7.7 16,9.3 4.1,1.1 9.2,1.6 15.4,1.6 5.2,0 9,1 11.5,3.1 3.1,2.4 5.5,7.2 7.3,14.3 2.1,8.3 5.5,14.6 10.1,18.7 5.5,5.1 13.4,8 23.7,8.7 4.2,0.3 9.6,0.5 16.3,0.5 9,0 22.9,-0.2 41.8,-0.6 8.9,0 15.7,0.3 20.4,0.9 4.6,0.6 9.9,0.9 16.1,0.9 l 10.1,-0.1 c 4.9,0 8.2,0.5 9.9,1.5 3.7,2.1 7,3.8 9.8,5.1 0.9,-0.5 1.7,-1.6 2.5,-3.2 1.6,-3 2.2,-6.8 1.9,-11.3 -0.3,-4.1 -1.4,-7 -3.2,-8.7 -1.1,-1 -2.3,-1.5 -3.7,-1.5 h -0.2 c -2,2 -6.7,3.5 -14,4.2 -0.5,0.1 -8.4,0.6 -23.7,1.6 -8.2,0.6 -15,1.1 -20.3,1.4 -9.6,0.6 -18.3,0.9 -26.2,0.9 -13,0 -25.1,-0.8 -36,-2.4 -13.9,-2 -22.7,-6.6 -26.5,-14 -1.2,-2.4 -2.2,-5.7 -2.9,-10 -0.9,-5 -1.7,-8.4 -2.4,-10.1 -1.8,-4.9 -6.9,-7.6 -15.2,-7.9 -11.4,-0.5 -18.5,-1.5 -21.3,-2.7 -6.1,-2.7 -10.9,-5.6 -14.4,-8.5 -3,-2.4 -6,-5.9 -9.2,-10.4 -1.5,-2 -8.1,-6 -19.9,-12 -10.3,-5.3 -15.4,-9.9 -15.4,-13.9 0,-1.9 -0.9,-5.2 -2.6,-10 -2.1,-5.8 -3.5,-10.2 -4,-13.2 -2.4,-12.3 0.9,-23 10.1,-32.2 7.5,-7.5 14.6,-14.2 21.6,-20.1 1.4,-2 1.7,-3.9 0.9,-5.9 -0.6,-1.8 -2.6,-4.5 -6,-8.1 -2.4,-2.7 -7,-6.5 -13.8,-11.4 -9.2,-6.7 -15.2,-11.2 -18.1,-13.5 -15.3,-12.6 -23.9,-25.1 -25.8,-37.5 -2.1,-14.1 -2.4,-24.3 -0.8,-30.9 1.1,-4.9 3.7,-8.8 7.9,-11.5 1.6,-1.1 3.7,-1.6 6.1,-1.6 4.4,0 9,1.3 13.9,4 -0.8,-1.1 -2.1,-2.3 -3.8,-3.5 m -22,3.4 c -2.5,3 -4.1,7 -4.8,12 -0.8,5.6 -0.6,13 0.6,22.3 -4.5,-17 -3.1,-28.4 4.2,-34.3 m 60.7,113 c -0.1,0.9 -0.8,2.2 -2.2,3.8 -1,1 -3,2.8 -6,5.4 -5.7,4.9 -10.3,9.3 -14,13 -7.7,7.7 -11.6,16.3 -11.7,25.8 -0.1,5.4 1.5,12.6 4.7,21.6 1.8,4.9 2.7,8.2 2.7,9.7 0,3.4 2.2,6.7 6.6,10 2.7,2 7.5,4.6 14.4,8 4.5,2.3 7.5,3.8 9,4.7 3,1.8 4.9,3.3 5.9,4.6 3.2,4.6 6.4,8.2 9.5,10.8 3.6,2.9 8.6,5.8 15,8.7 2.4,1.2 5.4,2 8.8,2.4 2,0.2 5.1,0.4 9.1,0.5 5.5,0.1 9.3,0.4 11.3,1.1 3.1,0.9 5.1,2.7 6,5.4 0.5,1.3 1.1,4.1 2,8.4 1.3,7.5 3.4,13 6.2,16.4 4.8,5.6 13.3,9.2 25.4,11 10.8,1.6 22.9,2.4 36.4,2.4 10.7,0 23.6,-0.6 38.8,-1.8 l 7.8,-0.6 c 1.9,-0.2 4.7,-0.3 8.5,-0.5 9,-0.5 15.1,-1.1 18.5,-1.5 5.3,-0.8 9.1,-2 11.4,-3.8 2.3,0.5 3.6,3.1 3.9,7.9 0.4,5.3 -0.4,9.1 -2.5,11.5 -3.1,-1.6 -5.9,-3 -8.1,-4.4 -2.3,-1.2 -6,-1.8 -11.1,-1.8 l -10.1,0.1 c -5.6,0 -10.8,-0.3 -15.8,-0.9 -5.3,-0.6 -12.2,-0.9 -20.7,-0.9 -6.8,0 -13.7,0.1 -20.7,0.4 l -21.1,0.2 c -7,0 -12.4,-0.2 -16.1,-0.5 -10.1,-0.7 -17.8,-3.6 -23,-8.7 -3.8,-3.8 -6.8,-9.5 -8.7,-17 -2,-7.5 -4.7,-12.7 -8.2,-15.5 -2.9,-2.4 -7.2,-3.5 -12.8,-3.5 -6,0 -11,-0.5 -14.8,-1.5 -5.7,-1.6 -10.7,-4.5 -15,-8.7 -4.5,-4.6 -13.8,-12.1 -28,-22.5 L 512.2,470 c -4,-3.1 -7.1,-6.7 -9.3,-11 -1.5,-2.8 -3.3,-7.5 -5.3,-14.1 l -2,-6 c -2.3,-6.9 -5.4,-13.5 -9.3,-19.7 -3.2,-5.2 -7.6,-10.9 -13.1,-17.2 -6,-7 -12.6,-13.5 -19.8,-19.7 -9.3,-8.2 -17.5,-13.7 -24.4,-16.3 -2.4,-1 -6.4,-2.1 -11.8,-3.3 l 8.1,1.4 c 9,1.8 17.9,6.4 26.7,13.9 4.9,4.2 10.6,10.3 17.1,18.1 3.2,3.8 5.3,6.1 6.4,6.8 3.5,2.6 9.2,7.3 17.1,14 l 2.1,1.9 1.4,-2.4 c 0.1,0 1.4,-1.9 4,-5.8 3.2,-4.3 6.2,-7.7 9,-10.2 11.5,-10.2 17.3,-17.9 17.3,-23 0,-2.4 -1.2,-4.9 -3.5,-7.5 -1.3,-1.5 -4.1,-4 -8.2,-7.5 l -5.5,-4.7 c -1.5,-1.3 -3.9,-3.2 -7.2,-5.5 -4.6,-3.5 -7.9,-6.1 -10,-8 -3.9,-3.5 -7.3,-7.3 -10,-11.2 3.7,4.2 8.4,8.7 14,13.3 3.4,2.7 8.4,6.4 15,11.2 8.7,6.5 14.2,11 16.5,13.4 3.7,4.3 5.6,7.2 5.5,8.6 M 351.3,349.9 c -3.8,-1.5 -7.3,-4 -10.5,-7.4 -1.8,-2 -4.2,-5.3 -7.2,-9.8 -2.8,-4.3 -5.2,-7.3 -7.1,-9.1 2.3,1 4.8,3.1 7.7,6.1 1.6,1.8 3.9,4.8 7.1,9 4.7,6.2 8,10 10,11.2 z" id="path568" inkscape:connector-curvature="0" style="fill:#75b5b4"/></g></g></g><g transform="translate(-266.4,25.5)" id="g570"><g id="g572"><g id="Symbol_1_0_Layer0_16_MEMBER_1_FILL"><path class="st1" d="m 353.6,350.9 c -5.5,-4.7 -9.2,-8.9 -11.2,-12.6 -1.5,-2.8 -4.1,-6.1 -7.9,-9.8 -3.8,-3.7 -6.6,-5.7 -8.6,-6.1 l 1.2,4.1 c 0.5,1.1 2.6,4.2 6.1,9.3 3.9,5.7 6.5,9.1 7.8,10.1 1.2,0.9 2.9,1.8 5.3,2.5 3.1,0.9 4.8,1.5 4.9,1.5 l 2.4,1 z" id="path575" inkscape:connector-curvature="0" style="fill:#75b5b4"/></g></g></g><g transform="translate(-266.4,25.5)" id="g577"><g id="g579"><g id="Symbol_1_0_Layer0_16_MEMBER_2_FILL"><path class="st1" d="m 488.4,410.5 c -4.3,-3.1 -7.1,-4.6 -8.4,-4.5 -1.1,0.2 0.4,1.9 4.6,5.3 5,4 7.8,6.4 8.4,7.3 0.9,1.5 1.6,3.2 2.2,5.2 0.5,1.6 0.7,2.9 0.7,3.7 v 1.2 c 0.8,-4.9 0.8,-8.5 0,-10.8 -0.5,-1.8 -3,-4.3 -7.5,-7.4 z" id="path582" inkscape:connector-curvature="0" style="fill:#75b5b4"/></g></g></g><g transform="translate(-266.4,25.5)" id="g584"><g id="g586"><g id="Symbol_1_0_Layer0_16_MEMBER_3_FILL"><path class="st1" d="m 474.1,264.6 c -2.4,0.6 -4.4,2.7 -6.2,6.1 -1.5,2.8 -2.7,6.3 -3.5,10.4 -0.5,3 -0.2,7.3 1.2,13.1 0.6,2.9 1.3,5.5 2.1,7.8 0.2,-6.4 0.6,-13.6 1.4,-21.4 0.5,-4.9 1.5,-9 2.9,-12.4 l 2.1,-3.6 z" id="path589" inkscape:connector-curvature="0" style="fill:#75b5b4"/></g></g></g><g transform="translate(-266.4,25.5)" id="g591"><g id="g593"><g id="Symbol_1_0_Layer0_16_MEMBER_4_FILL"><path class="st1" d="m 526.6,380.7 1.4,0.2 c -0.2,-2.7 -1,-5.3 -2.6,-7.7 -0.9,-1.5 -1.9,-2 -2.8,-1.4 l -1.1,1.2 0.9,1.2 c 0.6,1 1.1,2.1 1.4,3.2 l 0.8,1.5 c 0.7,1 1.3,1.6 2,1.8 z" id="path596" inkscape:connector-curvature="0" style="fill:#75b5b4"/></g></g></g><g transform="translate(-266.4,25.5)" id="g598"><g id="g600"><g id="Symbol_1_0_Layer0_16_MEMBER_5_FILL"><path class="st1" d="m 581.9,511.7 4.8,2.1 c 3.6,1.5 6.4,2.5 8.4,2.9 3.1,0.8 5.1,1.8 5.9,3.2 -1.2,-2.5 -3,-4.6 -5.5,-6.1 -1.6,-1 -3.8,-1.6 -6.4,-1.8 -3.1,-0.1 -5.5,-0.2 -7.2,-0.3 z" id="path603" inkscape:connector-curvature="0" style="fill:#75b5b4"/></g></g></g><g transform="translate(-266.4,25.5)" id="g605"><g id="g607"><g id="Symbol_1_0_Layer0_16_MEMBER_6_FILL"><path class="st1" d="m 639.9,550.5 c -2.5,-0.5 -7.2,-1.8 -14.1,-3.9 l -9.7,-2.8 5.3,2.8 c 4.7,2.1 10.2,3.8 16.5,5.1 l 15,2.9 c -4.5,-1.7 -8.9,-3 -13,-4.1 z" id="path610" inkscape:connector-curvature="0" style="fill:#75b5b4"/></g></g></g><g transform="translate(-266.4,25.5)" id="g612"><g id="g614"><g id="Symbol_1_0_Layer0_16_MEMBER_7_FILL"><path class="st1" d="m 736.2,558.6 -5.1,1.2 h 10.4 c 1.7,0 3,0 3.8,0.1 1,0.2 2.5,0.5 4.5,1.1 1.5,0.4 3.1,1.3 4.7,2.6 1.6,1.1 2.6,1.7 3.2,1.8 0.9,0.2 1.6,-0.1 1.9,-0.8 0.5,-1.5 0.9,-3 1.4,-4.5 0.6,-1.8 0.8,-4.1 0.6,-7 l -0.6,-3.7 -1.2,5.1 c -0.5,2 -1.6,3.5 -3.3,4.5 l -2.4,0.8 1.5,-2.4 c 0.9,-1.6 1.1,-3.7 0.6,-6.2 0,1.2 -1,2.9 -2.9,5.3 -1.3,1.5 -3,2.2 -5.2,2.1 L 745,558 c -2,-0.4 -5,-0.2 -8.8,0.6 z" id="path617" inkscape:connector-curvature="0" style="fill:#75b5b4"/></g></g></g><g transform="translate(-266.4,25.5)" id="g619"><g id="g621"><g id="Symbol_1_0_Layer0_17_FILL"><path class="st1" d="m 827.8,704.2 c 0.1,0.9 0.2,1.6 0.4,2.4 l 4.5,-4.5 c 3,-3 7,-7.5 12,-13.7 l -5.9,4 c -2.4,1.6 -5.3,2.6 -8.7,2.9 l -4.2,0.1 c -3,2.6 -6,4.3 -9.1,5.2 8,-0.7 11.8,-0.7 11.4,0 -0.5,0.6 -0.6,1.8 -0.4,3.6 m -26.4,-1.7 c -2.1,0.9 -1,1 3.4,0.5 3.8,-0.5 7.4,-1.2 10.7,-2 0.4,-0.1 0.8,-0.2 1.2,-0.4 -0.3,0.1 -0.5,0.1 -0.8,0.1 -8.3,0.7 -13.2,1.3 -14.5,1.8 z" id="path624" inkscape:connector-curvature="0" style="fill:#75b5b4"/></g></g></g><g transform="translate(-266.4,25.5)" id="g626"><g id="g628"><g id="Symbol_1_0_Layer0_18_FILL"><path class="st1" d="m 630.6,738.7 13.8,-5.1 c 0.7,-0.2 2.4,-0.7 5.1,-1.5 2.3,-0.6 4.2,-1.3 5.9,-2 2.9,-1.3 6.7,-3.8 11.4,-7.5 l -12.1,4.4 c -5.8,2 -11.1,4.2 -15.9,6.6 -4.4,2.1 -7.1,3.8 -8.2,5.1 z" id="path631" inkscape:connector-curvature="0" style="fill:#75b5b4"/></g></g></g><g transform="translate(-266.4,25.5)" id="g633"><g id="g635"><g id="Symbol_1_0_Layer0_19_FILL"><path class="st1" d="m 781.2,746.7 0.9,-2.5 c -0.5,0.8 -1,1.8 -1.6,3.2 -1.4,2.7 -2.7,5.4 -3.9,8.1 -3.4,8.4 -5.1,13.3 -5.1,14.6 l 4.7,-6.4 c 1.6,-1.8 3.4,-4.8 5.5,-9 l -0.8,-3.2 c -0.2,-1.2 -0.1,-2.9 0.3,-4.8 z" id="path638" inkscape:connector-curvature="0" style="fill:#75b5b4"/></g></g></g><g transform="translate(-266.4,25.5)" id="g640"><g id="g642"><g id="Symbol_1_0_Layer0_20_FILL"><path class="st1" d="m 771.9,623.8 -5.1,-2.9 c 0.5,8.4 0.5,13.4 -0.1,15 -0.4,1 0,2.8 1.3,5.3 0.8,1.6 2.4,4.5 4.7,8.8 1.5,3 4,6 7.4,9.2 1.2,1.1 2.4,2 3.4,2.8 -0.4,-0.3 -1,-1.1 -1.5,-2.4 l -0.7,-1.9 3.2,1.2 c 2.1,0.8 6.7,1.8 13.8,3.2 l -4.7,-2.7 c -6.4,-3.8 -10.8,-8.4 -13.4,-13.8 -1.1,-2.4 -2.8,-6.8 -5.2,-13.1 l -3.1,-8.7 z" id="path645" inkscape:connector-curvature="0" style="fill:#75b5b4"/></g></g></g><g transform="translate(-266.4,25.5)" id="g647"><g id="g649"><g id="Symbol_1_0_Layer0_21_FILL"><path class="st1" d="m 859.9,684.5 c 1.9,0.5 4,1.2 6.2,2 2,0.8 3.5,1.3 4.7,1.5 1.3,0.3 3.3,0.2 5.8,-0.4 3.4,-0.7 5.7,-1.1 6.8,-1.2 1.7,-0.2 3.3,-0.2 4.7,-0.1 0.5,0.1 0.7,0 0.4,-0.4 -0.2,-0.2 -2,-0.6 -5.4,-1.3 -4.1,-0.9 -7.4,-1.7 -9.9,-2.6 -4.2,-1.9 -7.4,-3.3 -9.8,-4.1 -4.1,-1.4 -8.4,-1.9 -13,-1.4 -4.4,0.5 -8.1,0.6 -11.2,0.5 -2.7,-0.3 -4.9,-0.5 -6.5,-0.5 H 828 l 8,2.1 c 6,1.6 10.7,2.6 14,3.1 3,0.5 4.9,0.9 5.8,1.2 1.6,0.8 3,1.3 4.1,1.6 z" id="path652" inkscape:connector-curvature="0" style="fill:#75b5b4"/></g></g></g><g transform="translate(-266.4,25.5)" id="g654"><g id="g656"><g id="Symbol_1_0_Layer0_22_FILL"><path class="st1" d="m 845.8,683.7 c 0.5,-1.1 -1,-1.5 -4.7,-1.2 -4.2,0.3 -7.4,0.2 -9.8,-0.4 l -3.5,-0.8 3.5,2.4 c 2.9,1.5 5.8,2.2 8.6,2 3.4,-0.2 5.3,-0.9 5.9,-2 z" id="path659" inkscape:connector-curvature="0" style="fill:#75b5b4"/></g></g></g><g transform="translate(-266.4,25.5)" id="g661"><g id="g663"><g id="Symbol_1_0_Layer0_23_FILL"><path class="st1" d="m 775.1,746.9 4.9,-4.1 c 3.8,-3 6.9,-4.9 9.2,-5.7 1.9,-0.6 4.9,-1.3 9.2,-2 4.1,-1 7.8,-3 11.2,-5.9 4,-3.5 7.3,-5.9 9.9,-7.4 2.3,-1.4 5.9,-3.1 11,-5.2 6.5,-2.6 10.3,-4.9 11.4,-7.1 -22.3,9.4 -35.7,14.8 -40.1,16.1 -3.1,0.9 -5.6,1.9 -7.3,2.8 -1.3,0.8 -2.6,1.9 -4.1,3.4 -0.9,0.9 -2.4,1.9 -4.5,3.2 -2.1,1.3 -3.7,2.4 -4.6,3.5 l -6.2,8.4 z" id="path666" inkscape:connector-curvature="0" style="fill:#75b5b4"/></g></g></g><g transform="translate(-266.4,25.5)" id="g668"><g id="g670"><g id="Symbol_1_0_Layer0_24_FILL"><path class="st1" d="m 709.5,699.8 -15.3,7.4 37.3,-10.6 c 4.5,-1.3 7.9,-2.2 10.4,-2.7 1.3,-0.3 4.1,-1.5 8.5,-3.5 l 11,-5.1 c -0.5,1.3 -1.5,2.6 -2.8,4 -2.6,3 -5.7,5 -9.3,6.1 l -8.6,2.8 9,0.4 c 7,-0.2 13,-1.7 18.1,-4.4 3.3,-1.7 5.7,-3.7 7.3,-6 0.6,-0.9 3.5,-1.5 8.7,-1.8 4.7,-0.2 9.2,-0.4 13.5,-0.4 1.5,0 1.7,-0.2 0.6,-0.5 -2.9,-0.8 -9.2,-1.2 -18.8,-1.2 h -7.8 v -2 c 0.5,-0.8 1.4,-3 2.7,-6.6 l 2,-5.5 c -1.9,3.1 -4.1,4.8 -6.7,5.1 -1.3,0.2 -2.4,0.4 -3.3,0.7 -0.2,0.1 -0.4,0 -0.6,-0.2 -0.1,-0.2 0.7,-1.3 2.2,-3.3 1.7,-2.4 2.7,-4.6 2.8,-6.6 l 0.4,-7.4 c -0.5,0.1 -1.4,0.5 -2.6,1.3 -2.3,1.6 -4.8,4.2 -7.5,7.8 -1.3,1.6 -3,3.4 -5.2,5.4 -4.3,4.2 -8.8,7.5 -13.3,9.9 -15.1,8.1 -25.9,13.8 -32.7,16.9 z" id="path673" inkscape:connector-curvature="0" style="fill:#75b5b4"/></g></g></g><g transform="translate(-266.4,25.5)" id="g675"><g id="g677"><g id="Symbol_1_0_Layer0_25_FILL"><path class="st1" d="m 709,711 c 4.6,-2.9 5.5,-3.9 2.5,-2.9 -4.9,1.5 -10.2,2.6 -16.1,3.2 -6.1,0.5 -10.4,0.9 -13,1.2 -3.1,0.3 -5.4,1.1 -7.1,2.2 l -1.5,1.6 6.7,0.4 c 5.3,0.2 10.3,-0.1 14.8,-0.7 4.9,-0.8 9.5,-2.4 13.7,-5 z" id="path680" inkscape:connector-curvature="0" style="fill:#75b5b4"/></g></g></g><g transform="translate(-266.4,25.5)" id="g682"><g id="g684"><g id="Symbol_1_0_Layer0_26_FILL"><path class="st1" d="m 658.5,719.2 c 0,-0.8 -1.3,-1 -3.9,-0.6 -2.4,0.3 -5.1,1.5 -8.1,3.5 -3,2.2 -4.9,3.5 -5.7,3.9 -0.8,0.4 -1.6,0.8 -2.5,1.2 h 0.1 l 16.1,-5.4 c 2.8,-1 4.1,-1.9 4,-2.6 z" id="path687" inkscape:connector-curvature="0" style="fill:#75b5b4"/></g></g></g><g transform="translate(285.6,97.5)" id="g689"><g id="g691"><g class="st14" id="g693" style="filter:url(#Filter_1)"><g id="FlashAICB_Layer_3__Path__7_0_Layer0_0_FILL_1_"><radialGradient id="SVGID_10_" cx="162.5078" cy="170.2346" r="56.8391" gradientTransform="translate(309.7,31.65)" gradientUnits="userSpaceOnUse"><stop offset="0" style="stop-color:#4D6F23" id="stop697"/><stop offset="0" style="stop-color:#4F6F24" id="stop699"/><stop offset="0" style="stop-color:#577129" id="stop701"/><stop offset="0" style="stop-color:#637333" id="stop703"/><stop offset="0" style="stop-color:#757641" id="stop705"/><stop offset="0" style="stop-color:#8C7A54" id="stop707"/><stop offset="0" style="stop-color:#A87F6C" id="stop709"/><stop offset="0" style="stop-color:#CA8589" id="stop711"/><stop offset="0" style="stop-color:#F18BAA" id="stop713"/><stop offset="0" style="stop-color:#FD8DB5" id="stop715"/><stop offset="1" style="stop-color:#FC0019;stop-opacity:0" id="stop717"/></radialGradient><path class="st15" d="m 529,201.9 c 0,-15.7 -5.5,-29.1 -16.6,-40.3 -11.2,-11.1 -24.6,-16.6 -40.3,-16.6 -15.7,0 -29.1,5.5 -40.2,16.6 -11.1,11.2 -16.6,24.6 -16.6,40.3 0,15.7 5.5,29.1 16.6,40.2 11.2,11.1 24.5,16.6 40.2,16.6 15.7,0 29.1,-5.5 40.3,-16.6 C 523.5,231 529,217.7 529,201.9 z" id="path719" inkscape:connector-curvature="0" style="fill:url(#SVGID_10_)"/></g></g></g></g><g transform="translate(294.35,105.25)" id="g721"><g id="g723"><g class="st16" id="g725" style="filter:url(#Filter_2)"><g id="FlashAICB_Layer_3__Path__6_0_Layer0_0_MEMBER_0_FILL_1_"><radialGradient id="SVGID_11_" cx="153.7578" cy="161.1286" r="36.2239" gradientTransform="translate(309.7,30.65)" gradientUnits="userSpaceOnUse"><stop offset="0" style="stop-color:#4D6F23" id="stop729"/><stop offset="0" style="stop-color:#4F7025" id="stop731"/><stop offset="0" style="stop-color:#54752B" id="stop733"/><stop offset="0" style="stop-color:#5E7D36" id="stop735"/><stop offset="0" style="stop-color:#6C8846" id="stop737"/><stop offset="0" style="stop-color:#7E975C" id="stop739"/><stop offset="0" style="stop-color:#94A978" id="stop741"/><stop offset="0" style="stop-color:#AEBE99" id="stop743"/><stop offset="0" style="stop-color:#CDD7C0" id="stop745"/><stop offset="0" style="stop-color:#EFF2EB" id="stop747"/><stop offset="0" style="stop-color:#FFFFFF" id="stop749"/><stop offset="0.1255" style="stop-color:#FFFBFB;stop-opacity:0.9804" id="stop751"/><stop offset="0.251" style="stop-color:#FFEFEF;stop-opacity:0.9333" id="stop753"/><stop offset="0.251" style="stop-color:#FFEFEF;stop-opacity:0" id="stop755"/><stop offset="1" style="stop-color:#000000;stop-opacity:0" id="stop757"/></radialGradient><path class="st17" d="m 499.7,191.8 c 0,-10 -3.5,-18.5 -10.6,-25.7 -7.1,-7.1 -15.6,-10.6 -25.7,-10.6 -10,0 -18.5,3.5 -25.6,10.6 -7.1,7.1 -10.6,15.6 -10.6,25.7 0,10.1 3.5,18.6 10.6,25.6 7.1,7.1 15.6,10.6 25.6,10.6 10.1,0 18.6,-3.5 25.7,-10.6 7,-7.1 10.6,-15.6 10.6,-25.6 z" id="path759" inkscape:connector-curvature="0" style="fill:url(#SVGID_11_)"/></g></g></g><g id="g761"><g class="st16" id="g763" style="filter:url(#Filter_2)"><g id="FlashAICB_Layer_3__Path__6_0_Layer0_0_MEMBER_1_FILL_1_"><radialGradient id="SVGID_12_" cx="153.7578" cy="161.1286" r="36.2239" gradientTransform="translate(309.7,30.65)" gradientUnits="userSpaceOnUse"><stop offset="0" style="stop-color:#000000;stop-opacity:0" id="stop767"/><stop offset="0.251" style="stop-color:#FFEFEF;stop-opacity:0" id="stop769"/><stop offset="0.251" style="stop-color:#FFEFEF;stop-opacity:0.9333" id="stop771"/><stop offset="0.3765" style="stop-color:#FEDADB;stop-opacity:0.8549" id="stop773"/><stop offset="0.502" style="stop-color:#FEBDBF;stop-opacity:0.7451" id="stop775"/><stop offset="0.6275" style="stop-color:#FD989B;stop-opacity:0.6" id="stop777"/><stop offset="0.7569" style="stop-color:#FD6A6F;stop-opacity:0.4235" id="stop779"/><stop offset="0.8824" style="stop-color:#FC323F;stop-opacity:0.2196" id="stop781"/><stop offset="1" style="stop-color:#FC0019;stop-opacity:0" id="stop783"/></radialGradient><path class="st18" d="m 499.7,191.8 c 0,-10 -3.5,-18.5 -10.6,-25.7 -7.1,-7.1 -15.6,-10.6 -25.7,-10.6 -10,0 -18.5,3.5 -25.6,10.6 -7.1,7.1 -10.6,15.6 -10.6,25.7 0,10.1 3.5,18.6 10.6,25.6 7.1,7.1 15.6,10.6 25.6,10.6 10.1,0 18.6,-3.5 25.7,-10.6 7,-7.1 10.6,-15.6 10.6,-25.6 z" id="path785" inkscape:connector-curvature="0" style="fill:url(#SVGID_12_)"/></g></g></g></g><g transform="translate(351.6,103.2)" id="g787"><g id="g789"><g class="st14" id="g791" style="filter:url(#Filter_1)"><g id="FlashAICB_Layer_3__Path__5_0_Layer0_0_FILL_1_"><radialGradient id="SVGID_13_" cx="167.43671" cy="153.74541" r="24.6499" gradientTransform="translate(362.05,23.65)" gradientUnits="userSpaceOnUse"><stop offset="0" style="stop-color:#4D6F23" id="stop795"/><stop offset="0" style="stop-color:#4F6F24" id="stop797"/><stop offset="0" style="stop-color:#577129" id="stop799"/><stop offset="0" style="stop-color:#637333" id="stop801"/><stop offset="0" style="stop-color:#757641" id="stop803"/><stop offset="0" style="stop-color:#8C7A54" id="stop805"/><stop offset="0" style="stop-color:#A87F6C" id="stop807"/><stop offset="0" style="stop-color:#CA8589" id="stop809"/><stop offset="0" style="stop-color:#F18BAA" id="stop811"/><stop offset="0" style="stop-color:#FD8DB5" id="stop813"/><stop offset="1" style="stop-color:#FC0019;stop-opacity:0" id="stop815"/></radialGradient><path class="st19" d="m 554.1,177.4 c 0,-6.8 -2.4,-12.6 -7.2,-17.4 -4.9,-4.8 -10.7,-7.2 -17.4,-7.2 -6.8,0 -12.6,2.4 -17.4,7.2 -4.8,4.8 -7.2,10.6 -7.2,17.4 0,6.8 2.4,12.6 7.2,17.4 4.8,4.8 10.6,7.2 17.4,7.2 6.8,0 12.6,-2.4 17.4,-7.2 4.8,-4.8 7.2,-10.7 7.2,-17.4 z" id="path817" inkscape:connector-curvature="0" style="fill:url(#SVGID_13_)"/></g></g></g></g><g transform="translate(355.4,106.55)" id="g819"><g id="g821"><g class="st16" id="g823" style="filter:url(#Filter_2)"><g id="FlashAICB_Layer_3__Path__4_0_Layer0_0_MEMBER_0_FILL_1_"><radialGradient id="SVGID_14_" cx="163.6367" cy="149.7852" r="15.697" gradientTransform="translate(362.05,23.2)" gradientUnits="userSpaceOnUse"><stop offset="0" style="stop-color:#4D6F23" id="stop827"/><stop offset="0" style="stop-color:#4F7025" id="stop829"/><stop offset="0" style="stop-color:#54752B" id="stop831"/><stop offset="0" style="stop-color:#5E7D36" id="stop833"/><stop offset="0" style="stop-color:#6C8846" id="stop835"/><stop offset="0" style="stop-color:#7E975C" id="stop837"/><stop offset="0" style="stop-color:#94A978" id="stop839"/><stop offset="0" style="stop-color:#AEBE99" id="stop841"/><stop offset="0" style="stop-color:#CDD7C0" id="stop843"/><stop offset="0" style="stop-color:#EFF2EB" id="stop845"/><stop offset="0" style="stop-color:#FFFFFF" id="stop847"/><stop offset="0.1255" style="stop-color:#FFFBFB;stop-opacity:0.9804" id="stop849"/><stop offset="0.251" style="stop-color:#FFEFEF;stop-opacity:0.9333" id="stop851"/><stop offset="0.251" style="stop-color:#FFEFEF;stop-opacity:0" id="stop853"/><stop offset="1" style="stop-color:#000000;stop-opacity:0" id="stop855"/></radialGradient><path class="st20" d="m 541.4,173 c 0,-4.3 -1.5,-8 -4.6,-11.1 -3.1,-3.1 -6.8,-4.6 -11.1,-4.6 -4.3,0 -8,1.5 -11.1,4.6 -3.1,3.1 -4.6,6.8 -4.6,11.1 0,4.4 1.5,8.1 4.6,11.1 3.1,3.1 6.8,4.6 11.1,4.6 4.3,0 8,-1.5 11.1,-4.6 3,-3.1 4.6,-6.8 4.6,-11.1 z" id="path857" inkscape:connector-curvature="0" style="fill:url(#SVGID_14_)"/></g></g></g><g id="g859"><g class="st16" id="g861" style="filter:url(#Filter_2)"><g id="FlashAICB_Layer_3__Path__4_0_Layer0_0_MEMBER_1_FILL_1_"><radialGradient id="SVGID_15_" cx="163.6367" cy="149.7852" r="15.697" gradientTransform="translate(362.05,23.2)" gradientUnits="userSpaceOnUse"><stop offset="0" style="stop-color:#000000;stop-opacity:0" id="stop865"/><stop offset="0.251" style="stop-color:#FFEFEF;stop-opacity:0" id="stop867"/><stop offset="0.251" style="stop-color:#FFEFEF;stop-opacity:0.9333" id="stop869"/><stop offset="0.3765" style="stop-color:#FEDADB;stop-opacity:0.8549" id="stop871"/><stop offset="0.502" style="stop-color:#FEBDBF;stop-opacity:0.7451" id="stop873"/><stop offset="0.6275" style="stop-color:#FD989B;stop-opacity:0.6" id="stop875"/><stop offset="0.7569" style="stop-color:#FD6A6F;stop-opacity:0.4235" id="stop877"/><stop offset="0.8824" style="stop-color:#FC323F;stop-opacity:0.2196" id="stop879"/><stop offset="1" style="stop-color:#FC0019;stop-opacity:0" id="stop881"/></radialGradient><path class="st21" d="m 541.4,173 c 0,-4.3 -1.5,-8 -4.6,-11.1 -3.1,-3.1 -6.8,-4.6 -11.1,-4.6 -4.3,0 -8,1.5 -11.1,4.6 -3.1,3.1 -4.6,6.8 -4.6,11.1 0,4.4 1.5,8.1 4.6,11.1 3.1,3.1 6.8,4.6 11.1,4.6 4.3,0 8,-1.5 11.1,-4.6 3,-3.1 4.6,-6.8 4.6,-11.1 z" id="path883" inkscape:connector-curvature="0" style="fill:url(#SVGID_15_)"/></g></g></g></g><g transform="translate(70.6,170.15)" id="g885"><g id="g887"><g class="st14" id="g889" style="filter:url(#Filter_1)"><g id="FlashAICB_Layer_3__Path__3_0_Layer0_0_FILL_1_"><radialGradient id="SVGID_16_" cx="72.818298" cy="183.0141" r="34.074001" gradientTransform="translate(85.05,94.65)" gradientUnits="userSpaceOnUse"><stop offset="0" style="stop-color:#4D6F23" id="stop893"/><stop offset="0" style="stop-color:#4F6F24" id="stop895"/><stop offset="0" style="stop-color:#577129" id="stop897"/><stop offset="0" style="stop-color:#637333" id="stop899"/><stop offset="0" style="stop-color:#757641" id="stop901"/><stop offset="0" style="stop-color:#8C7A54" id="stop903"/><stop offset="0" style="stop-color:#A87F6C" id="stop905"/><stop offset="0" style="stop-color:#CA8589" id="stop907"/><stop offset="0" style="stop-color:#F18BAA" id="stop909"/><stop offset="0" style="stop-color:#FD8DB5" id="stop911"/><stop offset="1" style="stop-color:#FC0019;stop-opacity:0" id="stop913"/></radialGradient><path class="st22" d="m 191.9,277.7 c 0,-9.4 -3.3,-17.5 -9.9,-24.1 -6.7,-6.7 -14.7,-10 -24.1,-10 -9.4,0 -17.4,3.3 -24,10 -6.7,6.7 -10,14.7 -10,24.1 0,9.4 3.3,17.5 10,24.1 6.6,6.6 14.6,9.9 24,9.9 9.4,0 17.5,-3.3 24.1,-9.9 6.6,-6.6 9.9,-14.7 9.9,-24.1 z" id="path915" inkscape:connector-curvature="0" style="fill:url(#SVGID_16_)"/></g></g></g></g><g transform="translate(75.85,174.85)" id="g917"><g id="g919"><g class="st16" id="g921" style="filter:url(#Filter_2)"><g id="FlashAICB_Layer_3__Path__2_0_Layer0_0_MEMBER_0_FILL_1_"><radialGradient id="SVGID_17_" cx="67.568298" cy="177.5594" r="21.6754" gradientTransform="translate(85.05,94.05)" gradientUnits="userSpaceOnUse"><stop offset="0" style="stop-color:#4D6F23" id="stop925"/><stop offset="0" style="stop-color:#4F7025" id="stop927"/><stop offset="0" style="stop-color:#54752B" id="stop929"/><stop offset="0" style="stop-color:#5E7D36" id="stop931"/><stop offset="0" style="stop-color:#6C8846" id="stop933"/><stop offset="0" style="stop-color:#7E975C" id="stop935"/><stop offset="0" style="stop-color:#94A978" id="stop937"/><stop offset="0" style="stop-color:#AEBE99" id="stop939"/><stop offset="0" style="stop-color:#CDD7C0" id="stop941"/><stop offset="0" style="stop-color:#EFF2EB" id="stop943"/><stop offset="0" style="stop-color:#FFFFFF" id="stop945"/><stop offset="0.1255" style="stop-color:#FFFBFB;stop-opacity:0.9804" id="stop947"/><stop offset="0.251" style="stop-color:#FFEFEF;stop-opacity:0.9333" id="stop949"/><stop offset="0.251" style="stop-color:#FFEFEF;stop-opacity:0" id="stop951"/><stop offset="1" style="stop-color:#000000;stop-opacity:0" id="stop953"/></radialGradient><path class="st23" d="m 174.3,271.6 c 0,-6 -2.1,-11.1 -6.4,-15.3 -4.2,-4.2 -9.3,-6.4 -15.3,-6.4 -6,0 -11.1,2.1 -15.3,6.4 -4.2,4.2 -6.4,9.3 -6.4,15.3 0,6 2.1,11.2 6.4,15.3 4.2,4.2 9.3,6.4 15.3,6.4 6,0 11.2,-2.1 15.3,-6.4 4.3,-4.1 6.4,-9.2 6.4,-15.3 z" id="path955" inkscape:connector-curvature="0" style="fill:url(#SVGID_17_)"/></g></g></g><g id="g957"><g class="st16" id="g959" style="filter:url(#Filter_2)"><g id="FlashAICB_Layer_3__Path__2_0_Layer0_0_MEMBER_1_FILL_1_"><radialGradient id="SVGID_18_" cx="67.568298" cy="177.5594" r="21.6754" gradientTransform="translate(85.05,94.05)" gradientUnits="userSpaceOnUse"><stop offset="0" style="stop-color:#000000;stop-opacity:0" id="stop963"/><stop offset="0.251" style="stop-color:#FFEFEF;stop-opacity:0" id="stop965"/><stop offset="0.251" style="stop-color:#FFEFEF;stop-opacity:0.9333" id="stop967"/><stop offset="0.3765" style="stop-color:#FEDADB;stop-opacity:0.8549" id="stop969"/><stop offset="0.502" style="stop-color:#FEBDBF;stop-opacity:0.7451" id="stop971"/><stop offset="0.6275" style="stop-color:#FD989B;stop-opacity:0.6" id="stop973"/><stop offset="0.7569" style="stop-color:#FD6A6F;stop-opacity:0.4235" id="stop975"/><stop offset="0.8824" style="stop-color:#FC323F;stop-opacity:0.2196" id="stop977"/><stop offset="1" style="stop-color:#FC0019;stop-opacity:0" id="stop979"/></radialGradient><path class="st24" d="m 174.3,271.6 c 0,-6 -2.1,-11.1 -6.4,-15.3 -4.2,-4.2 -9.3,-6.4 -15.3,-6.4 -6,0 -11.1,2.1 -15.3,6.4 -4.2,4.2 -6.4,9.3 -6.4,15.3 0,6 2.1,11.2 6.4,15.3 4.2,4.2 9.3,6.4 15.3,6.4 6,0 11.2,-2.1 15.3,-6.4 4.3,-4.1 6.4,-9.2 6.4,-15.3 z" id="path981" inkscape:connector-curvature="0" style="fill:url(#SVGID_18_)"/></g></g></g></g><g transform="translate(127.85,302.75)" id="g983"><g id="g985"><g class="st14" id="g987" style="filter:url(#Filter_1)"><g id="FlashAICB_Layer_3__Path__1_0_Layer0_0_FILL_1_"><radialGradient id="SVGID_19_" cx="93.675301" cy="230.68851" r="34.869099" gradientTransform="translate(142.65,227.55)" gradientUnits="userSpaceOnUse"><stop offset="0" style="stop-color:#4D6F23" id="stop991"/><stop offset="0" style="stop-color:#4F6F24" id="stop993"/><stop offset="0" style="stop-color:#577129" id="stop995"/><stop offset="0" style="stop-color:#637333" id="stop997"/><stop offset="0" style="stop-color:#757641" id="stop999"/><stop offset="0" style="stop-color:#8C7A54" id="stop1001"/><stop offset="0" style="stop-color:#A87F6C" id="stop1003"/><stop offset="0" style="stop-color:#CA8589" id="stop1005"/><stop offset="0" style="stop-color:#F18BAA" id="stop1007"/><stop offset="0" style="stop-color:#FD8DB5" id="stop1009"/><stop offset="1" style="stop-color:#FC0019;stop-opacity:0" id="stop1011"/></radialGradient><path class="st25" d="m 271.2,458.2 c 0,-9.6 -3.4,-17.8 -10.2,-24.6 -6.8,-6.8 -15,-10.2 -24.6,-10.2 -9.7,0 -17.9,3.4 -24.6,10.2 -6.8,6.8 -10.2,15 -10.2,24.6 0,9.7 3.4,17.9 10.2,24.7 6.8,6.8 15,10.1 24.6,10.1 9.6,0 17.8,-3.4 24.6,-10.1 6.8,-6.8 10.2,-15 10.2,-24.7 z" id="path1013" inkscape:connector-curvature="0" style="fill:url(#SVGID_19_)"/></g></g></g></g><g transform="translate(133.2,307.5)" id="g1015"><g id="g1017"><g class="st16" id="g1019" style="filter:url(#Filter_2)"><g id="FlashAICB_Layer_3__Path__0_Layer0_0_MEMBER_0_FILL_1_"><radialGradient id="SVGID_20_" cx="88.325302" cy="225.12489" r="22.1761" gradientTransform="translate(142.65,226.95)" gradientUnits="userSpaceOnUse"><stop offset="0" style="stop-color:#4D6F23" id="stop1023"/><stop offset="0" style="stop-color:#4F7025" id="stop1025"/><stop offset="0" style="stop-color:#54752B" id="stop1027"/><stop offset="0" style="stop-color:#5E7D36" id="stop1029"/><stop offset="0" style="stop-color:#6C8846" id="stop1031"/><stop offset="0" style="stop-color:#7E975C" id="stop1033"/><stop offset="0" style="stop-color:#94A978" id="stop1035"/><stop offset="0" style="stop-color:#AEBE99" id="stop1037"/><stop offset="0" style="stop-color:#CDD7C0" id="stop1039"/><stop offset="0" style="stop-color:#EFF2EB" id="stop1041"/><stop offset="0" style="stop-color:#FFFFFF" id="stop1043"/><stop offset="0.1255" style="stop-color:#FFFBFB;stop-opacity:0.9804" id="stop1045"/><stop offset="0.251" style="stop-color:#FFEFEF;stop-opacity:0.9333" id="stop1047"/><stop offset="0.251" style="stop-color:#FFEFEF;stop-opacity:0" id="stop1049"/><stop offset="1" style="stop-color:#000000;stop-opacity:0" id="stop1051"/></radialGradient><path class="st26" d="m 253.1,452.1 c 0,-6.1 -2.2,-11.3 -6.5,-15.7 -4.3,-4.4 -9.5,-6.6 -15.7,-6.6 -6.2,0 -11.5,2.2 -15.8,6.6 -4.3,4.3 -6.5,9.5 -6.5,15.7 0,6.2 2.2,11.3 6.5,15.7 4.3,4.3 9.6,6.5 15.8,6.5 6.1,0 11.3,-2.2 15.7,-6.5 4.4,-4.4 6.5,-9.6 6.5,-15.7 z" id="path1053" inkscape:connector-curvature="0" style="fill:url(#SVGID_20_)"/></g></g></g><g id="g1055"><g class="st16" id="g1057" style="filter:url(#Filter_2)"><g id="FlashAICB_Layer_3__Path__0_Layer0_0_MEMBER_1_FILL_1_"><radialGradient id="SVGID_21_" cx="88.325302" cy="225.12489" r="22.1761" gradientTransform="translate(142.65,226.95)" gradientUnits="userSpaceOnUse"><stop offset="0" style="stop-color:#000000;stop-opacity:0" id="stop1061"/><stop offset="0.251" style="stop-color:#FFEFEF;stop-opacity:0" id="stop1063"/><stop offset="0.251" style="stop-color:#FFEFEF;stop-opacity:0.9333" id="stop1065"/><stop offset="0.3765" style="stop-color:#FEDADB;stop-opacity:0.8549" id="stop1067"/><stop offset="0.502" style="stop-color:#FEBDBF;stop-opacity:0.7451" id="stop1069"/><stop offset="0.6275" style="stop-color:#FD989B;stop-opacity:0.6" id="stop1071"/><stop offset="0.7569" style="stop-color:#FD6A6F;stop-opacity:0.4235" id="stop1073"/><stop offset="0.8824" style="stop-color:#FC323F;stop-opacity:0.2196" id="stop1075"/><stop offset="1" style="stop-color:#FC0019;stop-opacity:0" id="stop1077"/></radialGradient><path class="st27" d="m 253.1,452.1 c 0,-6.1 -2.2,-11.3 -6.5,-15.7 -4.3,-4.4 -9.5,-6.6 -15.7,-6.6 -6.2,0 -11.5,2.2 -15.8,6.6 -4.3,4.3 -6.5,9.5 -6.5,15.7 0,6.2 2.2,11.3 6.5,15.7 4.3,4.3 9.6,6.5 15.8,6.5 6.1,0 11.3,-2.2 15.7,-6.5 4.4,-4.4 6.5,-9.6 6.5,-15.7 z" id="path1079" inkscape:connector-curvature="0" style="fill:url(#SVGID_21_)"/></g></g></g></g></g></svg>
