<?xml version="1.0" encoding="UTF-8" standalone="no"?>
<!-- Generator: Adobe Illustrator 20.1.0, SVG Export Plug-In . SVG Version: 6.00 Build 0)  -->
<svg xmlns:dc="http://purl.org/dc/elements/1.1/" xmlns:cc="http://creativecommons.org/ns#" xmlns:rdf="http://www.w3.org/1999/02/22-rdf-syntax-ns#" xmlns:svg="http://www.w3.org/2000/svg" xmlns="http://www.w3.org/2000/svg" xmlns:sodipodi="http://sodipodi.sourceforge.net/DTD/sodipodi-0.dtd" xmlns:inkscape="http://www.inkscape.org/namespaces/inkscape" version="1.1" id="Layer_1" x="0px" y="0px" viewBox="0 0 968.21248 823" xml:space="preserve" inkscape:version="0.48.5 r10040" width="791px" height="671px" sodipodi:docname="neuron_03.svg" preserveAspectRatio="none"><metadata id="metadata792"><rdf:RDF><cc:Work rdf:about=""><dc:format>image/svg+xml</dc:format><dc:type rdf:resource="http://purl.org/dc/dcmitype/StillImage"/></cc:Work></rdf:RDF></metadata><defs id="defs790"/><sodipodi:namedview pagecolor="#ffffff" bordercolor="#666666" borderopacity="1" objecttolerance="10" gridtolerance="10" guidetolerance="10" inkscape:pageopacity="0" inkscape:pageshadow="2" inkscape:window-width="640" inkscape:window-height="480" id="namedview788" showgrid="false" inkscape:zoom="0.28095238" inkscape:cx="483.91248" inkscape:cy="411.45" inkscape:window-x="0" inkscape:window-y="0" inkscape:window-maximized="0" inkscape:current-layer="Layer_1"/><style type="text/css" id="style3">
	.st0{fill:url(#SVGID_1_);}
	.st1{fill:url(#SVGID_2_);}
	.st2{fill:#75B5B4;}
	.st3{fill:#3C6162;}
	.st4{fill:url(#SVGID_3_);}
	.st5{fill:url(#SVGID_4_);}
	.st6{fill:#C68698;}
	.st7{fill:url(#SVGID_5_);}
	.st8{fill:url(#SVGID_6_);}
	.st9{fill:url(#SVGID_7_);}
	.st10{fill:#437879;}
	.st11{fill:url(#SVGID_8_);}
	.st12{fill:url(#SVGID_9_);}
	.st13{fill:url(#SVGID_10_);}
	.st14{fill:url(#SVGID_11_);}
	.st15{fill:url(#SVGID_12_);}
	.st16{fill:url(#SVGID_13_);}
	.st17{fill:url(#SVGID_14_);}
	.st18{fill:url(#SVGID_15_);}
	.st19{fill:url(#SVGID_16_);}
</style><g id="g5" transform="translate(-16.087524,-8.45)"><g transform="translate(-997.6,17.45)" id="g7"><g id="g9"><g id="Layer0_0_FILL"><radialGradient id="SVGID_1_" cx="1258.7448" cy="3179.2881" r="130.09039" gradientTransform="translate(196.65,-2669.3)" gradientUnits="userSpaceOnUse"><stop offset="0" style="stop-color:#3D6F70" id="stop13"/><stop offset="0.4863" style="stop-color:#3F7171" id="stop15"/><stop offset="0.702" style="stop-color:#467878" id="stop17"/><stop offset="0.8588" style="stop-color:#538484" id="stop19"/><stop offset="0.9922" style="stop-color:#649594" id="stop21"/><stop offset="1" style="stop-color:#669696" id="stop23"/></radialGradient><path class="st0" d="m 1353.8,424.7 c -7.6,10 -12.1,16 -13.6,18.2 -12,17.5 -18,34.6 -18,51.5 0,10.9 1.7,23.8 5.2,38.9 3.5,15.8 8.3,30.8 14.4,44.9 14.9,35.1 31.9,53.6 50.9,55.6 30.1,3.2 54.6,3.7 73.6,1.3 30.4,-3.7 53.8,-14.1 70.3,-31.3 22.8,-23.8 37.6,-43.1 44.4,-57.9 9.9,-21.6 10.1,-44.3 0.6,-68 -13.1,-32.7 -28.8,-56.2 -47,-70.7 -25.7,-20.2 -60.5,-27.7 -104.4,-22.3 -20.5,2.5 -35.3,5.3 -44.3,8.2 -12.7,4 -20.4,9.8 -23.2,17.3 -1.2,3.4 -4.2,8.1 -8.9,14.3 z" id="path25" inkscape:connector-curvature="0" style="fill:url(#SVGID_1_)"/></g></g></g><g transform="translate(-997.6,17.45)" id="g27"><g id="g29"><g id="Layer0_1_FILL"><radialGradient id="SVGID_2_" cx="1258.7448" cy="3179.2881" r="130.09039" gradientTransform="translate(196.65,-2669.3)" gradientUnits="userSpaceOnUse"><stop offset="0" style="stop-color:#4D6F23" id="stop33"/><stop offset="0" style="stop-color:#4E7025" id="stop35"/><stop offset="0" style="stop-color:#51752B" id="stop37"/><stop offset="0" style="stop-color:#567D36" id="stop39"/><stop offset="0" style="stop-color:#5E8846" id="stop41"/><stop offset="0" style="stop-color:#68975C" id="stop43"/><stop offset="0" style="stop-color:#74A978" id="stop45"/><stop offset="0" style="stop-color:#82BE99" id="stop47"/><stop offset="0" style="stop-color:#93D7BF" id="stop49"/><stop offset="0" style="stop-color:#A6F2EA" id="stop51"/><stop offset="0" style="stop-color:#AFFFFE" id="stop53"/><stop offset="1" style="stop-color:#71A5A5;stop-opacity:0" id="stop55"/></radialGradient><path class="st1" d="m 1353.8,424.7 c -7.6,10 -12.1,16 -13.6,18.2 -12,17.5 -18,34.6 -18,51.5 0,10.9 1.7,23.8 5.2,38.9 3.5,15.8 8.3,30.8 14.4,44.9 14.9,35.1 31.9,53.6 50.9,55.6 30.1,3.2 54.6,3.7 73.6,1.3 30.4,-3.7 53.8,-14.1 70.3,-31.3 22.8,-23.8 37.6,-43.1 44.4,-57.9 9.9,-21.6 10.1,-44.3 0.6,-68 -13.1,-32.7 -28.8,-56.2 -47,-70.7 -25.7,-20.2 -60.5,-27.7 -104.4,-22.3 -20.5,2.5 -35.3,5.3 -44.3,8.2 -12.7,4 -20.4,9.8 -23.2,17.3 -1.2,3.4 -4.2,8.1 -8.9,14.3 m 50.5,-20.3 -8.8,5.2 15.7,-4.5 c 5.6,-1.4 13.3,-2.4 23,-3 6.1,-0.4 17.1,-0.9 33.2,-1.5 10,-0.4 16.4,-0.4 19,0.2 6.7,1.4 13.3,2.5 19.8,3.1 11.5,1.2 21.4,7.3 29.7,18.4 4.2,5.6 7.2,11.1 9.1,16.4 l -0.6,-5.6 c -0.2,-2.3 -1.5,-5.4 -3.8,-9.1 l -3.5,-4.9 14.1,14.1 c 4.3,4.3 7.2,9.3 8.8,15.1 1.1,4.2 3.4,14.2 7,29.9 3.3,12.4 3.7,24.7 1.2,36.8 -1.2,6.1 -2.7,10.9 -4.6,14.4 l 5.6,-6.2 c 3.2,-3.4 5.1,-7.5 5.6,-12 l -1.7,25 c -0.4,6.3 -3.6,12.4 -9.8,18.3 -10.7,10.3 -19.4,20.3 -26.2,30 -9.6,13.8 -18.4,22.5 -26.3,26.2 -2.5,1.1 -4.8,1.7 -6.9,1.7 l -2.2,-0.3 5.6,-3.9 c 3.7,-2.6 8.2,-6.7 13.5,-12.4 -3.1,1.6 -7.1,3.8 -11.8,6.6 -9.4,5.6 -17.8,11.5 -25.3,17.5 -7.6,6.1 -16.2,9.3 -26,9.3 -14.7,-1.1 -28.5,-1.8 -41.5,-2 -16.2,-0.2 -27.5,-2.2 -33.9,-6.1 -2,-1.2 -3.4,-2.5 -4.3,-3.9 l -0.6,-1.8 13.5,4.5 c 5.6,1.9 11.9,2.4 18.9,1.5 3.4,-0.5 6.3,-1.2 8.7,-2 h -12.9 c -5.1,0 -9.2,-1.3 -12.3,-3.9 -9.7,-8.2 -15.3,-12.9 -17,-14.1 -8.7,-6.1 -15.8,-14.4 -21.2,-24.8 -3.9,-7.3 -7.9,-18 -11.9,-31.9 -2.8,-9.6 -3.8,-19.5 -3,-29.7 l 1.9,-12.5 -3.4,10.1 c 0,-6 0.2,-13.7 0.6,-23 0.2,-5.8 1.8,-11.4 4.7,-16.5 1.4,-2.5 2.8,-4.5 4.3,-6 l -0.4,4.7 c -0.3,4.4 -0.3,9.8 -0.1,16.1 0.2,6.3 1.6,14.8 4.2,25.4 1.3,5.2 2.5,9.9 3.7,13.9 l -1.1,-14.6 c -0.6,-7.7 -0.9,-17.1 -0.8,-28.2 0.1,-11.6 0.5,-19.4 1.3,-23.5 0.6,-3.1 2.2,-7.3 4.9,-12.4 2,-3.9 2.8,-5.8 2.4,-5.6 -0.7,0.2 -2.3,1.9 -4.8,4.9 l -3.6,4.6 c 0.7,-3 1.9,-8.1 3.4,-15.2 1,-4.5 4.2,-9.9 9.8,-16.3 1,-1.1 4.6,-4.9 11,-11.2 7,-6.8 20.1,-10.9 39.2,-12.3 9.5,-0.7 18.4,-0.8 26.5,-0.1 -2.2,0.7 -8.6,1.3 -19.1,1.7 -6.6,0.1 -13.4,1.9 -20.5,5.4 z" id="path57" inkscape:connector-curvature="0" style="fill:url(#SVGID_2_)"/></g></g></g><g transform="translate(-997.6,17.45)" id="g59"><g id="g61"><g id="Layer0_2_FILL"><path class="st2" d="m 1381,432.3 c 6.4,-6.3 13.5,-10.5 21.2,-12.6 7.6,-2.1 12.6,-3.3 14.7,-3.6 1.7,-0.3 6.2,-1 13.4,-2 7.8,-1.3 13.8,-2.1 18,-2.5 2.9,-0.2 7.2,-0.3 12.9,-0.3 h 10.1 c -5.2,-0.7 -11.4,-1.3 -18.3,-1.6 -13.9,-0.7 -25.3,0 -33.9,2.1 -10.1,2 -17.3,3.6 -21.7,4.8 -7.3,2 -12.2,4.9 -14.8,8.7 -2.5,3.7 -4.8,7.5 -6.9,11.2 l -2.1,4.5 7.4,-8.7 z" id="path64" inkscape:connector-curvature="0" style="fill:#75b5b4"/></g></g></g><g transform="translate(-997.6,17.45)" id="g66"><g id="g68"><g id="Layer0_3_FILL"><path class="st2" d="m 1500.4,415.3 c -3.7,-2.4 -10.5,-3.4 -20.6,-2.9 -7.1,-0.4 -15.2,0 -24.2,1.1 l -13.5,1.7 10.2,0.1 c 7.7,0.1 14.1,0.2 19,0.4 2.1,0.1 5.9,0 11.4,-0.1 2.8,-0.1 6.1,0.3 10,1.2 l 10.1,2.2 c 0.3,-1.2 -0.5,-2.4 -2.4,-3.7 z" id="path71" inkscape:connector-curvature="0" style="fill:#75b5b4"/></g></g></g><g transform="translate(-997.6,17.45)" id="g73"><g id="g75"><g id="Layer0_4_FILL"><path class="st2" d="m 1377.9,449.3 c 3.7,-7.9 10.3,-13.9 19.9,-17.9 7.7,-3.1 14.3,-6 19.7,-8.4 2.2,-0.9 4.8,-1.5 7.9,-1.7 4.9,-0.4 1.7,-0.6 -9.6,-0.6 -15.1,3.4 -23.9,6.4 -26.4,9 -2.6,2.2 -4.7,4 -6.3,5.5 -2.8,2.8 -4.5,5.4 -4.9,8 l -1.7,9.8 c 0.3,-1.2 0.8,-2.4 1.4,-3.7 m -1.5,3.8 c -0.4,1.3 -0.7,2.6 -0.9,3.9 -0.1,1.3 -0.2,2.3 -0.2,3.1 l 1.1,-7 z" id="path78" inkscape:connector-curvature="0" style="fill:#75b5b4"/></g></g></g><g transform="translate(-997.6,17.45)" id="g80"><g id="g82"><g id="Layer0_5_FILL"><path class="st2" d="m 1366.9,457.3 2.2,-9 c -2.1,1.2 -3.8,3.1 -5.2,5.6 -1.4,2.8 -2.1,5.8 -2.1,9 v 9 c 2.6,-7.1 4.3,-11.9 5.1,-14.6 z" id="path85" inkscape:connector-curvature="0" style="fill:#75b5b4"/></g></g></g><g transform="translate(-997.6,17.45)" id="g87"><g id="g89"><g id="Layer0_6_FILL"><path class="st2" d="m 1397.8,412.4 c -5.2,-2.2 -9.7,-3 -13.5,-2.2 -3.2,0.7 -6.1,2.2 -8.7,4.7 -2.7,2.5 -4.3,5.5 -4.8,8.8 l -1.1,6.7 4.2,-6.5 c 3.4,-4.6 6.9,-7.5 10.5,-8.7 5.5,-1.9 10,-2.8 13.4,-2.8 z" id="path92" inkscape:connector-curvature="0" style="fill:#75b5b4"/></g></g></g><g transform="translate(-997.6,17.45)" id="g94"><g id="g96"><g id="Layer0_7_FILL"><path class="st2" d="m 1368.5,473.1 c -1.2,0.3 -2.4,0.9 -3.6,1.9 -2.5,1.9 -3.7,4.7 -3.7,8.2 0,1.6 -0.1,4.7 -0.4,9.1 -0.3,3.5 -0.3,7.2 -0.1,11.1 0.1,1 -0.1,4 -0.4,9.2 -0.1,2.3 0.6,5.8 2.1,10.5 2.6,7.9 5.1,13.7 7.3,17.4 -1.3,-3.5 -2.5,-7.5 -3.8,-11.9 -2.5,-8.7 -3.7,-15 -3.5,-19 0.1,-1.4 0,-5.5 -0.2,-12.3 -0.2,-4 0.2,-7.3 1.3,-9.7 0.7,-1.5 1.9,-3.6 3.6,-6.2 1,-1.5 1.5,-3 1.5,-4.5 v -3.8 z" id="path99" inkscape:connector-curvature="0" style="fill:#75b5b4"/></g></g></g><g transform="translate(-997.6,17.45)" id="g101"><g id="g103"><g id="Layer0_8_FILL"><path class="st2" d="m 1348.6,526.1 c -1,-2.7 -1.5,-4.8 -1.5,-6.4 0,-1.3 -0.2,0.7 -0.7,5.8 -0.1,6.7 0.7,12.5 2.4,17.2 1.3,3.7 2.8,7.9 4.3,12.6 1.6,3.3 5.3,6.8 10.9,10.5 5.5,3.6 9.6,6.5 12.4,8.7 -5.1,-4.9 -9.7,-10.4 -14.1,-16.5 -3.4,-4.9 -5.9,-9.2 -7.4,-13 -0.4,-0.9 -1.5,-4.2 -3.3,-10 -0.1,-0.5 -1.1,-3.4 -3,-8.9 z" id="path106" inkscape:connector-curvature="0" style="fill:#75b5b4"/></g></g></g><g transform="translate(-997.6,17.45)" id="g108"><g id="g110"><g id="Layer0_9_FILL"><path class="st2" d="m 1363,543.8 -1.8,-2.7 -0.2,3.4 c 0.4,2.8 2.2,5.7 5.3,8.4 4.9,4.5 8.1,6.7 9.6,6.7 -0.7,-2.2 -3,-5.2 -6.7,-9 -2.4,-2.3 -4.4,-4.6 -6.2,-6.8 z" id="path113" inkscape:connector-curvature="0" style="fill:#75b5b4"/></g></g></g><g transform="translate(-997.6,17.45)" id="g115"><g id="g117"><g id="Layer0_10_FILL"><path class="st2" d="m 1519.2,570.8 c -4.6,6.1 -10.3,10.9 -16.9,14.2 -1.6,2.1 -3.6,4.2 -6,6.4 -4.9,4.3 -11.1,7.6 -18.8,9.9 -8.5,3 -13.8,4.8 -15.7,5.4 -2.4,0.7 -6.5,1 -12.4,0.8 -9.4,-0.4 -19.3,-0.6 -29.8,-0.6 h -3.4 l 12.5,4 c 9.4,2.5 16.6,3.4 21.8,2.7 8.5,-1.1 15,-2.3 19.6,-3.6 7.3,-2 13,-4.8 17,-8.2 3.1,-2.7 6.8,-5.7 11.1,-8.9 4.5,-3.4 8.1,-6.2 10.8,-8.5 1.9,-1.6 4.9,-3.6 9.1,-5.8 2.1,-1.2 3.6,-3.2 4.4,-6 1,-3.1 1.5,-5.7 1.7,-7.8 v -2.4 c -1,2.5 -2.7,5.3 -5,8.4 z" id="path120" inkscape:connector-curvature="0" style="fill:#75b5b4"/></g></g></g><g transform="translate(-997.6,17.45)" id="g122"><g id="g124"><g id="Layer0_11_FILL"><path class="st2" d="m 1557.3,511.5 -2.1,-4.7 -0.8,11 c -1,7.9 -2.8,13.2 -5.4,16 l -6.2,6.7 5.7,-2.5 c 4.1,-2.7 6.9,-6.7 8.3,-12.1 1.5,-5.4 1.6,-10.2 0.5,-14.4 z" id="path127" inkscape:connector-curvature="0" style="fill:#75b5b4"/></g></g></g><g transform="translate(-997.6,17.45)" id="g129"><g id="g131"><g id="Layer0_12_FILL"><path class="st3" d="m 1562.5,513 -0.7,7.4 c -1.5,5.8 -4.8,11.2 -10,16.2 -3.7,3.5 -8.3,7.3 -13.9,11.4 -3.5,2.5 -5.8,4.9 -6.9,7.2 l -3.8,10.2 c -3.5,7.7 -7.9,13.7 -13,17.9 -8.2,7.4 -14.2,12.8 -18.1,16.1 -6.9,5.8 -12.7,9.1 -17.3,9.8 -1.4,0.2 -4.7,1 -9.8,2.2 -3.4,0.8 -9.5,1.6 -18.3,2.2 -10.4,0.7 -17.4,1.2 -21,1.5 -2.5,0.1 -5.1,0.2 -7.6,0.2 h -7.3 l 18.4,6.5 c 14.2,3.7 25.8,3.7 35,0.2 10.2,-3.9 19.9,-8.7 29.1,-14.5 8,-5 14.2,-9.7 18.7,-14.2 4.8,-4.8 9.3,-9.8 13.6,-15.1 5.2,-6.5 8.8,-11.8 10.6,-15.9 1.3,-4.1 2.2,-6.6 2.7,-7.5 0.5,-1 2.8,-2.8 6.9,-5.4 3.2,-2 6.6,-4.1 10.1,-6.3 2,-1.3 3.1,-3 3.4,-4.9 0.9,-7.3 1.1,-13.1 0.6,-17.4 l -1.4,-7.8 z" id="path134" inkscape:connector-curvature="0" style="fill:#3c6162"/></g></g></g><g transform="translate(-997.6,17.45)" id="g136"><g id="g138"><g id="Layer0_13_FILL"><path class="st3" d="m 1544.5,564.7 -2.8,5.1 2.9,-1.3 c 2.7,-1.9 6,-5.2 10,-9.9 3.7,-4.4 6.6,-7.4 8.7,-9 2.8,-2.2 4.4,-3.5 4.8,-3.9 2.5,-2.4 3.9,-4 4.4,-4.9 0.7,-1.2 1,-2.7 0.7,-4.6 -0.2,-1.6 -0.7,-3.2 -1.3,-4.6 L 1571,530 c -0.8,3.1 -2.4,6.4 -4.7,9.9 -4.6,6.9 -10.5,11.3 -17.8,13.2 -0.8,4.3 -2.2,8.2 -4,11.6 z" id="path141" inkscape:connector-curvature="0" style="fill:#3c6162"/></g></g></g><g transform="translate(-997.6,17.45)" id="g143"><g id="g145"><g id="Layer0_14_FILL"><path class="st3" d="m 1537.7,573.2 -0.6,1 c -2.8,6.4 -6,10.8 -9.6,12.9 -1.9,1.2 -3.4,2.4 -4.5,3.6 l -1.1,1.5 8.2,-2.4 c 5.4,-2.5 8.1,-5.8 8.1,-10 0.1,-4.1 -0.1,-6.3 -0.5,-6.6 z" id="path148" inkscape:connector-curvature="0" style="fill:#3c6162"/></g></g></g><g transform="translate(-997.6,17.45)" id="g150"><g id="g152"><g id="Layer0_15_FILL"><path class="st2" d="m 1375.6,583.7 -4.3,-4.4 1.1,4.9 c 1.5,3.5 4.1,6 7.9,7.4 2.9,1.1 6,3 9.3,5.5 2.5,1.9 4.7,2.9 6.4,2.9 h 5.1 c -5.6,-4.1 -10.9,-7.3 -15.7,-9.6 -3.1,-1.3 -6.3,-3.6 -9.8,-6.7 z" id="path155" inkscape:connector-curvature="0" style="fill:#75b5b4"/></g></g></g><g transform="translate(-997.6,17.45)" id="g157"><g id="g159"><g id="Layer0_16_FILL"><path class="st2" d="m 1407.1,436.1 c -4.9,1.3 -7.7,2.1 -8.2,2.1 -2.3,0.3 -4.8,2.2 -7.4,5.8 -0.7,0.8 -3.3,4.9 -7.8,12.1 -2.6,4.1 -4.6,9.2 -6,15.3 -1.3,5.9 -1.2,7.8 0.3,5.5 1,-1.3 3.2,-6.2 6.7,-14.8 4,-8.5 7.9,-13.8 11.8,-16.1 3.2,-1.9 6.6,-3.8 10,-5.8 1.9,-1.3 3.3,-2.5 4,-3.7 0.9,-1.1 -0.3,-1.2 -3.4,-0.4 z" id="path162" inkscape:connector-curvature="0" style="fill:#75b5b4"/></g></g></g><g transform="translate(-997.6,17.45)" id="g164"><g id="g166"><g id="Layer0_17_FILL"><path class="st2" d="m 1495.9,428 c -8.5,-1.9 -16,-3 -22.3,-3.3 -4.6,-0.1 -9,-0.2 -12.9,-0.1 l -4.5,0.1 6.5,1.8 c 4.9,1.2 8.7,1.9 11.5,2.1 1.4,0.1 4.8,0.1 10,-0.1 4.4,-0.2 8.6,0 12.5,0.7 l 10.1,1.7 c -3,-0.9 -6.6,-1.9 -10.9,-2.9 z" id="path169" inkscape:connector-curvature="0" style="fill:#75b5b4"/></g></g></g><g transform="translate(-997.6,17.45)" id="g171"><g id="g173"><g id="Layer0_18_FILL"><path class="st2" d="m 1456.3,430 c -3.9,-1.8 -8.4,-1.9 -13.6,-0.2 -3.6,1.2 -6.1,2.2 -7.5,3 -1.4,0.7 -2.8,2 -4.3,3.7 l -2.8,3.4 6.5,-2.9 c 5.2,-1.9 10.2,-3 14.8,-3.3 l 11.2,-0.6 c -0.8,-1.1 -2.2,-2.2 -4.3,-3.1 z" id="path176" inkscape:connector-curvature="0" style="fill:#75b5b4"/></g></g></g><g transform="translate(-997.6,17.45)" id="g178"><g id="g180"><g id="Layer0_19_FILL"><path class="st2" d="m 1381.8,482.2 c -3.3,3.7 -5.3,6.3 -6,7.8 -1.6,3.4 -2.6,5.4 -2.8,6.1 -0.7,1.9 -1.1,4 -1.1,6.3 0,6 0.2,9.4 0.6,10.1 0.2,0.4 0.7,-0.6 1.5,-3.3 1.5,-5.5 2.5,-9.1 3,-10.8 1,-3.3 2.2,-5.8 3.6,-7.5 1.5,-1.9 2.5,-3.7 3.1,-5.4 l 2.8,-8.4 c -1.5,1.5 -3,3.2 -4.7,5.1 z" id="path183" inkscape:connector-curvature="0" style="fill:#75b5b4"/></g></g></g><g transform="translate(-997.6,17.45)" id="g185"><g id="g187"><g id="Layer0_20_FILL"><path class="st2" d="m 1377.4,527.4 c -1,-2.4 -1.9,-2.5 -2.7,-0.3 -1.9,6.3 -0.8,11 3.4,14.1 4.1,3 6.9,4.7 8.4,5.1 -3.7,-5.2 -6,-9.2 -6.7,-11.8 -1,-3.7 -1.8,-6 -2.4,-7.1 z" id="path190" inkscape:connector-curvature="0" style="fill:#75b5b4"/></g></g></g><g transform="translate(-997.6,17.45)" id="g192"><g id="g194"><g id="Layer0_21_FILL"><radialGradient id="SVGID_3_" cx="1270.3997" cy="3166.5588" r="40.627602" gradientTransform="translate(205.9,-2679.55)" gradientUnits="userSpaceOnUse"><stop offset="0" style="stop-color:#D4565A;stop-opacity:0.3098" id="stop198"/><stop offset="0.5216" style="stop-color:#D5565C;stop-opacity:0.3294" id="stop200"/><stop offset="0.749" style="stop-color:#D75563;stop-opacity:0.4039" id="stop202"/><stop offset="0.9176" style="stop-color:#DB536F;stop-opacity:0.5333" id="stop204"/><stop offset="1" style="stop-color:#DE5277;stop-opacity:0.6275" id="stop206"/></radialGradient><path class="st4" d="m 1489.9,460.1 c -32.2,-4.8 -52,-1.8 -59.6,9 -3.7,5.4 -4.6,12.4 -2.7,21 1.9,8.2 5.2,13.9 10,17.2 4.9,3.3 8.4,5.3 10.5,6 2.8,0.9 8,1.3 15.4,1.3 20.2,0 32.4,0.4 36.5,1.1 4.1,0.7 9.3,-1 15.5,-5.2 7.1,-4.8 10.6,-10.6 10.3,-17.3 -0.4,-10.1 -1.8,-16.8 -4.3,-20.1 -4.5,-6.1 -15.1,-10.5 -31.6,-13 z" id="path208" inkscape:connector-curvature="0" style="fill:url(#SVGID_3_)"/></g></g></g><g transform="translate(-997.6,17.45)" id="g210"><g id="g212"><g id="Layer0_22_FILL"><radialGradient id="SVGID_4_" cx="1262.955" cy="3200.1379" r="22.007999" gradientTransform="translate(199.9,-2652.6499)" gradientUnits="userSpaceOnUse"><stop offset="0" style="stop-color:#D4565A;stop-opacity:0.3098" id="stop216"/><stop offset="0.5216" style="stop-color:#D5565C;stop-opacity:0.3294" id="stop218"/><stop offset="0.749" style="stop-color:#D75563;stop-opacity:0.4039" id="stop220"/><stop offset="0.9176" style="stop-color:#DB536F;stop-opacity:0.5333" id="stop222"/><stop offset="1" style="stop-color:#DE5277;stop-opacity:0.6275" id="stop224"/></radialGradient><path class="st5" d="m 1485.2,548.7 c 0.2,-4.9 -0.5,-8.2 -2,-9.9 -9.6,-11.2 -18.3,-15.2 -26.1,-12.1 -5.8,2.3 -10,7.7 -12.7,16.1 -2.7,8.5 -4,14.1 -3.8,16.9 0.3,5.1 3.8,7.9 10.6,8.4 11.5,0.8 18.7,1.2 21.6,1 6.8,-0.5 10.5,-2.7 11,-6.6 0.9,-7 1.4,-11.5 1.4,-13.8 z" id="path226" inkscape:connector-curvature="0" style="fill:url(#SVGID_4_)"/></g></g></g><g transform="translate(-997.6,17.45)" id="g228"><g id="g230"><g id="Layer0_23_FILL"><path class="st6" d="m 1487.2,471.2 c -5.2,-2.2 -10.3,-3.6 -15.3,-4.3 -7.4,-1 -14.4,0.1 -20.8,3.4 -4,2 -7.1,3.9 -9.2,5.7 -2.5,2 -2.3,2.9 0.8,2.7 2.2,-0.1 5.7,-0.6 10.5,-1.3 4.9,-0.6 10.3,-0.9 16,-0.9 3.6,0 8.9,0.5 15.9,1.6 4,0.6 6.8,0.3 8.3,-1 1.7,-1.6 -0.3,-3.5 -6.2,-5.9 z" id="path233" inkscape:connector-curvature="0" style="fill:#c68698"/></g></g></g><g transform="translate(-997.6,17.45)" id="g235"><g id="g237"><g id="Layer0_24_FILL"><path class="st6" d="m 1464.9,486.4 c -1.9,-2 -4.9,-2.4 -9.2,-1 -2.5,0.8 -4.4,3.7 -5.7,8.7 -1.3,5 -0.2,7 3.5,6 3,-0.8 5,-2 6.1,-3.5 1.6,-2.2 2.9,-3.6 4,-4.4 2.6,-1.8 3.1,-3.7 1.3,-5.8 z" id="path240" inkscape:connector-curvature="0" style="fill:#c68698"/></g></g></g><g transform="translate(-997.6,17.45)" id="g242"><g id="g244"><g id="Layer0_25_FILL"><path class="st6" d="m 1453.4,538.2 c -1.8,2.2 -2.5,4.5 -2.2,6.9 0.5,4 0.9,6.4 1.2,7.1 1,2.2 3.3,2.9 6.6,1.9 2.6,-0.7 5.6,-1.3 8.9,-1.8 2.2,-0.4 3.7,-1.7 4.6,-3.8 1.3,-2.6 2.1,-4.3 2.4,-5.1 0.4,-1 0.3,-2.2 -0.1,-3.4 -0.6,-1.6 -2.4,-3.1 -5.3,-4.6 -3.2,-1.6 -6.1,-2.1 -8.8,-1.6 -3,0.6 -5.4,2 -7.3,4.4 z" id="path247" inkscape:connector-curvature="0" style="fill:#c68698"/></g></g></g><g transform="translate(-997.6,17.45)" id="g249"><g id="g251"><g id="Layer0_26_FILL"><radialGradient id="SVGID_5_" cx="1255.3403" cy="3207.0337" r="159.60201" gradientTransform="matrix(1,0,0,0.9789,193.8,-2630.9082)" gradientUnits="userSpaceOnUse"><stop offset="0" style="stop-color:#2FEBFA;stop-opacity:0.3686" id="stop255"/><stop offset="1" style="stop-color:#2CEBFD;stop-opacity:0" id="stop257"/></radialGradient><path class="st7" d="m 1449.1,352.1 c -44.1,0 -81.7,15.3 -112.9,45.8 -14.8,14.4 -26.2,31 -34.2,49.7 -8.4,19.3 -12.6,39.6 -12.6,60.8 0,21.2 4.2,41.5 12.6,60.8 8,18.7 19.4,35.2 34.2,49.6 31.2,30.5 68.8,45.8 112.9,45.8 44.1,0 81.7,-15.3 112.9,-45.8 14.8,-14.4 26.2,-30.9 34.2,-49.6 8.4,-19.3 12.6,-39.6 12.6,-60.8 0,-21.2 -4.2,-41.5 -12.6,-60.8 -8,-18.7 -19.4,-35.3 -34.2,-49.7 -31.2,-30.5 -68.8,-45.8 -112.9,-45.8 z" id="path259" inkscape:connector-curvature="0" style="fill:url(#SVGID_5_)"/></g></g></g><g transform="translate(-997.6,17.45)" id="g261"><g id="g263"><g id="Layer0_27_FILL"><radialGradient id="SVGID_6_" cx="1263.885" cy="3122.8059" r="37.8409" gradientTransform="matrix(1,0,0,1.0617,200.6,-2766.1409)" gradientUnits="userSpaceOnUse"><stop offset="0" style="stop-color:#2FEBFA;stop-opacity:0.3686" id="stop267"/><stop offset="1" style="stop-color:#2CEBFD;stop-opacity:0" id="stop269"/></radialGradient><path class="st8" d="m 1491.2,520.8 c -7.4,-7.9 -16.3,-11.8 -26.8,-11.8 -10.4,0 -19.3,3.9 -26.6,11.8 -7.4,7.9 -11.1,17.3 -11.1,28.4 0,11.1 3.7,20.5 11.1,28.3 7.3,7.9 16.2,11.8 26.6,11.8 10.5,0 19.4,-3.9 26.8,-11.8 7.4,-7.8 11.1,-17.2 11.1,-28.3 0,-11 -3.7,-20.5 -11.1,-28.4 z" id="path271" inkscape:connector-curvature="0" style="fill:url(#SVGID_6_)"/></g></g></g><g transform="translate(-997.6,17.45)" id="g273"><g id="g275"><g id="Layer0_28_FILL"><radialGradient id="SVGID_7_" cx="2210.1587" cy="2929.5181" r="90.679802" gradientTransform="matrix(0.702,0.7122,-0.7122,0.702,1932.9252,-3214.7888)" gradientUnits="userSpaceOnUse"><stop offset="0" style="stop-color:#4D6F23" id="stop279"/><stop offset="0" style="stop-color:#4E7025" id="stop281"/><stop offset="0" style="stop-color:#51752B" id="stop283"/><stop offset="0" style="stop-color:#567D36" id="stop285"/><stop offset="0" style="stop-color:#5E8846" id="stop287"/><stop offset="0" style="stop-color:#68975C" id="stop289"/><stop offset="0" style="stop-color:#74A978" id="stop291"/><stop offset="0" style="stop-color:#82BE99" id="stop293"/><stop offset="0" style="stop-color:#93D7BF" id="stop295"/><stop offset="0" style="stop-color:#A6F2EA" id="stop297"/><stop offset="0" style="stop-color:#AFFFFE" id="stop299"/><stop offset="1" style="stop-color:#71A5A5;stop-opacity:0" id="stop301"/></radialGradient><path class="st9" d="m 1361.8,463 c -0.7,4.9 -0.9,8.8 -0.4,11.8 0.4,2.9 0.3,5.7 -0.1,8.4 -0.6,3.9 -0.7,8.2 -0.4,13 0.1,0.7 0.6,5.2 1.6,13.4 l 1.1,9.6 c 1,-7.5 2,-12.7 3,-15.7 l 1.5,-4.5 -1.1,8.3 c -0.1,6.5 1.5,12 4.8,16.4 5.4,7.1 8.9,12.1 10.6,15.1 -0.5,-6.5 -0.5,-15.5 0,-27 0.1,-8.4 0.2,-13.4 0.4,-15.1 0.1,-1.8 1.2,-4 3.3,-6.7 3,-4 8,-8.2 15,-12.7 l -0.8,5.1 c -0.7,4.5 -1.2,9.6 -1.5,15.2 -0.2,5.2 0,9.3 0.7,12.3 0.9,4.1 1.4,7 1.6,8.8 0.5,6 0.8,11 0.8,15 3.5,-11.5 5.5,-20.9 6,-28.4 0.4,-5.9 2.4,-11.2 5.7,-15.9 3.7,-5.1 9.6,-9.8 17.5,-14.2 l 16.5,-9 c -1,1.3 -2.1,3 -3.3,4.9 -2.4,3.9 -4.1,7.2 -5.1,10 -0.7,2.2 -1.9,4.7 -3.6,7.3 l -0.6,0.9 c 0.1,0 0.8,-0.5 1.9,-1.5 0.6,-0.4 1.8,-2 3.5,-4.6 1.9,-2.7 3.8,-5 5.8,-7 7,-6.4 17.6,-11.1 31.9,-13.8 19.3,-3.7 30.3,-5.8 32.9,-6.3 5.1,-0.8 10.6,-1.2 16.5,-1.2 4.3,0 8.5,0.2 12.6,0.6 1,0.1 1.5,0.1 1.6,0 l -1.5,-0.6 c -2.5,-1 -9.3,-2.7 -20.2,-5.2 -12.3,-2.7 -21.3,-4.2 -27,-4.6 l -20.2,-0.7 1.8,-1.5 c 2.2,-1 5.6,-1.6 10.2,-1.6 h 15 c -1.3,-1.1 -3,-2.3 -5.1,-3.5 -4,-2.4 -7.5,-3.7 -10.7,-4 -4.5,-0.4 -7.4,-0.8 -8.7,-1.3 -1.9,-0.7 -2.4,-1.9 -1.2,-3.7 1.6,-2.6 4.5,-6.4 8.4,-11.4 -20,-4.5 -32.5,-7 -37.4,-7.5 -5,-0.4 -11.2,0.1 -18.7,1.8 -12.3,2.8 -20.3,4.4 -24.1,4.9 -9.2,1.3 -18.3,7.8 -27.2,19.3 -7.6,10 -12.1,19 -13.3,27.1 z" id="path303" inkscape:connector-curvature="0" style="fill:url(#SVGID_7_)"/></g></g></g><g transform="translate(-997.6,17.45)" id="g305"><g id="g307"><g id="Layer0_29_FILL"><path class="st10" d="m 1862.6,160.6 c 0,-2.3 -0.4,-1.2 -1.2,3.4 0.8,-1.9 1.2,-3 1.2,-3.4 m 93.3,76.4 v 10.1 c 0,4.6 -1.2,9.1 -3.5,13.5 -2.7,5.4 -6.8,9.9 -12.3,13.5 -2.8,1.9 -6.9,6.6 -12.1,14.2 -4,5.7 -8.7,8.8 -14.3,9.4 -6,0.7 -14.1,-0.3 -24.3,-3 -10.6,-3.2 -17.6,-5.2 -21.2,-6 -4.4,-0.9 -9,-1.1 -13.6,-0.6 l -5.5,1.1 1.7,-12.9 c 0.7,-4.9 0.2,-9.4 -1.3,-13.5 -2.5,-6.6 -4.2,-11.7 -4.8,-15.2 -1.1,-6.2 -0.4,-12.6 2.2,-19 3.6,-7 6,-12.4 7.3,-16.4 2.7,-7 4.5,-12.1 5.5,-15.3 1.6,-5.2 2,-10.4 1.2,-15.6 -0.7,-5.2 -0.6,-10.5 0.2,-15.6 0.1,-0.6 0.2,-1.2 0.2,-1.8 -0.3,0.8 -0.7,1.7 -1.1,2.7 -1.7,4.3 -2.8,8.9 -3.3,13.6 -0.4,4 -0.5,7.8 -0.4,11.5 -0.1,2.5 -1.1,5.7 -2.9,9.3 -3.4,5.8 -6,10.5 -7.9,13.8 -3.4,6.2 -6,12.7 -7.9,19.3 -1.7,6.4 -1.5,12.9 0.8,19.4 2.5,7.5 3.8,11.9 3.7,13.2 -0.6,7.9 -1,12.4 -1.2,13.4 -1.3,5.8 -4.7,11.1 -10,15.9 -4.8,4.3 -9.6,13.6 -14.5,27.9 -7.2,21.2 -11.7,33.8 -13.6,37.9 -4.9,13.5 -8.8,22.5 -11.9,27 -4.6,6.6 -14.5,13.3 -29.7,20.2 -58.1,26.2 -90.9,41.2 -98.4,45 -5.7,2.8 -12.5,4.6 -20.5,5.3 -6,0.5 -14.9,0.4 -26.8,-0.2 -8,-0.4 -19.6,-3.1 -34.6,-7.9 -15.7,-5 -24.6,-7.6 -26.6,-7.9 -5.4,-0.6 -10.2,0.2 -14.3,2.4 -4.4,2.3 -6.6,5.7 -6.5,10 0.2,15.7 3.7,25.6 10.5,29.7 2.4,1.5 5.4,2.3 9.1,2.5 2,0.1 4.9,0.1 8.5,-0.1 4,0 7.9,-0.8 11.5,-2.4 2.1,-1 5.8,-2.6 11,-4.9 3.7,-1.3 9.9,-1.7 18.7,-1.2 16.1,0.8 26.9,1.2 32.5,1.2 11.9,0 33,-7.1 63.2,-21.2 17.2,-8 34.7,-17 52.6,-27.1 15.8,-8.8 26.2,-14.8 31.3,-18 13.9,-8.8 21.5,-15.3 22.7,-19.7 0.4,-1.4 3.4,-8.6 9.1,-21.6 4.7,-11 7.3,-19.4 7.8,-25.1 0.5,-6.5 3.1,-14.8 7.8,-24.7 3.8,-8.2 7.2,-14.2 10.2,-18 3.3,-4.1 11.9,-6.2 25.9,-6.2 1.1,0 6.3,1.3 15.4,4 9.3,2.7 19.3,4.2 30.1,4.4 11.7,0.2 18.8,-1.3 21.5,-4.7 1.5,-2.1 2.6,-6 3.3,-11.6 1.1,-2.7 3.9,-6.5 8.2,-11.4 4.9,-5.6 8.8,-10.8 11.5,-15.6 3.3,-5.8 4.3,-12.1 2.9,-18.8 l -3.1,-8.2 z" id="path310" inkscape:connector-curvature="0" style="fill:#437879"/></g></g></g><g transform="translate(-997.6,17.45)" id="g312"><g id="g314"><g id="Layer0_30_FILL"><path class="st2" d="m 1955.9,237 v 10.1 c 0,4.6 -1.2,9.1 -3.5,13.5 -2.7,5.4 -6.8,9.9 -12.3,13.5 -2.8,1.9 -6.9,6.6 -12.1,14.2 -4,5.7 -8.7,8.8 -14.3,9.4 -0.9,0.1 -2.2,0.2 -4,0.2 -5.7,0 -13.2,-1.3 -22.4,-3.8 -9.4,-2.8 -15.8,-4.6 -19.1,-5.4 -2.8,-0.5 -5.7,-0.8 -8.4,-0.8 -2.7,0 -5.3,0.2 -7.8,0.7 l -2.9,0.7 1.7,-12.9 c 0.7,-4.9 0.2,-9.4 -1.3,-13.5 -2.5,-6.6 -4.2,-11.7 -4.8,-15.2 -1.1,-6.2 -0.4,-12.6 2.2,-19 3.6,-7 6,-12.4 7.3,-16.4 2.7,-7 4.5,-12.1 5.5,-15.3 1.6,-5.2 2,-10.4 1.2,-15.6 -0.8,-6 -0.6,-12 0.7,-17.9 -2.5,5.4 -4.1,11 -4.6,16.7 -0.4,4 -0.5,7.8 -0.4,11.5 -0.1,2.5 -1.1,5.7 -2.9,9.3 -3.4,5.8 -6,10.5 -7.9,13.8 -3.4,6.2 -6,12.7 -7.9,19.3 -1.7,6.4 -1.5,12.9 0.8,19.4 2.5,7.5 3.8,11.9 3.7,13.2 -0.6,7.9 -1,12.4 -1.2,13.4 -1.3,5.8 -4.7,11.1 -10,15.9 -4.8,4.3 -9.6,13.6 -14.5,27.9 -7.2,21.2 -11.7,33.8 -13.6,37.9 -4.9,13.5 -8.8,22.5 -11.9,27 -4.6,6.6 -14.5,13.3 -29.7,20.2 -58.1,26.2 -90.9,41.2 -98.4,45 -4.1,2.1 -8.7,3.6 -13.8,4.5 -4.6,0.8 -10,1.2 -16.4,1.2 -3.1,0 -8.7,-0.2 -17,-0.7 -8,-0.4 -19.6,-3.1 -34.6,-7.9 -15.7,-5 -24.6,-7.6 -26.6,-7.9 l -3.3,-0.1 c -4.8,0 -8.8,1 -12,3.1 -3.6,2.2 -5.4,5.3 -5.5,9.1 h 0.2 c 0.8,-2.2 2.4,-4 4.6,-5.3 2.1,-1.3 4.4,-1.8 6.9,-1.7 1.6,-0.5 3.6,-0.8 5.8,-0.8 l 2.8,0.1 c 2.6,0.4 8.6,2.1 17.9,5.2 9.7,3.1 17,5.4 21.8,6.6 8.7,2.3 16,3.6 21.8,3.9 7,0.4 12.8,0.7 17.2,0.7 13.3,0 24,-2.1 32.3,-6.2 7,-3.4 37,-17.2 90.2,-41.3 l 8.1,-3.6 c 13.3,-6.1 22.5,-11.8 27.7,-17.1 3.8,-4 7.5,-10.6 11,-19.9 1.9,-5.1 3.6,-9.3 5.2,-12.5 2.8,-6.4 6.4,-16.1 10.7,-29.2 3.4,-10.1 5.8,-17 7.4,-20.8 2.9,-6.7 5.9,-11.5 8.9,-14.3 6.2,-5.6 10.1,-12 11.6,-19 l -2,15.4 6.9,-2.2 2.6,-0.6 c 2.1,-0.4 4.3,-0.6 6.6,-0.6 2.7,0 5.2,0.3 7.5,0.8 1.3,0.2 4.8,1.2 10.7,2.9 14.1,4.2 24.7,6.3 31.7,6.3 2.1,0 3.6,-0.1 4.6,-0.2 4,-0.4 7.6,-1.8 10.6,-3.9 2.2,-1.6 4.3,-3.9 6.5,-7 -0.3,1 -0.6,2.4 -0.9,4.4 -0.2,1.6 -0.4,2.6 -0.7,3.1 -0.2,0.7 -0.6,1.2 -1.1,1.7 -2.2,1.6 -7.1,2.4 -14.6,2.4 l -2.5,-0.1 c -7.5,-0.1 -14.4,-0.9 -20.8,-2.1 -3.9,-0.8 -8.4,-2.1 -13.5,-3.7 -5.2,-1.7 -9,-2.6 -11.4,-2.6 -15.3,0 -25.1,2.6 -29.3,7.9 -3.3,4.1 -7,10.5 -11,19.1 -4.8,10.4 -7.5,19.1 -8,26.1 -0.3,3.8 -1.6,8.8 -3.8,14.8 -1.3,3.7 -3.6,8.9 -6.6,15.7 -3.4,7.4 -5.5,12.5 -6.2,15.3 -1,3 -6.9,8 -17.9,15.1 -6.2,4.1 -16.1,9.9 -29.6,17.4 l -4.4,2.5 c -22.7,12.7 -44,23.5 -63.7,32.2 -23.7,10.3 -40.3,15.5 -49.9,15.5 -8.5,0 -17.4,-0.3 -26.9,-0.9 -5.5,-0.4 -9.8,-0.6 -13,-0.6 -5.2,0 -9.4,0.6 -12.7,1.8 -2.8,1 -5.7,2.2 -8.4,3.6 -2.5,1.2 -4.5,2 -5.7,2.5 -2,0.6 -4.3,0.9 -6.9,0.9 l -6.6,0.2 c -2.8,0 -4.9,-0.3 -6.4,-0.8 h -0.4 c -1.9,0 -3.7,-0.1 -5.4,-0.4 -0.4,-0.1 -1.6,-0.5 -3.5,-1.2 1.9,2.8 4.4,4.7 7.4,5.7 2.2,0.8 5,1.2 8.3,1.2 l 6.6,-0.2 c 4,0 7.9,-0.8 11.5,-2.4 2.1,-1 5.8,-2.6 11,-4.9 2.7,-1 6.4,-1.5 11.2,-1.5 2.2,0 7.6,0.3 16.3,0.8 8.7,0.4 16.6,0.7 23.6,0.7 11.9,0 33,-7.1 63.2,-21.2 17.2,-8 34.7,-17 52.6,-27.1 15.8,-8.8 26.2,-14.8 31.3,-18 13.9,-8.8 21.5,-15.3 22.7,-19.7 0.4,-1.4 3.4,-8.6 9.1,-21.6 4.7,-11 7.3,-19.4 7.8,-25.1 0.5,-6.5 3.1,-14.8 7.8,-24.7 3.8,-8.2 7.2,-14.2 10.2,-18 3.3,-4.1 11.9,-6.2 25.9,-6.2 1.1,0 6.3,1.3 15.4,4 9.3,2.7 19.3,4.2 30.1,4.4 l 2.6,0.1 c 10.4,0 16.8,-1.7 19.1,-5.2 1.3,-2 2.4,-5.8 3,-11.2 1.1,-2.7 3.9,-6.5 8.2,-11.4 4.9,-5.6 8.8,-10.8 11.5,-15.6 3.3,-5.8 4.3,-12.1 2.9,-18.8 l -3.3,-7.9 z" id="path317" inkscape:connector-curvature="0" style="fill:#75b5b4"/></g></g></g><g transform="translate(-997.6,17.45)" id="g319"><g id="g321"><g id="Layer0_31_FILL"><path class="st2" d="m 1538.3,457.9 c -2.5,0.7 -3.6,2.3 -3,4.8 0.2,1.3 0.9,3.1 1.9,5.3 0.3,1 1.1,1.2 2.4,0.6 1.2,-0.7 2.1,-1.6 2.7,-2.8 0.4,-0.9 1.1,-1.2 2,-1 0.6,0.2 2,0.7 4.2,1.6 1.3,0.4 4.9,-0.3 10.8,-1.9 8.2,-1.2 18.7,-0.6 31.4,1.9 13.1,2.5 25.6,3.6 37.4,3.1 5.8,-0.2 10.4,-0.7 13.7,-1.5 h -9 c -5.2,0 -10.7,-0.2 -16.3,-0.6 -2.8,-0.1 -5.1,-0.2 -7,-0.2 -1.3,0 -3,-0.1 -4.8,-0.3 -1.6,-0.1 -3.7,-0.8 -6.3,-1.9 -2.3,-1 -4.7,-1.5 -7.2,-1.5 -2.2,0 -6.3,-0.8 -12,-2.4 -7.5,-1.9 -14.2,-3.4 -20,-4.4 -7.3,-1.2 -12.9,-1.3 -17,-0.4 l -3.9,1.6 z" id="path324" inkscape:connector-curvature="0" style="fill:#75b5b4"/></g></g></g><g transform="translate(-997.6,17.45)" id="g326"><g id="g328"><g id="Layer0_32_FILL"><path class="st2" d="m 1710.1,442.6 c 9.4,-4.7 18.2,-9.5 26.5,-14.2 -3.3,1.8 -8.2,3.7 -14.5,5.8 -3.6,1.2 -7.8,3.2 -12.5,6 -5.1,2.8 -9,4.8 -11.7,5.8 -5,1.9 -10.7,4.3 -17.1,7.3 -6.8,3.1 -9.4,4.6 -7.6,4.5 5.4,-0.4 17.7,-5.5 36.9,-15.2 z" id="path331" inkscape:connector-curvature="0" style="fill:#75b5b4"/></g></g></g><g transform="translate(-997.6,17.45)" id="g333"><g id="g335"><g id="Layer0_33_FILL"><path class="st2" d="m 1839.6,295.5 c -2.1,1.2 -3.9,3.1 -5.3,5.8 l -1.5,3.7 1.3,-1.9 c 1.4,-1.7 3.4,-3.5 6,-5.4 1.7,-1.3 6,-3.1 12.7,-5.4 4,-1.4 4.3,-2.2 0.8,-2.5 -4,-0.2 -7.5,0.6 -10.6,2.6 l -3.4,3.1 z" id="path338" inkscape:connector-curvature="0" style="fill:#75b5b4"/></g></g></g><g transform="translate(-997.6,17.45)" id="g340"><g id="g342"><g id="Layer0_34_FILL"><path class="st3" d="m 1541.8,474.3 -1.8,0.4 4,2.6 c 3.4,1.6 7.2,2.5 11.1,2.5 4,0 8.1,-0.7 12.4,-2.1 2.3,-0.8 5.3,-2 9,-3.5 2.4,-0.8 4.3,-1.3 5.7,-1.5 1.1,-0.1 3.3,-0.2 6.6,-0.2 1.3,0 1.9,0 1.9,-0.1 -0.3,-0.1 -0.4,-0.3 -0.4,-0.3 -0.1,-0.1 3.4,0 10.3,0.4 5.2,0.3 9.9,0.7 13.8,1.2 2.2,0.3 5.8,0.4 10.9,0.4 3.7,0 8.6,0.1 14.5,0.2 2.8,0.1 4.6,0 5.2,-0.2 0.5,-0.1 -3.8,-0.5 -13,-1 -11.8,-0.6 -20.3,-1.2 -25.7,-1.8 -10.1,-1.1 -19.5,-1.7 -28.1,-1.7 h -12.4 l 0.6,3.4 c 0,0.4 -0.1,0.7 -0.4,1 -0.5,0.7 -1.5,0.9 -2.9,0.7 l -6.7,-1.7 2.8,3.4 c -0.3,0.4 -0.8,0.8 -1.6,1 -1.5,0.4 -3.4,-0.1 -5.7,-1.6 l -5.6,-3.4 c -1.6,0.8 -3,1.4 -4.5,1.9 z" id="path345" inkscape:connector-curvature="0" style="fill:#3c6162"/></g></g></g><g transform="translate(-997.6,17.45)" id="g347"><g id="g349"><g id="Layer0_35_FILL"><path class="st3" d="m 1815.4,362.9 c 2.8,-6.9 4.3,-12.1 4.5,-15.7 0.2,-3.5 2,-10.5 5.3,-20.9 l 4.8,-14.5 c -0.5,0.7 -1.2,1.7 -2.1,3.1 -1.6,2.9 -3.2,6.4 -4.6,10.3 -2.2,6.4 -5.4,17 -9.6,32 -0.2,3 -0.6,5.1 -1,6.2 -0.4,1 -1.8,4.2 -4,9.6 -4,10.5 -10,20 -18,28.7 -2.8,3.1 -9.6,7.2 -20.1,12.5 -14.2,7 -21.9,10.9 -23.2,11.7 -5.3,3.2 -12.9,7.2 -22.6,12 -8.8,4.3 -17,8.2 -24.6,11.6 -5.8,2.5 -14.4,6 -25.7,10.5 l -15.3,5.8 c -5.5,2.4 -12.2,4.3 -20,5.7 -5.3,1 -9.1,1.5 -11.6,1.6 h 6.9 c 3.4,0 5.6,0 6.7,-0.1 0.1,0 3,-0.3 8.4,-1 3,-0.4 7,-1.6 11.9,-3.8 4.6,-2.1 8.7,-3.3 12.3,-3.5 4.3,-0.2 17.9,-6.3 40.7,-18.1 14.1,-7.3 28.6,-15.1 43.6,-23.5 27.4,-15.3 41.4,-24.7 42.2,-28.1 0.4,-1.9 1.7,-4.8 3.8,-8.5 2.8,-5 4.6,-8.2 5.2,-9.4 3.1,-7 5.1,-11.7 6.1,-14.2 z" id="path352" inkscape:connector-curvature="0" style="fill:#3c6162"/></g></g></g><g transform="translate(-997.6,17.45)" id="g354"><g id="g356"><g id="Layer0_36_FILL"><path class="st10" d="m 1708.6,649.6 c -1.9,-2.2 -7.2,-9.6 -15.9,-22.1 -7.3,-10.8 -14.1,-18.8 -20.1,-23.9 -7.1,-6.1 -19.1,-13.8 -36.1,-23 -15,-8.2 -26.2,-13.6 -33.6,-16.3 -2.3,-0.8 -5.3,-3.1 -9,-6.7 -4.5,-4.6 -7.7,-7.6 -9.6,-8.9 -8.5,-6 -18.1,-4.2 -28.7,5.5 -4.6,4.2 -8.2,8.6 -10.8,13.2 -1.4,2.5 -4,8.3 -7.8,17.2 -1.4,3.4 -1,6 1.1,7.8 1.7,1.4 5.2,2.6 10.5,3.5 20.4,3.6 32.8,6.2 37.3,7.9 9.4,3.4 24.4,7.7 45,12.9 17.2,5.3 28.9,11.9 34.8,19.7 9.1,11.8 19.7,23.3 31.9,34.4 14.8,13.5 26.3,20.8 34.4,21.8 6,0.7 16.7,1.5 32.2,2.2 14.5,1.7 26.6,5.8 36.4,12.4 10.5,7 16.2,16.2 17,27.5 0.7,8.6 -1.2,16.7 -5.7,24.2 -6.1,10.1 -9.4,16.4 -10,18.9 -1.8,7.5 1.9,13.2 11.1,17.1 8.9,3.7 17,8.1 24.3,12.9 3.7,2.5 6.4,4.5 8.3,6.2 -1.6,-2.6 -3.7,-5.5 -6.3,-8.5 -5.1,-6.2 -9.7,-10.5 -13.9,-12.8 -5.5,-3.1 -9,-5.5 -10.2,-7.3 -1.7,-2.4 -2.1,-6 -1,-10.7 0.7,-2.8 3.1,-8.1 7.4,-15.9 4.3,-7.6 7.1,-14.4 8.3,-20.1 1.4,-6.5 2,-13.2 1.8,-19.9 l -0.7,-8.2 16.7,4.9 c 12.1,3.9 20.8,7.5 26,10.8 4.3,2.7 13.5,4.8 27.7,6.2 16.3,1.6 28.1,3.7 35.3,6.2 9.7,3.4 18,7.8 25.1,13.4 2.2,1.7 6.6,5.9 13.2,12.5 l 6.7,6.7 c -0.9,-3.5 -2.7,-7.5 -5.3,-11.9 -5.2,-8.8 -12.1,-15.4 -20.6,-19.6 -8.5,-4.3 -19,-7.7 -31.6,-10.3 -13.8,-2.5 -23.5,-4.3 -29.1,-5.4 -6.5,-1.3 -16.1,-5.1 -28.7,-11.4 -17.8,-8.9 -28.4,-14.1 -32,-15.6 -14.4,-7.1 -25.3,-12.4 -32.6,-15.9 -13,-6.2 -23.9,-9.6 -32.6,-10 -11.2,-0.6 -22.7,-2.9 -34.5,-6.9 -12.5,-4.5 -21.2,-9.3 -26.1,-14.7 z" id="path359" inkscape:connector-curvature="0" style="fill:#437879"/></g></g></g><g transform="translate(-997.6,17.45)" id="g361"><g id="g363"><g id="Layer0_37_FILL"><path class="st2" d="m 1732.2,692.3 c 6,0.7 16.7,1.5 32.2,2.2 14.5,1.7 26.6,5.8 36.4,12.4 10.5,7 16.2,16.2 17,27.5 0.7,8.6 -1.2,16.7 -5.7,24.2 -6.1,10.1 -9.4,16.4 -10,18.9 -1.8,7.5 1.9,13.2 11.1,17.1 8.9,3.7 17,8.1 24.3,12.9 3.7,2.5 6.4,4.5 8.3,6.2 -1.6,-2.6 -3.7,-5.5 -6.3,-8.5 -5.1,-6.2 -9.7,-10.5 -13.9,-12.8 -5.5,-3.1 -9,-5.5 -10.2,-7.3 -1.7,-2.4 -2.1,-6 -1,-10.7 0.7,-2.8 3.1,-8.1 7.4,-15.9 4.3,-7.6 7.1,-14.4 8.3,-20.1 1.4,-6.5 2,-13.2 1.8,-19.9 l -0.7,-8.2 16.7,4.9 c 12.1,3.9 20.8,7.5 26,10.8 4.3,2.7 13.5,4.8 27.7,6.2 16.3,1.6 28.1,3.7 35.3,6.2 9.7,3.4 18,7.8 25.1,13.4 2.2,1.7 6.6,5.9 13.2,12.5 l 6.7,6.7 c -0.9,-3.5 -2.7,-7.5 -5.3,-11.9 -5.2,-8.8 -12.1,-15.4 -20.6,-19.6 -8.5,-4.3 -19,-7.7 -31.6,-10.3 -13.8,-2.5 -23.5,-4.3 -29.1,-5.4 -6.5,-1.3 -16.1,-5.1 -28.7,-11.4 -17.8,-8.9 -28.4,-14.1 -32,-15.6 -14.4,-7.1 -25.3,-12.4 -32.6,-15.9 -13,-6.2 -23.9,-9.6 -32.6,-10 -11.2,-0.6 -22.7,-2.9 -34.5,-6.9 -12.6,-4.3 -21.3,-9.1 -26.2,-14.5 -1.9,-2.2 -7.2,-9.6 -15.9,-22.1 -7.3,-10.8 -14.1,-18.8 -20.1,-23.9 -7.1,-6.1 -19.1,-13.8 -36.1,-23 -15,-8.2 -26.2,-13.6 -33.6,-16.3 -2,-0.7 -6.3,-4.3 -12.9,-10.8 -5.7,-5.6 -11,-8.4 -16,-8.4 -3.8,0 -8,1.5 -12.5,4.5 1.2,-0.1 3,0 5.4,0.1 1,0.1 2,0.4 2.9,0.7 1.7,-0.5 3.1,-0.8 4.2,-0.8 2.6,0 5.3,1 8.1,3 1.7,1.3 4.2,3.5 7.3,6.7 2.5,2.6 4.5,4.5 5.7,5.5 2.1,1.8 4.2,3 6.2,3.7 7,2.5 17.9,7.8 32.7,15.9 16.8,9.1 28.7,16.7 35.6,22.7 4,3.4 8.2,8 12.6,13.7 2.4,3.1 6,8.1 10.7,15.1 5.4,8.2 9.5,13.8 12.3,16.9 5.5,6.1 14.8,11.3 28.1,15.7 12.1,4.1 24.1,6.5 35.7,7.1 6.2,0.4 13.4,2.2 21.6,5.4 4.9,2 12.2,5.5 22,10.5 8.5,4.4 15.3,7.6 20.1,9.7 5.2,2.2 13.2,6.1 23.8,11.6 l 8.2,4 c -5.9,-2.4 -13,-4.8 -21.1,-7.3 -5.7,-1.7 -9.5,-2.8 -11.5,-3.3 l -6.7,-1.8 1.2,7 c 0,0.1 0.2,2.7 0.7,7.8 0.1,6.3 -0.4,12.5 -1.8,18.5 -0.9,4.5 -2.9,9.7 -6.1,15.6 3.1,-8.5 3.7,-16.7 2,-24.6 -2.2,-10.3 -8.4,-18.7 -18.3,-25.3 -8.4,-5.6 -18.1,-9.5 -29.1,-11.7 -6.4,-1.3 -15.6,-2.2 -27.5,-2.7 -6.4,-0.3 -11,-0.6 -13.8,-0.9 -6.9,-0.9 -17.2,-7.5 -31,-19.9 -12.4,-11.1 -23.1,-22.6 -32.3,-34.6 -5,-6.4 -13,-12 -23.8,-16.5 -6.4,-2.6 -17.1,-5.9 -31.9,-9.9 -12.4,-3.3 -21.1,-5.8 -26.1,-7.6 -7.2,-2.5 -17.5,-4.9 -30.9,-7 -9.9,-1.4 -15.2,-2.7 -16,-3.9 0,-0.7 0.2,-1.4 0.6,-2.2 l 1.8,-4.3 c -1.4,-1.1 -2.5,-2.5 -3.1,-4 l -2.8,6.5 c -1.4,3.4 -1,6 1.1,7.8 1.7,1.4 5.2,2.6 10.5,3.5 20.4,3.6 32.8,6.2 37.3,7.9 9.4,3.4 24.4,7.7 45,12.9 17.2,5.3 28.9,11.9 34.8,19.7 9.1,11.8 19.7,23.3 31.9,34.4 14.7,13.2 26.2,20.4 34.3,21.5 m 74.2,91 c -1,-3.3 0.9,-8.8 5.7,-16.4 -1.1,2.3 -1.9,4.5 -2.2,6.5 -1.6,7.3 -0.3,12.7 3.7,16.4 -4,-1.7 -6.4,-3.9 -7.2,-6.5 m 77.8,-58 c -3.3,-0.8 -5.9,-1.8 -7.9,-3 l -1.5,-0.9 c 3.4,1.6 6.5,2.9 9.4,3.9 z" id="path366" inkscape:connector-curvature="0" style="fill:#75b5b4"/></g></g></g><g transform="translate(-997.6,17.45)" id="g368"><g id="g370"><g id="Layer0_38_FILL"><path class="st2" d="m 1593.9,582.7 c 1.6,1.6 3.3,2.7 5.2,3.5 1.4,0.6 4.6,1.5 9.4,2.7 6.4,1.6 11.6,3 15.7,4.4 7,2.2 14.5,5.1 22.5,8.5 7.5,3.3 16.1,9.7 25.9,19.2 4.9,4.8 9,9.3 12.4,13.4 -0.4,-1.5 -2.2,-4.5 -5.6,-9 -2.2,-2.9 -4.4,-5.4 -6.6,-7.4 -3.1,-2.5 -5.7,-4.8 -8,-6.6 -2.8,-2.3 -7,-5.5 -12.8,-9.6 -6.4,-4.5 -11,-7.7 -13.6,-9.6 -3.1,-2.2 -5.7,-3.7 -7.9,-4.6 -3.9,-1.5 -6.5,-2.6 -7.9,-3.3 -5.3,-3.4 -9.6,-6 -12.8,-8 -5.8,-3.7 -11.5,-6.1 -17,-7.2 -5.6,-1.2 -10.3,-1.5 -14.1,-1 l -3.9,1 2.8,-5.1 h -6.2 c -2.5,0 -6,0.9 -10.5,2.6 l -5.8,2.5 c -1.9,4.4 -2.8,7.9 -2.8,10.5 0,1.3 0.2,2.1 0.6,2.5 l 1.2,-1.9 c 1.2,-1.7 2.8,-3.5 4.9,-5.4 3.4,-3 5.8,-4.3 7.3,-3.9 l -6.2,8.4 3.9,-2.8 c 1.6,-1.2 4.8,-2.3 9.6,-3.3 2.2,-0.4 3.7,-0.7 4.5,-0.7 -1.2,0.2 -2.7,1.3 -4.4,3.3 l -2.4,2.9 5.5,-0.7 c 3.9,-0.6 6.6,-1.1 8,-1.6 1.4,-0.4 2.9,0 4.5,1.5 1.1,0.9 2.6,2.5 4.6,4.8 z" id="path373" inkscape:connector-curvature="0" style="fill:#75b5b4"/></g></g></g><g transform="translate(-997.6,17.45)" id="g375"><g id="g377"><g id="Layer0_39_FILL"><path class="st2" d="m 1728.4,674.7 c 6.4,2.8 15.4,4.5 26.9,5.2 12.5,0.7 22.1,2 28.9,3.7 4.8,1.1 9.2,2.9 13.3,5.3 4.5,2.6 8.8,5.4 12.9,8.4 -1.4,-1.5 -3.6,-3.3 -6.6,-5.3 -6,-4.1 -13,-7.6 -20.9,-10.5 -9.4,-3 -17.6,-4.5 -24.7,-4.5 -5.7,0.2 -9.5,0.3 -11.4,0.3 -2.7,0 -5.5,-0.5 -8.3,-1.5 l -16.3,-5.1 6.2,4 z" id="path380" inkscape:connector-curvature="0" style="fill:#75b5b4"/></g></g></g><g transform="translate(-997.6,17.45)" id="g382"><g id="g384"><g id="Layer0_40_FILL"><path class="st3" d="m 1558.3,584.5 c -2.2,1.5 -4,2.1 -5.5,1.8 l 2.4,1.1 c 4.7,1.6 12.2,3.2 22.5,4.8 9.4,1.5 17.1,3.3 23,5.5 6.8,2.5 11.7,4 14.6,4.6 12.7,2.7 24.4,6.8 34.8,12.4 5.6,3 10.1,5.2 13.5,6.7 -3.8,-2.8 -8.5,-5.8 -14.2,-9 -11.2,-6.4 -21.3,-10.5 -30.2,-12.4 -8,-1.7 -15.6,-4.1 -22.7,-7.2 -6.5,-2.8 -10.8,-4.3 -12.7,-4.6 -2.4,-0.4 -5,-0.5 -7.8,-0.3 -1.9,0.1 -3.6,-0.2 -5.2,-0.8 -1.9,-0.7 -3.8,-1.9 -5.8,-3.7 l -2.6,-2.5 c -1.1,1.4 -2.5,2.6 -4.1,3.6 z" id="path387" inkscape:connector-curvature="0" style="fill:#3c6162"/></g></g></g><g transform="translate(-997.6,17.45)" id="g389"><g id="g391"><g id="Layer0_41_FILL"><path class="st3" d="m 1693,635.7 -1,5.7 c -1.4,3.6 -4.1,4.8 -8.1,3.6 l 27,25.9 c 6.2,6.2 9.9,9.7 11,10.6 2.9,2.3 6,3.5 9.2,3.5 0.4,0 3.2,-0.1 8.3,-0.2 2.9,-0.1 6.5,0 10.8,0.2 7.1,0.4 11.6,0.6 13.5,0.6 -18.4,-0.7 -29.4,-1.7 -33.2,-2.8 -2.2,-0.7 -5.7,-3.5 -10.3,-8.5 -6.7,-7.2 -10.2,-10.9 -10.5,-11.1 -3.4,-2.7 -5.6,-4.5 -6.6,-5.5 -1.7,-1.4 -2.7,-3 -2.9,-4.6 -0.2,-1.5 -0.8,-3.2 -1.8,-5.2 -1.4,-2.6 -2.3,-4.5 -2.7,-5.5 l -2.7,-6.7 z" id="path394" inkscape:connector-curvature="0" style="fill:#3c6162"/></g></g></g><g transform="translate(-997.6,17.45)" id="g396"><g id="g398"><g id="Layer0_42_FILL"><path class="st3" d="m 1762.9,689.2 c -2.2,-0.6 -4,-0.9 -5.4,-0.9 h -7.3 l 12.7,0.9 m 4.5,0.4 -4.5,-0.3 c 1.6,0.4 3.4,1 5.4,1.8 5.3,1.9 9.8,3.1 13.4,3.5 5.6,0.6 10.6,2.1 15.1,4.6 5,2.8 10.5,7.5 16.4,13.9 5.2,5.6 7.8,14 7.9,25.1 0,5.5 -0.5,10.5 -1.5,15 3.2,-6.4 5.8,-12.3 7.6,-17.5 1.2,-3.3 1.5,-8.4 0.8,-15.2 l -1.2,-9.2 -3.5,7 c -1.8,3.7 -4.8,0.5 -9,-9.6 -1.2,-2.8 -4.5,-5.6 -9.9,-8.3 -6.7,-3 -11.7,-5.3 -14.8,-6.9 -2.8,-1.5 -10.2,-2.8 -22.2,-3.9 z" id="path401" inkscape:connector-curvature="0" style="fill:#3c6162"/></g></g></g><g transform="translate(-997.6,17.45)" id="g403"><g id="g405"><g id="Layer0_43_FILL"><path class="st10" d="m 1292.7,468.3 1.9,-5.4 c -1.1,1.3 -2.3,2.9 -3.6,4.8 -2.5,3.8 -4,7.5 -4.7,10.9 -0.8,4.6 -1.8,7.3 -2.9,8.3 -1.8,1.4 -6.6,2.7 -14.3,3.7 -8.2,1.1 -14.2,3.3 -18,6.4 -3.7,3 -6,7.3 -6.7,13 -0.4,3.5 0,8.7 1.3,15.4 1.1,5.8 1.2,10.2 0.1,13.2 -3.7,10.4 -4,19.1 -0.7,26.2 1.6,3.4 3.9,6.1 7,8 1.6,1 3,1.6 4.3,1.8 l -3,0.7 c -5.8,1.5 -10.3,2.5 -13.5,3.1 -8.7,1.6 -16.2,2 -22.5,1.3 -5.9,-0.6 -11.5,-2.4 -16.9,-5.3 -11.3,-6.3 -17.7,-9.8 -19.1,-10.5 -7.6,-3.4 -12.5,-10.6 -14.7,-21.5 -0.9,-11.4 -1.5,-18.2 -1.8,-20.5 -0.4,-3.9 -1.6,-7.2 -3.7,-9.9 -2.6,-3.5 -6.9,-6.5 -12.7,-8.9 -5.3,-2.2 -11.5,-2.3 -18.7,-0.4 l -9.1,3.5 4.8,-0.3 c 4.1,-0.3 8.5,-0.4 13.2,-0.4 5.1,0 8.7,1.2 10.9,3.7 1.1,1.3 3.2,5.6 6.3,12.8 1.9,4.4 3.1,11.8 3.5,22.3 0.4,10.3 1,16.4 1.8,18.2 1.3,2.8 5.8,6.7 13.5,11.6 3.9,2.4 7.6,4.5 11.2,6.4 -4,0.5 -11.2,0.8 -21.7,0.8 -8.2,0 -14.1,0.2 -17.4,0.7 -4.1,0.5 -11.1,2 -20.8,4.5 -8.8,2.3 -16.6,7.1 -23.5,14.3 -3.2,3.4 -7.9,9.6 -14.1,18.8 -2.5,3.9 -10.5,6.8 -23.8,8.7 -15.6,2.1 -26.4,4.9 -32.4,8.5 -7.8,4.6 -13.3,9.3 -16.5,14.1 -1.4,3.4 -1.9,4.7 -1.5,3.9 2.8,-4.1 8.6,-8.6 17.3,-13.5 6.7,-3.8 11.3,-6.1 13.9,-6.9 5.5,-1.6 14.9,-2.5 28,-2.9 12.6,-0.3 19.7,-1 21.4,-2.2 0.6,-0.4 1,-1.4 1.3,-2.9 0.4,-1.7 1.1,-3.2 2,-4.5 1.8,-2.5 4.2,-6.4 7.1,-11.7 3.4,-4.8 8.5,-8.9 15.4,-12.4 8,-4 18.3,-6.9 30.8,-8.9 11.9,-1.8 23.1,-2.3 33.6,-1.6 6.7,0.5 15.4,1.9 26,4 9.9,1.6 20.2,1.5 31,-0.3 9.7,-1.6 18.4,-3.9 26.1,-6.7 6.9,-2.5 12.4,-4 16.6,-4.5 11.9,-1.2 30.9,1.3 57,7.5 8.1,1.9 14.2,2.8 18.4,2.6 0.4,0 3.8,-0.6 10,-1.8 3.4,-0.7 5.3,-2.1 5.6,-3.9 0.1,-0.7 -0.2,-4.7 -1.1,-11.8 -1.2,-10 -7.5,-16.5 -18.8,-19.6 -4,-1.1 -8.1,-1.1 -12.3,0.1 -4,1.2 -8.7,3.7 -13.9,7.4 -3.7,2.7 -10.1,4.3 -19.2,4.7 -10.6,0.5 -18.1,1.7 -22.7,3.5 -7.5,3 -12.9,4.6 -16.1,4.8 -3.2,0.1 -6.4,-0.9 -9.4,-3.3 -4.2,-3.1 -7.1,-7.2 -8.8,-12 -1.5,-4.2 -1.8,-8.2 -1,-12 2.3,-9.9 2.1,-17.9 -0.7,-23.9 -2.6,-5.7 -1.9,-12.7 2.2,-21 1,-1.9 4.9,-3.7 11.8,-5.6 3.7,-1 8.8,-2.1 15.2,-3.4 6.4,-1.4 9.7,-5.9 9.7,-13.5 0.1,-2.7 0.8,-6.1 2.1,-10.3 z" id="path408" inkscape:connector-curvature="0" style="fill:#437879"/></g></g></g><g transform="translate(-997.6,17.45)" id="g410"><g id="g412"><g id="Layer0_44_FILL"><path class="st2" d="m 1294.6,463 c -1.1,1.3 -2.3,2.9 -3.6,4.8 -2.5,3.8 -4,7.5 -4.7,10.9 -0.8,4.6 -1.8,7.3 -2.9,8.3 -1.8,1.4 -6.6,2.7 -14.3,3.7 -8.2,1.1 -14.2,3.3 -18,6.4 -3.7,3 -6,7.3 -6.7,13 -0.4,3.5 0,8.7 1.3,15.4 1.1,5.8 1.2,10.2 0.1,13.2 -3.7,10.4 -4,19.1 -0.7,26.2 1.6,3.4 3.9,6.1 7,8 1.6,1 3,1.6 4.3,1.8 l -3,0.7 c -12.4,3.2 -22.4,4.8 -30.2,4.8 -1.9,0 -3.8,-0.1 -5.7,-0.3 -5.9,-0.6 -11.5,-2.4 -16.9,-5.3 -11.3,-6.3 -17.7,-9.8 -19.1,-10.5 -7.6,-3.4 -12.5,-10.6 -14.7,-21.5 -0.9,-11.4 -1.5,-18.2 -1.8,-20.5 -0.4,-3.9 -1.6,-7.2 -3.7,-9.9 -2.6,-3.5 -6.9,-6.5 -12.7,-8.9 -2.8,-1.1 -6,-1.7 -9.4,-1.7 -4,0 -8.3,0.8 -12.8,2.4 l -5.5,2.4 4.8,-0.3 c 4.1,-0.3 8.5,-0.4 13.2,-0.4 5.1,0 8.7,1.2 10.9,3.7 1.1,1.3 3.2,5.6 6.3,12.8 1.9,4.4 3.1,11.8 3.5,22.3 0.4,10.3 1,16.4 1.8,18.2 1.3,2.8 5.8,6.7 13.5,11.6 3.9,2.4 7.6,4.5 11.2,6.4 -4,0.5 -11.2,0.8 -21.7,0.8 -8.2,0 -14.1,0.2 -17.4,0.7 -4.1,0.5 -11.1,2 -20.8,4.5 -8.8,2.3 -16.6,7.1 -23.5,14.3 -3.2,3.4 -7.9,9.6 -14.1,18.8 -2.5,3.9 -10.5,6.8 -23.8,8.7 -15.6,2.1 -26.4,4.9 -32.4,8.5 -7.1,4.3 -12.4,8.6 -15.7,12.9 -2.8,3.6 -3.6,5.4 -2.6,5.4 l 0.3,-0.3 c 2.8,-4.1 8.6,-8.6 17.3,-13.5 6.7,-3.8 11.3,-6.1 13.9,-6.9 5.5,-1.6 14.9,-2.5 28,-2.9 12.6,-0.3 19.7,-1 21.4,-2.2 0.6,-0.4 1,-1.4 1.3,-2.9 0.4,-1.7 1.1,-3.2 2,-4.5 1.8,-2.5 4.2,-6.4 7.1,-11.7 3.4,-4.8 8.5,-8.9 15.4,-12.4 6.9,-3.4 15.5,-6 25.9,-8 9.9,-1.9 19.7,-2.8 29.5,-2.8 3.1,0 6.2,0.1 9.1,0.3 4.3,0.3 11,1.3 20,3 7.7,1.5 14.4,2.2 20,2.2 5.2,0 10.9,-0.5 17,-1.6 9.7,-1.6 18.4,-3.9 26.1,-6.7 6.9,-2.5 12.4,-4 16.6,-4.5 l 6.2,-0.2 c 11.8,0 28.8,2.6 50.8,7.8 7.3,1.8 12.9,2.7 17,2.7 1.9,0 3.9,-0.2 6,-0.7 1.2,-0.2 3,-0.6 5.5,-1.2 2.2,-0.4 3.6,-1 4.4,-1.7 0.8,-0.7 1.3,-1.8 1.3,-3.3 l -2.2,-0.1 c -0.1,1 -0.4,1.6 -0.9,1.9 -0.4,0.3 -1.5,0.6 -3,0.9 l -3.4,0.8 c -3.1,0.7 -5.7,1.1 -7.6,1.1 -3.4,0 -9,-0.9 -16.5,-2.6 -21.7,-5.2 -38.7,-7.9 -51.3,-7.9 -2.3,0 -4.5,0.1 -6.4,0.3 -4.3,0.4 -9.6,1.8 -15.6,4 -8.1,3.1 -17.2,5.5 -27.2,7.2 -5.8,1 -11.4,1.5 -16.6,1.5 -5.8,0 -13,-0.9 -21.8,-2.6 -6.7,-1.3 -12.7,-2.2 -18,-2.7 -2.9,-0.2 -6,-0.3 -9.3,-0.3 -10.3,0 -20.6,1 -30.9,3 -10.2,2 -18.7,4.7 -25.4,8.1 -5.8,2.8 -10.4,6.1 -13.8,9.9 -1.9,2.2 -4.1,5.4 -6.4,9.6 -0.8,1.6 -1.8,3.4 -3,5.2 -1,1.4 -1.8,3.3 -2.4,5.5 -0.1,0.8 -0.3,1.3 -0.4,1.5 -0.1,0.1 -0.6,0.3 -1.5,0.6 -2.3,0.6 -8.5,1 -18.7,1.2 l -1.6,0.1 c 4.7,-0.8 8.4,-1.8 11.1,-2.9 3.3,-1.4 5.7,-3.3 7.3,-5.6 l 1.5,-2.2 c 5.3,-7.9 9.8,-13.7 13.4,-17.3 6.3,-6.2 13.4,-10.4 21.4,-12.5 9.6,-2.5 16.4,-4 20.3,-4.5 3.4,-0.4 9.1,-0.7 17.3,-0.7 10.4,0 17.8,-0.3 22,-0.8 l 7.2,-0.9 -6.5,-3.4 c -4.9,-2.5 -9.7,-5.3 -14.2,-8.3 -5.5,-3.7 -8.7,-6.5 -9.6,-8.5 -0.7,-1.6 -1.2,-6.4 -1.5,-14.3 -0.2,-6 -0.4,-10.6 -0.8,-13.7 -0.5,-5.1 -1.5,-9.3 -2.9,-12.5 l -1.3,-3.1 c -1.6,-3.6 -2.7,-5.9 -3.3,-6.9 -1.1,-2.1 -2.3,-3.7 -3.6,-4.7 4.6,2.2 8,4.7 10,7.6 1.6,2.2 2.5,4.9 2.9,8.2 l 0.1,4 c 0.3,8.8 1.2,15.8 2.7,20.9 2.8,9.3 7.8,15.6 15,18.9 4.5,2 9.4,4.6 14.7,7.9 4.3,2.5 7.6,4.3 9.8,5.2 3.6,1.4 7.6,2.4 12.1,2.8 1.9,0.2 3.9,0.3 6,0.3 8.2,0 18.1,-1.5 29.8,-4.6 l 12.7,-3.1 c 1.7,0.7 3.5,1 5.3,1 3.7,0 9.6,-1.6 17.8,-4.9 4.6,-1.8 11.5,-2.9 20.5,-3.4 5.3,-0.2 9.2,-0.6 11.7,-1 4.1,-0.7 7.6,-2.1 10.3,-4.2 7.4,-5.2 13.7,-7.9 18.9,-7.9 1.9,0 3.7,0.3 5.4,0.8 4.1,1.1 7.5,2.7 10.1,4.8 l 3.8,0.4 c -3.1,-3.4 -7.5,-5.9 -13.4,-7.5 -2.3,-0.5 -4.3,-0.8 -6,-0.8 -5.6,0 -12.4,2.8 -20.2,8.3 -3.7,2.7 -10.1,4.3 -19.2,4.7 -10.6,0.5 -18.1,1.7 -22.7,3.5 -8,3.2 -13.7,4.8 -17,4.8 -2.8,0 -5.7,-1.1 -8.5,-3.3 -4.2,-3.1 -7.1,-7.2 -8.8,-12 -1.5,-4.2 -1.8,-8.2 -1,-12 2.3,-9.9 2.1,-17.9 -0.7,-23.9 -2.6,-5.7 -1.9,-12.7 2.2,-21 1,-1.9 4.9,-3.7 11.8,-5.6 3.7,-1 8.8,-2.1 15.2,-3.4 6.4,-1.4 9.7,-5.9 9.7,-13.5 0,-2.8 0.6,-6.2 1.9,-10.3 l 1.6,-5.4 m -33.3,31.5 c -5.2,1.7 -8.2,3.6 -9.2,5.7 -4.4,8.8 -5.2,16.5 -2.2,22.8 2.5,5.5 2.7,13.1 0.6,22.6 -0.9,4.2 -0.6,8.6 1,13.3 1.9,5.2 5.1,9.6 9.6,13 1.5,1 2.6,1.7 3.3,2 l -7.4,-1.6 c -4.3,-1 -7.6,-3.8 -9.7,-8.4 -2.9,-6.5 -2.7,-14.7 0.8,-24.5 0.8,-2.2 1.1,-4.6 0.9,-7.4 -0.1,-1.6 -0.4,-4.2 -1.1,-7.6 -1.2,-6 -1.6,-10.6 -1.1,-13.9 0.6,-4 1.8,-7.1 3.7,-9.4 2.1,-2.9 5.8,-5.1 10.8,-6.6 z" id="path415" inkscape:connector-curvature="0" style="fill:#75b5b4"/></g></g></g><g transform="translate(-997.6,17.45)" id="g417"><g id="g419"><g id="Layer0_45_FILL"><path class="st2" d="m 1188.5,581 c -1.9,0.2 -3.6,0.4 -5.1,0.7 -2.7,0.4 -2.5,0.7 0.6,0.9 5,0.2 14.2,1.1 27.4,2.6 l -9.4,-1.9 c -3.4,-0.7 -6.4,-1.2 -9.1,-1.5 -2.1,-0.3 -3.6,-0.6 -4.4,-0.8 z" id="path422" inkscape:connector-curvature="0" style="fill:#75b5b4"/></g></g></g><g transform="translate(-997.6,17.45)" id="g424"><g id="g426"><g id="Layer0_46_FILL"><path class="st2" d="m 1297.9,571.7 c -2.8,0.3 -7.3,1.3 -13.7,3.1 l -8.8,2.5 3.4,-0.8 c 2,-0.4 7.2,-0.9 15.5,-1.7 9,-0.7 14.9,-1 17.8,-0.9 3.9,0.2 8.4,-0.3 13.5,-1.5 5.8,-1.5 9.7,-2.2 11.7,-2.2 1.4,0 2.7,-0.2 3.7,-0.7 0.7,-0.2 1.5,-0.6 2.6,-1.2 0.7,-0.3 1.4,-0.3 2,-0.1 1.1,0.5 1.9,0.8 2.5,0.9 1.1,0.1 2,0.1 2.6,0 0.4,-0.1 1.5,-0.5 3,-1.1 l 1.5,-0.4 c -0.6,0.3 -0.7,0.4 -0.3,0.4 0.7,0 1.4,1.2 1.9,3.7 l 0.8,-1.9 c 0.3,-0.7 0.5,-1.7 0.6,-2.9 l 0.1,-1.6 2.7,4.9 v -3 c 0,-1.3 -0.1,-2.2 -0.2,-2.8 l -0.2,-0.6 3.6,2 c 1.9,1.1 2.9,2.2 3.1,3.1 v -2.1 c 0,-1.3 -0.3,-2.2 -0.8,-2.7 -1.3,-1 -2.7,-2.1 -4.4,-3.4 -2,-1.6 -4.3,-2.5 -6.9,-2.7 l -3.3,0.1 1.8,1.9 c 1.3,1.2 1.6,2.4 1.1,3.7 l -3.4,-1.9 c -1.4,-0.7 -3.3,-1.2 -5.5,-1.3 l -3,-0.1 1.5,1.1 c 1,0.7 1.8,2.1 2.6,4.2 l -8.5,-2.7 c 0,1 -0.6,2.5 -1.9,4.5 -0.8,1.3 -2.2,2 -4.3,2.2 -2.2,0 -3.8,0 -4.7,0 -1.6,0 -2.8,0.1 -3.6,0.2 -1.3,0.2 -2.6,0.7 -3.9,1.3 -1.2,0.6 -2.8,0.8 -4.9,0.7 -2.5,-0.2 -4.5,-0.3 -5.8,-0.3 h -11.5 z" id="path429" inkscape:connector-curvature="0" style="fill:#75b5b4"/></g></g></g><g transform="translate(-997.6,17.45)" id="g431"><g id="g433"><g id="Layer0_47_FILL"><path class="st2" d="m 1260.1,580.3 c -5.2,1 -9,1.9 -11.2,2.9 -1,0.4 -2.5,0.7 -4.5,0.7 -4,-0.1 -8.1,-0.2 -12.4,-0.2 -5.3,0 -9.7,0.2 -13,0.6 l -3.5,0.6 4.4,0.3 c 3.4,0.2 6.3,0.3 8.4,0.3 1.7,0 5.8,0 12.3,0 6.1,-0.2 10.5,-1 13.2,-2.2 l 6.3,-3 z" id="path436" inkscape:connector-curvature="0" style="fill:#75b5b4"/></g></g></g><g transform="translate(-997.6,17.45)" id="g438"><g id="g440"><g id="Layer0_48_FILL"><path class="st2" d="m 1187,570.5 -12,-3 c 0.5,0.4 1.1,1 1.8,2 0.7,0.7 1.8,1.2 3.1,1.3 2.5,0.4 5.3,1.1 8.2,2.2 2.5,1 4.7,2.2 6.7,3.4 1,0.5 2.2,0.9 3.7,1.1 -4.7,-3.9 -8.5,-6.2 -11.5,-7 z" id="path443" inkscape:connector-curvature="0" style="fill:#75b5b4"/></g></g></g><g transform="translate(-997.6,17.45)" id="g445"><g id="g447"><g id="Layer0_49_FILL"><path class="st3" d="m 1306.5,578.4 11.7,1.3 c 8.7,1 15.1,2 19.1,2.8 6.4,1.2 12.6,1.8 18.3,1.8 6.2,0 10.6,-0.4 13.2,-1.1 1.7,-0.4 2.7,-0.8 3,-1 0.7,-0.5 1.2,-1.5 1.5,-3 0.4,-2.1 0.7,-3.6 0.9,-4.6 0.2,-1.7 0,-3.2 -0.6,-4.4 l -1.5,-3 0.7,3.4 c 0.2,2.5 -0.4,4.3 -1.8,5.6 l -3.4,3 c 1.9,-3 2.7,-5.1 2.2,-6.4 -1,0.7 -3.8,1.6 -8.3,2.6 -2.9,0.8 -4.6,1.3 -5.2,1.3 -0.6,0.1 -2,0.2 -4.2,0.2 -1.7,0 -3,-0.1 -3.8,-0.3 -0.7,-0.1 -1.8,-0.2 -3.3,-0.1 -0.9,0.1 -2,0.3 -3.4,0.6 -0.7,0.1 -2.2,0.2 -4.5,0.2 -3.1,-0.1 -5.2,-0.1 -6.4,-0.1 -1.9,0 -4.6,0.1 -7.9,0.4 -5.2,0.5 -9.6,0.8 -13.2,0.8 h -3.1 z" id="path450" inkscape:connector-curvature="0" style="fill:#3c6162"/></g></g></g><g transform="translate(-997.6,17.45)" id="g452"><g id="g454"><g id="Layer0_50_FILL"><path class="st10" d="m 1741.1,6 c -1.9,-2.5 -6.6,-6.2 -14.2,-11.2 -4.6,-3.1 -9.9,-4.1 -15.7,-2.8 l -7.4,2.8 h 9.7 c 6.3,0 12.5,3.3 18.7,9.9 7.6,8.1 11.4,18.5 11.4,31.1 0,14.4 -1,24 -3,28.8 -2,4.9 -6.7,9.1 -14.2,12.5 -8.2,3.7 -13.7,6.9 -16.6,9.7 -3.7,3.4 -6.4,8.7 -8.1,15.9 -1.7,6.7 -4.9,12 -9.6,15.9 -2.5,2 -8.3,5.5 -17.4,10.3 -5.9,3.1 -11.4,6.9 -16.3,11.1 l -5.5,5.4 v -30 c 0,-9.4 -0.1,-15.8 -0.2,-19.2 -0.1,-2.5 -0.8,-10.8 -2,-25 -0.9,-11.2 -5,-21.7 -12.4,-31.4 l -10.8,-11.2 10.5,17.9 c 5.5,9.4 8.4,14.8 8.8,16 0.5,2 0.6,8.4 0.2,19.2 -0.2,4.6 -1.2,22.1 -3.3,52.3 -1.8,26.8 -2.7,45.3 -2.7,55.6 0,10.7 -2.6,24.1 -7.8,40.2 -5.8,18.2 -8.7,27.5 -8.8,28 -0.6,4.3 -6.2,10 -16.8,16.9 -14.5,8.8 -25.9,15.9 -34.2,21.4 -9.9,6.6 -20.3,19.3 -31.1,38 -10,19.1 -16.6,30.7 -19.9,34.6 -5.9,7.4 -10.2,14.4 -12.9,20.8 -3.7,8.8 -4.8,17.6 -3.5,26.4 1.3,8.5 5,15.1 11.1,19.8 3.5,2.7 8.3,4.9 14.3,6.5 8,2.2 13.3,-0.5 15.7,-8.1 0.7,-1.9 1.4,-8 2.2,-18.2 0.6,-6.1 3.4,-20.9 8.3,-44.2 2.1,-10.3 7.6,-23.3 16.4,-39 2.4,-4.2 8.4,-10.8 18.1,-19.7 l 22.4,-20.8 c 4,-4 9.6,-9.4 16.6,-16.3 5.3,-5.4 8.8,-9.7 10.3,-12.9 1.6,-3.2 3.3,-10.1 5.1,-20.6 0.7,-3.8 2,-12.9 3.9,-27.3 0.9,-6.9 1.3,-16.2 1.2,-27.8 -0.3,-11 -0.4,-17.3 -0.4,-18.8 0,-2 1.5,-4.8 4.5,-8.4 1.9,-2.2 5.6,-6.2 11.2,-11.8 3.5,-3.5 8.2,-6.7 14.2,-9.4 8.9,-4.2 14.2,-6.8 15.9,-7.8 5.1,-3.1 9.3,-8.1 12.6,-15.1 2.6,-5.5 4.4,-11.4 5.4,-17.9 0.6,-4.3 4.5,-8.5 11.8,-12.4 4,-2.1 9.3,-4.7 15.9,-7.9 3.1,-2.1 5.1,-7.1 5.7,-15.1 0.5,-6.2 0.4,-16.7 -0.4,-31.5 -0.7,-11.5 -3,-19.9 -6.9,-25.2 z" id="path457" inkscape:connector-curvature="0" style="fill:#437879"/></g></g></g><g transform="translate(-997.6,17.45)" id="g459"><g id="g461"><g id="Layer0_51_FILL"><path class="st2" d="m 1728.6,-1.5 c 5.8,3.7 9.7,7.2 11.7,10.3 3.1,4.9 4.9,12.4 5.4,22.7 0.7,13.3 0.9,23 0.6,28.9 -0.4,8.5 -2.1,13.7 -4.8,15.5 -1.3,0.9 -3.7,2.2 -7.4,3.8 -6.3,2.8 -10.8,5.2 -13.5,7.2 -4.6,3.3 -7.2,6.9 -7.8,10.8 -0.9,6.4 -2.7,12.3 -5.3,17.6 -3.1,6.4 -7,10.9 -11.7,13.7 -2.2,1.4 -6.1,3.4 -11.6,5.8 -4.3,1.9 -7.5,3.4 -9.7,4.7 -3.4,1.9 -6.4,4.3 -9.1,7 -6,6.1 -10,10.3 -11.9,12.6 -3,3.7 -4.5,6.7 -4.5,9.2 l 0.1,4.7 c 0.7,18.8 0.4,32.6 -0.8,41.5 l -0.6,4.2 c -1.6,11.8 -2.9,20.1 -3.7,24.8 -1.6,9.3 -3.1,15.4 -4.5,18.3 -1.2,2.4 -3.6,5.5 -7.1,9.2 -1.9,2 -5.7,5.8 -11.4,11.4 l -8.2,8 c -1.3,1.3 -5.8,5.6 -13.7,12.9 -7.5,6.7 -12.9,11.8 -16.2,15.1 -5.4,5.3 -9,9.7 -10.9,13 -8.9,15.5 -14.5,28.7 -16.7,39.6 -4.9,23.5 -7.7,38.4 -8.2,44.5 l -0.2,3.6 c -0.4,6.8 -1.1,11.7 -2.2,14.7 -1.6,4.4 -4.3,6.6 -8.3,6.6 l -2,-0.2 -3.4,1.6 0.3,0.1 c 2.2,0.5 3.9,0.8 5.1,0.8 5.7,0 9.4,-3.6 11.2,-10.7 0.2,-0.8 0.8,-6.3 1.7,-16.4 0.6,-6.1 3.4,-20.9 8.3,-44.2 2.1,-10.3 7.6,-23.3 16.4,-39 2.4,-4.2 8.4,-10.8 18.1,-19.7 l 22.4,-20.8 c 4,-4 9.6,-9.4 16.6,-16.3 5.3,-5.4 8.8,-9.7 10.3,-12.9 1.6,-3.2 3.3,-10.1 5.1,-20.6 0.7,-3.8 2,-12.9 3.9,-27.3 0.9,-6.9 1.3,-16.2 1.2,-27.8 -0.3,-11 -0.4,-17.3 -0.4,-18.8 0,-2 1.5,-4.8 4.5,-8.4 1.9,-2.2 5.6,-6.2 11.2,-11.8 3.5,-3.5 8.2,-6.7 14.2,-9.4 8.9,-4.2 14.2,-6.8 15.9,-7.8 5.1,-3.1 9.3,-8.1 12.6,-15.1 2.6,-5.5 4.4,-11.4 5.4,-17.9 0.6,-4.3 4.5,-8.5 11.8,-12.4 4,-2.1 9.3,-4.7 15.9,-7.9 3.1,-2.1 5.1,-7.1 5.7,-15.1 0.5,-6.2 0.4,-16.7 -0.4,-31.5 -0.7,-11.5 -3,-20 -6.9,-25.3 -1.9,-2.5 -6.6,-6.2 -14.2,-11.2 -3.4,-2.2 -7,-3.4 -11,-3.4 -2.8,0 -5.7,0.6 -8.7,1.7 l -3.5,1.7 h 9.7 c 6.3,0 12.5,3.3 18.7,9.9 7.6,8.1 11.4,18.5 11.4,31.1 0,14.4 -1,24 -3,28.8 -2,4.9 -6.7,9.1 -14.2,12.5 -8.2,3.7 -13.7,6.9 -16.6,9.7 -3.7,3.4 -6.4,8.7 -8.1,15.9 -1.7,6.7 -4.9,12 -9.6,15.9 -2.5,2 -8.3,5.5 -17.4,10.3 -5.9,3.1 -11.4,6.9 -16.3,11.1 l -5.5,5.4 v -30 c 0,-9.4 -0.1,-15.8 -0.2,-19.2 -0.1,-2.5 -0.8,-10.8 -2,-25 -0.9,-11.2 -5,-21.7 -12.4,-31.4 l -10.8,-11.2 10.5,17.9 c 5.5,9.4 8.4,14.8 8.8,16 0.5,2 0.6,8.4 0.2,19.2 -0.2,4.6 -1.2,22.1 -3.3,52.3 -1.8,26.8 -2.7,45.3 -2.7,55.6 0,10.7 -2.6,24.1 -7.8,40.2 -5.8,18.2 -8.7,27.5 -8.8,28 -0.6,4.3 -6.2,10 -16.8,16.9 -14.5,8.8 -25.9,15.9 -34.2,21.4 -9.9,6.6 -20.3,19.3 -31.1,38 -10,19.1 -16.6,30.7 -19.9,34.6 -5.9,7.4 -10.2,14.4 -12.9,20.8 -3.7,8.8 -4.8,17.6 -3.5,26.4 0.5,3.5 1.5,6.8 2.9,9.8 -0.1,-1.7 0,-3.7 0.2,-6 -0.4,-1.6 -0.7,-3 -0.9,-4.2 -1.3,-8.5 -0.2,-17.1 3.5,-25.7 2.5,-6 6.7,-12.6 12.5,-19.7 1.9,-2.5 5.8,-8.9 11.5,-19.2 6.8,-12.7 12.4,-22.4 16.9,-29 7.5,-11.2 14.9,-19.2 22.1,-24.1 3.7,-2.5 10.5,-6.7 20.3,-12.7 10.9,-6.6 18.2,-11.4 21.9,-14.3 5.9,-4.6 9.1,-8.9 9.7,-12.7 0.3,-2.1 1.8,-7.2 4.6,-15.3 3.7,-10.5 6.3,-18.8 7.9,-25.1 2.7,-10.6 4,-20 4,-28.2 0,-10.8 1.2,-33.5 3.6,-68.2 1.4,-21.7 2.2,-34.9 2.4,-39.6 v -1.1 c 0.7,8.6 1.2,14.5 1.2,17.6 0.1,2.9 0.2,8.6 0.2,17.1 v 36.2 l 9.4,-10 c 4.7,-4.1 9.9,-7.7 15.6,-10.7 l 2.8,-1.5 c 7.8,-4 13.1,-7.3 16,-9.9 4.6,-4.1 7.7,-9.6 9.3,-16.3 1.6,-6.6 4.2,-11.5 7.5,-14.7 2.7,-2.6 8,-5.7 16,-9.3 8.1,-3.7 13.3,-8.4 15.5,-14.1 2,-5 3,-14.8 3,-29.2 0,-8.4 -1.7,-16 -5.2,-22.8 -2.8,-5.6 -6.7,-10.4 -11.7,-14.1 z" id="path464" inkscape:connector-curvature="0" style="fill:#75b5b4"/></g></g></g><g transform="translate(-997.6,17.45)" id="g466"><g id="g468"><g id="Layer0_52_FILL"><path class="st2" d="m 1650.5,151.5 c 1.8,-2.4 2.5,-4.5 2.2,-6.2 -4,3.6 -6,7.2 -6,10.8 v 3.8 c 0.2,-0.8 0.5,-1.8 0.9,-2.8 0.9,-2.3 1.8,-4.2 2.9,-5.6 z" id="path471" inkscape:connector-curvature="0" style="fill:#75b5b4"/></g></g></g><g transform="translate(-997.6,17.45)" id="g473"><g id="g475"><g id="Layer0_53_FILL"><path class="st2" d="m 1646.4,193.9 v -16.5 l -1.1,5.8 c -0.7,4.3 -1.1,7.5 -1.1,9.6 0,10.5 -0.5,17.1 -1.6,19.9 -4,11 -6.1,18 -6.3,20.9 -0.1,1.8 -0.9,4.1 -2.4,7 -1.8,3.7 -2.8,5.7 -2.9,6.2 -0.7,2.1 -1.1,4.2 -1.3,6.2 -0.1,2.6 0.2,4.4 1,5.4 l 1.8,2.2 c -0.2,-0.7 -0.4,-1.5 -0.6,-2.5 -0.2,-1.9 0,-3.5 0.6,-4.9 l 1.6,-3.4 1.3,-0.4 c 1,-0.5 1.9,-1.3 2.7,-2.2 l 1.9,-2.2 c -0.5,0.4 -1.1,0.7 -1.7,0.8 -1,0.1 -1.5,-0.7 -1.3,-2.6 0.2,-1.9 0.6,-3.7 1.1,-5.4 0.7,-1.9 1.2,-3.4 1.6,-4.7 1.9,-9 3.3,-14.5 4,-16.5 0.6,-1.6 1.2,-4.9 1.8,-9.9 0.6,-5.3 0.9,-9.5 0.9,-12.8 z" id="path478" inkscape:connector-curvature="0" style="fill:#75b5b4"/></g></g></g><g transform="translate(-997.6,17.45)" id="g480"><g id="g482"><g id="Layer0_54_FILL"><path class="st2" d="m 1578.5,297.4 c -3.4,2.6 -6.4,5.1 -9.1,7.3 -5.2,4.3 -8.4,7.9 -9.6,10.7 -0.5,1.1 -1.6,2.4 -3.3,3.8 -1.6,1.3 -4.1,6 -7.6,13.8 -3.2,7.3 -6.4,12.7 -9.7,16.3 -2.5,2.8 -4.2,5.6 -4.9,8.4 0,0.1 -0.6,3.4 -1.8,9.9 -0.4,2.4 -1.7,4.9 -3.8,7.6 -3.7,4.7 -5.7,7.3 -6,7.6 -1.3,2 -1.9,4.1 -1.9,6.3 0,3.2 0.1,6.1 0.3,8.5 0,0.7 -0.4,0.9 -1.2,0.6 -0.9,-0.4 -1.6,-1.3 -2.1,-2.8 l -1.1,-3.4 -0.3,2.8 c -0.2,2.4 0.1,5 0.8,7.8 l 1.5,6.7 c -2.2,-0.7 -3.5,-2.1 -3.7,-4.2 l -0.4,-4.5 -2.5,5.7 c -1,4.5 0.1,8.2 3.6,11.1 5.5,4.7 9.2,7.1 10.9,7.1 -0.6,-0.4 -1.2,-0.9 -1.9,-1.7 -1.3,-1.6 -2,-3.4 -2.2,-5.4 -0.1,-1.7 -0.1,-3.1 0.1,-4.2 0.2,-1.3 0.3,-2.8 0.3,-4.5 0,-1.7 0,-3 -0.1,-3.9 -0.1,-0.3 0,-0.7 0.1,-1.2 0.1,-1.3 0.2,-2.3 0.3,-2.8 0.2,-1 1,-1.2 2.2,-0.6 1,0.5 1.8,1.3 2.2,2.5 0.1,0.4 0.4,0 0.8,-1 0.4,-1.2 0.7,-2.8 0.8,-4.7 0.1,-2.6 0.3,-4.2 0.3,-4.6 0,-0.2 -0.4,-1.2 -1.1,-2.9 -0.6,-1.3 -0.2,-3.6 1.1,-6.9 1,-2.6 2.5,-5.3 4.5,-8.1 1.3,-2 2.1,-3.8 2.2,-5.4 0.2,-3.3 0.5,-5.7 0.9,-7.3 0.7,-3 1.9,-5.5 3.6,-7.6 1.3,-1.6 3.1,-3.8 5.4,-6.4 1.8,-2.2 2.8,-4.6 3.1,-7.1 0.7,-5.1 3.3,-10.7 7.9,-16.9 1.2,-1.6 2.4,-3.5 3.6,-5.6 1.6,-2.7 2.9,-4.8 3.9,-6.4 2.6,-3.6 7.2,-8.4 13.9,-14.4 z" id="path485" inkscape:connector-curvature="0" style="fill:#75b5b4"/></g></g></g><g transform="translate(-997.6,17.45)" id="g487"><g id="g489"><g id="Layer0_55_FILL"><path class="st3" d="m 1635.9,261.7 c -4,4.8 -7.2,8.3 -9.7,10.6 -10.3,9 -16.9,14.4 -19.9,16.1 -1.8,1 -4.1,3 -6.9,5.7 -3.9,4 -6,6.1 -6.3,6.3 -1.6,1.5 -3.7,2.8 -6.3,4 -1.4,0.7 -3.8,1.8 -7.2,3 -2.1,0.8 -3.3,1.5 -3.7,2.1 v 2 c 0,1.2 -0.3,2.5 -0.9,4 -0.8,1.9 -1.9,3.3 -3.3,4.2 -1,0.7 -2.5,2.5 -4.4,5.6 -1.9,3.1 -3.1,4.8 -3.8,5.3 l -7.1,5.6 0.3,0.1 c 0.2,0.4 0.3,1.2 0.3,2.5 0,1.9 -0.1,3.3 -0.2,4.2 -0.3,1.3 -1,2.7 -2,4 -0.9,1.3 -1.7,2.8 -2.5,4.7 -0.4,1 -0.7,1.8 -0.9,2.5 l 0.6,1.6 c 0.3,1.3 0.4,2.4 0.2,3.3 -0.1,0.7 -0.7,5.2 -2,13.4 -1.6,8.3 -3.4,13.7 -5.5,16.2 -2,2.5 -3.5,6.2 -4.4,11 -0.4,2.6 -1,6.1 -1.6,10.3 -0.4,1.8 -0.7,3.9 -1,6.3 -0.3,2 -1.1,4.2 -2.4,6.5 -0.7,1.2 -1.3,3.6 -1.9,7.2 -0.4,1.9 -1.5,2.9 -3.4,2.9 h -7.1 l 3.5,1.9 c 2.8,1.1 5.4,1.5 7.8,1 3.3,-0.7 5.6,-1.8 7,-3.3 1.9,-2.1 2.8,-5.6 2.8,-10.6 0,-7.3 0.7,-15.5 2.2,-24.7 0.4,-2.6 2,-8.5 4.8,-17.6 0.7,-2.4 1.7,-7.2 2.9,-14.5 1,-6.7 1.8,-10.6 2.4,-11.7 0.4,-1 2.2,-3.7 5.6,-8.2 3.4,-4.7 5.6,-8.2 6.7,-10.6 2.8,-5.9 4.3,-9.3 4.7,-10 2.2,-4 4.7,-7.2 7.6,-9.8 2,-1.8 5.3,-4.4 9.9,-7.8 3.8,-2.8 6.5,-5.1 8.1,-6.9 3,-3.3 8.4,-8.2 16.1,-14.6 l 16.9,-17.3 c 2.7,-2.2 4,-4.4 4,-6.5 z" id="path492" inkscape:connector-curvature="0" style="fill:#3c6162"/></g></g></g><g transform="translate(254.5,103.95)" id="g494"><g id="g496"><g id="g498"><g id="FlashAICB_Layer_17__Path__5_0_Layer0_0_FILL_9_"><radialGradient id="SVGID_8_" cx="103.5348" cy="2959.105" r="44.122799" gradientTransform="translate(274.1,-2776.3999)" gradientUnits="userSpaceOnUse"><stop offset="0" style="stop-color:#4D6F23" id="stop502"/><stop offset="0" style="stop-color:#4F6F24" id="stop504"/><stop offset="0" style="stop-color:#577129" id="stop506"/><stop offset="0" style="stop-color:#637333" id="stop508"/><stop offset="0" style="stop-color:#757641" id="stop510"/><stop offset="0" style="stop-color:#8C7A54" id="stop512"/><stop offset="0" style="stop-color:#A87F6C" id="stop514"/><stop offset="0" style="stop-color:#CA8589" id="stop516"/><stop offset="0" style="stop-color:#F18BAA" id="stop518"/><stop offset="0" style="stop-color:#FD8DB5" id="stop520"/><stop offset="1" style="stop-color:#FC0019;stop-opacity:0" id="stop522"/></radialGradient><path class="st11" d="m 421.8,182.8 c 0,-12.2 -4.3,-22.6 -12.9,-31.3 -8.6,-8.7 -19,-12.9 -31.3,-12.9 -12.3,0 -22.6,4.3 -31.1,12.9 -8.6,8.6 -12.9,19 -12.9,31.3 0,12.2 4.3,22.6 12.9,31.1 8.5,8.6 18.9,12.9 31.1,12.9 12.2,0 22.6,-4.3 31.3,-12.9 8.5,-8.5 12.9,-18.9 12.9,-31.1 z" id="path524" inkscape:connector-curvature="0" style="fill:url(#SVGID_8_)"/></g></g></g></g><g transform="translate(261.6,110.25)" id="g526"><g id="g528"><g id="g530"><g id="FlashAICB_Layer_17__Path__4_0_Layer0_0_MEMBER_0_FILL_9_"><radialGradient id="SVGID_9_" cx="96.378601" cy="2951.8" r="28.103701" gradientTransform="translate(274.1,-2777.25)" gradientUnits="userSpaceOnUse"><stop offset="0" style="stop-color:#4D6F23" id="stop534"/><stop offset="0" style="stop-color:#4F7025" id="stop536"/><stop offset="0" style="stop-color:#54752B" id="stop538"/><stop offset="0" style="stop-color:#5E7D36" id="stop540"/><stop offset="0" style="stop-color:#6C8846" id="stop542"/><stop offset="0" style="stop-color:#7E975C" id="stop544"/><stop offset="0" style="stop-color:#94A978" id="stop546"/><stop offset="0" style="stop-color:#AEBE99" id="stop548"/><stop offset="0" style="stop-color:#CDD7C0" id="stop550"/><stop offset="0" style="stop-color:#EFF2EB" id="stop552"/><stop offset="0" style="stop-color:#FFFFFF" id="stop554"/><stop offset="0.1255" style="stop-color:#FFFBFB;stop-opacity:0.9804" id="stop556"/><stop offset="0.251" style="stop-color:#FFEFEF;stop-opacity:0.9333" id="stop558"/><stop offset="0.251" style="stop-color:#FFEFEF;stop-opacity:0" id="stop560"/><stop offset="1" style="stop-color:#000000;stop-opacity:0" id="stop562"/></radialGradient><path class="st12" d="m 398.6,174.6 c 0,-7.7 -2.7,-14.4 -8.2,-19.9 -5.5,-5.5 -12.1,-8.2 -19.9,-8.2 -7.7,0 -14.4,2.7 -19.9,8.2 -5.5,5.5 -8.2,12.2 -8.2,19.9 0,7.8 2.7,14.4 8.2,19.9 5.5,5.5 12.1,8.2 19.9,8.2 7.8,0 14.4,-2.7 19.9,-8.2 5.5,-5.5 8.2,-12.2 8.2,-19.9 z" id="path564" inkscape:connector-curvature="0" style="fill:url(#SVGID_9_)"/></g></g></g><g id="g566"><g id="g568"><g id="FlashAICB_Layer_17__Path__4_0_Layer0_0_MEMBER_1_FILL_9_"><radialGradient id="SVGID_10_" cx="96.378601" cy="2951.8" r="28.103701" gradientTransform="translate(274.1,-2777.25)" gradientUnits="userSpaceOnUse"><stop offset="0" style="stop-color:#000000;stop-opacity:0" id="stop572"/><stop offset="0.251" style="stop-color:#FFEFEF;stop-opacity:0" id="stop574"/><stop offset="0.251" style="stop-color:#FFEFEF;stop-opacity:0.9333" id="stop576"/><stop offset="0.3765" style="stop-color:#FEDADB;stop-opacity:0.8549" id="stop578"/><stop offset="0.502" style="stop-color:#FEBDBF;stop-opacity:0.7451" id="stop580"/><stop offset="0.6275" style="stop-color:#FD989B;stop-opacity:0.6" id="stop582"/><stop offset="0.7569" style="stop-color:#FD6A6F;stop-opacity:0.4235" id="stop584"/><stop offset="0.8824" style="stop-color:#FC323F;stop-opacity:0.2196" id="stop586"/><stop offset="1" style="stop-color:#FC0019;stop-opacity:0" id="stop588"/></radialGradient><path class="st13" d="m 398.6,174.6 c 0,-7.7 -2.7,-14.4 -8.2,-19.9 -5.5,-5.5 -12.1,-8.2 -19.9,-8.2 -7.7,0 -14.4,2.7 -19.9,8.2 -5.5,5.5 -8.2,12.2 -8.2,19.9 0,7.8 2.7,14.4 8.2,19.9 5.5,5.5 12.1,8.2 19.9,8.2 7.8,0 14.4,-2.7 19.9,-8.2 5.5,-5.5 8.2,-12.2 8.2,-19.9 z" id="path590" inkscape:connector-curvature="0" style="fill:url(#SVGID_10_)"/></g></g></g></g><g transform="translate(66.75,252.55)" id="g592"><g id="g594"><g id="g596"><g id="FlashAICB_Layer_17__Path__3_0_Layer0_0_FILL_9_"><radialGradient id="SVGID_11_" cx="44.814602" cy="2983.9497" r="22.398701" gradientTransform="translate(76.7,-2637.5)" gradientUnits="userSpaceOnUse"><stop offset="0" style="stop-color:#4D6F23" id="stop600"/><stop offset="0" style="stop-color:#4F6F24" id="stop602"/><stop offset="0" style="stop-color:#577129" id="stop604"/><stop offset="0" style="stop-color:#637333" id="stop606"/><stop offset="0" style="stop-color:#757641" id="stop608"/><stop offset="0" style="stop-color:#8C7A54" id="stop610"/><stop offset="0" style="stop-color:#A87F6C" id="stop612"/><stop offset="0" style="stop-color:#CA8589" id="stop614"/><stop offset="0" style="stop-color:#F18BAA" id="stop616"/><stop offset="0" style="stop-color:#FD8DB5" id="stop618"/><stop offset="1" style="stop-color:#FC0019;stop-opacity:0" id="stop620"/></radialGradient><path class="st14" d="m 143.9,346.4 c 0,-6.1 -2.2,-11.4 -6.5,-15.9 -4.3,-4.3 -9.6,-6.5 -15.9,-6.5 -6.1,0 -11.4,2.2 -15.9,6.5 -4.3,4.4 -6.5,9.7 -6.5,15.9 0,6.2 2.2,11.5 6.5,16 4.3,4.3 9.6,6.5 15.9,6.5 6.3,0 11.5,-2.2 15.9,-6.5 4.3,-4.4 6.5,-9.7 6.5,-16 z" id="path622" inkscape:connector-curvature="0" style="fill:url(#SVGID_11_)"/></g></g></g></g><g transform="translate(70.35,255.75)" id="g624"><g id="g626"><g id="g628"><g id="FlashAICB_Layer_17__Path__2_0_Layer0_0_MEMBER_0_FILL_9_"><radialGradient id="SVGID_12_" cx="41.2146" cy="2980.2505" r="14.2486" gradientTransform="translate(76.7,-2637.8999)" gradientUnits="userSpaceOnUse"><stop offset="0" style="stop-color:#4D6F23" id="stop632"/><stop offset="0" style="stop-color:#4F7025" id="stop634"/><stop offset="0" style="stop-color:#54752B" id="stop636"/><stop offset="0" style="stop-color:#5E7D36" id="stop638"/><stop offset="0" style="stop-color:#6C8846" id="stop640"/><stop offset="0" style="stop-color:#7E975C" id="stop642"/><stop offset="0" style="stop-color:#94A978" id="stop644"/><stop offset="0" style="stop-color:#AEBE99" id="stop646"/><stop offset="0" style="stop-color:#CDD7C0" id="stop648"/><stop offset="0" style="stop-color:#EFF2EB" id="stop650"/><stop offset="0" style="stop-color:#FFFFFF" id="stop652"/><stop offset="0.1255" style="stop-color:#FFFBFB;stop-opacity:0.9804" id="stop654"/><stop offset="0.251" style="stop-color:#FFEFEF;stop-opacity:0.9333" id="stop656"/><stop offset="0.251" style="stop-color:#FFEFEF;stop-opacity:0" id="stop658"/><stop offset="1" style="stop-color:#000000;stop-opacity:0" id="stop660"/></radialGradient><path class="st15" d="m 132.2,342.4 c 0,-3.9 -1.4,-7.3 -4.2,-10.1 -2.8,-2.8 -6.1,-4.2 -10.1,-4.2 -3.9,0 -7.3,1.4 -10.1,4.2 -2.8,2.8 -4.2,6.2 -4.2,10.1 0,4 1.4,7.3 4.2,10.1 2.8,2.8 6.2,4.2 10.1,4.2 4,0 7.3,-1.4 10.1,-4.2 2.8,-2.8 4.2,-6.2 4.2,-10.1 z" id="path662" inkscape:connector-curvature="0" style="fill:url(#SVGID_12_)"/></g></g></g><g id="g664"><g id="g666"><g id="FlashAICB_Layer_17__Path__2_0_Layer0_0_MEMBER_1_FILL_9_"><radialGradient id="SVGID_13_" cx="41.2146" cy="2980.2505" r="14.2486" gradientTransform="translate(76.7,-2637.8999)" gradientUnits="userSpaceOnUse"><stop offset="0" style="stop-color:#000000;stop-opacity:0" id="stop670"/><stop offset="0.251" style="stop-color:#FFEFEF;stop-opacity:0" id="stop672"/><stop offset="0.251" style="stop-color:#FFEFEF;stop-opacity:0.9333" id="stop674"/><stop offset="0.3765" style="stop-color:#FEDADB;stop-opacity:0.8549" id="stop676"/><stop offset="0.502" style="stop-color:#FEBDBF;stop-opacity:0.7451" id="stop678"/><stop offset="0.6275" style="stop-color:#FD989B;stop-opacity:0.6" id="stop680"/><stop offset="0.7569" style="stop-color:#FD6A6F;stop-opacity:0.4235" id="stop682"/><stop offset="0.8824" style="stop-color:#FC323F;stop-opacity:0.2196" id="stop684"/><stop offset="1" style="stop-color:#FC0019;stop-opacity:0" id="stop686"/></radialGradient><path class="st16" d="m 132.2,342.4 c 0,-3.9 -1.4,-7.3 -4.2,-10.1 -2.8,-2.8 -6.1,-4.2 -10.1,-4.2 -3.9,0 -7.3,1.4 -10.1,4.2 -2.8,2.8 -4.2,6.2 -4.2,10.1 0,4 1.4,7.3 4.2,10.1 2.8,2.8 6.2,4.2 10.1,4.2 4,0 7.3,-1.4 10.1,-4.2 2.8,-2.8 4.2,-6.2 4.2,-10.1 z" id="path688" inkscape:connector-curvature="0" style="fill:url(#SVGID_13_)"/></g></g></g></g><g transform="translate(348.1,307.95)" id="g690"><g id="g692"><g id="g694"><g id="FlashAICB_Layer_17__Path__1_0_Layer0_0_FILL_9_"><radialGradient id="SVGID_14_" cx="115.9215" cy="2998.9536" r="24.646999" gradientTransform="translate(359.05,-2581.1001)" gradientUnits="userSpaceOnUse"><stop offset="0" style="stop-color:#4D6F23" id="stop698"/><stop offset="0" style="stop-color:#4F6F24" id="stop700"/><stop offset="0" style="stop-color:#577129" id="stop702"/><stop offset="0" style="stop-color:#637333" id="stop704"/><stop offset="0" style="stop-color:#757641" id="stop706"/><stop offset="0" style="stop-color:#8C7A54" id="stop708"/><stop offset="0" style="stop-color:#A87F6C" id="stop710"/><stop offset="0" style="stop-color:#CA8589" id="stop712"/><stop offset="0" style="stop-color:#F18BAA" id="stop714"/><stop offset="0" style="stop-color:#FD8DB5" id="stop716"/><stop offset="1" style="stop-color:#FC0019;stop-opacity:0" id="stop718"/></radialGradient><path class="st17" d="m 499.6,417.9 c 0,-6.8 -2.4,-12.6 -7.2,-17.4 -4.8,-4.8 -10.6,-7.2 -17.4,-7.2 -6.8,0 -12.6,2.4 -17.4,7.2 -4.8,4.8 -7.2,10.6 -7.2,17.4 0,6.8 2.4,12.6 7.2,17.4 4.8,4.8 10.6,7.2 17.4,7.2 6.8,0 12.6,-2.4 17.4,-7.2 4.8,-4.8 7.2,-10.6 7.2,-17.4 z" id="path720" inkscape:connector-curvature="0" style="fill:url(#SVGID_14_)"/></g></g></g></g><g transform="translate(352.05,311.45)" id="g722"><g id="g724"><g id="g726"><g id="FlashAICB_Layer_17__Path__0_Layer0_0_MEMBER_0_FILL_9_"><radialGradient id="SVGID_15_" cx="111.9715" cy="2994.8921" r="15.682" gradientTransform="translate(359.05,-2581.55)" gradientUnits="userSpaceOnUse"><stop offset="0" style="stop-color:#4D6F23" id="stop730"/><stop offset="0" style="stop-color:#4F7025" id="stop732"/><stop offset="0" style="stop-color:#54752B" id="stop734"/><stop offset="0" style="stop-color:#5E7D36" id="stop736"/><stop offset="0" style="stop-color:#6C8846" id="stop738"/><stop offset="0" style="stop-color:#7E975C" id="stop740"/><stop offset="0" style="stop-color:#94A978" id="stop742"/><stop offset="0" style="stop-color:#AEBE99" id="stop744"/><stop offset="0" style="stop-color:#CDD7C0" id="stop746"/><stop offset="0" style="stop-color:#EFF2EB" id="stop748"/><stop offset="0" style="stop-color:#FFFFFF" id="stop750"/><stop offset="0.1255" style="stop-color:#FFFBFB;stop-opacity:0.9804" id="stop752"/><stop offset="0.251" style="stop-color:#FFEFEF;stop-opacity:0.9333" id="stop754"/><stop offset="0.251" style="stop-color:#FFEFEF;stop-opacity:0" id="stop756"/><stop offset="1" style="stop-color:#000000;stop-opacity:0" id="stop758"/></radialGradient><path class="st18" d="m 486.8,413.3 c 0,-4.3 -1.5,-8.1 -4.6,-11.1 -3.1,-3.1 -6.8,-4.6 -11.1,-4.6 -4.3,0 -8.1,1.5 -11.1,4.6 -3.1,3.1 -4.6,6.8 -4.6,11.1 0,4.3 1.5,8 4.6,11 3.1,3.1 6.8,4.6 11.1,4.6 4.3,0 8.1,-1.5 11.1,-4.6 3,-2.9 4.6,-6.6 4.6,-11 z" id="path760" inkscape:connector-curvature="0" style="fill:url(#SVGID_15_)"/></g></g></g><g id="g762"><g id="g764"><g id="FlashAICB_Layer_17__Path__0_Layer0_0_MEMBER_1_FILL_9_"><radialGradient id="SVGID_16_" cx="111.9715" cy="2994.8921" r="15.682" gradientTransform="translate(359.05,-2581.55)" gradientUnits="userSpaceOnUse"><stop offset="0" style="stop-color:#000000;stop-opacity:0" id="stop768"/><stop offset="0.251" style="stop-color:#FFEFEF;stop-opacity:0" id="stop770"/><stop offset="0.251" style="stop-color:#FFEFEF;stop-opacity:0.9333" id="stop772"/><stop offset="0.3765" style="stop-color:#FEDADB;stop-opacity:0.8549" id="stop774"/><stop offset="0.502" style="stop-color:#FEBDBF;stop-opacity:0.7451" id="stop776"/><stop offset="0.6275" style="stop-color:#FD989B;stop-opacity:0.6" id="stop778"/><stop offset="0.7569" style="stop-color:#FD6A6F;stop-opacity:0.4235" id="stop780"/><stop offset="0.8824" style="stop-color:#FC323F;stop-opacity:0.2196" id="stop782"/><stop offset="1" style="stop-color:#FC0019;stop-opacity:0" id="stop784"/></radialGradient><path class="st19" d="m 486.8,413.3 c 0,-4.3 -1.5,-8.1 -4.6,-11.1 -3.1,-3.1 -6.8,-4.6 -11.1,-4.6 -4.3,0 -8.1,1.5 -11.1,4.6 -3.1,3.1 -4.6,6.8 -4.6,11.1 0,4.3 1.5,8 4.6,11 3.1,3.1 6.8,4.6 11.1,4.6 4.3,0 8.1,-1.5 11.1,-4.6 3,-2.9 4.6,-6.6 4.6,-11 z" id="path786" inkscape:connector-curvature="0" style="fill:url(#SVGID_16_)"/></g></g></g></g></g></svg>
