<?xml version="1.0" encoding="UTF-8" standalone="no"?>
<!-- Generator: Adobe Illustrator 20.1.0, SVG Export Plug-In . SVG Version: 6.00 Build 0)  -->
<svg xmlns:dc="http://purl.org/dc/elements/1.1/" xmlns:cc="http://creativecommons.org/ns#" xmlns:rdf="http://www.w3.org/1999/02/22-rdf-syntax-ns#" xmlns:svg="http://www.w3.org/2000/svg" xmlns="http://www.w3.org/2000/svg" xmlns:sodipodi="http://sodipodi.sourceforge.net/DTD/sodipodi-0.dtd" xmlns:inkscape="http://www.inkscape.org/namespaces/inkscape" version="1.1" id="Layer_1" x="0px" y="0px" viewBox="0 0 301.9 466.6" xml:space="preserve" inkscape:version="0.48.5 r10040" width="140px" height="215px" sodipodi:docname="shrub_orange_01.svg" preserveAspectRatio="none"><metadata id="metadata112"><rdf:RDF><cc:Work rdf:about=""><dc:format>image/svg+xml</dc:format><dc:type rdf:resource="http://purl.org/dc/dcmitype/StillImage"/></cc:Work></rdf:RDF></metadata><defs id="defs110"/><sodipodi:namedview pagecolor="#ffffff" bordercolor="#666666" borderopacity="1" objecttolerance="10" gridtolerance="10" guidetolerance="10" inkscape:pageopacity="0" inkscape:pageshadow="2" inkscape:window-width="640" inkscape:window-height="480" id="namedview108" showgrid="false" inkscape:zoom="0.472" inkscape:cx="150.94999" inkscape:cy="233.3" inkscape:window-x="0" inkscape:window-y="0" inkscape:window-maximized="0" inkscape:current-layer="Layer_1"/><style type="text/css" id="style3">
	.st0{fill:#8F7D5C;}
	.st1{fill:#806E4D;}
	.st2{fill:#6C5E3F;}
	.st3{fill:url(#SVGID_1_);}
	.st4{fill:#A7674A;}
	.st5{fill:#9E5B3F;}
	.st6{fill:#8A4E35;}
	.st7{fill:#B56C4C;}
	.st8{fill:#D8B59B;}
</style><g id="g5" transform="translate(-12.400006,-16.7)"><g id="g7"><g id="Layer0_0_MEMBER_0_MEMBER_0_FILL"><path class="st0" d="m 206.7,389.3 -2.2,-21.7 -50,11 -1.3,29.6 c -2.1,21.2 -6.6,36 -13.5,44.6 -6.9,8.4 -14.6,15.2 -22.9,20.4 -1.7,1.1 -3.3,2 -4.7,2.8 l 16.3,-7.2 c 15.5,-6.1 26,-8.4 31.4,-6.9 5.4,1.7 8.2,5.8 8.2,12.3 0,3.1 -0.5,6.2 -1.6,9.1 2.5,-4 5.6,-8 9.1,-11.9 6.9,-7.8 13.1,-11.2 18.5,-10.4 8.6,1.3 29.9,6.2 63.8,14.8 -8.4,-4 -16.3,-8 -23.9,-11.9 -14.9,-8 -19.8,-11.9 -14.8,-11.9 8,0 18.1,-0.3 30.5,-0.9 -5.4,-0.8 -11,-2.5 -16.7,-5 -11.7,-4.8 -18.5,-11.5 -20.4,-20.1 -1.7,-8.7 -3.7,-20.8 -5.8,-36.7 z" id="path10" inkscape:connector-curvature="0" style="fill:#8f7d5c"/></g></g></g><g id="g12" transform="translate(-12.400006,-16.7)"><g id="g14"><g id="Layer0_0_MEMBER_0_MEMBER_1_MEMBER_0_FILL"><path class="st1" d="m 208.3,400.3 -3.8,-32.7 -50,11 -0.3,16.3 6.3,0.3 -0.3,7.2 c -0.2,5.7 -0.7,11.1 -1.6,16.3 -0.8,4 -4.1,8.8 -9.7,14.5 -2.5,8.6 -5.6,15.1 -9.1,19.5 -7.5,9 -15.4,15.9 -23.6,20.7 17.2,-8.8 29.3,-18.1 36.5,-28 6.7,-9.4 11.7,-21.4 15.1,-35.8 -2.7,16.6 -1.6,23.9 3.5,22 6.1,-1.9 9.7,-8.8 11,-20.7 l 2.2,22.6 c 2.5,15.7 5.8,24.8 9.7,27.3 6.5,0.8 24.8,5 55,12.6 -17.6,-6.9 -32.7,-13.9 -45.3,-21.1 -9.2,-5.2 -14.8,-14.5 -16.7,-27.7 0,-12.4 0,-18.9 0,-19.5 l 11.6,-2.2 c 3.8,-0.4 7,-1.4 9.5,-2.6 z" id="path17" inkscape:connector-curvature="0" style="fill:#806e4d"/></g></g></g><g id="g19" transform="translate(-12.400006,-16.7)"><g id="g21"><g id="Layer0_0_MEMBER_0_MEMBER_1_MEMBER_4_FILL"><path class="st2" d="M 184.4,433.6 182.2,411 c -1.3,11.9 -4.9,18.9 -11,20.7 -5,1.9 -6.2,-5.4 -3.5,-22 -3.4,14.5 -8.4,26.4 -15.1,35.8 -7.1,9.9 -19.3,19.2 -36.5,28 l -2.8,1.6 c 23.7,-10.9 39.2,-15.3 46.5,-13.2 5.4,1.7 8.2,5.8 8.2,12.3 0,3.1 -0.5,6.2 -1.6,9.1 2.5,-4 5.6,-8 9.1,-11.9 6.9,-7.8 13.1,-11.2 18.5,-10.4 -3.8,-2.6 -7.1,-11.7 -9.6,-27.4 z" id="path24" inkscape:connector-curvature="0" style="fill:#6c5e3f"/></g></g></g><g id="g26" transform="translate(-12.400006,-16.7)"><g id="g28"><g id="Layer0_0_MEMBER_0_MEMBER_2_FILL"><linearGradient id="SVGID_1_" gradientUnits="userSpaceOnUse" x1="82.778397" y1="293.53729" x2="267.15302" y2="291.3367" gradientTransform="matrix(1,0,0,-1,0,498.6667)"><stop offset="0" style="stop-color:#BD7B5C" id="stop32"/><stop offset="1" style="stop-color:#CB9A7A" id="stop34"/></linearGradient><path class="st3" d="M 271.5,102.9 C 280.3,93 294.6,79.8 314.3,63.3 L 237.6,91 248.3,42 203,76.3 209.9,20 174.4,63.4 126,16.9 133.9,66.6 77.5,43.5 106.1,90 12.4,79.9 c 5.2,3.4 11.2,7.6 17.9,12.9 13.7,10.7 24.3,21.2 31.8,31.5 L 80,170.5 58.6,157.3 90,229.9 57,221.7 88.4,280.8 H 52 l 21.7,40.9 c 16.6,28.9 30.3,47.8 41.2,56.6 6.5,5.4 12.8,8.2 18.9,8.2 8,0 15.5,-1.7 22.6,-5 l 4.7,6.9 c 5,4.6 12.7,6.9 22.9,6.9 10.2,0 18,-2.3 23.3,-6.9 l 4.4,-6.9 6.9,1.3 c 5,0.6 8.7,0.8 11,0.6 20.1,-1.5 38.9,-21.2 56.3,-59.1 L 306,268 l -44.6,28 39.6,-96 -44.3,31.4 17.9,-74.2 -24.5,13.2 c 1.5,-8.8 3.4,-18.2 5.7,-28.3 5,-20 10.2,-33.1 15.7,-39.2 z" id="path36" inkscape:connector-curvature="0" style="fill:url(#SVGID_1_)"/></g></g></g><g id="g38" transform="translate(-12.400006,-16.7)"><g id="g40"><g id="Layer0_0_MEMBER_0_MEMBER_3_MEMBER_0_FILL"><path class="st4" d="m 144.5,69.6 c -0.4,5.2 -1.3,12.7 -2.5,22.3 -0.8,8 -1,13.6 -0.6,17 1,5.4 3,11.6 6,18.5 -4,-4.6 -8.3,-8.7 -12.9,-12.3 -9.6,-7.1 -16.5,-7.8 -20.4,-1.9 -4,5.9 -4.9,14.9 -2.8,27 1,6.3 2.5,11.8 4.4,16.7 -2.3,-1.3 -4.7,-2.2 -7.2,-2.8 -5,-1.3 -7.9,-0.1 -8.5,3.5 -0.8,6.1 3.1,14 11.9,23.9 l -6.6,9.4 c -4,7.1 -4.7,12.9 -2.2,17.3 2.5,4.4 5.1,5.7 7.9,3.8 l 3.1,-3.8 -4.1,11 c -2.7,8.4 -4.1,15.5 -4.1,21.4 0,5.9 2.7,12.4 8.2,19.5 2.7,3.6 5.4,6.5 8.2,8.8 h -17.6 l 22,49.7 h -17.6 l 2.5,18.5 c 2.9,12.8 7.5,20.1 13.8,22 6.1,1.9 10.8,0 14.1,-5.7 l 2.8,-9.1 2.5,9.7 c 2.9,7.5 7.8,14.1 14.5,19.8 8.2,7.1 15.2,11.8 21.1,14.1 5.7,2.5 12.9,3.8 21.7,3.8 5.7,-2.7 8.9,-6.2 9.7,-10.4 l 6.9,1.3 c 5,0.6 8.7,0.8 11,0.6 6.1,-0.2 12.5,-2.6 19.2,-7.2 -9.9,1.5 -18.4,-1.4 -25.8,-8.5 l -8.2,-11 c -9.2,11.3 -18.1,17.9 -26.7,19.8 -5.4,1.3 -7.5,-2.4 -6.3,-11 l 3.1,-13.5 c -2.3,2.1 -5.2,3.8 -8.8,5 -7.1,2.3 -13.7,0.9 -19.8,-4.1 -6.1,-5 -7.2,-15.7 -3.5,-32.1 l 7.5,-23.3 c -3.4,0.8 -6.9,1.2 -10.7,0.9 -7.1,-0.2 -11.1,-2.8 -11.9,-7.9 -0.8,-5 2.5,-14.1 10.1,-27.3 l 11.6,-18.2 c -2.3,2.3 -5.1,4.3 -8.5,6 -6.7,3.6 -12.8,3.9 -18.2,0.9 -5.4,-2.9 -7.9,-12.2 -7.2,-27.7 l 2.2,-22.6 14.8,3.1 C 132.1,170.8 128.2,150 131,142.3 c 1.7,-5 7.1,-6.1 16.3,-3.1 4.6,1.5 9,3.5 13.2,6 -1.9,-5.2 -3.5,-11.1 -4.7,-17.6 -2.3,-12.6 -1.7,-21.4 1.9,-26.4 2.7,-3.6 7.3,-2.9 13.8,1.9 3.1,2.5 6.1,5.3 8.8,8.5 -7.8,-19.1 -15,-34.6 -21.7,-46.5 -6.9,-12.4 -17.8,-28.5 -32.7,-48.4 13.4,24.8 19.6,42.4 18.6,52.9 z" id="path43" inkscape:connector-curvature="0" style="fill:#a7674a"/></g></g></g><g id="g45" transform="translate(-12.400006,-16.7)"><g id="g47"><g id="Layer0_0_MEMBER_0_MEMBER_3_MEMBER_1_FILL"><path class="st5" d="m 142,91.9 c 1.3,-9.6 2.1,-17.1 2.5,-22.3 1,-10.5 -5.1,-28.1 -18.5,-52.8 l 7.9,49.7 -56.4,-23 28.6,46.5 -93.7,-10.1 5.3,3.5 c 26.6,10.1 44.1,17.5 52.5,22.3 7.5,4.4 13.3,10.5 17.3,18.2 2.1,4 3.5,7.5 4.1,10.7 L 80,130.9 93.2,185.9 80,182.7 98.5,239.9 80,240.6 c 0.8,0 5.4,9 13.8,27 4,9 8,18 11.9,27 l -22.9,2.2 6,25.1 c 6.1,18.7 14.3,32.8 24.5,42.4 10.2,9.6 20.5,15.3 30.8,17 5,1 9.1,1 12.3,0 l 4.7,6.9 c 5,4.6 12.7,6.9 22.9,6.9 6.9,0 12.9,-1.2 17.9,-3.5 -8.8,0 -16,-1.3 -21.7,-3.8 -5.9,-2.3 -12.9,-7 -21.1,-14.1 -6.7,-5.7 -11.5,-12.3 -14.5,-19.8 l -2.5,-9.7 -2.8,9.1 c -3.4,5.7 -8.1,7.5 -14.1,5.7 -6.3,-1.9 -10.9,-9.2 -13.8,-22 l -2.5,-18.5 h 17.6 l -22,-49.7 h 17.6 c -2.7,-2.3 -5.4,-5.2 -8.2,-8.8 -5.4,-7.1 -8.2,-13.6 -8.2,-19.5 0,-5.9 1.4,-13 4.1,-21.4 l 4.1,-11 -3.1,3.8 c -2.7,1.9 -5.3,0.6 -7.9,-3.8 -2.5,-4.4 -1.8,-10.2 2.2,-17.3 l 6.6,-9.4 c -8.8,-9.9 -12.8,-17.8 -11.9,-23.9 0.6,-3.6 3.5,-4.7 8.5,-3.5 2.5,0.6 4.9,1.6 7.2,2.8 -1.9,-4.8 -3.4,-10.4 -4.4,-16.7 -2.1,-12.2 -1.2,-21.2 2.8,-27 4,-5.9 10.8,-5.2 20.4,1.9 4.6,3.6 8.9,7.6 12.9,12.3 -2.9,-6.9 -4.9,-13.1 -6,-18.5 -0.3,-3.3 -0.1,-9 0.8,-16.9 z" id="path50" inkscape:connector-curvature="0" style="fill:#9e5b3f"/></g></g></g><g id="g52" transform="translate(-12.400006,-16.7)"><g id="g54"><g id="Layer0_0_MEMBER_0_MEMBER_3_MEMBER_2_FILL"><path class="st6" d="M 80,170.5 58.6,157.3 90,229.9 57,221.7 88.4,280.8 H 52 l 21.7,40.9 c 16.6,28.9 30.3,47.8 41.2,56.6 6.5,5.4 12.8,8.2 18.9,8.2 8,0 15.5,-1.7 22.6,-5 -3.1,1 -7.2,1 -12.3,0 -10.3,-1.7 -20.5,-7.3 -30.8,-17 C 103,354.8 94.9,340.6 88.8,322 l -6,-25.1 22.9,-2.2 c -4,-9 -8,-18 -11.9,-27 -8.4,-18 -13,-27 -13.8,-27 l 18.5,-0.6 -18.5,-57.4 13.2,3.1 -13.2,-55 11.6,3.8 c -0.6,-3.1 -2,-6.7 -4.1,-10.7 -4,-7.8 -9.7,-13.8 -17.3,-18.2 -8.4,-4.8 -25.9,-12.3 -52.5,-22.3 19.7,14 34.5,27.7 44.3,40.9 l 18,46.2 z" id="path57" inkscape:connector-curvature="0" style="fill:#8a4e35"/></g></g></g><g id="g59" transform="translate(-12.400006,-16.7)"><g id="g61"><g id="Layer0_0_MEMBER_0_MEMBER_4_FILL"><path class="st7" d="m 186.3,54.8 c -8.2,11.3 -11.5,20.6 -10.1,28 2.5,11.9 5.8,24.3 9.7,37.1 -3.6,-2.9 -7.2,-5.2 -11,-6.9 -7.3,-3.1 -11.1,-1.4 -11.3,5.3 -0.2,4.2 2,12.2 6.6,23.9 3.6,9 3.6,15.6 0,19.8 -4,4.8 -8.6,6.3 -13.8,4.4 l -6.9,-4.4 8.8,19.5 c 4.8,14.3 4.9,24.6 0.3,31.1 -4.6,6.5 -9.4,10.2 -14.5,11 l -6.3,-0.6 5.7,9.4 c 4.8,5.9 9.5,7.9 14.1,6 7.5,-2.9 13.9,-7.3 19.2,-13.2 l -14.1,22.9 c -8.6,16.3 -10.7,27.1 -6.3,32.4 4.2,5.4 11.4,6.2 21.7,2.2 5,-1.9 9.6,-4.3 13.8,-7.2 -2.9,0.8 -6.1,1.2 -9.4,0.9 -7.1,-0.2 -12.2,-2.7 -15.1,-7.5 -3.1,-5 0.6,-15.3 11.3,-30.8 5.2,-7.8 10.8,-15.1 16.7,-22 l -28,-34 c 1.9,-0.2 4,-1.2 6.3,-2.8 4.8,-3.1 8.6,-8.2 11.3,-15.1 2.9,-6.7 2.7,-14 -0.6,-22 l -6,-9.7 28.9,-0.6 c -5.4,-8.4 -10,-18.5 -13.5,-30.5 -6.9,-23.7 -5.1,-44.2 5.3,-61.6 -4.3,4.1 -8.6,9.1 -12.8,15 z" id="path64" inkscape:connector-curvature="0" style="fill:#b56c4c"/></g></g></g><g id="g66" transform="translate(-12.400006,-16.7)"><g id="g68"><g id="Layer0_0_MEMBER_0_MEMBER_5_FILL"><path class="st7" d="m 183.5,306.9 6.9,-11.3 -15.7,15.7 c -9.6,11.5 -11.8,19.6 -6.6,24.2 5.2,4.6 11.4,6.3 18.5,5 3.4,-0.6 6.3,-1.8 8.8,-3.5 l -2.8,11 c -1.3,7.1 0,10.4 3.8,9.7 5.9,-1 13.5,-7 22.9,-17.9 l 4.4,8.8 c 4,5.9 8.9,9.1 14.8,9.7 5.9,0.6 14.1,-5.4 24.8,-18.2 5.4,-6.5 10.3,-13 14.5,-19.5 -5.9,5.9 -12.2,11.3 -18.9,16.3 -13.2,9.9 -21.7,12.8 -25.5,8.8 -3.8,-4 -5.8,-10.1 -6,-18.2 l 0.6,-10.7 c -14.3,18.2 -22.1,25.7 -23.6,22.3 -0.8,-2.3 -0.1,-6.9 2.2,-13.8 l 3.8,-10.1 -9.7,6.9 c -7.3,4 -13,4.4 -17,1.3 -3.9,-2.8 -4,-8.3 -0.2,-16.5 z" id="path71" inkscape:connector-curvature="0" style="fill:#b56c4c"/></g></g></g><g id="g73" transform="translate(-12.400006,-16.7)"><g id="g75"><g id="Layer0_0_MEMBER_0_MEMBER_6_FILL"><path class="st7" d="m 266.8,245 c -5.2,5.2 -11.7,9.4 -19.5,12.6 L 269,164.2 c -14.9,46.9 -26.7,74.9 -35.5,83.9 -9,8.8 -15.9,14.7 -20.7,17.6 l 7.9,3.1 c 6.1,2.1 11.5,3.4 16.3,3.8 8,0.4 14.9,-1.4 20.7,-5.3 l -21.4,54.7 20.1,-23.6 37.7,-90.2 C 282.2,226.4 273,238.7 266.8,245 z" id="path78" inkscape:connector-curvature="0" style="fill:#b56c4c"/></g></g></g><g id="g80" transform="translate(-12.400006,-16.7)"><g id="g82"><g id="Layer0_0_MEMBER_0_MEMBER_7_FILL"><path class="st4" d="m 280.9,304.4 c 4.6,-6.5 8.3,-12.7 11,-18.5 -10.9,14.9 -20.3,24.5 -28.3,28.9 -7.8,4.4 -14.7,7.9 -20.7,10.4 l 1.6,3.8 c 1.9,1.9 5.3,1.9 10.4,0 8.3,-3.4 17,-11.6 26,-24.6 z" id="path85" inkscape:connector-curvature="0" style="fill:#a7674a"/></g></g></g><g id="g87" transform="translate(-12.400006,-16.7)"><g id="g89"><g id="Layer0_0_MEMBER_1_FILL"><path class="st8" d="m 224.6,70.5 c -7.8,5.4 -13,11.5 -15.7,18.2 -2.7,6.9 -2.2,16.9 1.6,29.9 1.9,6.5 4.1,12.4 6.6,17.6 -0.6,-5.7 -0.9,-11.3 -0.9,-17 -0.2,-11.1 1,-16.3 3.8,-15.7 4.4,1 9.3,8.3 14.8,21.7 -1.3,-7.8 -2.2,-16.1 -2.8,-25.1 -1.3,-18 0,-30 3.8,-35.8 -3.5,1.4 -7.2,3.5 -11.2,6.2 z" id="path92" inkscape:connector-curvature="0" style="fill:#d8b59b"/></g></g></g><g id="g94" transform="translate(-12.400006,-16.7)"><g id="g96"><g id="Layer0_0_MEMBER_2_FILL"><path class="st8" d="m 242.9,96.3 2.2,11.6 43.7,-30.2 -45.9,18.6 z" id="path99" inkscape:connector-curvature="0" style="fill:#d8b59b"/></g></g></g><g id="g101" transform="translate(-12.400006,-16.7)"><g id="g103"><g id="Layer0_0_MEMBER_3_FILL"><path class="st8" d="m 223.7,153.8 -4.1,11.6 c -3.8,8.2 -8.1,13.2 -12.9,15.1 -5,1.9 -9.6,3.1 -13.8,3.8 l -4.7,0.6 7.5,6.3 c 5.2,5.2 8.6,9.9 10.1,13.8 2.5,6.5 1.8,13.2 -2.2,20.1 6.9,0.4 14.6,-2.6 22.9,-9.1 8.4,-6.3 15.6,-16.9 21.7,-31.8 -12.4,14.9 -20.7,23.6 -25.1,26.1 -2.5,1.3 -3.8,-0.2 -3.8,-4.4 0,-5.7 -0.7,-9.2 -2.2,-10.7 l -5.3,-4.4 c 9,-15.6 12.9,-28 11.9,-37 z" id="path106" inkscape:connector-curvature="0" style="fill:#d8b59b"/></g></g></g></svg>
