<?xml version="1.0" encoding="UTF-8" standalone="no"?>
<!-- Generator: Adobe Illustrator 20.1.0, SVG Export Plug-In . SVG Version: 6.00 Build 0)  -->
<svg xmlns:dc="http://purl.org/dc/elements/1.1/" xmlns:cc="http://creativecommons.org/ns#" xmlns:rdf="http://www.w3.org/1999/02/22-rdf-syntax-ns#" xmlns:svg="http://www.w3.org/2000/svg" xmlns="http://www.w3.org/2000/svg" xmlns:sodipodi="http://sodipodi.sourceforge.net/DTD/sodipodi-0.dtd" xmlns:inkscape="http://www.inkscape.org/namespaces/inkscape" version="1.1" id="Layer_1" x="0px" y="0px" viewBox="0 0 400.20724 360.7" xml:space="preserve" inkscape:version="0.48.5 r10040" width="94px" height="85px" sodipodi:docname="sign_up_03.svg" preserveAspectRatio="none"><metadata id="metadata119"><rdf:RDF><cc:Work rdf:about=""><dc:format>image/svg+xml</dc:format><dc:type rdf:resource="http://purl.org/dc/dcmitype/StillImage"/></cc:Work></rdf:RDF></metadata><defs id="defs117"/><sodipodi:namedview pagecolor="#ffffff" bordercolor="#666666" borderopacity="1" objecttolerance="10" gridtolerance="10" guidetolerance="10" inkscape:pageopacity="0" inkscape:pageshadow="2" inkscape:window-width="640" inkscape:window-height="480" id="namedview115" showgrid="false" inkscape:zoom="0.62154332" inkscape:cx="200.10724" inkscape:cy="180.35001" inkscape:window-x="0" inkscape:window-y="0" inkscape:window-maximized="0" inkscape:current-layer="Layer_1"/><style type="text/css" id="style3">
	.st0{fill:#E09D7C;}
	.st1{fill:#C87D58;}
	.st2{fill:#E5B190;}
	.st3{fill:#8F4932;}
	.st4{fill:#C96746;}
	.st5{fill:#AB583C;}
	.st6{fill:url(#SVGID_1_);}
	.st7{fill:#9BD4BC;}
	.st8{fill:#70AD98;}
	.st9{fill:#5A9E85;}
	.st10{fill:#4C8772;}
</style><g id="g5" transform="translate(-14.392759,-9.5000061)"><g id="g7"><g id="Layer0_0_MEMBER_0_FILL"><path class="st0" d="m 33.8,173 c 9.2,-2.8 22.4,-3.8 39.7,-2.8 18.8,1.3 32.8,7.5 41.8,18.7 5.9,7.4 17,23.6 33.1,48.6 10.3,13.3 27,22.5 50.1,27.6 11.5,2.5 21.9,3.8 31.4,3.6 -2,-1 -4,-2.4 -6.2,-4.2 -4.4,-3.7 -6.9,-7.7 -7.4,-12.1 -1.4,-10.6 -0.6,-19.5 2.3,-26.8 l 3.8,-6.4 c -0.7,0.7 -1.8,1.2 -3.4,1.5 -5.4,1.1 -13.8,-0.6 -25.3,-5.1 -6.9,-2.7 -14.1,-8.7 -21.4,-18 -8.4,-12.2 -14.7,-21.4 -18.9,-27.6 -16.8,-24.3 -34.5,-36.7 -53.1,-37.2 -18.5,-0.6 -36.9,0.7 -55,3.8 -8.9,1.6 -16.1,3.1 -21.4,4.7 -9.2,7.4 -11.7,15.6 -7.6,24.8 2,4.5 4.9,8.4 8.7,11.5 1.3,-1.7 4.2,-3.2 8.8,-4.6 z" id="path10" inkscape:connector-curvature="0" style="fill:#e09d7c"/></g></g></g><g id="g12" transform="translate(-14.392759,-9.5000061)"><g id="g14"><g id="Layer0_0_MEMBER_1_FILL"><path class="st1" d="m 73.5,170.2 c 18.8,1.3 32.8,7.5 41.8,18.7 5.9,7.4 17,23.6 33.1,48.6 10.3,13.3 27,22.5 50.1,27.6 11.5,2.5 21.9,3.8 31.4,3.6 -2,-1 -4,-2.4 -6.2,-4.2 -4.4,-3.7 -6.9,-7.7 -7.4,-12.1 l -0.6,-5.9 -0.6,0.2 c -18.7,6.2 -35,2.7 -49,-10.6 -6.4,-6.1 -17.9,-22.6 -34.6,-49.5 -10.2,-16.4 -24.6,-25.8 -43.3,-28.2 -10.8,-1.4 -26,0 -45.9,4.2 -9.6,2.1 -16.3,1.3 -20.2,-2.3 -3.1,-3 -4.2,-7.7 -3.2,-14.2 -5.4,6.5 -5.9,13.7 -1.7,21.7 2.1,4 4.7,7.3 7.9,10 1.1,-1.7 4,-3.3 8.7,-4.7 9.2,-3 22.5,-3.9 39.7,-2.9 z" id="path17" inkscape:connector-curvature="0" style="fill:#c87d58"/></g></g></g><g id="g19" transform="translate(-14.392759,-9.5000061)"><g id="g21"><g id="Layer0_0_MEMBER_2_FILL"><path class="st2" d="m 101.1,139.2 c 12,1.7 22.7,9.4 32.1,23.1 5.7,8.1 14.8,22.3 27.4,42.7 9.5,12.6 20.6,19.8 33.3,21.7 6.4,0.8 11.7,0.4 16.1,-1.3 -3.3,-0.1 -7.2,-0.8 -11.9,-2.1 -9.1,-2.7 -16.8,-7.1 -23.4,-13.4 -6.1,-5.7 -11,-11.8 -14.7,-18.5 -6.4,-11.5 -11,-19.3 -13.8,-23.4 -9.6,-13.9 -21.7,-23.1 -36.3,-27.8 l -8.8,-1 z" id="path24" inkscape:connector-curvature="0" style="fill:#e5b190"/></g></g></g><g id="g26" transform="translate(-14.392759,-9.5000061)"><g id="g28"><g id="Layer0_1_MEMBER_0_FILL"><path class="st3" d="m 255.9,213.1 -10.4,-4.2 c -2,0.8 -4.2,2.1 -6.8,3.6 -5,3.4 -8.6,7.4 -11,11.9 l 0.6,19.7 c 1.7,14 5.7,23.5 12.1,28.5 7.5,6.1 14.5,5.1 21,-3 6.4,-8.1 8.8,-18.8 7.2,-32.3 -1.2,-11.1 -5.5,-19.1 -12.7,-24.2 z" id="path31" inkscape:connector-curvature="0" style="fill:#8f4932"/></g></g></g><g id="g33" transform="translate(-14.392759,-9.5000061)"><g id="g35"><g id="Layer0_1_MEMBER_1_FILL"><path class="st4" d="m 239.4,216.5 c 2.1,-3.5 4.2,-6.1 6.2,-7.6 -4.1,0.3 -8.2,1 -12.3,2.1 l -10.6,4.2 c -1.6,1.6 -3.2,3.9 -4.9,7 -3.4,6.1 -5.4,12.9 -5.9,20.4 -0.6,7.5 1.2,14.6 5.3,21.2 2.1,3.3 4.3,5.8 6.6,7.6 l 12.5,3.2 c 4.1,0.7 7.9,1.2 11.5,1.5 -2.5,-1.4 -5.1,-3.9 -7.6,-7.4 -5,-6.9 -7.3,-15.6 -7,-26.1 -0.1,-10.2 2.1,-18.9 6.2,-26.1 z" id="path38" inkscape:connector-curvature="0" style="fill:#c96746"/></g></g></g><g id="g40" transform="translate(-14.392759,-9.5000061)"><g id="g42"><g id="Layer0_1_MEMBER_2_FILL"><path class="st5" d="m 223.7,271.5 23.4,4.7 c -6.5,-3.5 -11,-9.2 -13.6,-17 -2.7,-8.6 -4.5,-13.8 -5.5,-15.5 -2,-3.4 -5.1,-4.6 -9.3,-3.6 -3.5,0.7 -5.4,2.9 -5.7,6.6 -0.3,2.1 0.1,5.9 1.3,11.5 2.2,5.7 5.4,10.2 9.4,13.3 z" id="path45" inkscape:connector-curvature="0" style="fill:#ab583c"/></g></g></g><g id="g47" transform="translate(-14.392759,-9.5000061)"><g id="g49"><g id="Layer0_1_MEMBER_3_FILL"><linearGradient id="SVGID_1_" gradientUnits="userSpaceOnUse" x1="243.9306" y1="789.72729" x2="261.34161" y2="728.8949" gradientTransform="matrix(1,0,0,-1,0,1002)"><stop offset="0" style="stop-color:#592E20" id="stop53"/><stop offset="1" style="stop-color:#A35339" id="stop55"/></linearGradient><path class="st6" d="m 265.1,248.1 c 0.4,-5.9 -0.4,-12.1 -2.5,-18.5 -2.5,-7.9 -6.2,-11.6 -10.8,-11 -7.2,1 -10.8,8.6 -10.8,22.7 0.1,14.3 3.8,22.7 10.8,25.3 8.1,3 12.6,-3.2 13.3,-18.5 z" id="path57" inkscape:connector-curvature="0" style="fill:url(#SVGID_1_)"/></g></g></g><g id="g59" transform="translate(-14.392759,-9.5000061)"><g id="g61"><g id="Layer0_1_MEMBER_4_FILL"><path class="st0" d="m 238.7,212.9 c -6.7,1 -11.9,2.5 -15.7,4.5 -0.6,0.8 -1.1,1.7 -1.7,2.5 -1.1,2 -1.8,3.4 -1.9,4.2 l -0.4,2.1 c 0.6,-1 1.3,-2.1 2.3,-3.4 2,-2.4 4,-4 5.9,-4.9 l 11.5,-5 z" id="path64" inkscape:connector-curvature="0" style="fill:#e09d7c"/></g></g></g><g id="g66" transform="translate(-14.392759,-9.5000061)"><g id="g68"><g id="Layer0_2_MEMBER_0_FILL"><path class="st7" d="m 395.6,98 -18,-13.8 -142.9,16.6 -38.6,43.1 38,9.1 36.9,-9.3 -13.4,123.3 -22.5,103.2 40.6,-11.5 45.2,-53.5 46.7,18 7.9,7 33.1,-3.8 L 343.4,123.6 395.6,98 z" id="path71" inkscape:connector-curvature="0" style="fill:#9bd4bc"/></g></g></g><g id="g73" transform="translate(-14.392759,-9.5000061)"><g id="g75"><g id="Layer0_2_MEMBER_1_FILL"><path class="st8" d="m 365.3,322.4 2.3,0.8 7.9,7 39.1,3 -71.1,-209.6 0.8,-0.4 -33.6,-11.2 -4.7,61.8 59.3,148.6 z" id="path78" inkscape:connector-curvature="0" style="fill:#70ad98"/></g></g></g><g id="g80" transform="translate(-14.392759,-9.5000061)"><g id="g82"><g id="Layer0_2_MEMBER_2_FILL"><path class="st9" d="m 375.5,330.3 c -2.5,-8.5 -5.9,-18.8 -10,-31 -2.5,-7.6 -12,-40.8 -28.2,-99.6 L 313.5,114.1 377.6,84.2 C 369,77.1 359.1,70.1 348.1,63.2 341.2,59 326.2,48.8 303.1,32.6 L 270.8,9.5 c -4.4,6.1 -12.2,19.5 -23.6,40.1 l -51.2,94.3 45.4,-11.5 -6.4,237.8 55.4,-72.2 85.1,32.3 z" id="path85" inkscape:connector-curvature="0" style="fill:#5a9e85"/></g></g></g><g id="g87" transform="translate(-14.392759,-9.5000061)"><g id="g89"><g id="Layer0_2_MEMBER_3_FILL"><path class="st10" d="m 206.9,132.8 32.7,-7.9 c -12.5,0.1 -18.8,-1.3 -19.1,-4.5 -0.1,-2 3,-10.4 9.6,-25.3 3.4,-7.4 6.7,-14.6 10,-21.7 l -33.2,59.4 z" id="path92" inkscape:connector-curvature="0" style="fill:#4c8772"/></g></g></g><g id="g94" transform="translate(-14.392759,-9.5000061)"><g id="g96"><g id="Layer0_2_MEMBER_4_FILL"><path class="st10" d="m 250,328.2 -6,-24.2 -3.2,49 c 12,-16.6 19.1,-26.5 21.2,-29.7 l 3.2,-4.7 c -9.6,9.1 -14.6,12.3 -15.2,9.6 z" id="path99" inkscape:connector-curvature="0" style="fill:#4c8772"/></g></g></g><g id="g101" transform="translate(-14.392759,-9.5000061)"><g id="g103"><g id="Layer0_2_MEMBER_5_FILL"><path class="st8" d="m 365.1,320.3 -5.5,-14.9 c -4.4,-0.3 -10,-0.9 -16.8,-1.9 -13.6,-2.3 -26.3,-5.4 -38.2,-9.6 l 15.7,7 c 11.5,5 19.5,8.3 24.2,10 7.3,2.9 14.2,6 20.6,9.4 z" id="path106" inkscape:connector-curvature="0" style="fill:#70ad98"/></g></g></g><g id="g108" transform="translate(-14.392759,-9.5000061)"><g id="g110"><g id="Layer0_2_MEMBER_6_FILL"><path class="st8" d="m 347.2,85.7 c -0.3,2.1 -1.1,3.8 -2.3,5.1 l 17,-10 C 336.1,63.7 320,54 313.5,51.9 l 10.8,7.4 c 7.9,5.7 13.9,10.4 18,14.2 4.2,3.9 5.8,7.9 4.9,12.2 z" id="path113" inkscape:connector-curvature="0" style="fill:#70ad98"/></g></g></g></svg>
