<?xml version="1.0" encoding="UTF-8" standalone="no"?>
<!-- Generator: Adobe Illustrator 20.1.0, SVG Export Plug-In . SVG Version: 6.00 Build 0)  -->
<svg xmlns:dc="http://purl.org/dc/elements/1.1/" xmlns:cc="http://creativecommons.org/ns#" xmlns:rdf="http://www.w3.org/1999/02/22-rdf-syntax-ns#" xmlns:svg="http://www.w3.org/2000/svg" xmlns="http://www.w3.org/2000/svg" xmlns:sodipodi="http://sodipodi.sourceforge.net/DTD/sodipodi-0.dtd" xmlns:inkscape="http://www.inkscape.org/namespaces/inkscape" version="1.1" id="Layer_1" x="0px" y="0px" viewBox="0 0 1000 600.4" xml:space="preserve" inkscape:version="0.48.5 r10040" width="1133px" height="300px" sodipodi:docname="ug_overlay.svg" preserveAspectRatio="none"><metadata id="metadata18"><rdf:RDF><cc:Work rdf:about=""><dc:format>image/svg+xml</dc:format><dc:type rdf:resource="http://purl.org/dc/dcmitype/StillImage"/></cc:Work></rdf:RDF></metadata><defs id="defs16"/><sodipodi:namedview pagecolor="#ffffff" bordercolor="#666666" borderopacity="1" objecttolerance="10" gridtolerance="10" guidetolerance="10" inkscape:pageopacity="0" inkscape:pageshadow="2" inkscape:window-width="640" inkscape:window-height="480" id="namedview14" showgrid="false" inkscape:zoom="0.386" inkscape:cx="500" inkscape:cy="300.20001" inkscape:window-x="0" inkscape:window-y="0" inkscape:window-maximized="0" inkscape:current-layer="Layer_1"/><style type="text/css" id="style3">
	.st0{fill:url(#SVGID_1_);}
</style><linearGradient id="SVGID_1_" gradientUnits="userSpaceOnUse" x1="500" y1="2.2362001" x2="500" y2="602.23621" gradientTransform="matrix(1,0,0,-1.0007,0,602.64969)"><stop offset="0" style="stop-color:#1E1E1E;stop-opacity:0.251" id="stop6"/><stop offset="0.8039" style="stop-color:#1E1E1E;stop-opacity:0.251" id="stop8"/><stop offset="1" style="stop-color:#1E1E1E;stop-opacity:0" id="stop10"/></linearGradient><path class="st0" d="M 1000,600.39999 V -1.2207031e-5 H 0 V 600.39999 h 1000 z" id="path12" inkscape:connector-curvature="0" style="fill:url(#SVGID_1_)"/></svg>
